0.0349607967619	0.465648854962
0.0342319950155	0.476
0.0348798519775	0.449626865672
0.0348798519775	0.449626865672
0.0348798519775	0.449626865672
0.0348798519775	0.449626865672
0.0299508997977	0.368
0.0351011470655	0.482
0.0355395993972	0.430357142857
0.0348798519775	0.449626865672
0.0351011470655	0.482
0.0351011470655	0.488
0.0349607967619	0.465648854962
0.0348798519775	0.449626865672
0.0299508997977	0.368
0.0299508997977	0.368
0.0349607967619	0.465648854962
0.0342319950155	0.476
0.0342319950155	0.476
0.0342319950155	0.476
0.0349607967619	0.465648854962
0.0299508997977	0.368
0.0355395993972	0.430357142857
0.0349607967619	0.465648854962
0.0348798519775	0.449626865672
0.0299508997977	0.368
0.0342319950155	0.476
0.0348798519775	0.449626865672
0.0355395993972	0.430357142857
0.0349607967619	0.465648854962
