0.0333417037731	0.472
0.0293383296974	0.368
0.0333417037731	0.472
0.0343253523147	0.462121212121
0.0333417037731	0.472
0.0293383296974	0.368
0.0293383296974	0.368
0.0333417037731	0.472
0.0333417037731	0.472
0.0293383296974	0.368
0.0333417037731	0.472
0.0343253523147	0.450757575758
0.0343253523147	0.450757575758
0.0343253523147	0.462121212121
0.0293383296974	0.368
0.0344890519132	0.476
0.0344890519132	0.476
0.0344890519132	0.488
0.0343253523147	0.450757575758
0.0333417037731	0.472
0.0333417037731	0.472
0.0344890519132	0.476
0.0293383296974	0.368
0.0293383296974	0.368
0.0293383296974	0.368
0.0333417037731	0.472
0.0343253523147	0.450757575758
0.0293383296974	0.368
0.0343253523147	0.462121212121
0.0349403850601	0.425
