0.0299508997977	0.368
0.0342319950155	0.476
0.0348938350177	0.456928838951
0.0348938350177	0.456928838951
0.0349735951571	0.461685823755
0.0349735951571	0.461685823755
0.0351011470655	0.482
0.0349735951571	0.461685823755
0.0351011470655	0.482
0.0349735951571	0.461685823755
0.0349735951571	0.461685823755
0.0351011470655	0.482
0.0349735951571	0.461685823755
0.0349735951571	0.461685823755
0.0342319950155	0.476
0.0355395993972	0.430357142857
0.0299508997977	0.368
0.0342319950155	0.476
0.0348938350177	0.456928838951
0.0349735951571	0.461685823755
0.0348938350177	0.456928838951
0.0299508997977	0.368
0.0355395993972	0.430357142857
0.0299508997977	0.368
0.0351011470655	0.482
0.0348938350177	0.456928838951
0.0342319950155	0.476
0.0342319950155	0.476
0.0349735951571	0.461685823755
0.0348938350177	0.456928838951
