0.0	0.0
9.59643166285e-07	0.00116867939229
0.0	0.0
0.0	0.0
0.0	0.0
6.71576852857e-06	0.0027195027195
0.0	0.0
0.0	0.0
4.79709104399e-06	0.002331002331
0.0	0.0
4.79709104399e-06	0.002331002331
0.0	0.0
9.58865623613e-07	0.00115517905275
0.0	0.0
0.0	0.0
0.0	0.0
0.0	0.0
1.91831249886e-06	0.0015467904099
0.0	0.0
9.59599885232e-07	0.00116776956014
1.15130958267e-05	0.00350058343057
0.0	0.0
0.0	0.0
0.0	0.0
0.0	0.000384763370527
0.0	0.0
1.43914112058e-05	0.00389105058366
0.0	0.0
3.19880850781e-07	0.000778816199377
0.0	0.0
