0.0	0.0
0.0	0.0
0.0	0.0
0.0	0.0
0.0	0.0
0.0	0.0
1.43831774357e-05	0.003861003861
1.91742053251e-06	0.00153787004998
0.0	0.0
0.0	0.0
0.0	0.0
0.0	0.0
0.0	0.0
1.15089808414e-05	0.00348297213622
2.49342120405e-05	0.00503290747193
0.0	0.0
3.19804637743e-07	0.00077579519007
0.0	0.0
8.95437808326e-06	0.0031092110377
3.19947784522e-06	0.00195694716243
0.0	0.0
0.0	0.0
4.7982342498e-06	0.00234009360374
0.0	0.0
0.0	0.0
0.0	0.0
0.0	0.0
0.0	0.000386249517188
0.0	0.0
1.43899109456e-05	0.003885003885
