0.0	0.0
1.43914112058e-05	0.00389105058366
3.19804637743e-07	0.00077579519007
0.0	0.0
0.0	0.0
0.0	0.0
0.0	0.0
0.0	0.0
0.0	0.000386249517188
0.0	0.0
0.0	0.0
0.0	0.0
0.0	0.0
0.0	0.0
0.0	0.0
0.0	0.0
4.79709104399e-06	0.002331002331
0.0	0.0
0.0	0.0
8.95367369232e-06	0.00310559006211
0.0	0.0
0.0	0.0
3.19772219852e-06	0.00193873594416
1.91883089471e-06	0.00155279503106
1.43899109456e-05	0.003885003885
0.0	0.0
0.0	0.0
1.91883089471e-06	0.00155279503106
1.75816869149e-05	0.00425531914894
0.0	0.0
