0.0	0.0
8.94890908004e-06	0.00308404009252
0.0	0.0
0.0	0.0
0.0	0.0
8.95505680864e-06	0.00311284046693
0.0	0.0
0.0	0.0
0.0	0.0
0.0	0.000387747188833
0.0	0.0
0.0	0.0
3.35771031019e-05	0.0058388478007
0.0	0.0
0.0	0.000387747188833
0.0	0.0
0.0	0.0
0.0	0.0
0.0	0.0
6.71723787179e-06	0.00272904483431
0.0	0.0
0.0	0.0
0.0	0.0
0.0	0.0
0.0	0.0
0.0	0.0
0.0	0.0
0.0	0.0
0.0	0.0
0.0	0.0
