0.0	0.0
0.0	0.0
0.0	0.0
1.91883089471e-06	0.00155279503106
0.0	0.0
0.0	0.0
0.0	0.0
0.0	0.0
0.0	0.0
6.71412594549e-06	0.00271002710027
0.0	0.0
0.0	0.0
0.0	0.0
0.0	0.0
0.0	0.0
9.59414526879e-07	0.0011641443539
6.71576852857e-06	0.0027195027195
0.0	0.0
0.0	0.0
0.0	0.0
0.0	0.0
0.0	0.0
0.0	0.0
4.89312362621e-05	0.00702301989856
0.0	0.0
0.0	0.0
0.0	0.0
0.0	0.0
0.0	0.0
0.0	0.0
