9.59414526879e-07	0.0011641443539
0.0	0.0
0.0	0.0
0.0	0.0
1.91831249886e-06	0.0015467904099
0.0	0.0
0.0	0.0
0.0	0.0
0.0	0.0
0.0	0.0
1.15099853919e-05	0.00348702053468
0.0	0.0
1.15079433579e-05	0.00347893312717
0.0	0.0
0.0	0.0
6.71576852857e-06	0.0027195027195
8.95294364793e-06	0.00310197751066
6.71576852857e-06	0.0027195027195
0.0	0.0
0.0	0.0
1.75891088238e-05	0.00428015564202
3.19804637743e-07	0.00077579519007
0.0	0.0
0.0	0.0
9.59643166285e-07	0.00116867939229
4.79768176017e-06	0.00233553912028
2.90787128803e-05	0.00539707016191
0.0	0.0
0.0	0.0
0.0	0.0
