0.0	0.0
0.0	0.0
1.91831249886e-06	0.0015467904099
4.79659096687e-06	0.00232738557021
9.59414526879e-07	0.0011641443539
0.0	0.0
0.0	0.0
1.15057696641e-05	0.00347088314693
0.0	0.0
0.0	0.0
0.0	0.0
0.0	0.0
0.0	0.0
0.0	0.0
0.0	0.0
1.91883089471e-06	0.00155279503106
3.83740161862e-05	0.00623052959502
0.0	0.0
0.0	0.0
1.91883089471e-06	0.00155279503106
0.0	0.0
0.0	0.0
0.0	0.0
0.0	0.0
0.0	0.0
0.0	0.0
1.91883089471e-06	0.00155279503106
0.0	0.0
0.0	0.0
0.0	0.0
