0.0872520453889	0.503067484663
0.0872520453889	0.503067484663
0.0872520453889	0.503067484663
0.0872520453889	0.503067484663
0.0872520453889	0.503067484663
0.0872520453889	0.503067484663
0.0872520453889	0.503067484663
0.0872520453889	0.503067484663
0.0872520453889	0.503067484663
0.0872520453889	0.503067484663
0.0872520453889	0.503067484663
0.0872520453889	0.503067484663
0.0872520453889	0.503067484663
0.0872520453889	0.503067484663
0.0872520453889	0.503067484663
0.0872520453889	0.503067484663
0.0872520453889	0.503067484663
0.0872520453889	0.503067484663
0.0872520453889	0.503067484663
0.0872520453889	0.503067484663
0.0872520453889	0.503067484663
0.0872520453889	0.503067484663
0.0872520453889	0.503067484663
0.0872520453889	0.503067484663
0.0872520453889	0.503067484663
0.0872520453889	0.503067484663
0.0872520453889	0.503067484663
0.0872520453889	0.503067484663
0.0872520453889	0.503067484663
0.0872520453889	0.503067484663
