0.0765192150151	0.375378046611
0.0765192150151	0.375378046611
0.0765192150151	0.375378046611
0.0765192150151	0.375378046611
0.0765192150151	0.375378046611
0.0765192150151	0.375378046611
0.0765192150151	0.375378046611
0.0765192150151	0.375378046611
0.0765192150151	0.375378046611
0.0765192150151	0.375378046611
0.0765192150151	0.375378046611
0.0765192150151	0.375378046611
0.0765192150151	0.375378046611
0.0765192150151	0.375378046611
0.0765192150151	0.375378046611
0.0765192150151	0.375378046611
0.0765192150151	0.375378046611
0.0765192150151	0.375378046611
0.0765192150151	0.375378046611
0.0765192150151	0.375378046611
0.0765192150151	0.375378046611
0.0765192150151	0.375378046611
0.0765192150151	0.375378046611
0.0765192150151	0.375378046611
0.0765192150151	0.375378046611
0.0765192150151	0.375378046611
0.0765192150151	0.375378046611
0.0765192150151	0.375378046611
0.0765192150151	0.375378046611
0.0765192150151	0.375378046611
