0.0880610661085	0.51213506859
0.0880610661085	0.51213506859
0.0880610661085	0.51213506859
0.0880610661085	0.51213506859
0.0880610661085	0.51213506859
0.0880610661085	0.51213506859
0.0880610661085	0.51213506859
0.0880610661085	0.51213506859
0.0880610661085	0.51213506859
0.0880610661085	0.51213506859
0.0880610661085	0.51213506859
0.0880610661085	0.51213506859
0.0880610661085	0.51213506859
0.0880610661085	0.51213506859
0.0880610661085	0.51213506859
0.0880610661085	0.51213506859
0.0880610661085	0.51213506859
0.0880610661085	0.51213506859
0.0880610661085	0.51213506859
0.0880610661085	0.51213506859
0.0880610661085	0.51213506859
0.0880610661085	0.51213506859
0.0880610661085	0.51213506859
0.0880610661085	0.51213506859
0.0880610661085	0.51213506859
0.0880610661085	0.51213506859
0.0880610661085	0.51213506859
0.0880610661085	0.51213506859
0.0880610661085	0.51213506859
0.0880610661085	0.51213506859
