0.0798379817764	0.377639751553
0.0798379817764	0.377639751553
0.0798379817764	0.377639751553
0.0798379817764	0.377639751553
0.0798379817764	0.377639751553
0.0798379817764	0.377639751553
0.0798379817764	0.377639751553
0.0798379817764	0.377639751553
0.0798379817764	0.377639751553
0.0798379817764	0.377639751553
0.0798379817764	0.377639751553
0.0798379817764	0.377639751553
0.0798379817764	0.377639751553
0.0798379817764	0.377639751553
0.0798379817764	0.377639751553
0.0798379817764	0.377639751553
0.0798379817764	0.377639751553
0.0798379817764	0.377639751553
0.0798379817764	0.377639751553
0.0798379817764	0.377639751553
0.0798379817764	0.377639751553
0.0798379817764	0.377639751553
0.0798379817764	0.377639751553
0.0798379817764	0.377639751553
0.0798379817764	0.377639751553
0.0798379817764	0.377639751553
0.0798379817764	0.377639751553
0.0798379817764	0.377639751553
0.0798379817764	0.377639751553
0.0798379817764	0.377639751553
