0.99738391207	0.980392156863
0.99738391207	0.980392156863
0.0375883045053	0.69033530572
0.99738391207	0.980392156863
0.0542325644299	0.495126705653
0.99738391207	0.980392156863
0.99738391207	0.980392156863
0.99738391207	0.980392156863
0.99738391207	0.980392156863
0.99738391207	0.980392156863
0.99738391207	0.980392156863
0.99738391207	0.980392156863
0.99738391207	0.980392156863
0.0506713113931	0.492985190959
0.99738391207	0.980392156863
0.99738391207	0.980392156863
0.99738391207	0.980392156863
0.0375883045053	0.69033530572
0.99738391207	0.980392156863
0.99738391207	0.980392156863
0.0324630290643	0.511006289308
0.99738391207	0.980392156863
0.99738391207	0.980392156863
0.99738391207	0.980392156863
0.99738391207	0.980392156863
0.99738391207	0.980392156863
0.99738391207	0.980392156863
0.99738391207	0.980392156863
0.99738391207	0.980392156863
0.99738391207	0.980392156863
