0.99738391207	0.980392156863
0.0324119914909	0.488155339806
0.0375883045053	0.69033530572
0.99738391207	0.980392156863
0.99738391207	0.980392156863
0.0489394586346	0.504209907969
0.99738391207	0.980392156863
0.99738391207	0.980392156863
0.99738391207	0.980392156863
0.99738391207	0.980392156863
0.99738391207	0.980392156863
0.99738391207	0.980392156863
0.99738391207	0.980392156863
0.99738391207	0.980392156863
0.99738391207	0.980392156863
0.99738391207	0.980392156863
0.0443124033568	0.491022638564
0.99738391207	0.980392156863
0.99738391207	0.980392156863
0.99738391207	0.980392156863
0.0324634753736	0.512012603387
0.0324641194281	0.513630975899
0.99738391207	0.980392156863
0.99738391207	0.980392156863
0.99738391207	0.980392156863
0.99738391207	0.980392156863
0.99738391207	0.980392156863
0.99738391207	0.980392156863
0.99738391207	0.980392156863
0.99738391207	0.980392156863
