0.99738391207	0.980392156863
0.99738391207	0.980392156863
0.99738391207	0.980392156863
0.99738391207	0.980392156863
0.0550237218756	0.500294175328
0.99738391207	0.980392156863
0.99738391207	0.980392156863
0.99738391207	0.980392156863
0.99738391207	0.980392156863
0.0374822483832	0.486146095718
0.99738391207	0.980392156863
0.99738391207	0.980392156863
0.99738391207	0.980392156863
0.0375883045053	0.69033530572
0.99738391207	0.980392156863
0.0417483980269	0.489005643121
0.99738391207	0.980392156863
0.99738391207	0.980392156863
0.99738391207	0.980392156863
0.99738391207	0.980392156863
0.0375883045053	0.69033530572
0.0324160597231	0.495103799452
0.0375883045053	0.69033530572
0.99738391207	0.980392156863
0.99738391207	0.980392156863
0.99738391207	0.980392156863
0.99738391207	0.980392156863
0.99738391207	0.980392156863
0.035525295288	0.489859594384
0.0375883045053	0.69033530572
