0.0625120496247	0.496882307093
0.99738391207	0.980392156863
0.99738391207	0.980392156863
0.99738391207	0.980392156863
0.0375883045053	0.69033530572
0.0375883045053	0.69033530572
0.99738391207	0.980392156863
0.0375883045053	0.69033530572
0.99738391207	0.980392156863
0.99738391207	0.980392156863
0.0324110167015	0.484120836561
0.99738391207	0.980392156863
0.99738391207	0.980392156863
0.99738391207	0.980392156863
0.0375883045053	0.69033530572
0.0538832396633	0.500978473581
0.99738391207	0.980392156863
0.99738391207	0.980392156863
0.99738391207	0.980392156863
0.99738391207	0.980392156863
0.99738391207	0.980392156863
0.99738391207	0.980392156863
0.99738391207	0.980392156863
0.99738391207	0.980392156863
0.99738391207	0.980392156863
0.99738391207	0.980392156863
0.99738391207	0.980392156863
0.99738391207	0.980392156863
0.99738391207	0.980392156863
0.050464990762	0.494533385396
