0.99738391207	0.980392156863
0.99738391207	0.980392156863
0.99738391207	0.980392156863
0.0384810202498	0.49364862224
0.99738391207	0.980392156863
0.0525147571591	0.495111458741
0.99738391207	0.980392156863
0.99738391207	0.980392156863
0.99738391207	0.980392156863
0.99738391207	0.980392156863
0.99738391207	0.980392156863
0.99738391207	0.980392156863
0.0324416968255	0.506687647522
0.99738391207	0.980392156863
0.99738391207	0.980392156863
0.99738391207	0.980392156863
0.99738391207	0.980392156863
0.99738391207	0.980392156863
0.99738391207	0.980392156863
0.99738391207	0.980392156863
0.99738391207	0.980392156863
0.99738391207	0.980392156863
0.99738391207	0.980392156863
0.0398043770034	0.489174956115
0.99738391207	0.980392156863
0.99738391207	0.980392156863
0.99738391207	0.980392156863
0.99738391207	0.980392156863
0.99738391207	0.980392156863
0.99738391207	0.980392156863
