0.571087540879	0.7052
0.656587596456	0.744
1.0	1.0
1.0	1.0
0.678536724779	0.752
0.833277759253	0.9
0.833277759253	0.9
0.799666555519	0.872
0.523316954214	0.63692
0.833277759253	0.9
0.833277759253	0.9
0.505933123695	0.621096
0.792664221407	0.858
0.714204058302	0.8
1.0	1.0
0.833277759253	0.9
0.517199164107	0.629528
0.791663887963	0.852
0.833277759253	0.9
0.505781747712	0.6186
0.519465672669	0.634888
0.644584166905	0.716
0.714204058302	0.8
1.0	1.0
0.810870290097	0.884
0.833277759253	0.9
0.791663887963	0.852
0.833277759253	0.9
0.833277759253	0.9
1.0	1.0
