0.638577227429	0.6986
1.0	1.0
0.833277759253	0.9
0.833277759253	0.9
0.643783938268	0.712
1.0	1.0
0.668019434124	0.744
1.0	1.0
0.792664221407	0.858
1.0	1.0
0.510840997784	0.641256
0.517122453993	0.626296
0.796998999667	0.868
0.517451433103	0.630016
0.521258428721	0.616
0.799666555519	0.872
0.795865288429	0.866
1.0	1.0
0.833277759253	0.9
0.833277759253	0.9
0.638690511646	0.702592
0.52485407442	0.634864
0.652014861389	0.736
0.681280365819	0.764
1.0	1.0
0.791863954652	0.854
1.0	1.0
0.54420621537	0.656
0.833277759253	0.9
0.791863954652	0.854
