0.638577227429	0.6986
1.0	1.0
0.792197399133	0.856
0.522688683308	0.63584
0.833277759253	0.9
0.833277759253	0.9
0.792197399133	0.856
0.642869391255	0.704
0.643783938268	0.712
0.427251835717	0.554016
0.644584166905	0.716
0.521547370068	0.62792
0.648699628465	0.724
0.793997999333	0.862
0.638690511646	0.702592
0.792664221407	0.858
0.656130322949	0.736
0.563290822706	0.712
0.53166806649	0.6452
1.0	1.0
0.683109459846	0.768
0.542831805519	0.6496
0.793264421474	0.86
0.653329522721	0.738
0.644584166905	0.716
0.650071448985	0.732
0.792197399133	0.856
0.833277759253	0.9
0.798266088696	0.87
0.833277759253	0.9
