1.0	1.0
0.518029864839	0.621232
0.804668222741	0.878
1.0	1.0
0.833277759253	0.9
0.648356673335	0.728
0.833277759253	0.9
0.495686052733	0.627496
1.0	1.0
1.0	1.0
0.520278777863	0.6218
0.530010417985	0.64932
0.644184052586	0.714
0.801200400133	0.874
0.543433214145	0.6528
1.0	1.0
0.645613032295	0.72
1.0	1.0
0.794864954985	0.864
0.514625767962	0.64272
0.791663887963	0.852
0.679908545299	0.76
0.521965480707	0.6356
0.516486220472	0.653648
0.642869391255	0.704
0.793264421474	0.86
0.398321700671	0.5436
0.799666555519	0.872
0.648356673335	0.728
0.833277759253	0.9
