0.833277759253	0.9
0.833277759253	0.9
1.0	1.0
0.833277759253	0.9
0.793997999333	0.862
1.0	1.0
0.833277759253	0.9
0.804668222741	0.878
0.833277759253	0.9
0.833277759253	0.9
0.68848242355	0.78
0.791663887963	0.852
0.664989997142	0.754
0.528866866809	0.63312
0.833277759253	0.9
0.793264421474	0.86
0.668705344384	0.744
0.833277759253	0.9
1.0	1.0
0.833277759253	0.9
1.0	1.0
0.798266088696	0.87
0.546077190339	0.654192
0.793997999333	0.862
1.0	1.0
0.833277759253	0.9
0.638577227429	0.6986
0.833277759253	0.9
1.0	1.0
0.650071448985	0.732
