0.0581597668511	0.29631090945
0.0988324565695	0.303490435811
0.0575502464197	0.297132757266
1.0	1.0
1.0	1.0
1.0	1.0
1.0	1.0
1.0	1.0
0.058463143984	0.293657008614
0.0761509968548	0.313992500493
0.0584672048768	0.295275590551
1.0	1.0
0.0558003651875	0.296666666667
1.0	1.0
1.0	1.0
0.0566664036147	0.299644690091
0.0577001250297	0.296092676222
1.0	1.0
0.0584663036139	0.294869274622
1.0	1.0
1.0	1.0
0.0519246985493	0.303208137715
1.0	1.0
1.0	1.0
1.0	1.0
1.0	1.0
0.0581559304804	0.295409964692
1.0	1.0
0.0584621156656	0.293312475557
0.0862717588709	0.515151515152
