0.0584678021145	0.295566502463
0.0621354708447	0.302431310536
0.0566634837221	0.298231827112
0.0584636372174	0.293829578844
0.0555250841717	0.300451068837
0.0643845953669	0.30127826942
1.0	1.0
0.0581591270699	0.296157635468
0.0581572984104	0.295088408644
0.0581585953872	0.295669291339
0.0584672048768	0.295275590551
0.0584678021145	0.295566502463
0.054980051777	0.303423848878
1.0	1.0
0.0584672048768	0.295275590551
0.0558043460161	0.299763965382
0.0756463753526	0.302803000395
0.0578532266803	0.296062992126
0.05637252294	0.298379222808
0.0566652976291	0.299094844549
0.0584654706297	0.294521892794
0.0549933145412	0.305785123967
0.0584644282695	0.294117647059
0.0558073942413	0.301164397079
0.0566640295326	0.298366463295
0.0804367931438	0.302934804018
1.0	1.0
1.0	1.0
1.0	1.0
0.0584654706297	0.294521892794
