0.0578521932314	0.295990566038
1.0	1.0
0.0584676261255	0.296807252661
1.0	1.0
0.0572514943038	0.297031649302
0.0583111879685	0.29489194499
1.0	1.0
0.058467080777	0.295217476875
0.0563612637179	0.292701863354
1.0	1.0
0.058463143984	0.293657008614
1.0	1.0
1.0	1.0
0.0560902136575	0.300216407633
1.0	1.0
1.0	1.0
1.0	1.0
1.0	1.0
1.0	1.0
1.0	1.0
1.0	1.0
1.0	1.0
1.0	1.0
0.0584663036139	0.294869274622
0.0511776521843	0.327426810478
1.0	1.0
1.0	1.0
1.0	1.0
1.0	1.0
1.0	1.0
