0.961161239702	0.980392156863
0.961161239702	0.980392156863
0.648774441973	0.64850843061
0.961161239702	0.980392156863
0.961161239702	0.980392156863
0.561260695284	0.64741680694
0.649624418179	0.670514165792
0.961161239702	0.980392156863
0.961161239702	0.980392156863
0.961161239702	0.980392156863
0.961161239702	0.980392156863
0.961161239702	0.980392156863
0.961161239702	0.980392156863
0.961161239702	0.980392156863
0.961161239702	0.980392156863
0.961161239702	0.980392156863
0.649024488968	0.65952443167
0.961161239702	0.980392156863
0.961161239702	0.980392156863
0.961161239702	0.980392156863
0.580907742501	0.650136310528
0.961161239702	0.980392156863
0.961161239702	0.980392156863
0.961161239702	0.980392156863
0.961161239702	0.980392156863
0.961161239702	0.980392156863
0.45828609875	0.646663217796
0.961161239702	0.980392156863
0.961161239702	0.980392156863
0.961161239702	0.980392156863
