0.648895423083	0.655806073244
0.961161239702	0.980392156863
0.961161239702	0.980392156863
0.961161239702	0.980392156863
0.961161239702	0.980392156863
0.961161239702	0.980392156863
0.961161239702	0.980392156863
0.961161239702	0.980392156863
0.961161239702	0.980392156863
0.961161239702	0.980392156863
0.961161239702	0.980392156863
0.648890140796	0.649941505265
0.961161239702	0.980392156863
0.961161239702	0.980392156863
0.961161239702	0.980392156863
0.648830848406	0.65625
0.961161239702	0.980392156863
0.961161239702	0.980392156863
0.961161239702	0.980392156863
0.961161239702	0.980392156863
0.961161239702	0.980392156863
0.961161239702	0.980392156863
0.961161239702	0.980392156863
0.648971919789	0.657616499152
0.961161239702	0.980392156863
0.64884485364	0.649350649351
0.961161239702	0.980392156863
0.329603312135	0.34344219803
0.961161239702	0.980392156863
0.961161239702	0.980392156863
