0.961161239702	0.980392156863
0.961161239702	0.980392156863
0.624754654369	0.660999215276
0.961161239702	0.980392156863
0.961161239702	0.980392156863
0.961161239702	0.980392156863
0.649101752367	0.660560062811
0.961161239702	0.980392156863
0.601857725616	0.650058388478
0.961161239702	0.980392156863
0.961161239702	0.980392156863
0.649340343653	0.665704160651
0.961161239702	0.980392156863
0.961161239702	0.980392156863
0.648964204176	0.655793319415
0.649322528686	0.667102681491
0.961161239702	0.980392156863
0.961161239702	0.980392156863
0.961161239702	0.980392156863
0.961161239702	0.980392156863
0.961161239702	0.980392156863
0.961161239702	0.980392156863
0.961161239702	0.980392156863
0.961161239702	0.980392156863
0.648653969007	0.649086432552
0.961161239702	0.980392156863
0.648831309156	0.649182030641
0.961161239702	0.980392156863
0.961161239702	0.980392156863
0.648767031108	0.648424328881
