0.413022351798	0.675675675676
0.472941823046	0.427642832706
1.0	1.0
0.41978622651	0.680272108844
0.471843035891	0.426330150068
0.201743959064	0.303177298084
1.0	1.0
0.413022351798	0.675675675676
0.413022351798	0.675675675676
1.0	1.0
0.413022351798	0.675675675676
0.198392019582	0.300697618475
0.471843035891	0.426330150068
1.0	1.0
1.0	1.0
0.406406885011	0.671140939597
0.229621061847	0.3186336987
0.472941823046	0.427642832706
1.0	1.0
1.0	1.0
1.0	1.0
1.0	1.0
0.471843035891	0.426330150068
0.406406885011	0.671140939597
0.0	0.0
0.406406885011	0.671140939597
1.0	1.0
0.0	0.0
1.0	1.0
1.0	1.0
