1.0	1.0
1.0	1.0
1.0	1.0
0.0	0.0
1.0	1.0
0.406406885011	0.671140939597
0.463666988024	0.417362270451
1.0	1.0
1.0	1.0
0.0	0.0
0.222322574309	0.327396542693
0.0	0.0
1.0	1.0
1.0	1.0
0.413022351798	0.675675675676
0.0	0.0
1.0	1.0
1.0	1.0
0.222322574309	0.327396542693
0.203208663991	0.299760191847
1.0	1.0
0.463666988024	0.417362270451
1.0	1.0
1.0	1.0
0.413022351798	0.675675675676
0.196931928221	0.296208530806
0.413022351798	0.675675675676
0.0	0.0
0.0	0.0
0.490742464482	0.455705432009
