0.406406885011	0.671140939597
0.0	0.0
0.41978622651	0.680272108844
1.0	1.0
0.405509871464	0.392464678179
0.461602230763	0.415282392027
1.0	1.0
0.413022351798	0.675675675676
1.0	1.0
1.0	1.0
0.452932041707	0.407166123779
1.0	1.0
1.0	1.0
0.0	0.0
0.461602230763	0.415282392027
1.0	1.0
0.461602230763	0.415282392027
0.452932041707	0.407166123779
0.461602230763	0.415282392027
0.0	0.0
0.452932041707	0.407166123779
1.0	1.0
0.452932041707	0.407166123779
0.0	0.0
0.196558503645	0.295159386068
1.0	1.0
0.413022351798	0.675675675676
0.406406885011	0.671140939597
0.406406885011	0.671140939597
0.398803493768	0.385208012327
