0.46215704951	0.415834996673
0.0	0.0
0.0	0.0
1.0	1.0
1.0	1.0
0.413022351798	0.675675675676
0.46215704951	0.415834996673
1.0	1.0
1.0	1.0
0.399935984636	0.666666666667
1.0	1.0
0.413022351798	0.675675675676
1.0	1.0
0.197295807918	0.306710833027
0.0	0.0
1.0	1.0
0.413022351798	0.675675675676
1.0	1.0
0.0	0.0
0.46215704951	0.415834996673
1.0	1.0
0.399935984636	0.666666666667
1.0	1.0
0.46215704951	0.415834996673
0.413022351798	0.675675675676
1.0	1.0
0.0	0.0
0.413022351798	0.675675675676
1.0	1.0
0.46215704951	0.415834996673
