1.0	1.0
1.0	1.0
1.0	1.0
0.41978622651	0.680272108844
1.0	1.0
0.482983219783	0.441384180791
0.488864224623	0.451752800867
0.41978622651	0.680272108844
0.413022351798	0.675675675676
1.0	1.0
0.488864224623	0.451752800867
1.0	1.0
0.399935984636	0.666666666667
0.206834000643	0.311954080359
0.0	0.0
0.206834000643	0.311954080359
0.224382084602	0.321998969603
1.0	1.0
0.482983219783	0.441384180791
0.229433840645	0.329641350211
1.0	1.0
1.0	1.0
1.0	1.0
0.399935984636	0.666666666667
0.41978622651	0.680272108844
1.0	1.0
1.0	1.0
1.0	1.0
1.0	1.0
1.0	1.0
