0.240851962495	0.323415265201
0.459919734344	0.413633355394
0.426702455716	0.684931506849
0.0	0.0
0.426702455716	0.684931506849
1.0	1.0
1.0	1.0
0.470851308209	0.425170068027
1.0	1.0
1.0	1.0
1.0	1.0
0.459919734344	0.413633355394
0.198216479999	0.300120048019
1.0	1.0
1.0	1.0
0.0	0.0
1.0	1.0
0.399935984636	0.666666666667
1.0	1.0
1.0	1.0
1.0	1.0
0.250178278303	0.322830578512
1.0	1.0
0.470851308209	0.425170068027
1.0	1.0
0.250178278303	0.322830578512
0.0	0.0
1.0	1.0
1.0	1.0
