0.332622460969	0.332978156633
0.190231756104	0.245153933865
0.326787949849	0.330076577766
0.187488094829	0.253146655353
0.0248666089026	0.082234137035
0.378706560719	0.426793123889
0.330671553037	0.332005312085
0.187488094829	0.253146655353
0.328638393928	0.330994306898
0.351568284809	0.389116029889
0.184239537877	0.237065960117
0.190606089878	0.255897069335
0.192946328778	0.257999423465
0.337016126854	0.393897364771
0.190606089878	0.255897069335
0.187488094829	0.253146655353
0.18826712379	0.253828701078
0.318578422764	0.326030255608
0.338565411836	0.394828305297
0.173247364635	0.188926790869
0.289882011794	0.366262574155
0.152227035857	0.22208281054
0.189046513988	0.254514431964
0.18826712379	0.253828701078
0.171683437517	0.228762541806
0.186709497601	0.252468265162
0.189046513988	0.254514431964
0.192946328778	0.257999423465
0.187488094829	0.253146655353
0.168737988469	0.226490066225
