0.533773509404	0.6952
0.533773509404	0.6952
0.347925396139	0.341225626741
0.533773509404	0.6952
0.0593457400068	0.125609575883
0.357529539142	0.346485645595
0.283282505207	0.474
0.533773509404	0.6952
0.283282505207	0.474
0.212198101286	0.265027032757
0.28092829515	0.446
0.28092829515	0.47
0.107788420752	0.238356766257
0.28092829515	0.47
0.529303881553	0.6904
0.211918837816	0.264494286923
0.533773509404	0.6952
0.28092829515	0.47
0.28092829515	0.47
0.28092829515	0.47
0.212475493048	0.265561929042
0.283282505207	0.474
0.357529539142	0.346485645595
0.212475493048	0.265561929042
0.28092829515	0.446
0.533773509404	0.6952
0.529303881553	0.6904
0.212198101286	0.265027032757
0.344411228172	0.339335180055
0.21302459117	0.266638225256
