0.0671213859649	0.185502026114
0.0655141321788	0.183666191155
0.0676688228109	0.186122153957
0.337496657405	0.33566241951
0.0671213859649	0.185502026114
0.4806727491	0.6926
0.0603062043544	0.123146643023
0.337458999997	0.397443023902
0.345726763335	0.402476780186
0.333924932075	0.33378746594
0.176883993605	0.241726618705
0.11231580007	0.288218286953
0.0683131770091	0.188203511932
0.339156028561	0.336538461538
0.164351556192	0.185061016495
0.0603894550026	0.123146643023
0.339156028561	0.336538461538
0.127109780521	0.302369668246
0.0604609958591	0.123146643023
0.140772885558	0.241935483871
0.0660441115841	0.184274085339
0.174621146753	0.239657631954
0.345815995609	0.340088839534
0.0665798393306	0.184886016873
0.0610973016703	0.123762376238
0.4806727491	0.6926
0.170079203207	0.18904109589
0.123726106284	0.299221461401
0.15177340657	0.247009880395
0.344411228172	0.339335180055
