0.236345875449	0.275838775051
0.24064524646	0.28323699422
0.0603062043544	0.123146643023
0.236653906405	0.276336566659
0.174851909299	0.255172413793
0.240378541028	0.282746682054
0.237869459715	0.278345830493
0.167418508892	0.239537074418
0.16873804416	0.240638096526
0.173838662098	0.254295532646
0.16873804416	0.240638096526
0.174851909299	0.255172413793
0.175867704743	0.256055363322
0.190547696314	0.326975476839
0.162501666404	0.238221281101
0.239295686932	0.280802292264
0.170061862661	0.241749286975
0.168077723384	0.240086323172
0.166760435273	0.238990332975
0.172828077611	0.253424657534
0.238744820324	0.279840091376
0.237265028891	0.277337559429
0.175867704743	0.256055363322
0.23816912618	0.278852720237
0.171820266846	0.252559726962
0.167418508892	0.239537074418
0.175867704743	0.256055363322
0.237869459715	0.278345830493
0.169399435923	0.241192411924
0.169399435923	0.241192411924
