0.110298174756	0.8
0.110298174756	0.8
0.110298174756	0.8
0.110298174756	0.8
0.110298174756	0.8
0.110298174756	0.8
0.110298174756	0.8
0.110298174756	0.8
0.110298174756	0.8
0.110298174756	0.8
0.110298174756	0.8
0.110298174756	0.8
0.110298174756	0.8
0.110298174756	0.8
0.110298174756	0.8
0.110298174756	0.8
0.110298174756	0.8
0.110298174756	0.8
0.110298174756	0.8
0.110298174756	0.8
0.110298174756	0.8
0.110298174756	0.8
0.110298174756	0.8
0.110298174756	0.8
0.110298174756	0.8
0.110298174756	0.8
0.110298174756	0.8
0.110298174756	0.8
0.110298174756	0.8
0.110298174756	0.8
