0.0275835730385	0.388888888889
0.0275835730385	0.388888888889
0.0275835730385	0.388888888889
0.0275835730385	0.388888888889
0.0275835730385	0.388888888889
0.0275835730385	0.388888888889
0.0275835730385	0.388888888889
0.0275835730385	0.388888888889
0.0275835730385	0.388888888889
0.0275835730385	0.388888888889
0.0275835730385	0.388888888889
0.0275835730385	0.388888888889
0.0275835730385	0.388888888889
0.0275835730385	0.388888888889
0.0275835730385	0.388888888889
0.0275835730385	0.388888888889
0.0275835730385	0.388888888889
0.0275835730385	0.388888888889
0.0275835730385	0.388888888889
0.0275835730385	0.388888888889
0.0275835730385	0.388888888889
0.0275835730385	0.388888888889
0.0275835730385	0.388888888889
0.0275835730385	0.388888888889
0.0275835730385	0.388888888889
0.0275835730385	0.388888888889
0.0275835730385	0.388888888889
0.0275835730385	0.388888888889
0.0275835730385	0.388888888889
0.0275835730385	0.388888888889
