0.041849372875	0.302064896755
0.0450327903875	0.302110037468
0.0415385777295	0.297339593114
0.0471503151112	0.491745283019
0.0308500130181	0.296653543307
0.0308503279845	0.297403619197
0.0365967130136	0.297180043384
0.0314952434725	0.296739984289
0.0471502993053	0.49115913556
0.07257832982	0.519372143851
0.067683314221	0.504165013883
0.0308496148769	0.295459013171
0.0308495687614	0.294695481336
0.0561254148017	0.496273048254
0.0308494003939	0.294464075383
0.0433732566395	0.303652517275
0.0350993170679	0.393625192012
0.047150487193	0.491448791036
0.0347022894282	0.297206923682
0.0389333504161	0.303197789183
0.0308498075153	0.295043273013
0.0399095083105	0.319672131148
0.0308499574859	0.295275590551
0.0308495687614	0.294695481336
0.0308500297115	0.29539188657
0.0618729657247	0.496249506514
0.0541618711444	0.46836935167
0.0526329138031	0.494379806744
0.0308498075153	0.295043273013
0.0308573147284	0.303066271019
