0.804976836652	0.92
0.0308494431756	0.294521892794
0.0308512287349	0.298716683119
1.0	1.0
0.801883106983	0.9
0.706956174553	0.87
0.0294142408334	0.303504993147
0.0308499574859	0.295275590551
0.0308500297115	0.29539188657
0.030849690208	0.294869274622
0.0391024361253	0.301753003742
0.801883106983	0.9
0.0308502353494	0.295741324921
0.0271034352838	0.303208137715
0.028244046216	0.311647837943
0.0294140210575	0.3031488363
0.0360090384247	0.297462128664
0.0396187840653	0.296238244514
0.0308504740762	0.297515772871
0.0308499206831	0.295217476875
0.0308499574859	0.295275590551
0.804976836652	0.92
0.0276017954713	0.330225330225
0.804976836652	0.92
0.0308493134507	0.294348508634
0.0268505334208	0.321574741766
0.0308503319587	0.295916354311
0.787998683712	0.82
0.0261638193281	0.314774739327
0.0294142759276	0.303564433999
