0.0308495687614	0.294695481336
0.0308481266563	0.29296875
0.89330119598	0.91
0.0337825284989	0.297334649556
0.949225624142	0.97
0.0399059343838	0.450803606429
0.949225624142	0.97
0.0308571932509	0.30288651641
0.844998256522	0.89
0.843206097191	0.88
0.0395052635591	0.299625468165
0.0346546155144	0.299901864573
0.033731743641	0.296179598267
0.0390461480475	0.302385176424
0.0308499206831	0.295217476875
0.0308499206831	0.295217476875
0.801883106983	0.9
0.796393416145	0.87
0.846828153468	0.9
0.0287333146006	0.405470153723
0.739658006639	0.8
0.848695788029	0.91
0.0381022133778	0.425696594427
0.030849690208	0.294869274622
0.042094478281	0.302491103203
0.0308499574859	0.295275590551
0.0483322799686	0.308333333333
0.843206097191	0.88
0.949225624142	0.97
0.949225624142	0.97
