0.408911564626	0.63
0.328681072429	0.5692
0.203731092437	0.3192
0.462713085234	0.68
1.0	1.0
0.703731092437	0.8192
0.717755102041	0.83
0.744957983193	0.85
0.184055382153	0.3034
1.0	1.0
0.684055382153	0.8034
0.462713085234	0.68
0.184055382153	0.3034
0.692152861144	0.81
0.244446258503	0.33
0.352556222489	0.582
1.0	1.0
0.744957983193	0.85
0.364175270108	0.5942
0.692152861144	0.81
0.437110844338	0.66
0.184055382153	0.3034
