0.0975579173892	0.382222222222
0.0975579173892	0.382222222222
0.0975579173892	0.382222222222
0.0975579173892	0.382222222222
0.0975579173892	0.382222222222
0.0975579173892	0.382222222222
0.0975579173892	0.382222222222
0.0975579173892	0.382222222222
0.0975579173892	0.382222222222
0.0975579173892	0.382222222222
0.0975579173892	0.382222222222
0.0975579173892	0.382222222222
0.0975579173892	0.382222222222
0.0975579173892	0.382222222222
0.0975579173892	0.382222222222
0.0975579173892	0.382222222222
0.0975579173892	0.382222222222
0.0975579173892	0.382222222222
0.0975579173892	0.382222222222
0.0975579173892	0.382222222222
0.0975579173892	0.382222222222
0.0975579173892	0.382222222222
0.0975579173892	0.382222222222
0.0975579173892	0.382222222222
0.0975579173892	0.382222222222
0.0975579173892	0.382222222222
0.0975579173892	0.382222222222
0.0975579173892	0.382222222222
0.0975579173892	0.382222222222
0.0975579173892	0.382222222222
