0.116835331951	0.386666666667
0.116835331951	0.386666666667
0.116835331951	0.386666666667
0.116835331951	0.386666666667
0.116835331951	0.386666666667
0.116835331951	0.386666666667
0.116835331951	0.386666666667
0.116835331951	0.386666666667
0.116835331951	0.386666666667
0.116835331951	0.386666666667
0.116835331951	0.386666666667
0.116835331951	0.386666666667
0.116835331951	0.386666666667
0.116835331951	0.386666666667
0.116835331951	0.386666666667
0.116835331951	0.386666666667
0.116835331951	0.386666666667
0.116835331951	0.386666666667
0.116835331951	0.386666666667
0.116835331951	0.386666666667
0.116835331951	0.386666666667
0.116835331951	0.386666666667
0.116835331951	0.386666666667
0.116835331951	0.386666666667
0.116835331951	0.386666666667
0.116835331951	0.386666666667
0.116835331951	0.386666666667
0.116835331951	0.386666666667
0.116835331951	0.386666666667
0.116835331951	0.386666666667
