0.1264724717	0.388888888889
0.1264724717	0.388888888889
0.1264724717	0.388888888889
0.1264724717	0.388888888889
0.1264724717	0.388888888889
0.1264724717	0.388888888889
0.1264724717	0.388888888889
0.1264724717	0.388888888889
0.1264724717	0.388888888889
0.1264724717	0.388888888889
0.1264724717	0.388888888889
0.1264724717	0.388888888889
0.1264724717	0.388888888889
0.1264724717	0.388888888889
0.1264724717	0.388888888889
0.1264724717	0.388888888889
0.1264724717	0.388888888889
0.1264724717	0.388888888889
0.1264724717	0.388888888889
0.1264724717	0.388888888889
0.1264724717	0.388888888889
0.1264724717	0.388888888889
0.1264724717	0.388888888889
0.1264724717	0.388888888889
0.1264724717	0.388888888889
0.1264724717	0.388888888889
0.1264724717	0.388888888889
0.1264724717	0.388888888889
0.1264724717	0.388888888889
0.1264724717	0.388888888889
