0.107197147342	0.384444444444
0.107197147342	0.384444444444
0.107197147342	0.384444444444
0.107197147342	0.384444444444
0.107197147342	0.384444444444
0.107197147342	0.384444444444
0.107197147342	0.384444444444
0.107197147342	0.384444444444
0.107197147342	0.384444444444
0.107197147342	0.384444444444
0.107197147342	0.384444444444
0.107197147342	0.384444444444
0.107197147342	0.384444444444
0.107197147342	0.384444444444
0.107197147342	0.384444444444
0.107197147342	0.384444444444
0.107197147342	0.384444444444
0.107197147342	0.384444444444
0.107197147342	0.384444444444
0.107197147342	0.384444444444
0.107197147342	0.384444444444
0.107197147342	0.384444444444
0.107197147342	0.384444444444
0.107197147342	0.384444444444
0.107197147342	0.384444444444
0.107197147342	0.384444444444
0.107197147342	0.384444444444
0.107197147342	0.384444444444
0.107197147342	0.384444444444
0.107197147342	0.384444444444
