0.557400189734	0.86
0.667493799362	0.802
0.557400189734	0.86
0.557400189734	0.86
0.57377901727	0.9
0.666599078762	0.6728
0.391795537065	0.5932
0.506741645807	0.72
0.345970442674	0.66
0.407317705059	0.6414
0.679348542517	0.738
0.739467488084	0.83
0.68204112423	0.7496
0.557400189734	0.86
0.557400189734	0.86
0.57377901727	0.9
0.667493799362	0.802
0.68204112423	0.7496
0.721226792851	0.84
0.68204112423	0.7496
0.557400189734	0.86
0.666599078762	0.6728
0.557400189734	0.86
0.721226792851	0.84
0.557400189734	0.86
0.57377901727	0.9
0.407317705059	0.6414
0.667493799362	0.802
0.667493799362	0.802
0.666599078762	0.6728
