0.106276302705	0.6584
0.0440189276611	0.4146
0.0389992494466	0.3652
0.0983645920324	0.318814638027
0.0389992494466	0.3652
0.294152350908	0.7
0.138050885234	0.5816
0.0410452884678	0.3856
0.0427282044248	0.4
0.0389992494466	0.3652
0.0440189276611	0.4146
0.138050885234	0.5816
0.0389992494466	0.3652
0.294152350908	0.7
0.138050885234	0.5816
0.0983645920324	0.318814638027
0.0848405359789	0.3364
0.0389992494466	0.3652
0.0355141290723	0.3602
0.294152350908	0.7
0.00492364253135	0.0883757961783
0.0389992494466	0.3652
0.174426855334	0.698
0.0389992494466	0.3652
0.0983645920324	0.318814638027
0.174426855334	0.698
0.0983645920324	0.318814638027
0.421944009479	0.9004
0.208694379993	0.782
0.0410452884678	0.3856
