0.703599608341	0.828
0.157746320574	0.814
0.717022893783	0.6652
0.717022893783	0.6652
0.152320429149	0.8
0.160128851349	0.82
0.160128851349	0.82
0.717022893783	0.6652
0.717022893783	0.6652
0.658337428993	0.8042
0.717022893783	0.6652
0.150653705334	0.7956
0.717022893783	0.6652
0.698724440228	0.812
0.157746320574	0.814
0.698724440228	0.812
0.655769164828	0.7952
0.717022893783	0.6652
0.157746320574	0.814
0.157746320574	0.814
0.157746320574	0.814
0.93281880422	0.83
0.700121155319	0.6152
0.703599608341	0.828
0.157746320574	0.814
0.127991260053	0.73
0.698724440228	0.812
0.157746320574	0.814
0.698724440228	0.812
0.157746320574	0.814
