0.0404049559383	0.2982
0.0404049559383	0.2982
0.0941133604302	0.205935072695
0.0630744876616	0.511
0.407945998255	0.6916
0.0941133604302	0.205935072695
0.125286981899	0.642
0.125286981899	0.642
0.407945998255	0.6916
0.0404049559383	0.2982
0.0941133604302	0.205935072695
0.0941133604302	0.205935072695
0.136497277815	0.706
0.148870730755	0.602052901698
0.415014790773	0.381480015829
0.36870070407	0.312413383488
0.140204015357	0.389249304912
0.0479956033573	0.423
0.0941133604302	0.205935072695
0.407945998255	0.6916
0.125286981899	0.642
0.0404049559383	0.2982
0.117894792988	0.577
0.423255654296	0.411159477641
0.0941133604302	0.205935072695
0.0630744876616	0.511
0.0404049559383	0.2982
0.0404049559383	0.2982
0.0404049559383	0.2982
0.0630744876616	0.511
