0.469955576383	0.43
0.0130226347091	0.1376
0.208230789453	0.389
0.208230789453	0.389
0.125828075754	0.146911852888
0.125828075754	0.146911852888
0.208230789453	0.389
0.469955576383	0.43
0.208230789453	0.389
0.208230789453	0.389
0.395704367731	0.517825134435
0.208230789453	0.389
0.208230789453	0.389
0.469955576383	0.43
0.125828075754	0.146911852888
0.208230789453	0.389
0.0130226347091	0.1376
0.469955576383	0.43
0.208230789453	0.389
0.0130226347091	0.1376
0.208230789453	0.389
0.208230789453	0.389
0.208230789453	0.389
0.469955576383	0.43
0.0130226347091	0.1376
0.208230789453	0.389
0.125828075754	0.146911852888
0.125567087484	0.151817818618
0.208230789453	0.389
0.016750294316	0.164
