0.0187671960301	0.446
0.0187671960301	0.446
0.0187671960301	0.446
0.0187671960301	0.446
0.0103795874348	0.4
0.0103795874348	0.4
0.0187671960301	0.446
0.0187671960301	0.446
0.0103795874348	0.4
0.0187671960301	0.446
0.0187671960301	0.446
0.0187671960301	0.446
0.0187671960301	0.446
0.0187671960301	0.446
0.0187671960301	0.446
0.0187671960301	0.446
0.0187671960301	0.446
0.0187671960301	0.446
0.0187671960301	0.446
0.0187671960301	0.446
0.0187671960301	0.446
0.0103795874348	0.4
0.0187671960301	0.446
0.0187671960301	0.446
0.0187671960301	0.446
0.0187671960301	0.446
0.0187671960301	0.446
0.0187671960301	0.446
0.0187671960301	0.446
0.0187671960301	0.446
