0.0199220860687	0.458
0.0199220860687	0.458
0.0199220860687	0.458
0.0103795874348	0.4
0.0103795874348	0.4
0.0199220860687	0.458
0.0199220860687	0.458
0.0199220860687	0.458
0.0199220860687	0.458
0.0199220860687	0.458
0.0199220860687	0.458
0.0199220860687	0.458
0.0199220860687	0.458
0.0199220860687	0.458
0.0103795874348	0.4
0.0199220860687	0.458
0.0199220860687	0.458
0.0199220860687	0.458
0.0199220860687	0.458
0.0199220860687	0.458
0.0199220860687	0.458
0.0199220860687	0.458
0.0103795874348	0.4
0.0199220860687	0.458
0.0199220860687	0.458
0.0199220860687	0.458
0.0199220860687	0.458
0.0199220860687	0.458
0.0199220860687	0.458
0.0199220860687	0.458
