0.0229723435045	0.488
0.0229723435045	0.488
0.0229723435045	0.488
0.0229723435045	0.488
0.0229723435045	0.488
0.0229723435045	0.488
0.0229723435045	0.488
0.0103795874348	0.4
0.0229723435045	0.488
0.0229723435045	0.488
0.0103795874348	0.4
0.0229723435045	0.488
0.0229723435045	0.488
0.0103795874348	0.4
0.0229723435045	0.488
0.0229723435045	0.488
0.0229723435045	0.488
0.0103795874348	0.4
0.0229723435045	0.488
0.0229723435045	0.488
0.0229723435045	0.488
0.0229723435045	0.488
0.0103795874348	0.4
0.0229723435045	0.488
0.0229723435045	0.488
0.0229723435045	0.488
0.0229723435045	0.488
0.0229723435045	0.488
0.0229723435045	0.488
0.0229723435045	0.488
