0.00410312216377	0.0624757469926
0.0	0.0
1.91797216639e-06	0.00154320987654
3.19718238711e-07	0.000772797527048
0.000958412004182	0.0302208446339
0.0388244897959	0.1972
0.00198452225883	0.04375
0.138588235294	0.3724
0.00122376560477	0.0346456692913
0.0	0.0
0.000509505339271	0.0220332431388
0.0021690268338	0.0461356466877
0.0388244897959	0.1972
0.0	0.0
0.0388244897959	0.1972
0.0	0.0
0.000103952497867	0.0101880877743
0.0388244897959	0.1972
0.0	0.0
0.000201480014622	0.0141121128969
0.0388244897959	0.1972
0.000457466632269	0.0211433046202
0.0	0.0
0.0	0.0
8.82908993196e-05	0.0094191522763
0.00700350510351	0.0826121164437
0.0110466858988	0.102964118565
0.0	0.0
0.0388244897959	0.1972
0.0388244897959	0.1972
