0.0	0.0
4.7957950469e-06	0.00232198142415
0.000360604357558	0.0187719984357
4.8934945308e-05	0.00703125
0.000816921395286	0.0282131661442
0.000236880466472	0.0152165431135
8.94976719418e-06	0.00308761096102
0.00845390450095	0.0898832684825
0.473258103241	0.688
0.00191687570044	0.0434782608696
0.384305722289	0.62
0.0	0.0
8.82499930455e-05	0.00935307872175
0.000565382131241	0.0233281493002
0.19350140056	0.44
0.226476190476	0.476
0.00266592056924	0.0497131931166
0.000201261237086	0.0139318885449
0.00232309889874	0.0481879729192
0.0425354141657	0.2064
0.518319327731	0.72
0.011737265819	0.104238258877
0.518319327731	0.72
0.00403975602668	0.0611854684512
0.0	0.0
0.000316593530363	0.0176609105181
0.0	0.0
0.010045089512	0.0975232198142
0.000728435526421	0.0267716535433
0.000565718241633	0.0234649980446
