0.780707803121	0.8836
0.000302595088747	0.0173228346457
0.00227850767321	0.046783625731
0.883577430972	0.94
0.0156696307632	0.121621621622
0.960392156863	0.98
0.00447758049782	0.0659340659341
0.0170043040214	0.125285605484
0.00567429797889	0.0745562130178
0.960392156863	0.98
0.000360740669673	0.0188605108055
0.0	0.0
0.00068288005379	0.0250759878419
0.00154863845278	0.0385814497272
0.0	0.0
0.00259818140088	0.0505529225908
0.0020943060754	0.0451866404715
0.960392156863	0.98
0.960392156863	0.98
0.00243111676438	0.0480620155039
0.883577430972	0.94
0.0021690268338	0.0461356466877
0.0014571082919	0.0376766091052
8.9521879627e-06	0.00309837335399
0.0162686105701	0.125984251969
0.960392156863	0.98
0.960392156863	0.98
0.960392156863	0.98
0.960392156863	0.98
3.19880850781e-07	0.000778816199377
