0.270300120048	0.52
0.270300120048	0.52
0.0268411364546	0.164
0.270300120048	0.52
0.0	0.0
0.0268411364546	0.164
0.00276122935066	0.0518053375196
0.0	0.0
0.270300120048	0.52
0.270300120048	0.52
0.000685876977652	0.0259638080252
0.0	0.0
0.0268411364546	0.164
0.270300120048	0.52
0.0	0.0
0.29150060024	0.54
0.270300120048	0.52
0.270300120048	0.52
0.270300120048	0.52
0.00164580573549	0.0400313971743
0.270300120048	0.52
0.0	0.0
0.270300120048	0.52
0.270300120048	0.52
0.000457602241004	0.0212180746562
0.00662857142857	0.0816
0.00324856705333	0.0569494225408
0.270300120048	0.52
0.00251523031844	0.0494505494505
8.82646404175e-05	0.009375
