0.000391664609761	0.019592476489
0.0	0.0
0.00103696093634	0.0322837783978
0.00184596982424	0.0423861852433
0.00047486341681	0.0216110019646
0.00847032039908	0.090623774029
0.00158410391722	0.0398406374502
0.000407617165958	0.0199686765857
0.000816790346279	0.0281690140845
0.0	0.0
0.000728118411615	0.0266457680251
0.000190234724072	0.0136665365092
0.000201427255985	0.0140625
0.0	0.0
0.000749315602725	0.0268586998832
0.0	0.0
0.000886342185576	0.0292283710055
0.0	0.0
0.00310473783632	0.0546875
0.0	0.0
4.7953764898e-06	0.00231928875145
0.0	0.0
2.11075448599e-05	0.00467289719626
0.0	0.0
4.7957950469e-06	0.00232198142415
0.0	0.0
0.000509899429047	0.0221876216427
0.0217164125689	0.145098039216
1.91892724291e-06	0.001554001554
0.0162497313732	0.125490196078
