0.00346768625186	0.0575427682737
9.59155329451e-07	0.00115964437572
0.000957808579898	0.0300809872734
0.0	0.0
0.000423826327094	0.0203125
0.000886221601388	0.0291942390035
0.0	0.0
0.00247574963303	0.049115913556
0.0	0.0
6.71231037723e-06	0.00270061728395
0.00198222502846	0.0434108527132
0.000249442352433	0.0156862745098
0.0292655324607	0.165074512801
0.000407734483304	0.0200392927308
0.00357358711398	0.059500198334
0.00276122935066	0.0518053375196
0.00101118220319	0.0318091451292
0.00077194160094	0.0274509803922
0.00130964773834	0.0359826018189
0.000158531588378	0.0124368441508
0.00101118220319	0.0318091451292
0.0	0.0
0.00101118220319	0.0318091451292
0.000510343570582	0.0223968565815
0.00158249093664	0.0394321766562
4.79709104399e-06	0.002331002331
0.00111440060688	0.0330448465775
0.00174245216634	0.0408560311284
0.000510343570582	0.0223968565815
0.0	0.0
