0.0	0.0
0.0	0.0
0.000727768090532	0.0265210608424
0.000565382131241	0.0233281493002
0.00158255923807	0.0394477317554
0.000103838311289	0.0100463678516
0.0	0.0
1.91831249886e-06	0.0015467904099
0.19350140056	0.44
0.0120608243297	0.11
0.00047486341681	0.0216110019646
0.000509960037154	0.0222135619641
0.00145669913892	0.0375880971026
0.101891496396	0.317965023847
0.000565521405944	0.0233826968044
0.00145598053584	0.0374414976599
0.00356791880662	0.0588697017268
0.000360616347046	0.018779342723
0.000139072053711	0.0116913484022
0.00145787694751	0.0378548895899
0.00324856705333	0.0569494225408
0.00064500400248	0.0253565768621
8.82847143654e-05	0.0094080752646
0.00045680685306	0.0208494208494
0.000624380175594	0.0247252747253
0.0899159663866	0.3
0.0	0.0
0.0	0.0
0.0	0.0
0.00158133020858	0.0391849529781
