0.000457802070187	0.0213438735178
0.0012222175394	0.0342679127726
0.000316564982157	0.0176401411211
0.0	0.0
0.00064500400248	0.0253565768621
0.0	0.0
6.07393578251e-05	0.00776397515528
0.000565654241448	0.0234375
0.0139932936863	0.116288175411
0.000665456261448	0.0257425742574
0.000179172319697	0.0131172839506
0.0	0.0
0.0	0.0
0.00191661647337	0.0434267666798
0.46231292517	0.68
0.00103603880157	0.0319400630915
0.000360896713152	0.0189798339265
0.299328691477	0.5472
0.00066525513174	0.025641025641
0.000509773859716	0.0221359223301
0.000566121015564	0.0236593059937
0.0	0.0
0.0	0.0
0.00357358711398	0.059500198334
3.19804637743e-07	0.00077579519007
0.0	0.0
0.0	0.0
0.0	0.0
0.0181513497423	0.133123276881
0.0116946965808	0.105100463679
