0.000275158551726	0.0163424124514
0.00325026010404	0.0572
0.0	0.0
0.000275398824517	0.0165224232887
0.0	0.0
0.0	0.0
0.00276393837242	0.0521739130435
0.0	0.0
0.010618063388	0.100504462553
0.0	0.0
0.0	0.0
0.00611764705882	0.0784
0.00406667037527	0.0633914421553
0.0	0.0
0.00910086153553	0.0924499229584
0.000565005836798	0.0231928875145
0.00311056607827	0.0553797468354
0.000168849234902	0.012915851272
0.000457602241004	0.0212180746562
0.000566172081767	0.0236873272799
0.0108362811339	0.103284527107
0.0	0.0
0.0	0.0
0.000457764726205	0.0213185945519
3.19844939173e-06	0.00194552529183
0.00198767996562	0.0443037974684
0.0143577430972	0.12
0.00228571428571	0.048
0.0	0.0
0.0	0.0
