0.0546931252632	0.7
0.0546931252632	0.7
0.0546931252632	0.7
0.0546931252632	0.7
0.0546931252632	0.7
0.0546931252632	0.7
0.045360098097	0.509796081567
0.0546931252632	0.7
0.0546931252632	0.7
0.0473215133592	0.529682190686
1.84914312972e-05	0.01
0.0546931252632	0.7
0.0546931252632	0.7
0.0546931252632	0.7
0.0546931252632	0.7
0.0546931252632	0.7
0.0546931252632	0.7
0.0546931252632	0.7
0.0546931252632	0.7
0.0454538915691	0.519688187088
0.0546931252632	0.7
0.0546931252632	0.7
0.0546931252632	0.7
0.0546931252632	0.7
0.0546931252632	0.7
0.0546931252632	0.7
0.0546931252632	0.7
