0.0	0.0
0.774230769231	0.88
0.921538461538	0.96
0.921538461538	0.96
0.0	0.0
0.0	0.0
0.921538461538	0.96
0.0	0.0
0.921538461538	0.96
1.50752253746e-05	0.00421348314607
0.0	0.0
0.0	0.0
0.921538461538	0.96
0.0	0.0
0.774230769231	0.88
3.00232680327e-05	0.00555555555556
0.0	0.0
0.846282051282	0.92
0.921538461538	0.96
5.02502462262e-06	0.00280504908836
0.0	0.0
0.921538461538	0.96
0.0	0.0
0.921538461538	0.96
0.0	0.0
1.0	1.0
0.0	0.0
1.0	1.0
0.921538461538	0.96
0.921538461538	0.96
