0.0814438462122	0.28125
0.705384615385	0.84
0.846282051282	0.92
3.0267259905e-05	0.00569800569801
0.00218028719645	0.0431654676259
0.0	0.0
0.0	0.0
0.846282051282	0.92
0.846282051282	0.92
0.846282051282	0.92
0.846282051282	0.92
0.0	0.0
0.0	0.0
0.0	0.0
0.846282051282	0.92
0.0	0.0
0.0	0.0
0.0	0.0
0.0	0.0
0.0	0.0
0.774230769231	0.88
0.0	0.0
0.0	0.00142045454545
0.921538461538	0.96
0.0814438462122	0.28125
0.0	0.0
5.04645259615e-06	0.00284495021337
0.0	0.0
0.0	0.0
0.0	0.00142045454545
