0.462051282051	0.68
0.0	0.0
0.0	0.0
0.846282051282	0.92
3.04043782305e-05	0.00579710144928
0.0	0.0
0.0	0.0014367816092
0.0	0.0
0.0	0.0
0.846282051282	0.92
0.0	0.0
0.774230769231	0.88
1.50752253746e-05	0.00421348314607
0.0	0.0
0.0	0.0014409221902
0.846282051282	0.92
7.55777922215e-05	0.00853485064011
0.0	0.0
0.0	0.0
0.0	0.0
0.0	0.0
0.0	0.0
0.0	0.0
0.0	0.0
0.0	0.0
0.0	0.0
0.846282051282	0.92
0.846282051282	0.92
0.846282051282	0.92
0.0	0.0
