0.774230769231	0.88
0.846282051282	0.92
0.774230769231	0.88
0.0	0.0
3.01509052809e-05	0.0056258790436
0.0	0.0
0.0	0.0
0.0	0.0
0.0139439528468	0.112443778111
0.0139191934392	0.111940298507
0.0	0.0
0.0	0.0
0.0	0.0
0.0	0.0
0.0	0.0
0.000141595068446	0.0115606936416
0.0	0.0
0.0	0.0
0.774230769231	0.88
0.0	0.0
0.0	0.0
0.0	0.0
0.00316694314583	0.0525547445255
0.846282051282	0.92
0.921538461538	0.96
0.705384615385	0.84
0.0	0.0
1.0	1.0
0.0	0.0
0.0140808622054	0.115562403698
