0.0	0.0
0.774230769231	0.88
0.639743589744	0.8
0.0	0.0
0.0109518120271	0.103610675039
0.0366153846154	0.192
0.0	0.0
0.705384615385	0.84
0.0732537042637	0.265527950311
0.0139681676784	0.112951807229
0.0	0.0
0.0	0.0
0.705384615385	0.84
0.0	0.0
0.0	0.00139470013947
0.0	0.0
0.705384615385	0.84
0.705384615385	0.84
0.774230769231	0.88
0.0	0.00142045454545
0.0	0.0
0.0	0.0
1.0	1.0
0.0	0.0
0.774230769231	0.88
0.0	0.0
0.705384615385	0.84
0.705384615385	0.84
0.0	0.0
0.359615384615	0.6
