0.0641237552248	0.8
0.0641237552248	0.8
0.0641237552248	0.8
0.0641237552248	0.8
0.0641237552248	0.8
0.0641237552248	0.8
1.84914312972e-05	0.01
0.0641237552248	0.8
0.0641237552248	0.8
0.0641237552248	0.8
0.0641237552248	0.8
0.0641237552248	0.8
0.0641237552248	0.8
0.0641237552248	0.8
0.0641237552248	0.8
0.0641237552248	0.8
0.0472277269914	0.519792083167
0.0641237552248	0.8
0.0641237552248	0.8
0.0641237552248	0.8
