0.0641237552248	0.8
0.0641237552248	0.8
0.0641237552248	0.8
0.0641237552248	0.8
0.0641237552248	0.8
0.0641237552248	0.8
0.0641237552248	0.8
0.0641237552248	0.8
0.0641237552248	0.8
0.0641237552248	0.8
0.0641237552248	0.8
0.0641237552248	0.8
0.0641237552248	0.8
0.0641237552248	0.8
0.0641237552248	0.8
0.0641237552248	0.8
0.0641237552248	0.8
0.0641237552248	0.8
0.0641237552248	0.8
0.0641237552248	0.8
0.0641237552248	0.8
0.0641237552248	0.8
0.0641237552248	0.8
0.0641237552248	0.8
0.0641237552248	0.8
0.0641237552248	0.8
