0.0	0.0
3.83560592985e-05	0.0061919504644
0.0	0.0
0.0	0.0
0.000158605347366	0.0125097732604
8.95674117929e-06	0.00312256049961
0.0	0.0
0.0	0.0
3.19844939173e-06	0.00194552529183
0.0	0.0
3.83770351821e-05	0.00623781676413
0.0	0.0
2.49447378116e-05	0.00506230529595
1.91883089471e-06	0.00155279503106
0.0	0.0
2.10705768549e-05	0.00458015267176
0.0	0.0
1.43899109456e-05	0.003885003885
0.0	0.0
0.0	0.0
0.0	0.0
6.71576852857e-06	0.0027195027195
2.11018422867e-05	0.00465477114042
0.0	0.0
4.89233974709e-05	0.00700661736084
0.0	0.0
7.38538978073e-05	0.00855698171918
1.91831249886e-06	0.0015467904099
2.11036235881e-05	0.00466019417476
1.91883089471e-06	0.00155279503106
