2.49407417568e-05	0.00505050505051
3.19821616295e-06	0.00194325689856
1.43914112058e-05	0.00389105058366
1.75862911343e-05	0.0042701863354
1.75891088238e-05	0.00428015564202
1.15089808414e-05	0.00348297213622
0.0	0.0
3.19804637743e-07	0.00077579519007
0.0	0.0
9.59155329451e-07	0.00115964437572
8.95460717737e-06	0.00311041990669
0.0	0.0
0.0	0.0
3.35715313414e-05	0.00582524271845
0.0	0.0
3.19837266799e-06	0.00194476857254
0.0	0.0
8.95570985675e-06	0.00311647837943
0.0	0.0
1.43910430148e-05	0.00388953714508
9.59414526879e-07	0.0011641443539
1.43875231399e-05	0.00387596899225
0.0	0.0
4.79709104399e-06	0.002331002331
0.0	0.0
0.0	0.0
3.35886067446e-05	0.00587084148728
4.79709104399e-06	0.002331002331
0.0	0.0
1.15118956255e-05	0.00349514563107
