1.75800515639e-05	0.00425038639876
1.91831249886e-06	0.0015467904099
1.91831249886e-06	0.0015467904099
8.94711615274e-06	0.00307692307692
0.0	0.0
0.0	0.0
1.75904420574e-05	0.00428515777172
0.0	0.0
3.19804637743e-07	0.00077579519007
0.0	0.0
0.0	0.0
0.0	0.0
7.38472397916e-05	0.00854700854701
0.0	0.0
0.0	0.0
0.0	0.0
7.38665796896e-05	0.00857699805068
0.0	0.0
0.0	0.0
0.0	0.0
0.0	0.0
6.71524023772e-06	0.00271633682577
3.19805558221e-06	0.00194174757282
0.0	0.0
0.0	0.0
0.0	0.000387747188833
3.83608412532e-05	0.0062015503876
1.91831249886e-06	0.0015467904099
0.0	0.0
3.19844939173e-06	0.00194552529183
