1.0	1.0
0.989998989797	0.995024875622
1.0	1.0
1.0	1.0
1.0	1.0
1.0	1.0
0.989998989797	0.995024875622
1.0	1.0
1.0	1.0
1.0	1.0
1.0	1.0
1.0	1.0
1.0	1.0
1.0	1.0
0.989998989797	0.995024875622
1.0	1.0
1.0	1.0
1.0	1.0
0.989998989797	0.995024875622
1.0	1.0
1.0	1.0
0.989998989797	0.995024875622
1.0	1.0
1.0	1.0
1.0	1.0
1.0	1.0
1.0	1.0
1.0	1.0
1.0	1.0
0.989998989797	0.995024875622
