0.989998989797	0.995024875622
0.989998989797	0.995024875622
0.989998989797	0.995024875622
0.989998989797	0.995024875622
0.989998989797	0.995024875622
0.989998989797	0.995024875622
0.989998989797	0.995024875622
0.989998989797	0.995024875622
0.989998989797	0.995024875622
0.989998989797	0.995024875622
0.989998989797	0.995024875622
0.989998989797	0.995024875622
0.989998989797	0.995024875622
0.989998989797	0.995024875622
0.989998989797	0.995024875622
0.989998989797	0.995024875622
0.989998989797	0.995024875622
0.989998989797	0.995024875622
0.989998989797	0.995024875622
0.989998989797	0.995024875622
0.989998989797	0.995024875622
0.989998989797	0.995024875622
0.989998989797	0.995024875622
0.989998989797	0.995024875622
0.989998989797	0.995024875622
0.989998989797	0.995024875622
0.989998989797	0.995024875622
0.989998989797	0.995024875622
0.989998989797	0.995024875622
0.989998989797	0.995024875622
