0.980196039208	0.990099009901
0.980196039208	0.990099009901
0.980196039208	0.990099009901
0.980196039208	0.990099009901
0.980196039208	0.990099009901
0.980196039208	0.990099009901
0.980196039208	0.990099009901
0.980196039208	0.990099009901
0.980196039208	0.990099009901
0.980196039208	0.990099009901
0.980196039208	0.990099009901
0.980196039208	0.990099009901
0.980196039208	0.990099009901
0.980196039208	0.990099009901
0.980196039208	0.990099009901
0.980196039208	0.990099009901
0.980196039208	0.990099009901
0.980196039208	0.990099009901
0.980196039208	0.990099009901
0.980196039208	0.990099009901
0.980196039208	0.990099009901
0.980196039208	0.990099009901
0.980196039208	0.990099009901
0.980196039208	0.990099009901
0.980196039208	0.990099009901
0.980196039208	0.990099009901
0.980196039208	0.990099009901
0.980196039208	0.990099009901
0.980196039208	0.990099009901
0.980196039208	0.990099009901
