1.0	1.0
1.0	1.0
1.0	1.0
1.0	1.0
1.0	1.0
1.0	1.0
1.0	1.0
1.0	1.0
1.0	1.0
1.0	1.0
1.0	1.0
0.072112067436	0.409165302782
1.0	1.0
1.0	1.0
0.0782283829168	0.5
1.0	1.0
1.0	1.0
0.0782283829168	0.5
1.0	1.0
1.0	1.0
0.0315201487922	0.161290322581
1.0	1.0
1.0	1.0
1.0	1.0
1.0	1.0
1.0	1.0
1.0	1.0
1.0	1.0
0.0315201487922	0.161290322581
1.0	1.0
