1.0	1.0
1.0	1.0
1.0	1.0
1.0	1.0
1.0	1.0
1.0	1.0
1.0	1.0
1.0	1.0
0.0710931372387	0.403225806452
1.0	1.0
1.0	1.0
1.0	1.0
1.0	1.0
1.0	1.0
0.0710931372387	0.403225806452
1.0	1.0
1.0	1.0
1.0	1.0
1.0	1.0
1.0	1.0
0.0719179335121	0.407166123779
1.0	1.0
1.0	1.0
1.0	1.0
1.0	1.0
1.0	1.0
1.0	1.0
1.0	1.0
1.0	1.0
1.0	1.0
