1.0	1.0
1.0	1.0
0.0723050152011	0.411184210526
1.0	1.0
1.0	1.0
0.0782283829168	0.5
1.0	1.0
1.0	1.0
1.0	1.0
1.0	1.0
1.0	1.0
1.0	1.0
1.0	1.0
1.0	1.0
1.0	1.0
1.0	1.0
1.0	1.0
1.0	1.0
1.0	1.0
1.0	1.0
1.0	1.0
1.0	1.0
1.0	1.0
1.0	1.0
1.0	1.0
0.0782283829168	0.5
0.0307301928384	0.156626506024
1.0	1.0
1.0	1.0
1.0	1.0
