0.125857994065	0.614484775503
0.125857994065	0.614484775503
0.125857994065	0.614484775503
0.125857994065	0.614484775503
0.125857994065	0.614484775503
0.125857994065	0.614484775503
0.125857994065	0.614484775503
0.125857994065	0.614484775503
0.125857994065	0.614484775503
0.125857994065	0.614484775503
0.125857994065	0.614484775503
0.125857994065	0.614484775503
0.125857994065	0.614484775503
0.125857994065	0.614484775503
0.125857994065	0.614484775503
0.125857994065	0.614484775503
0.125857994065	0.614484775503
0.125857994065	0.614484775503
0.125857994065	0.614484775503
0.125857994065	0.614484775503
0.125857994065	0.614484775503
0.125857994065	0.614484775503
0.125857994065	0.614484775503
0.125857994065	0.614484775503
0.125857994065	0.614484775503
0.125857994065	0.614484775503
0.125857994065	0.614484775503
0.125857994065	0.614484775503
0.125857994065	0.614484775503
0.125857994065	0.614484775503
