0.137246714866	0.64888272995
0.137246714866	0.64888272995
0.137246714866	0.64888272995
0.137246714866	0.64888272995
0.137246714866	0.64888272995
0.137246714866	0.64888272995
0.137246714866	0.64888272995
0.137246714866	0.64888272995
0.137246714866	0.64888272995
0.137246714866	0.64888272995
0.137246714866	0.64888272995
0.137246714866	0.64888272995
0.137246714866	0.64888272995
0.137246714866	0.64888272995
0.137246714866	0.64888272995
0.137246714866	0.64888272995
0.137246714866	0.64888272995
0.137246714866	0.64888272995
0.137246714866	0.64888272995
0.137246714866	0.64888272995
0.137246714866	0.64888272995
0.137246714866	0.64888272995
0.137246714866	0.64888272995
0.137246714866	0.64888272995
0.137246714866	0.64888272995
0.137246714866	0.64888272995
0.137246714866	0.64888272995
0.137246714866	0.64888272995
0.137246714866	0.64888272995
0.137246714866	0.64888272995
