0.100741552621	0.522348816827
0.100741552621	0.522348816827
0.100741552621	0.522348816827
0.100741552621	0.522348816827
0.100741552621	0.522348816827
0.100741552621	0.522348816827
0.100741552621	0.522348816827
0.100741552621	0.522348816827
0.100741552621	0.522348816827
0.100741552621	0.522348816827
0.100741552621	0.522348816827
0.100741552621	0.522348816827
0.100741552621	0.522348816827
0.100741552621	0.522348816827
0.100741552621	0.522348816827
0.100741552621	0.522348816827
0.100741552621	0.522348816827
0.100741552621	0.522348816827
0.100741552621	0.522348816827
0.100741552621	0.522348816827
0.100741552621	0.522348816827
0.100741552621	0.522348816827
0.100741552621	0.522348816827
0.100741552621	0.522348816827
0.100741552621	0.522348816827
0.100741552621	0.522348816827
0.100741552621	0.522348816827
0.100741552621	0.522348816827
0.100741552621	0.522348816827
0.100741552621	0.522348816827
