0.11586614849	0.599860090941
0.11586614849	0.599860090941
0.11586614849	0.599860090941
0.11586614849	0.599860090941
0.11586614849	0.599860090941
0.11586614849	0.599860090941
0.11586614849	0.599860090941
0.11586614849	0.599860090941
0.11586614849	0.599860090941
0.11586614849	0.599860090941
0.11586614849	0.599860090941
0.11586614849	0.599860090941
0.11586614849	0.599860090941
0.11586614849	0.599860090941
0.11586614849	0.599860090941
0.11586614849	0.599860090941
0.11586614849	0.599860090941
0.11586614849	0.599860090941
0.11586614849	0.599860090941
0.11586614849	0.599860090941
0.11586614849	0.599860090941
0.11586614849	0.599860090941
0.11586614849	0.599860090941
0.11586614849	0.599860090941
0.11586614849	0.599860090941
0.11586614849	0.599860090941
0.11586614849	0.599860090941
0.11586614849	0.599860090941
0.11586614849	0.599860090941
0.11586614849	0.599860090941
