0.129211612023	0.626218662953
0.129211612023	0.626218662953
0.129211612023	0.626218662953
0.129211612023	0.626218662953
0.129211612023	0.626218662953
0.129211612023	0.626218662953
0.129211612023	0.626218662953
0.129211612023	0.626218662953
0.129211612023	0.626218662953
0.129211612023	0.626218662953
0.129211612023	0.626218662953
0.129211612023	0.626218662953
0.129211612023	0.626218662953
0.129211612023	0.626218662953
0.129211612023	0.626218662953
0.129211612023	0.626218662953
0.129211612023	0.626218662953
0.129211612023	0.626218662953
0.129211612023	0.626218662953
0.129211612023	0.626218662953
0.129211612023	0.626218662953
0.129211612023	0.626218662953
0.129211612023	0.626218662953
0.129211612023	0.626218662953
0.129211612023	0.626218662953
0.129211612023	0.626218662953
0.129211612023	0.626218662953
0.129211612023	0.626218662953
0.129211612023	0.626218662953
0.129211612023	0.626218662953
