0.0693316183616	0.429397337071
0.0693316183616	0.429397337071
0.0693316183616	0.429397337071
0.0693316183616	0.429397337071
0.0693316183616	0.429397337071
0.0693316183616	0.429397337071
0.0693316183616	0.429397337071
0.0693316183616	0.429397337071
0.0693316183616	0.429397337071
0.0693316183616	0.429397337071
0.0693316183616	0.429397337071
0.0693316183616	0.429397337071
0.0693316183616	0.429397337071
0.0693316183616	0.429397337071
0.0693316183616	0.429397337071
0.0693316183616	0.429397337071
0.0693316183616	0.429397337071
0.0693316183616	0.429397337071
0.0693316183616	0.429397337071
0.0693316183616	0.429397337071
0.0693316183616	0.429397337071
0.0693316183616	0.429397337071
0.0693316183616	0.429397337071
0.0693316183616	0.429397337071
0.0693316183616	0.429397337071
0.0693316183616	0.429397337071
0.0693316183616	0.429397337071
0.0693316183616	0.429397337071
0.0693316183616	0.429397337071
0.0693316183616	0.429397337071
