0.961161239702	0.980392156863
0.727650292824	0.738437469444
0.961161239702	0.980392156863
0.66923498483	0.73288407071
0.961161239702	0.980392156863
0.961161239702	0.980392156863
0.961161239702	0.980392156863
0.727741930073	0.732851280047
0.727637766052	0.733209683717
0.961161239702	0.980392156863
0.961161239702	0.980392156863
0.728114457524	0.746415242585
0.727804394184	0.740297922383
0.961161239702	0.980392156863
0.961161239702	0.980392156863
0.961161239702	0.980392156863
0.961161239702	0.980392156863
0.727593949586	0.730922911997
0.961161239702	0.980392156863
0.961161239702	0.980392156863
0.727850889198	0.742207410312
0.416322979469	0.485955875207
0.729065021209	0.755968169761
0.961161239702	0.980392156863
0.961161239702	0.980392156863
0.961161239702	0.980392156863
0.961161239702	0.980392156863
0.961161239702	0.980392156863
0.961161239702	0.980392156863
0.961161239702	0.980392156863
