0.961161239702	0.980392156863
0.727832176043	0.739433166618
0.663272138302	0.731564572766
0.961161239702	0.980392156863
0.961161239702	0.980392156863
0.619466569628	0.732207361125
0.961161239702	0.980392156863
0.961161239702	0.980392156863
0.961161239702	0.980392156863
0.727498801771	0.73137235804
0.961161239702	0.980392156863
0.727763742567	0.739275220372
0.961161239702	0.980392156863
0.961161239702	0.980392156863
0.961161239702	0.980392156863
0.961161239702	0.980392156863
0.961161239702	0.980392156863
0.961161239702	0.980392156863
0.961161239702	0.980392156863
0.961161239702	0.980392156863
0.657282181577	0.729288214702
0.961161239702	0.980392156863
0.961161239702	0.980392156863
0.489755206575	0.491337356434
0.961161239702	0.980392156863
0.52014562801	0.725338491296
0.961161239702	0.980392156863
0.961161239702	0.980392156863
0.624615999048	0.731992972867
0.961161239702	0.980392156863
