0.402889771707	0.489152641308
0.519812908957	0.574672489083
0.961161239702	0.980392156863
0.961161239702	0.980392156863
0.961161239702	0.980392156863
0.961161239702	0.980392156863
0.961161239702	0.980392156863
0.961161239702	0.980392156863
0.961161239702	0.980392156863
0.961161239702	0.980392156863
0.961161239702	0.980392156863
0.961161239702	0.980392156863
0.961161239702	0.980392156863
0.961161239702	0.980392156863
0.604425500166	0.732149824425
0.961161239702	0.980392156863
0.471329593581	0.492435334309
0.66901292065	0.729288214702
0.961161239702	0.980392156863
0.961161239702	0.980392156863
0.961161239702	0.980392156863
0.727814062713	0.739633369278
0.446245213972	0.496048394965
0.961161239702	0.980392156863
0.961161239702	0.980392156863
0.961161239702	0.980392156863
0.961161239702	0.980392156863
0.961161239702	0.980392156863
0.727727519248	0.732636514604
0.961161239702	0.980392156863
