0.728268074939	0.748155435317
0.694063773408	0.736491777604
0.961161239702	0.980392156863
0.961161239702	0.980392156863
0.961161239702	0.980392156863
0.489785135653	0.492112950341
0.961161239702	0.980392156863
0.961161239702	0.980392156863
0.727493973939	0.729855975088
0.961161239702	0.980392156863
0.72762200829	0.735906204201
0.727692833738	0.738870951962
0.727740058309	0.737542829173
0.559316723014	0.731864274571
0.675162700939	0.736400039066
0.961161239702	0.980392156863
0.961161239702	0.980392156863
0.64046067105	0.729571984436
0.961161239702	0.980392156863
0.961161239702	0.980392156863
0.961161239702	0.980392156863
0.961161239702	0.980392156863
0.961161239702	0.980392156863
0.961161239702	0.980392156863
0.727797456017	0.740962084844
0.961161239702	0.980392156863
0.727801778108	0.740519353258
0.727882489052	0.742941176471
0.961161239702	0.980392156863
0.727801824205	0.738998333823
