1.0	1.0
1.0	1.0
0.000624756247562	0.025
0.0103241357224	0.10162601626
1.0	1.0
1.0	1.0
0.0103241357224	0.10162601626
0.000624756247562	0.025
0.010366232911	0.10183299389
0.000624756247562	0.025
0.000624756247562	0.025
1.0	1.0
0.000624756247562	0.025
0.000624756247562	0.025
0.000624756247562	0.025
1.0	1.0
1.0	1.0
0.0103241357224	0.10162601626
1.0	1.0
1.0	1.0
1.0	1.0
0.000624756247562	0.025
0.000624756247562	0.025
0.000624756247562	0.025
1.0	1.0
1.0	1.0
1.0	1.0
1.0	1.0
0.000624756247562	0.025
1.0	1.0
