0.0102407070194	0.101214574899
0.000624756247562	0.025
0.0102407070194	0.101214574899
1.0	1.0
1.0	1.0
0.0102407070194	0.101214574899
0.0102407070194	0.101214574899
0.0102407070194	0.101214574899
1.0	1.0
1.0	1.0
1.0	1.0
0.000624756247562	0.025
0.0101993713857	0.10101010101
0.000624756247562	0.025
0.000624756247562	0.025
0.000624756247562	0.025
0.000624756247562	0.025
0.000624756247562	0.025
0.000624756247562	0.025
1.0	1.0
0.0102407070194	0.101214574899
0.0102407070194	0.101214574899
0.000624756247562	0.025
0.0102407070194	0.101214574899
0.0102407070194	0.101214574899
0.0102407070194	0.101214574899
1.0	1.0
0.0102407070194	0.101214574899
1.0	1.0
0.000624756247562	0.025
