0.984156862745	0.992
0.984156862745	0.992
0.984156862745	0.992
0.367391237286	0.539791356185
0.984156862745	0.992
0.984156862745	0.992
0.984156862745	0.992
0.984156862745	0.992
0.984156862745	0.992
0.984156862745	0.992
0.984156862745	0.992
0.392289128249	0.566075549617
0.984156862745	0.992
0.984156862745	0.992
0.984156862745	0.992
0.984156862745	0.992
0.984156862745	0.992
0.984156862745	0.992
0.984156862745	0.992
0.229808483462	0.47313361864
0.222230700748	0.470107792393
0.984156862745	0.992
0.984156862745	0.992
0.984156862745	0.992
0.984156862745	0.992
0.984156862745	0.992
0.984156862745	0.992
0.984156862745	0.992
0.225058207107	0.471069661211
0.984156862745	0.992
