0.213018619052	0.445624774937
0.335245958807	0.521931674399
0.206031646036	0.437569060773
0.984156862745	0.992
0.984156862745	0.992
0.984156862745	0.992
0.984156862745	0.992
0.984156862745	0.992
0.984156862745	0.992
0.213587197746	0.44370122631
0.984156862745	0.992
0.984156862745	0.992
0.984156862745	0.992
0.984156862745	0.992
0.984156862745	0.992
0.984156862745	0.992
0.984156862745	0.992
0.984156862745	0.992
0.984156862745	0.992
0.984156862745	0.992
0.984156862745	0.992
0.206682597943	0.43853820598
0.984156862745	0.992
0.213331061695	0.446106705119
0.984156862745	0.992
0.984156862745	0.992
0.984156862745	0.992
0.984156862745	0.992
0.216975068562	0.446188340807
0.217176644821	0.448926186609
