0.984156862745	0.992
0.984156862745	0.992
0.312187284991	0.512094698919
0.275896571581	0.489133641459
0.219103318113	0.44920993228
0.984156862745	0.992
0.248275017071	0.424607609699
0.984156862745	0.992
0.984156862745	0.992
0.222661446062	0.45490051923
0.984156862745	0.992
0.28203420308	0.494507669471
0.239920553328	0.415430267062
0.300486310528	0.45475904558
0.308931970926	0.510518214469
0.984156862745	0.992
0.984156862745	0.992
0.277967651279	0.490768022
0.226875863201	0.461032341766
0.323445741934	0.51747451633
0.318582435037	0.514098769279
0.224589783519	0.402642847277
0.295822129753	0.45217570846
0.303344373226	0.498146106824
0.307448751847	0.508735868448
0.224536663293	0.454503928376
0.347410480835	0.526456440406
0.221170295143	0.449717514124
0.984156862745	0.992
0.248201503788	0.419030732861
