0.426900237601	0.57664556962
0.992078431373	0.996
0.992078431373	0.996
0.238130486136	0.478629205954
0.992078431373	0.996
0.798946715995	0.802181300877
0.221952736018	0.463588501141
0.414400368189	0.564070586768
0.992078431373	0.996
0.240836263815	0.487638367387
0.992078431373	0.996
0.992078431373	0.996
0.992078431373	0.996
0.238091864173	0.481927710843
0.992078431373	0.996
0.992078431373	0.996
0.992078431373	0.996
0.236021268903	0.477897252091
0.992078431373	0.996
0.218550727933	0.471273622886
0.217152846979	0.467883005737
0.992078431373	0.996
0.992078431373	0.996
0.217320077919	0.46827936747
0.241812899053	0.487601685779
0.238508274696	0.482765279521
0.992078431373	0.996
0.992078431373	0.996
0.219907037164	0.459775426274
0.992078431373	0.996
