0.980196078431	0.99
0.980196078431	0.99
0.980196078431	0.99
0.980196078431	0.99
0.980196078431	0.99
0.980196078431	0.99
0.980196078431	0.99
0.980196078431	0.99
0.980196078431	0.99
0.980196078431	0.99
0.980196078431	0.99
0.980196078431	0.99
0.980196078431	0.99
0.980196078431	0.99
0.980196078431	0.99
0.980196078431	0.99
0.980196078431	0.99
0.980196078431	0.99
0.980196078431	0.99
0.980196078431	0.99
0.980196078431	0.99
0.980196078431	0.99
0.980196078431	0.99
0.980196078431	0.99
0.980196078431	0.99
0.980196078431	0.99
0.980196078431	0.99
0.980196078431	0.99
0.980196078431	0.99
0.980196078431	0.99
