0.0316027420235	0.449438202247
0.0316027420235	0.449438202247
0.0316027420235	0.449438202247
0.0316027420235	0.449438202247
0.0316027420235	0.449438202247
0.0316027420235	0.449438202247
0.0316027420235	0.449438202247
0.0316027420235	0.449438202247
0.0316027420235	0.449438202247
0.0316027420235	0.449438202247
0.0316027420235	0.449438202247
0.0316027420235	0.449438202247
0.0316027420235	0.449438202247
0.0316027420235	0.449438202247
0.0316027420235	0.449438202247
0.0316027420235	0.449438202247
0.0316027420235	0.449438202247
0.0316027420235	0.449438202247
0.0316027420235	0.449438202247
0.0316027420235	0.449438202247
0.0316027420235	0.449438202247
0.0316027420235	0.449438202247
0.0316027420235	0.449438202247
0.0316027420235	0.449438202247
0.0316027420235	0.449438202247
0.0316027420235	0.449438202247
0.0316027420235	0.449438202247
0.0316027420235	0.449438202247
0.0316027420235	0.449438202247
0.0316027420235	0.449438202247
