8.75724257276e-05	0.00884303610906
0.0	0.0
0.0	0.0
0.0835072650318	0.28901734104
0.0	0.0
0.961161239702	0.980392156863
0.0624812481248	0.25
8.94649580138e-06	0.00307455803228
0.0	0.0
3.19621670221e-07	0.000769822940724
8.9432239428e-06	0.00306278713629
0.961161239702	0.980392156863
0.0	0.0
0.0	0.0
0.0	0.0
0.0	0.0
0.495874656221	0.704225352113
0.0	0.0
0.0	0.0
0.718140593479	0.847457627119
0.0624812481248	0.25
0.0	0.0
4.79372443946e-06	0.00230946882217
0.769429716798	0.877192982456
0.0	0.0
0.0	0.0
1.91863086501e-06	0.0015503875969
0.0643988180923	0.253807106599
0.0	0.0
0.961161239702	0.980392156863
