0.0	0.0
0.0	0.0
0.0624812481248	0.25
0.0	0.0
0.0	0.0
0.0	0.0
0.961161239702	0.980392156863
0.0	0.0
0.0788814801815	0.280898876404
0.0624812481248	0.25
0.0	0.0
0.0624812481248	0.25
0.0730746930152	0.267045454545
0.0	0.0
0.354251012146	0.595238095238
0.0	0.0
0.0	0.0
0.0	0.0
0.0	0.0
0.0	0.0
0.0	0.0
0.0	0.0
0.0961838073523	0.304635761589
0.0	0.0
0.924541983603	0.961538461538
0.0	0.0
0.0	0.0
0.857313408258	0.925925925926
0.0	0.0
0.0	0.0
