0.0664060382461	0.257731958763
0.961161239702	0.980392156863
0.0	0.0
0.0624812481248	0.25
0.0	0.0
0.0624812481248	0.25
0.857313408258	0.925925925926
0.0	0.0
0.0624812481248	0.25
0.0	0.0
0.961161239702	0.980392156863
0.961161239702	0.980392156863
0.0635823803332	0.251230516817
0.0	0.0
0.073024695146	0.27027027027
0.0	0.0
0.0	0.0
0.961161239702	0.980392156863
0.924541983603	0.961538461538
0.0	0.0
0.0	0.0
0.0	0.0
0.0	0.0
0.00103253735539	0.0310821181888
0.0	0.0
0.0692316642749	0.263157894737
0.0	0.0
0.0	0.0
0.0738206421303	0.271739130435
0.0643988180923	0.253807106599
