0.270300120048	0.52
1.0	1.0
0.230300120048	0.48
0.230300120048	0.48
1.0	1.0
0.270300120048	0.52
1.0	1.0
0.270300120048	0.52
1.0	1.0
0.270300120048	0.52
0.230300120048	0.48
0.270300120048	0.52
0.270300120048	0.52
0.230300120048	0.48
0.270300120048	0.52
0.270300120048	0.52
0.270300120048	0.52
0.270300120048	0.52
1.0	1.0
1.0	1.0
0.270300120048	0.52
0.270300120048	0.52
0.270300120048	0.52
0.270300120048	0.52
1.0	1.0
1.0	1.0
0.270300120048	0.52
0.270300120048	0.52
0.270300120048	0.52
0.270300120048	0.52
