0.547523009204	0.74
1.0	1.0
0.705546218487	0.84
0.705546218487	0.84
0.705546218487	0.84
0.705546218487	0.84
1.0	1.0
0.547523009204	0.74
0.705546218487	0.84
1.0	1.0
0.547523009204	0.74
1.0	1.0
0.547523009204	0.74
0.547523009204	0.74
1.0	1.0
0.705546218487	0.84
0.547523009204	0.74
0.29150060024	0.54
1.0	1.0
1.0	1.0
1.0	1.0
1.0	1.0
0.547523009204	0.74
1.0	1.0
0.705546218487	0.84
0.547523009204	0.74
0.547523009204	0.74
0.547523009204	0.74
0.547523009204	0.74
0.547523009204	0.74
