1.0	1.0
1.0	1.0
1.0	1.0
1.0	1.0
1.0	1.0
1.0	1.0
1.0	1.0
1.0	1.0
1.0	1.0
0.31350140056	0.56
1.0	1.0
1.0	1.0
1.0	1.0
1.0	1.0
0.883577430972	0.94
0.883577430972	0.94
1.0	1.0
1.0	1.0
0.883577430972	0.94
0.623401680672	0.7896
1.0	1.0
1.0	1.0
1.0	1.0
1.0	1.0
1.0	1.0
1.0	1.0
0.31350140056	0.56
0.883577430972	0.94
1.0	1.0
0.883577430972	0.94
