1.0	1.0
0.384305722289	0.62
1.0	1.0
0.384305722289	0.62
1.0	1.0
1.0	1.0
1.0	1.0
1.0	1.0
0.384305722289	0.62
0.384305722289	0.62
1.0	1.0
1.0	1.0
1.0	1.0
0.384305722289	0.62
1.0	1.0
0.384305722289	0.62
1.0	1.0
0.384305722289	0.62
0.384305722289	0.62
0.384305722289	0.62
0.177648979592	0.4216
1.0	1.0
0.384305722289	0.62
1.0	1.0
1.0	1.0
1.0	1.0
1.0	1.0
1.0	1.0
0.384305722289	0.62
1.0	1.0
