0.869775910364	0.93
0.869775910364	0.93
0.852773109244	0.92
0.722549019608	0.85
0.673941576631	0.82
1.0	1.0
0.722549019608	0.85
0.722549019608	0.85
0.852773109244	0.92
0.705946378551	0.84
0.852773109244	0.92
0.869775910364	0.93
0.722549019608	0.85
0.869775910364	0.93
1.0	1.0
0.673941576631	0.82
0.33606244829	0.415763546798
0.81156462585	0.9
0.722549019608	0.85
0.705546218487	0.84
0.819967987195	0.9
0.852773109244	0.92
0.673941576631	0.82
0.852773109244	0.92
1.0	1.0
1.0	1.0
0.887178871549	0.94
0.499805145128	0.500296618549
1.0	1.0
0.739551820728	0.86
