0.741152460984	0.86
0.904981992797	0.95
0.741152460984	0.86
0.836170468187	0.91
0.904981992797	0.95
0.941788715486	0.97
0.611932773109	0.78
0.664141656663	0.81
0.904981992797	0.95
0.741152460984	0.86
0.852773109244	0.92
0.678743497399	0.82
0.904981992797	0.95
0.369474356787	0.496667973344
0.836170468187	0.91
0.836170468187	0.91
0.688943577431	0.83
0.741152460984	0.86
1.0	1.0
0.904981992797	0.95
0.672741096439	0.82
0.852773109244	0.92
0.757755102041	0.87
0.723349339736	0.85
0.904981992797	0.95
0.904981992797	0.95
0.723349339736	0.85
0.852773109244	0.92
0.904981992797	0.95
0.688943577431	0.83
