0.816366546619	0.9
1.0	1.0
0.852773109244	0.92
0.904981992797	0.95
0.904981992797	0.95
0.869775910364	0.93
1.0	1.0
0.836170468187	0.91
0.869775910364	0.93
0.904981992797	0.95
0.65693877551	0.81
0.852773109244	0.92
0.757755102041	0.87
1.0	1.0
0.904981992797	0.95
0.904981992797	0.95
1.0	1.0
1.0	1.0
0.92318527411	0.96
0.788763505402	0.88
0.757755102041	0.87
0.804165666267	0.89
1.0	1.0
0.804165666267	0.89
1.0	1.0
0.852773109244	0.92
0.709147659064	0.84
0.741152460984	0.86
0.852773109244	0.92
0.673941576631	0.82
