0.739951980792	0.86
0.707146858743	0.84
0.722549019608	0.85
0.707146858743	0.84
0.836170468187	0.91
0.836170468187	0.91
1.0	1.0
0.852773109244	0.92
0.761756702681	0.87
0.852773109244	0.92
0.904981992797	0.95
0.819967987195	0.9
0.757755102041	0.87
0.852773109244	0.92
0.887178871549	0.94
1.0	1.0
0.689743897559	0.83
0.819967987195	0.9
1.0	1.0
0.722549019608	0.85
0.887178871549	0.94
0.819967987195	0.9
0.757755102041	0.87
1.0	1.0
0.757755102041	0.87
0.852773109244	0.92
0.869775910364	0.93
0.852773109244	0.92
1.0	1.0
0.819967987195	0.9
