0.904981992797	0.95
0.756954781913	0.87
1.0	1.0
0.904981992797	0.95
0.852773109244	0.92
0.869775910364	0.93
0.941788715486	0.97
0.819967987195	0.9
0.774357743097	0.88
0.852773109244	0.92
0.81356542617	0.9
0.774757903161	0.88
0.887178871549	0.94
0.739951980792	0.86
0.887178871549	0.94
0.739951980792	0.86
0.904981992797	0.95
0.904981992797	0.95
0.774757903161	0.88
0.775958383353	0.88
0.869775910364	0.93
0.756954781913	0.87
0.757755102041	0.87
0.774757903161	0.88
0.774757903161	0.88
0.887178871549	0.94
0.869775910364	0.93
0.92318527411	0.96
0.756954781913	0.87
0.869775910364	0.93
