0.679951980792	0.8
0.679951980792	0.8
0.679951980792	0.8
0.679951980792	0.8
0.679951980792	0.8
0.679951980792	0.8
0.679951980792	0.8
0.679951980792	0.8
0.679951980792	0.8
0.679951980792	0.8
0.679951980792	0.8
0.679951980792	0.8
0.679951980792	0.8
0.679951980792	0.8
0.500759774555	0.519584332534
0.48095713988	0.50969418349
0.679951980792	0.8
0.679951980792	0.8
0.679951980792	0.8
0.501752333924	0.529682190686
0.679951980792	0.8
0.679951980792	0.8
0.679951980792	0.8
0.679951980792	0.8
0.679951980792	0.8
0.679951980792	0.8
0.679951980792	0.8
0.679951980792	0.8
0.679951980792	0.8
0.679951980792	0.8
