0.679951980792	0.8
0.679951980792	0.8
0.501752333924	0.529682190686
0.679951980792	0.8
0.679951980792	0.8
0.679951980792	0.8
0.501752333924	0.529682190686
0.679951980792	0.8
0.679951980792	0.8
0.679951980792	0.8
0.679951980792	0.8
0.679951980792	0.8
0.679951980792	0.8
0.679951980792	0.8
0.679951980792	0.8
0.679951980792	0.8
0.679951980792	0.8
0.679951980792	0.8
0.679951980792	0.8
0.679951980792	0.8
0.679951980792	0.8
0.679951980792	0.8
0.679951980792	0.8
0.679951980792	0.8
0.500776205519	0.519792083167
0.679951980792	0.8
0.679951980792	0.8
0.679951980792	0.8
0.679951980792	0.8
