0.907876660052	0.974
0.899688426172	0.972
0.962078982492	0.99
0.969737567972	0.992
1.0	1.0
0.992108409725	0.998
0.992108409725	0.998
0.992108409725	0.998
0.992108409725	0.998
0.885005636979	0.968
0.955110659263	0.988
0.992108409725	0.998
0.976670620799	0.994
0.992108409725	0.998
0.992108409725	0.998
0.955110659263	0.988
0.969269561106	0.992
0.984279475983	0.996
0.992108409725	0.998
1.0	1.0
0.969279243797	0.992
0.863997623115	0.958
0.946286781878	0.986
0.969737567972	0.992
0.969737567972	0.992
0.992108409725	0.998
0.910917564367	0.974
0.984435797665	0.996
0.936555891239	0.982
1.0	1.0
