0.941783746022	0.984
0.984435797665	0.996
0.968882936821	0.992
0.780783979548	0.904
0.94286157907	0.984
0.984438269154	0.996
0.97697966933	0.994
0.984358872568	0.996
0.949223929491	0.986
0.848117093263	0.952
0.857058037702	0.958
0.969121701457	0.992
0.948344370861	0.986
0.941837921675	0.984
0.760531996379	0.912
0.921103172774	0.978
0.823550803695	0.94
0.969190765109	0.992
0.774724884629	0.898
0.860511828597	0.958
0.969121701457	0.992
0.920617843695	0.978
0.828940643937	0.946
0.992108409725	0.998
1.0	1.0
0.955100125156	0.988
0.961782939653	0.99
0.969269561106	0.992
0.897942136837	0.968
0.976666930317	0.994
