0.878125703987	0.966
0.739049200747	0.914
0.984279475983	0.996
0.708771690122	0.876
0.798597194389	0.94
0.941281553398	0.984
0.511013215859	0.778
0.808226109585	0.942
0.847569085267	0.956
0.756446188341	0.924
0.770120617902	0.928
0.811520970187	0.944
0.961632012554	0.99
0.946819278985	0.986
0.924497806511	0.98
0.223882044815	0.434
0.626443492929	0.828
0.961852433281	0.99
0.245699652107	0.48
0.976591538157	0.994
0.940665477391	0.984
0.769013288097	0.922
0.7905	0.936
0.946421618254	0.986
0.774891774892	0.926
0.969114402773	0.992
0.23589093215	0.482
0.670611439842	0.866
0.766500666339	0.922
0.723048327138	0.908
