0.123472806556	0.442967884828
0.123472806556	0.442967884828
0.123472806556	0.442967884828
0.123472806556	0.442967884828
0.123472806556	0.442967884828
0.123472806556	0.442967884828
0.123472806556	0.442967884828
0.123472806556	0.442967884828
0.123472806556	0.442967884828
0.123472806556	0.442967884828
0.123472806556	0.442967884828
0.123472806556	0.442967884828
0.123472806556	0.442967884828
0.123472806556	0.442967884828
0.123472806556	0.442967884828
0.123472806556	0.442967884828
0.123472806556	0.442967884828
0.123472806556	0.442967884828
0.123472806556	0.442967884828
0.123472806556	0.442967884828
0.123472806556	0.442967884828
0.123472806556	0.442967884828
0.123472806556	0.442967884828
0.123472806556	0.442967884828
0.123472806556	0.442967884828
0.123472806556	0.442967884828
0.123472806556	0.442967884828
0.123472806556	0.442967884828
0.123472806556	0.442967884828
0.123472806556	0.442967884828
