0.123438186252	0.441501103753
0.123438186252	0.441501103753
0.123438186252	0.441501103753
0.123438186252	0.441501103753
0.123438186252	0.441501103753
0.123438186252	0.441501103753
0.123438186252	0.441501103753
0.123438186252	0.441501103753
0.123438186252	0.441501103753
0.123438186252	0.441501103753
0.123438186252	0.441501103753
0.123438186252	0.441501103753
0.123438186252	0.441501103753
0.123438186252	0.441501103753
0.123438186252	0.441501103753
0.123438186252	0.441501103753
0.123438186252	0.441501103753
0.123438186252	0.441501103753
0.123438186252	0.441501103753
0.123438186252	0.441501103753
0.123438186252	0.441501103753
0.123438186252	0.441501103753
0.123438186252	0.441501103753
0.123438186252	0.441501103753
0.123438186252	0.441501103753
0.123438186252	0.441501103753
0.123438186252	0.441501103753
0.123438186252	0.441501103753
0.123438186252	0.441501103753
0.123438186252	0.441501103753
