0.11322131477	0.438189845475
0.11322131477	0.438189845475
0.11322131477	0.438189845475
0.11322131477	0.438189845475
0.11322131477	0.438189845475
0.11322131477	0.438189845475
0.11322131477	0.438189845475
0.11322131477	0.438189845475
0.11322131477	0.438189845475
0.11322131477	0.438189845475
0.11322131477	0.438189845475
0.11322131477	0.438189845475
0.11322131477	0.438189845475
0.11322131477	0.438189845475
0.11322131477	0.438189845475
0.11322131477	0.438189845475
0.11322131477	0.438189845475
0.11322131477	0.438189845475
0.11322131477	0.438189845475
0.11322131477	0.438189845475
0.11322131477	0.438189845475
0.11322131477	0.438189845475
0.11322131477	0.438189845475
0.11322131477	0.438189845475
0.11322131477	0.438189845475
0.11322131477	0.438189845475
0.11322131477	0.438189845475
0.11322131477	0.438189845475
0.11322131477	0.438189845475
0.11322131477	0.438189845475
