0.752292917167	0.8552
0.339804081633	0.489
0.760890756303	0.8612
0.385840736295	0.6112
0.130230571173	0.447867298578
0.467415766307	0.6832
0.10995880378	0.374256247521
0.308280112045	0.5152
0.470859543818	0.6732
0.702456182473	0.8182
0.149733851629	0.601241272304
0.418988395358	0.6424
0.149733851629	0.601241272304
0.760890756303	0.8612
0.79456182473	0.89
0.51975030012	0.7152
0.385840736295	0.6112
0.187649808162	0.384
0.727519807923	0.848
0.79456182473	0.89
0.145349091256	0.366389548694
0.252830708957	0.50593824228
0.279310080223	0.478
0.702456182473	0.8182
0.702456182473	0.8182
0.81156462585	0.9
0.736629051621	0.844
