0.0550758177349	0.171
0.0927782786373	0.43512195122
0.0912662813102	0.268
0.0927782786373	0.43512195122
0.0550758177349	0.171
0.0927782786373	0.43512195122
0.0927782786373	0.43512195122
0.0927782786373	0.43512195122
0.0452789550681	0.328185328185
0.0927782786373	0.43512195122
0.0452789550681	0.328185328185
0.0292818022962	0.313991920676
0.0292818022962	0.313991920676
0.0927782786373	0.43512195122
0.0912662813102	0.268
0.0592706686541	0.1776
0.0927782786373	0.43512195122
0.0927782786373	0.43512195122
0.0538026441325	0.168
0.0912662813102	0.268
0.0557929536224	0.171
0.0550758177349	0.171
0.103536801541	0.286
0.0592706686541	0.1776
0.0953225604125	0.439453125
0.0927782786373	0.43512195122
0.0927782786373	0.43512195122
0.0194903141006	0.191279069767
0.0953225604125	0.439453125
0.0927782786373	0.43512195122
