0.118615736111	0.32016590954
0.0880930812321	0.4423374613
0.11120605439	0.310290341695
0.142227045783	0.36890905504
0.092302620124	0.451431888545
0.142227045783	0.36890905504
0.092302620124	0.451431888545
0.11120605439	0.310290341695
0.0924456666412	0.312969553183
0.11120605439	0.310290341695
0.0860283524943	0.295013850416
0.171236744778	0.372
0.0880930812321	0.4423374613
0.118615736111	0.32016590954
0.0880930812321	0.4423374613
0.207302921168	0.45
0.142227045783	0.36890905504
0.142227045783	0.36890905504
0.092302620124	0.451431888545
0.0206858176989	0.221632885016
0.092302620124	0.451431888545
0.092302620124	0.451431888545
0.10111672049	0.326611308818
0.092302620124	0.451431888545
0.0748641825209	0.28453364817
0.118615736111	0.32016590954
0.142227045783	0.36890905504
0.0880930812321	0.4423374613
0.0914927401817	0.304115552038
0.092302620124	0.451431888545
