0.145833533413	0.382
0.186538295318	0.4296
0.0682865286669	0.216
0.0458317933778	0.204802540187
0.186538295318	0.4296
0.186538295318	0.4296
0.145833533413	0.382
0.0748988209829	0.377206747744
0.0974440446708	0.285
0.186538295318	0.4296
0.0458317933778	0.204802540187
0.0974440446708	0.285
0.186538295318	0.4296
0.0727793201663	0.185603807258
0.104081337655	0.446358653093
0.186538295318	0.4296
0.186538295318	0.4296
0.159495798319	0.3992
0.145833533413	0.382
0.183088595438	0.425
0.1534727491	0.3918
0.162336614646	0.4026
0.160497173029	0.357
0.183088595438	0.425
0.104081337655	0.446358653093
0.114623111313	0.282301413498
0.116053143934	0.3088
0.156427738309	0.380175159236
0.0952548946311	0.258
0.104081337655	0.446358653093
