0.0291370492909	0.481927710843
0.0291370492909	0.481927710843
0.0291370492909	0.481927710843
0.0291370492909	0.481927710843
0.0291370492909	0.481927710843
0.0291370492909	0.481927710843
0.0291370492909	0.481927710843
0.0291370492909	0.481927710843
0.0291370492909	0.481927710843
0.0291370492909	0.481927710843
0.0291370492909	0.481927710843
0.0291370492909	0.481927710843
0.0291370492909	0.481927710843
0.0291370492909	0.481927710843
0.0291370492909	0.481927710843
0.0291370492909	0.481927710843
0.0291370492909	0.481927710843
0.0291370492909	0.481927710843
0.0291370492909	0.481927710843
0.0291370492909	0.481927710843
0.0291370492909	0.481927710843
0.0291370492909	0.481927710843
0.0291370492909	0.481927710843
0.0291370492909	0.481927710843
0.0291370492909	0.481927710843
0.0291370492909	0.481927710843
0.0291370492909	0.481927710843
0.0291370492909	0.481927710843
0.0291370492909	0.481927710843
0.0291370492909	0.481927710843
