0.049850181922	0.221518987342
0.049850181922	0.221518987342
0.049850181922	0.221518987342
0.049850181922	0.221518987342
0.049850181922	0.221518987342
0.049850181922	0.221518987342
0.049850181922	0.221518987342
0.049850181922	0.221518987342
0.049850181922	0.221518987342
0.049850181922	0.221518987342
0.049850181922	0.221518987342
0.049850181922	0.221518987342
0.049850181922	0.221518987342
0.049850181922	0.221518987342
0.049850181922	0.221518987342
0.049850181922	0.221518987342
0.049850181922	0.221518987342
0.049850181922	0.221518987342
0.049850181922	0.221518987342
0.049850181922	0.221518987342
0.049850181922	0.221518987342
0.049850181922	0.221518987342
0.049850181922	0.221518987342
0.049850181922	0.221518987342
0.049850181922	0.221518987342
0.049850181922	0.221518987342
0.049850181922	0.221518987342
0.049850181922	0.221518987342
0.049850181922	0.221518987342
0.049850181922	0.221518987342
