0.0369885252731	0.189709347997
0.0369885252731	0.189709347997
0.0369885252731	0.189709347997
0.0369885252731	0.189709347997
0.0369885252731	0.189709347997
0.0369885252731	0.189709347997
0.0369885252731	0.189709347997
0.0369885252731	0.189709347997
0.0369885252731	0.189709347997
0.0369885252731	0.189709347997
0.0369885252731	0.189709347997
0.0369885252731	0.189709347997
0.0369885252731	0.189709347997
0.0369885252731	0.189709347997
0.0369885252731	0.189709347997
0.0369885252731	0.189709347997
0.0369885252731	0.189709347997
0.0369885252731	0.189709347997
0.0369885252731	0.189709347997
0.0369885252731	0.189709347997
0.0369885252731	0.189709347997
0.0369885252731	0.189709347997
0.0369885252731	0.189709347997
0.0369885252731	0.189709347997
0.0369885252731	0.189709347997
0.0369885252731	0.189709347997
0.0369885252731	0.189709347997
0.0369885252731	0.189709347997
0.0369885252731	0.189709347997
0.0369885252731	0.189709347997
