0.0113141415086	0.0990825688073
0.0113141415086	0.0990825688073
0.0113141415086	0.0990825688073
0.0113141415086	0.0990825688073
0.0113141415086	0.0990825688073
0.0113141415086	0.0990825688073
0.0113141415086	0.0990825688073
0.0113141415086	0.0990825688073
0.0113141415086	0.0990825688073
0.0113141415086	0.0990825688073
0.0113141415086	0.0990825688073
0.0113141415086	0.0990825688073
0.0113141415086	0.0990825688073
0.0113141415086	0.0990825688073
0.0113141415086	0.0990825688073
0.0113141415086	0.0990825688073
0.0113141415086	0.0990825688073
0.0113141415086	0.0990825688073
0.0113141415086	0.0990825688073
0.0113141415086	0.0990825688073
0.0113141415086	0.0990825688073
0.0113141415086	0.0990825688073
0.0113141415086	0.0990825688073
0.0113141415086	0.0990825688073
0.0113141415086	0.0990825688073
0.0113141415086	0.0990825688073
0.0113141415086	0.0990825688073
0.0113141415086	0.0990825688073
0.0113141415086	0.0990825688073
0.0113141415086	0.0990825688073
