0.035752566515	0.186274509804
0.035752566515	0.186274509804
0.035752566515	0.186274509804
0.035752566515	0.186274509804
0.035752566515	0.186274509804
0.035752566515	0.186274509804
0.035752566515	0.186274509804
0.035752566515	0.186274509804
0.035752566515	0.186274509804
0.035752566515	0.186274509804
0.035752566515	0.186274509804
0.035752566515	0.186274509804
0.035752566515	0.186274509804
0.035752566515	0.186274509804
0.035752566515	0.186274509804
0.035752566515	0.186274509804
0.035752566515	0.186274509804
0.035752566515	0.186274509804
0.035752566515	0.186274509804
0.035752566515	0.186274509804
0.035752566515	0.186274509804
0.035752566515	0.186274509804
0.035752566515	0.186274509804
0.035752566515	0.186274509804
0.035752566515	0.186274509804
0.035752566515	0.186274509804
0.035752566515	0.186274509804
0.035752566515	0.186274509804
0.035752566515	0.186274509804
0.035752566515	0.186274509804
