0.0520666225001	0.492195814118
0.0520666225001	0.492195814118
0.0520666225001	0.492195814118
0.0520666225001	0.492195814118
0.0520666225001	0.492195814118
0.0520666225001	0.492195814118
0.0520666225001	0.492195814118
0.0520666225001	0.492195814118
0.0520666225001	0.492195814118
0.0520666225001	0.492195814118
0.0520666225001	0.492195814118
0.0520666225001	0.492195814118
0.0520666225001	0.492195814118
0.0520666225001	0.492195814118
0.0520666225001	0.492195814118
0.0520666225001	0.492195814118
0.0520666225001	0.492195814118
0.0520666225001	0.492195814118
0.0520666225001	0.492195814118
0.0520666225001	0.492195814118
0.0520666225001	0.492195814118
0.0520666225001	0.492195814118
0.0520666225001	0.492195814118
0.0520666225001	0.492195814118
0.0520666225001	0.492195814118
0.0520666225001	0.492195814118
0.0520666225001	0.492195814118
0.0520666225001	0.492195814118
0.0520666225001	0.492195814118
0.0520666225001	0.492195814118
