0.0548180893643	0.490420108982
0.0548180893643	0.490420108982
0.0548180893643	0.490420108982
0.0548180893643	0.490420108982
0.0548180893643	0.490420108982
0.0548180893643	0.490420108982
0.0548180893643	0.490420108982
0.0548180893643	0.490420108982
0.0548180893643	0.490420108982
0.0548180893643	0.490420108982
0.0548180893643	0.490420108982
0.0548180893643	0.490420108982
0.0548180893643	0.490420108982
0.0548180893643	0.490420108982
0.0548180893643	0.490420108982
0.0548180893643	0.490420108982
0.0548180893643	0.490420108982
0.0548180893643	0.490420108982
0.0548180893643	0.490420108982
0.0548180893643	0.490420108982
0.0548180893643	0.490420108982
0.0548180893643	0.490420108982
0.0548180893643	0.490420108982
0.0548180893643	0.490420108982
0.0548180893643	0.490420108982
0.0548180893643	0.490420108982
0.0548180893643	0.490420108982
0.0548180893643	0.490420108982
0.0548180893643	0.490420108982
0.0548180893643	0.490420108982
