0.0484203061892	0.403589834725
0.0484203061892	0.403589834725
0.0484203061892	0.403589834725
0.0484203061892	0.403589834725
0.0484203061892	0.403589834725
0.0484203061892	0.403589834725
0.0484203061892	0.403589834725
0.0484203061892	0.403589834725
0.0484203061892	0.403589834725
0.0484203061892	0.403589834725
0.0484203061892	0.403589834725
0.0484203061892	0.403589834725
0.0484203061892	0.403589834725
0.0484203061892	0.403589834725
0.0484203061892	0.403589834725
0.0484203061892	0.403589834725
0.0484203061892	0.403589834725
0.0484203061892	0.403589834725
0.0484203061892	0.403589834725
0.0484203061892	0.403589834725
0.0484203061892	0.403589834725
0.0484203061892	0.403589834725
0.0484203061892	0.403589834725
0.0484203061892	0.403589834725
0.0484203061892	0.403589834725
0.0484203061892	0.403589834725
0.0484203061892	0.403589834725
0.0484203061892	0.403589834725
0.0484203061892	0.403589834725
0.0484203061892	0.403589834725
