0.141328157761	0.9
0.141328157761	0.9
0.141328157761	0.9
0.0808974425501	0.679592244653
0.0857124235386	0.699860027994
0.141328157761	0.9
0.0857124235386	0.699860027994
0.141328157761	0.9
0.0832556076914	0.689724110356
