1.0	1.0
0.0489870488768	0.503557312253
1.0	1.0
0.935115733958	0.98
0.0324546793196	0.492319810949
1.0	1.0
1.0	1.0
1.0	1.0
1.0	1.0
0.935115733958	0.98
1.0	1.0
1.0	1.0
1.0	1.0
0.0390625603184	0.315908662012
1.0	1.0
0.967544879507	0.99
1.0	1.0
0.0344610871591	0.493890421758
1.0	1.0
0.032454599405	0.492029128124
1.0	1.0
1.0	1.0
1.0	1.0
0.935115733958	0.98
1.0	1.0
1.0	1.0
0.967544879507	0.99
1.0	1.0
1.0	1.0
1.0	1.0
