0.0334588174735	0.492419767671
1.0	1.0
0.967544879507	0.99
1.0	1.0
0.967544879507	0.99
1.0	1.0
0.967544879507	0.99
1.0	1.0
1.0	1.0
1.0	1.0
1.0	1.0
1.0	1.0
1.0	1.0
1.0	1.0
0.967544879507	0.99
1.0	1.0
1.0	1.0
1.0	1.0
1.0	1.0
1.0	1.0
1.0	1.0
0.967544879507	0.99
1.0	1.0
1.0	1.0
1.0	1.0
1.0	1.0
1.0	1.0
1.0	1.0
1.0	1.0
0.967544879507	0.99
