0.967544879507	0.99
1.0	1.0
1.0	1.0
1.0	1.0
1.0	1.0
1.0	1.0
0.967544879507	0.99
1.0	1.0
0.967544879507	0.99
1.0	1.0
1.0	1.0
0.0324614958998	0.501184834123
1.0	1.0
1.0	1.0
1.0	1.0
0.967544879507	0.99
1.0	1.0
1.0	1.0
0.0396469510391	0.497337803195
1.0	1.0
0.967544879507	0.99
1.0	1.0
1.0	1.0
1.0	1.0
1.0	1.0
1.0	1.0
0.967544879507	0.99
1.0	1.0
1.0	1.0
0.0324546793196	0.492319810949
