0.031956360528	0.492038529585
1.0	1.0
1.0	1.0
0.0324543414558	0.49115913556
0.0324544304731	0.491448791036
0.0311694098895	0.483234714004
0.032454599405	0.492029128124
0.902660613466	0.97
0.935089759015	0.98
0.0311694098895	0.483234714004
0.0384895319589	0.495575221239
1.0	1.0
1.0	1.0
0.935115733958	0.98
0.935115733958	0.98
0.967544879507	0.99
0.0490856141693	0.502871855813
0.0324540561991	0.49029221416
1.0	1.0
0.932570708991	0.96
0.0324548300455	0.492902208202
0.0324544304731	0.491448791036
0.0311692933071	0.48275862069
1.0	1.0
1.0	1.0
0.0550939188443	0.494404084037
1.0	1.0
0.0384537445987	0.495634920635
1.0	1.0
1.0	1.0
