0.687048840677	0.828912466844
0.687048840677	0.828912466844
0.687048840677	0.828912466844
0.687048840677	0.828912466844
0.687048840677	0.828912466844
0.687048840677	0.828912466844
0.687048840677	0.828912466844
0.687048840677	0.828912466844
0.687048840677	0.828912466844
0.687048840677	0.828912466844
0.687048840677	0.828912466844
0.687048840677	0.828912466844
0.687048840677	0.828912466844
0.687048840677	0.828912466844
0.687048840677	0.828912466844
0.687048840677	0.828912466844
0.687048840677	0.828912466844
0.687048840677	0.828912466844
0.687048840677	0.828912466844
0.687048840677	0.828912466844
0.687048840677	0.828912466844
0.687048840677	0.828912466844
0.687048840677	0.828912466844
0.687048840677	0.828912466844
0.687048840677	0.828912466844
0.687048840677	0.828912466844
0.687048840677	0.828912466844
0.687048840677	0.828912466844
0.687048840677	0.828912466844
0.687048840677	0.828912466844
