0.00268427370948	0.052
0.00232412965186	0.0484
0.00128211284514	0.036
0.00158463385354	0.04
0.00101160464186	0.032
0.000773109243697	0.028
0.00268427370948	0.052
7.39485145472e-05	0.0087929656275
0.000201675959233	0.0143884892086
0.00228571428571	0.048
0.00198991596639	0.0448
0.00191916766707	0.044
0.00145978391357	0.0384
