0.00191916766707	0.044
0.00128211284514	0.036
0.00101160464186	0.032
0.000961344537815	0.0312
0.00111596638655	0.0336
0.00191916766707	0.044
0.00128211284514	0.036
7.39485145472e-05	0.0087929656275
0.00228571428571	0.048
7.39485145472e-05	0.0087929656275
0.00158463385354	0.04
0.00158463385354	0.04
0.00128211284514	0.036
