0.000566604702947	0.0239808153477
0.00158463385354	0.04
0.00155294117647	0.0396
0.00128211284514	0.036
0.000566604702947	0.0239808153477
0.000566604702947	0.0239808153477
0.000566604702947	0.0239808153477
0.000566604702947	0.0239808153477
0.000566604702947	0.0239808153477
0.00171460584234	0.0416
0.000936694677871	0.0308
0.000566604702947	0.0239808153477
