0.00155294117647	0.0396
0.00101160464186	0.032
0.00122545018007	0.0352
0.00128211284514	0.036
0.00101160464186	0.032
0.00174789915966	0.042
4.89790116932e-05	0.00719424460432
0.00158463385354	0.04
0.00101160464186	0.032
0.00128211284514	0.036
0.000961344537815	0.0312
0.00122545018007	0.0352
