0.0783193277311	0.28
0.000624756247562	0.025
0.0287261966162	0.134659208618
0.000624756247562	0.025
0.000624756247562	0.025
0.0783193277311	0.28
0.028276232347	0.133579942458
0.000624756247562	0.025
0.129507803121	0.36
0.0288780476318	0.135022850021
0.0285752799612	0.134297520661
0.0783193277311	0.28
0.000624756247562	0.025
0.000624756247562	0.025
0.000624756247562	0.025
0.000624756247562	0.025
0.0675230092037	0.26
0.0294948806788	0.136497270055
0.0287261966162	0.134659208618
0.0783193277311	0.28
0.0783193277311	0.28
0.0291845699031	0.135756056809
0.0675230092037	0.26
0.0675230092037	0.26
0.0783193277311	0.28
0.000624756247562	0.025
0.0287261966162	0.134659208618
0.0294948806788	0.136497270055
0.0783193277311	0.28
0.0299675226928	0.137624391277
