0.000624756247562	0.025
0.000624756247562	0.025
0.000624756247562	0.025
0.000624756247562	0.025
0.0231191698226	0.119331742243
0.02228848717	0.116822429907
0.0960144057623	0.31
0.000624756247562	0.025
0.0301074620264	0.137614678899
0.000624756247562	0.025
0.0221978841279	0.11655011655
0.0295179167348	0.13611615245
0.000624756247562	0.025
0.000624756247562	0.025
0.000624756247562	0.025
0.000624756247562	0.025
0.000624756247562	0.025
0.000624756247562	0.025
0.0298111990572	0.136861313869
0.000624756247562	0.025
0.000624756247562	0.025
0.000624756247562	0.025
0.000624756247562	0.025
0.0298111990572	0.136861313869
0.000624756247562	0.025
0.000624756247562	0.025
0.0231191698226	0.119331742243
0.000624756247562	0.025
0.0230255264955	0.119047619048
0.0228392428539	0.118483412322
