0.000624756247562	0.025
0.000624756247562	0.025
0.000624756247562	0.025
0.000624756247562	0.025
0.0778216181553	0.276898734177
0.000624756247562	0.025
0.0261736536756	0.127462340672
0.0262919312549	0.127788104089
0.0266498503566	0.128775462421
0.0271342510542	0.130115921457
0.0264107236197	0.128115536921
0.0265300302018	0.128444652032
0.16247394958	0.4032
0.000624756247562	0.025
0.000624756247562	0.025
0.000624756247562	0.025
0.000624756247562	0.025
0.0266498503566	0.128775462421
0.0264107236197	0.128115536921
0.0267701833618	0.129107981221
0.000624756247562	0.025
0.0265300302018	0.128444652032
0.0261736536756	0.127462340672
0.000624756247562	0.025
0.000624756247562	0.025
0.0778216181553	0.276898734177
0.000624756247562	0.025
0.000624756247562	0.025
0.0262919312549	0.127788104089
0.000624756247562	0.025
