0.159903961585	0.4
0.115510204082	0.34
0.000624756247562	0.025
0.115510204082	0.34
0.000624756247562	0.025
0.000624756247562	0.025
0.000624756247562	0.025
0.000624756247562	0.025
0.000624756247562	0.025
0.000624756247562	0.025
0.242751820728	0.4928
0.000624756247562	0.025
0.000624756247562	0.025
0.000624756247562	0.025
0.159903961585	0.4
0.000624756247562	0.025
0.159903961585	0.4
0.000624756247562	0.025
0.159903961585	0.4
0.115510204082	0.34
0.000624756247562	0.025
0.000624756247562	0.025
0.000624756247562	0.025
0.000624756247562	0.025
0.242751820728	0.4928
0.000624756247562	0.025
0.000624756247562	0.025
0.000624756247562	0.025
0.000624756247562	0.025
0.159903961585	0.4
