0.0520105859002	0.187224669604
0.000624756247562	0.025
0.000624756247562	0.025
0.000624756247562	0.025
0.000624756247562	0.025
0.0266498503566	0.128775462421
0.0523803765464	0.187928366129
0.000624756247562	0.025
0.0523803765464	0.187928366129
0.0942866746699	0.3072
0.000624756247562	0.025
0.000624756247562	0.025
0.0535082235018	0.190071556351
0.000624756247562	0.025
0.0268910284155	0.129442221699
0.0264107236197	0.128115536921
0.0520105859002	0.187224669604
0.0267701833618	0.129107981221
0.000624756247562	0.025
0.000624756247562	0.025
0.000624756247562	0.025
0.000624756247562	0.025
0.000624756247562	0.025
0.0268910284155	0.129442221699
0.0509194285509	0.185144848617
0.0535082235018	0.190071556351
0.000624756247562	0.025
0.0268910284155	0.129442221699
0.0527532341647	0.188637372392
0.000624756247562	0.025
