0.117696038415	0.3432
0.117696038415	0.3432
0.000624756247562	0.025
0.117696038415	0.3432
0.000624756247562	0.025
0.117696038415	0.3432
0.000624756247562	0.025
0.117696038415	0.3432
0.177648979592	0.4216
0.000624756247562	0.025
0.000624756247562	0.025
0.000624756247562	0.025
0.117696038415	0.3432
0.000624756247562	0.025
0.000624756247562	0.025
0.117696038415	0.3432
0.000624756247562	0.025
0.000624756247562	0.025
0.000624756247562	0.025
0.000624756247562	0.025
0.000624756247562	0.025
0.0143054362297	0.0944924406048
0.112806722689	0.336
0.117696038415	0.3432
0.111734293717	0.3344
0.000624756247562	0.025
0.000624756247562	0.025
0.188257703081	0.434
0.000624756247562	0.025
0.000624756247562	0.025
