1.0	1.0
1.0	1.0
1.0	1.0
1.0	1.0
0.499609919777	0.494103773585
0.505407185879	0.552012754085
1.0	1.0
0.499749748549	0.504241467745
1.0	1.0
1.0	1.0
1.0	1.0
1.0	1.0
1.0	1.0
1.0	1.0
1.0	1.0
1.0	1.0
0.507634204177	0.561752988048
1.0	1.0
1.0	1.0
1.0	1.0
1.0	1.0
1.0	1.0
1.0	1.0
1.0	1.0
1.0	1.0
1.0	1.0
1.0	1.0
1.0	1.0
1.0	1.0
1.0	1.0
