1.0	1.0
1.0	1.0
1.0	1.0
1.0	1.0
1.0	1.0
1.0	1.0
1.0	1.0
1.0	1.0
1.0	1.0
1.0	1.0
1.0	1.0
1.0	1.0
1.0	1.0
1.0	1.0
0.499759779333	0.492319810949
0.499743229991	0.493498817967
1.0	1.0
1.0	1.0
1.0	1.0
1.0	1.0
1.0	1.0
1.0	1.0
1.0	1.0
1.0	1.0
0.297292291785	0.486286714647
1.0	1.0
1.0	1.0
1.0	1.0
1.0	1.0
0.0093197319684	0.0671773718326
