0.000225050020008	0.0152
0.000201680672269	0.0144
0.000201680672269	0.0144
0.000225050020008	0.0152
0.000225050020008	0.0152
0.000225050020008	0.0152
0.000225050020008	0.0152
0.000201680672269	0.0144
0.000225050020008	0.0152
0.000225050020008	0.0152
0.000201680672269	0.0144
0.000139255702281	0.012
0.000225050020008	0.0152
