0.164739495798	0.406
0.118012375823	0.33629686896
0.118012375823	0.33629686896
0.118012375823	0.33629686896
0.118012375823	0.33629686896
0.118012375823	0.33629686896
0.118012375823	0.33629686896
0.118012375823	0.33629686896
0.118012375823	0.33629686896
0.118012375823	0.33629686896
0.164739495798	0.406
0.118012375823	0.33629686896
0.118012375823	0.33629686896
0.118012375823	0.33629686896
0.118012375823	0.33629686896
0.164739495798	0.406
0.118012375823	0.33629686896
0.164739495798	0.406
0.118012375823	0.33629686896
0.118012375823	0.33629686896
0.118012375823	0.33629686896
0.164739495798	0.406
0.118012375823	0.33629686896
0.118012375823	0.33629686896
0.164739495798	0.406
0.164739495798	0.406
0.118012375823	0.33629686896
0.118012375823	0.33629686896
0.118012375823	0.33629686896
0.164739495798	0.406
