0.147361344538	0.384
0.147361344538	0.384
0.147361344538	0.384
0.147361344538	0.384
0.147361344538	0.384
0.147361344538	0.384
0.147361344538	0.384
0.147361344538	0.384
0.147361344538	0.384
0.147361344538	0.384
0.147361344538	0.384
0.147361344538	0.384
0.147361344538	0.384
0.147361344538	0.384
0.147361344538	0.384
0.147361344538	0.384
0.147361344538	0.384
0.147361344538	0.384
0.147361344538	0.384
0.147361344538	0.384
0.147361344538	0.384
0.147361344538	0.384
0.147361344538	0.384
0.147361344538	0.384
0.147361344538	0.384
0.147361344538	0.384
0.147361344538	0.384
0.147361344538	0.384
0.147361344538	0.384
0.147361344538	0.384
