0.176302521008	0.42
0.176302521008	0.42
0.176302521008	0.42
0.176302521008	0.42
0.176302521008	0.42
0.176302521008	0.42
0.176302521008	0.42
0.176302521008	0.42
0.176302521008	0.42
0.176302521008	0.42
0.176302521008	0.42
0.176302521008	0.42
0.176302521008	0.42
0.176302521008	0.42
0.176302521008	0.42
0.176302521008	0.42
0.176302521008	0.42
0.176302521008	0.42
0.176302521008	0.42
0.176302521008	0.42
0.176302521008	0.42
0.176302521008	0.42
0.176302521008	0.42
0.176302521008	0.42
0.176302521008	0.42
0.176302521008	0.42
0.176302521008	0.42
0.176302521008	0.42
0.176302521008	0.42
0.176302521008	0.42
