0.0787678271309	0.2808
0.129507803121	0.36
0.129507803121	0.36
0.129507803121	0.36
0.129507803121	0.36
0.129507803121	0.36
0.129507803121	0.36
0.129507803121	0.36
0.129507803121	0.36
0.129507803121	0.36
0.0787678271309	0.2808
0.129507803121	0.36
0.129507803121	0.36
0.0787678271309	0.2808
0.129507803121	0.36
0.129507803121	0.36
0.129507803121	0.36
0.129507803121	0.36
0.129507803121	0.36
0.129507803121	0.36
0.129507803121	0.36
0.129507803121	0.36
0.129507803121	0.36
0.129507803121	0.36
0.0787678271309	0.2808
0.129507803121	0.36
0.129507803121	0.36
0.129507803121	0.36
0.129507803121	0.36
0.129507803121	0.36
