0.136806722689	0.37
0.136806722689	0.37
0.136806722689	0.37
0.136806722689	0.37
0.136806722689	0.37
0.136806722689	0.37
0.136806722689	0.37
0.136806722689	0.37
0.136806722689	0.37
0.136806722689	0.37
0.136806722689	0.37
0.136806722689	0.37
0.136806722689	0.37
0.136806722689	0.37
0.136806722689	0.37
0.136806722689	0.37
0.136806722689	0.37
0.136806722689	0.37
0.136806722689	0.37
0.136806722689	0.37
0.136806722689	0.37
0.136806722689	0.37
0.136806722689	0.37
0.136806722689	0.37
0.136806722689	0.37
0.136806722689	0.37
0.136806722689	0.37
0.136806722689	0.37
0.136806722689	0.37
0.136806722689	0.37
