0.996203722292	0.980392156863
0.996203722292	0.980392156863
0.996203722292	0.980392156863
0.996203722292	0.980392156863
0.996203722292	0.980392156863
0.996203722292	0.980392156863
0.996203722292	0.980392156863
0.0308155668661	0.292056074766
0.996203722292	0.980392156863
0.996203722292	0.980392156863
0.0545725123079	0.69033530572
0.0545725123079	0.69033530572
0.996203722292	0.980392156863
0.996203722292	0.980392156863
0.996203722292	0.980392156863
0.996203722292	0.980392156863
0.996203722292	0.980392156863
0.996203722292	0.980392156863
0.0382474782956	0.49504950495
0.996203722292	0.980392156863
0.0470599667134	0.485436893204
0.0497008045908	0.490422204848
0.996203722292	0.980392156863
0.996203722292	0.980392156863
0.996203722292	0.980392156863
0.996203722292	0.980392156863
0.996203722292	0.980392156863
0.996203722292	0.980392156863
0.996203722292	0.980392156863
0.0545725123079	0.69033530572
