0.047059351332	0.486423584174
0.0471364994652	0.512820512821
0.996203722292	0.980392156863
0.996203722292	0.980392156863
0.996203722292	0.980392156863
0.0470612358013	0.487329434698
0.996203722292	0.980392156863
0.996203722292	0.980392156863
0.0470596051422	0.484966052376
0.996203722292	0.980392156863
0.996203722292	0.980392156863
0.95320213205	0.980392156863
0.996203722292	0.980392156863
0.0470617888065	0.48984375
0.0308910682247	0.317082837891
0.996203722292	0.980392156863
0.0590342990549	0.496478873239
0.0545725123079	0.69033530572
0.996203722292	0.980392156863
0.996203722292	0.980392156863
0.996203722292	0.980392156863
0.996203722292	0.980392156863
0.996203722292	0.980392156863
0.996203722292	0.980392156863
0.996203722292	0.980392156863
0.0545725123079	0.69033530572
0.0470610046662	0.486949746786
0.996203722292	0.980392156863
0.996203722292	0.980392156863
0.996203722292	0.980392156863
