0.996203722292	0.980392156863
0.996203722292	0.980392156863
0.996203722292	0.980392156863
0.0382474782956	0.49504950495
0.996203722292	0.980392156863
0.0545725123079	0.69033530572
0.996203722292	0.980392156863
0.0470616665178	0.4892578125
0.996203722292	0.980392156863
0.0470610046662	0.486949746786
0.996203722292	0.980392156863
0.996203722292	0.980392156863
0.996203722292	0.980392156863
0.996203722292	0.980392156863
0.996203722292	0.980392156863
0.996203722292	0.980392156863
0.996203722292	0.980392156863
0.996203722292	0.980392156863
0.996203722292	0.980392156863
0.996203722292	0.980392156863
0.0471352418213	0.51140833989
0.996203722292	0.980392156863
0.996203722292	0.980392156863
0.996203722292	0.980392156863
0.996203722292	0.980392156863
0.0470589096651	0.484120836561
0.996203722292	0.980392156863
0.996203722292	0.980392156863
0.996203722292	0.980392156863
0.0545725123079	0.69033530572
