0.996203722292	0.980392156863
0.996203722292	0.980392156863
0.996203722292	0.980392156863
0.996203722292	0.980392156863
0.0575547898111	0.491433021807
0.996203722292	0.980392156863
0.0470616640453	0.488090589613
0.996203722292	0.980392156863
0.996203722292	0.980392156863
0.0470616640453	0.488090589613
0.0470620006395	0.490027375831
0.996203722292	0.980392156863
0.996203722292	0.980392156863
0.996203722292	0.980392156863
0.0470571586566	0.48225308642
0.996203722292	0.980392156863
0.996203722292	0.980392156863
0.0470577137193	0.482811896485
0.0469909691142	0.48828125
0.996203722292	0.980392156863
0.996203722292	0.980392156863
0.996203722292	0.980392156863
0.996203722292	0.980392156863
0.0545725123079	0.69033530572
0.95320213205	0.980392156863
0.0742172226276	0.506903353057
0.996203722292	0.980392156863
0.0545725123079	0.69033530572
0.0545725123079	0.69033530572
0.0470694862219	0.496278887583
