0.821007002334	0.892
0.791663887963	0.852
0.833277759253	0.9
1.0	1.0
1.0	1.0
1.0	1.0
0.826875625208	0.896
0.833277759253	0.9
0.709359718217	0.7984
1.0	1.0
0.791597199066	0.85
1.0	1.0
0.791863954652	0.854
0.801200400133	0.874
0.518210422902	0.631264
0.793997999333	0.862
0.644128032531	0.726544
0.793997999333	0.862
1.0	1.0
0.525298944187	0.637056
0.421920164293	0.561936
0.81567189063	0.888
0.833277759253	0.9
0.823874624875	0.894
0.68848242355	0.78
0.672134895684	0.764
0.517883991578	0.646296
0.821007002334	0.892
0.830010003334	0.898
0.830010003334	0.898
