0.647613603887	0.722
0.646870534438	0.724
0.510477179667	0.62864
0.799666555519	0.872
0.791863954652	0.854
0.792664221407	0.858
1.0	1.0
1.0	1.0
1.0	1.0
1.0	1.0
0.467275246988	0.59848
0.818272757586	0.89
0.648356673335	0.728
0.833277759253	0.9
0.798266088696	0.87
0.544942893463	0.673888
0.714204058302	0.8
0.533404284925	0.637152
1.0	1.0
0.684424121177	0.774
0.801200400133	0.874
0.644584166905	0.716
0.647752914193	0.734528
0.688596741926	0.78
0.810870290097	0.884
0.833277759253	0.9
0.833277759253	0.9
0.833277759253	0.9
0.522094827098	0.625064
0.508958450336	0.64584
