0.795865288429	0.866
0.64441268934	0.714
0.833277759253	0.9
0.796998999667	0.868
0.806602200734	0.88
0.425476689458	0.56544
0.799666555519	0.872
0.792664221407	0.858
1.0	1.0
0.793997999333	0.862
0.641409301848	0.71856
0.668933981137	0.76
0.818272757586	0.89
0.573643410853	0.742
0.791663887963	0.852
0.499018728444	0.625632
0.703515290083	0.792
0.813204401467	0.886
0.522314633774	0.64536
0.684309802801	0.774
0.521791255261	0.63232
0.508879312037	0.6122
0.439238621474	0.576704
0.646070305802	0.72
0.672134895684	0.764
0.540443127756	0.6398
0.796998999667	0.868
0.796998999667	0.868
0.522271412824	0.627072
0.808669556519	0.882
