0.537512754206	0.676864
0.703229494141	0.792
1.0	1.0
0.656587596456	0.744
0.821007002334	0.892
0.821007002334	0.892
0.830010003334	0.898
0.808669556519	0.882
0.533697589976	0.67748
0.676136038868	0.764
0.791663887963	0.852
0.826875625208	0.896
0.833277759253	0.9
0.67488115865	0.772896
0.512018867035	0.631264
0.802867622541	0.876
0.791597199066	0.85
0.833277759253	0.9
1.0	1.0
0.833277759253	0.9
0.793997999333	0.862
0.823874624875	0.894
0.804668222741	0.878
0.830010003334	0.898
0.792197399133	0.856
0.813204401467	0.886
0.526402981386	0.633192
0.806602200734	0.88
1.0	1.0
1.0	1.0
