1.0	1.0
1.0	1.0
1.0	1.0
0.694198342384	0.784
0.513511108551	0.6202
0.791597199066	0.85
0.678993998285	0.756
1.0	1.0
0.64989997142	0.73
0.826875625208	0.896
0.643783938268	0.712
0.523914770764	0.633008
0.679908545299	0.76
1.0	1.0
0.796998999667	0.868
0.830010003334	0.898
0.833277759253	0.9
0.667574614444	0.762472
0.792664221407	0.858
0.644584166905	0.716
0.678536724779	0.752
0.810870290097	0.884
1.0	1.0
0.524200840115	0.634224
1.0	1.0
0.52019288553	0.62184
0.799666555519	0.872
1.0	1.0
0.515090817759	0.619424
0.791863954652	0.854
