7.39485145472e-05	0.0087929656275
0.00158463385354	0.04
0.00228571428571	0.048
0.00228571428571	0.048
0.00191916766707	0.044
0.00191916766707	0.044
7.39485145472e-05	0.0087929656275
0.00152156862745	0.0392
7.39485145472e-05	0.0087929656275
