0.00158133020858	0.0391849529781
9.59155329451e-07	0.00115964437572
0.000168777827964	0.0128454651615
0.000249405663107	0.0156555772994
1.91883089471e-06	0.00155279503106
0.00158133020858	0.0391849529781
0.0	0.0
0.0	0.0
3.19718238711e-07	0.000772797527048
0.0	0.0
0.0	0.0
0.0	0.0
0.000112233660889	0.0105345298478
0.0	0.0
0.0	0.0
8.9521879627e-06	0.00309837335399
3.35613909758e-05	0.00580270793037
0.00031607045881	0.0173544157347
0.00062417364108	0.0246382479468
4.79709104399e-06	0.002331002331
0.000391558948001	0.01953125
0.000236782821263	0.015145631068
0.000360674576567	0.0188161505292
0.000423942860431	0.0203761755486
0.0	0.0
9.59155329451e-07	0.00115964437572
0.0	0.0
0.000457466632269	0.0211433046202
0.00133814545699	0.0362204724409
0.0	0.0
