0.0	0.0
0.000316374691175	0.0175165434021
0.0	0.0
0.000103967362566	0.0102120974077
0.000139096734584	0.01171875
1.15128012756e-05	0.00349922239502
9.59414526879e-07	0.0011641443539
0.0	0.0
0.0	0.0
0.0	0.0
0.00232309889874	0.0481879729192
6.07218873641e-05	0.00773694390716
0.000423635405185	0.0202177293935
1.43836325768e-05	0.00386249517188
1.43875231399e-05	0.00387596899225
0.000457513142712	0.0211681693454
0.0	0.0
0.0	0.0
0.0	0.0
0.000275252234626	0.01640625
0.0	0.0
0.0	0.0
0.0	0.0
9.59155329451e-07	0.00115964437572
0.0	0.0
0.0	0.0
8.9521879627e-06	0.00309837335399
0.00328757675323	0.0565149136578
0.0	0.0
0.000665146636053	0.0255905511811
