0.0	0.0
0.0	0.0
0.000139096734584	0.01171875
6.07317860579e-05	0.0077519379845
6.71546571755e-05	0.0081903276131
2.90976530025e-05	0.00544111931597
0.000139151463969	0.0117878192534
0.00276649248366	0.05256869773
0.0	0.0
0.0	0.0
0.0	0.0
4.79659096687e-06	0.00232738557021
0.0	0.0
0.000492741659388	0.0221870047544
0.0	0.0
0.0	0.0
0.000886762788557	0.0293542074364
0.00051024127123	0.0223441787534
0.000565718241633	0.0234649980446
0.000275368701421	0.0164964650432
2.90787128803e-05	0.00539707016191
1.9192881744e-06	0.00155884645362
0.000725697265096	0.0259541984733
0.0	0.0
0.000816790346279	0.0281690140845
0.0	0.0
0.000302373407505	0.0171606864275
4.89273869609e-05	0.00701480904131
4.7943465066e-06	0.00231303006939
0.0	0.0
