0.000236808246679	0.0151632970451
0.000686014514724	0.0260252365931
3.19844939173e-06	0.00194552529183
0.000168761158852	0.0128304821151
0.000360176026454	0.0185471406491
0.000565588629176	0.0234100663285
0.0	0.0
2.11075448599e-05	0.00467289719626
0.0	0.0
0.00416123020017	0.0634299138606
0.000302404144919	0.0171807887544
0.0	0.0
4.7957950469e-06	0.00232198142415
0.000491794378854	0.0217054263566
1.150346446e-05	0.00346287033474
0.000360176026454	0.0185471406491
3.83642997173e-05	0.00620876988747
0.0	0.0
0.0	0.0
2.11053444488e-05	0.00466562986003
0.0	0.0
0.000275197072747	0.0163678877631
8.82499930455e-05	0.00935307872175
0.0	0.0
0.0	0.0
0.000315985414879	0.0173143516737
1.75862911343e-05	0.0042701863354
3.19804637743e-07	0.00077579519007
6.07501362881e-05	0.00778210116732
0.000817289706179	0.0283464566929
