0.0	0.0
0.0	0.0
7.38472397916e-05	0.00854700854701
0.0	0.0
0.0	0.0
0.0	0.0
0.000727643954039	0.0264797507788
0.0	0.0
0.0	0.0
0.0	0.0
0.0	0.0
0.0	0.0
9.59414526879e-07	0.0011641443539
0.0	0.0
0.0	0.0
0.0	0.0
0.000275353113985	0.0164835164835
3.19804637743e-07	0.00077579519007
7.38107836596e-05	0.00849748937814
0.000168880990717	0.0129513343799
0.0	0.0
0.0	0.0
0.0	0.0
0.000112243135901	0.010546875
0.000510187935206	0.0223179326547
0.0	0.0
0.0	0.0
0.000565958099916	0.0235756385069
0.0	0.0
0.0	0.0
