0.000201348845504	0.0139968895801
8.9521879627e-06	0.00309837335399
7.38472397916e-05	0.00854700854701
0.0	0.0
3.35705653283e-05	0.00582298136646
0.0	0.0
4.7943465066e-06	0.00231303006939
0.00127917672761	0.03515625
8.82233354558e-05	0.00931677018634
0.00276477890403	0.0522979397781
0.00013913076853	0.0117600940808
2.11075448599e-05	0.00467289719626
0.000726634305177	0.0261840585291
0.000644221182606	0.025
3.83780170718e-05	0.00624024960998
0.0	0.0
0.000457160163236	0.0209953343701
0.0	0.0
0.000565236426901	0.0232738557021
3.83708872404e-05	0.00622325943213
0.0	0.0
0.0	0.0
0.0	0.0
0.00013910847775	0.0117324990223
0.00170291778875	0.0395738203957
0.00151706417919	0.0381322957198
6.71768911494e-06	0.00273224043716
0.000565861300042	0.0235294117647
0.000360031177168	0.0184828648441
0.000492114975953	0.0218408736349
