4.79659096687e-06	0.00232738557021
0.0	0.0
8.80848065198e-05	0.00917080626672
0.0	0.0
2.11018422867e-05	0.00465477114042
0.000139054715633	0.011673151751
0.0	0.0
8.95460717737e-06	0.00311041990669
0.000424050778642	0.0204402515723
8.80848065198e-05	0.00917080626672
0.000112252289419	0.0105592491201
0.00111353879178	0.0328125
3.19804637743e-07	0.00077579519007
6.71668357032e-05	0.0082127493156
0.0	0.000386249517188
0.0	0.0
8.82574431243e-05	0.00936402653141
4.79709104399e-06	0.002331002331
4.89385140348e-05	0.00703949941338
8.80848065198e-05	0.00917080626672
0.000302491171479	0.0172413793103
0.0	0.0
0.0	0.0
0.0	0.0
0.00036056770234	0.01875
9.59505662683e-05	0.00978473581213
9.59236294432e-07	0.00116099071207
0.0	0.0
3.83854319609e-05	0.00625978090767
0.0	0.0
