0.159903961585	0.4
0.159903961585	0.4
0.159903961585	0.4
0.159903961585	0.4
0.159903961585	0.4
0.159903961585	0.4
0.159903961585	0.4
0.159903961585	0.4
0.159903961585	0.4
0.159903961585	0.4
0.159903961585	0.4
0.159903961585	0.4
0.159903961585	0.4
0.159903961585	0.4
0.159903961585	0.4
0.159903961585	0.4
0.159903961585	0.4
0.159903961585	0.4
0.159903961585	0.4
0.159903961585	0.4
0.159903961585	0.4
0.159903961585	0.4
0.159903961585	0.4
0.159903961585	0.4
0.159903961585	0.4
0.159903961585	0.4
0.159903961585	0.4
0.159903961585	0.4
0.159903961585	0.4
0.159903961585	0.4
