0.819967987195	0.9
0.819967987195	0.9
0.819967987195	0.9
0.819967987195	0.9
0.819967987195	0.9
0.819967987195	0.9
0.819967987195	0.9
0.819967987195	0.9
0.819967987195	0.9
0.819967987195	0.9
0.819967987195	0.9
0.819967987195	0.9
0.819967987195	0.9
0.819967987195	0.9
0.819967987195	0.9
0.819967987195	0.9
0.819967987195	0.9
0.819967987195	0.9
0.819967987195	0.9
0.819967987195	0.9
0.819967987195	0.9
0.819967987195	0.9
0.819967987195	0.9
0.819967987195	0.9
0.819967987195	0.9
0.819967987195	0.9
0.819967987195	0.9
0.819967987195	0.9
0.819967987195	0.9
0.819967987195	0.9
