0.819967987195	0.9
0.819967987195	0.9
0.819967987195	0.9
0.819967987195	0.9
0.819967987195	0.9
0.819967987195	0.9
0.819967987195	0.9
0.819967987195	0.9
0.819967987195	0.9
0.819967987195	0.9
0.819967987195	0.9
0.819967987195	0.9
0.819967987195	0.9
0.819967987195	0.9
0.819967987195	0.9
0.000196078431373	0.01
0.819967987195	0.9
0.500776205519	0.519792083167
0.819967987195	0.9
0.819967987195	0.9
0.819967987195	0.9
0.819967987195	0.9
0.819967987195	0.9
0.819967987195	0.9
0.819967987195	0.9
0.819967987195	0.9
0.819967987195	0.9
0.819967987195	0.9
0.501752333924	0.529682190686
0.819967987195	0.9
