0.819967987195	0.9
0.819967987195	0.9
0.819967987195	0.9
0.819967987195	0.9
0.819967987195	0.9
0.500776205519	0.519792083167
0.819967987195	0.9
0.819967987195	0.9
0.819967987195	0.9
0.819967987195	0.9
0.819967987195	0.9
0.819967987195	0.9
0.819967987195	0.9
0.819967987195	0.9
0.819967987195	0.9
0.819967987195	0.9
0.819967987195	0.9
0.819967987195	0.9
0.819967987195	0.9
0.819967987195	0.9
0.819967987195	0.9
0.819967987195	0.9
0.819967987195	0.9
0.819967987195	0.9
0.819967987195	0.9
0.819967987195	0.9
0.819967987195	0.9
0.819967987195	0.9
0.819967987195	0.9
0.819967987195	0.9
