0.819967987195	0.9
0.000196078431373	0.01
0.819967987195	0.9
0.819967987195	0.9
0.819967987195	0.9
0.819967987195	0.9
0.819967987195	0.9
0.819967987195	0.9
0.819967987195	0.9
0.819967987195	0.9
0.819967987195	0.9
0.819967987195	0.9
0.819967987195	0.9
0.819967987195	0.9
0.819967987195	0.9
0.819967987195	0.9
0.819967987195	0.9
0.819967987195	0.9
0.819967987195	0.9
0.819967987195	0.9
0.819967987195	0.9
0.819967987195	0.9
0.819967987195	0.9
0.819967987195	0.9
0.819967987195	0.9
0.819967987195	0.9
0.819967987195	0.9
0.819967987195	0.9
0.819967987195	0.9
0.819967987195	0.9
