1.0	1.0
1.0	1.0
0.337977529457	0.481430536451
0.980196078431	0.99
1.0	1.0
1.0	1.0
0.980196078431	0.99
1.0	1.0
1.0	1.0
0.887178871549	0.94
1.0	1.0
0.904981992797	0.95
0.904981992797	0.95
1.0	1.0
1.0	1.0
1.0	1.0
0.980196078431	0.99
1.0	1.0
1.0	1.0
0.904981992797	0.95
1.0	1.0
1.0	1.0
0.980196078431	0.99
1.0	1.0
1.0	1.0
1.0	1.0
1.0	1.0
1.0	1.0
1.0	1.0
1.0	1.0
