1.0	1.0
0.256892135471	0.714285714286
0.256892135471	0.714285714286
0.117299990589	0.378787878788
1.0	1.0
1.0	1.0
0.117299990589	0.378787878788
1.0	1.0
0.256892135471	0.714285714286
0.117299990589	0.378787878788
0.247158241101	0.681818181818
1.0	1.0
1.0	1.0
0.256892135471	0.714285714286
0.247158241101	0.681818181818
0.256892135471	0.714285714286
0.256892135471	0.714285714286
0.256892135471	0.714285714286
1.0	1.0
0.0950423201078	0.30487804878
0.247158241101	0.681818181818
0.256892135471	0.714285714286
1.0	1.0
0.256892135471	0.714285714286
0.0956223132796	0.30637254902
0.256892135471	0.714285714286
0.256892135471	0.714285714286
0.256892135471	0.714285714286
1.0	1.0
1.0	1.0
