0.012785858438	0.0757575757576
1.0	1.0
1.0	1.0
0.117299990589	0.378787878788
0.0950423201078	0.30487804878
1.0	1.0
1.0	1.0
0.248877494605	0.685975609756
0.00993316085526	0.0504286434695
1.0	1.0
0.00632291847941	0.108187134503
1.0	1.0
1.0	1.0
1.0	1.0
1.0	1.0
0.00993316085526	0.0504286434695
0.0950423201078	0.30487804878
0.117299990589	0.378787878788
0.0950423201078	0.30487804878
1.0	1.0
0.247158241101	0.681818181818
0.117299990589	0.378787878788
0.117299990589	0.378787878788
0.0950423201078	0.30487804878
0.117299990589	0.378787878788
0.117299990589	0.378787878788
1.0	1.0
1.0	1.0
1.0	1.0
1.0	1.0
