0.248877494605	0.685975609756
1.0	1.0
1.0	1.0
0.256892135471	0.714285714286
0.256892135471	0.714285714286
1.0	1.0
1.0	1.0
0.248877494605	0.685975609756
1.0	1.0
0.177114812394	0.442073170732
0.114930708747	0.30487804878
1.0	1.0
0.0927065606348	0.295566502463
1.0	1.0
0.248877494605	0.685975609756
1.0	1.0
1.0	1.0
0.256892135471	0.714285714286
0.00797735949401	0.0490196078431
0.0927065606348	0.295566502463
1.0	1.0
1.0	1.0
0.114930708747	0.30487804878
1.0	1.0
0.177114812394	0.442073170732
1.0	1.0
0.247158241101	0.681818181818
1.0	1.0
1.0	1.0
1.0	1.0
