1.0	1.0
1.0	1.0
1.0	1.0
1.0	1.0
1.0	1.0
1.0	1.0
0.617527253358	0.639658848614
1.0	1.0
1.0	1.0
1.0	1.0
1.0	1.0
1.0	1.0
1.0	1.0
1.0	1.0
0.666666666667	0.666666666667
1.0	1.0
1.0	1.0
1.0	1.0
0.666666666667	0.666666666667
1.0	1.0
1.0	1.0
1.0	1.0
1.0	1.0
0.666666666667	0.666666666667
1.0	1.0
1.0	1.0
1.0	1.0
1.0	1.0
1.0	1.0
1.0	1.0
