0.0870935341688	0.44
0.0409283118742	0.5
0.0409283118742	0.5
0.0409283118742	0.5
0.0870935341688	0.44
0.0409283118742	0.5
0.0870935341688	0.44
0.0870935341688	0.44
0.0870935341688	0.44
0.0409283118742	0.5
0.0870935341688	0.44
0.0409283118742	0.5
0.0409283118742	0.5
0.0654897092265	0.441860465116
0.0870935341688	0.44
0.0870935341688	0.44
0.0781757190847	0.444444444444
0.0870935341688	0.44
0.0870935341688	0.44
0.0409283118742	0.5
0.0870935341688	0.44
0.0409283118742	0.5
0.0409283118742	0.5
0.0870935341688	0.44
0.0870935341688	0.44
0.0409283118742	0.5
0.0870935341688	0.44
0.0423422578597	0.482014388489
0.0409283118742	0.5
0.0409283118742	0.5
