0.0658731195855	0.453125
0.0658731195855	0.453125
0.0409283118742	0.5
0.0496615173186	0.462686567164
0.0658731195855	0.453125
0.0658731195855	0.453125
0.0658731195855	0.453125
0.0658731195855	0.453125
0.0409283118742	0.5
0.0409283118742	0.5
0.0658731195855	0.453125
0.0409283118742	0.5
0.0658731195855	0.453125
0.0658731195855	0.453125
0.0496615173186	0.462686567164
0.0658731195855	0.453125
0.0658731195855	0.453125
0.0658731195855	0.453125
0.0658731195855	0.453125
0.116090801491	0.430894308943
0.0658731195855	0.453125
0.0658731195855	0.453125
0.0409283118742	0.5
0.0658731195855	0.453125
0.0658731195855	0.453125
0.0658731195855	0.453125
0.0409283118742	0.5
0.0409283118742	0.5
0.0409283118742	0.5
0.0658731195855	0.453125
