0.0409283118742	0.5
0.086756692596	0.428571428571
0.086756692596	0.428571428571
0.0409283118742	0.5
0.086756692596	0.428571428571
0.086756692596	0.428571428571
0.086756692596	0.428571428571
0.086756692596	0.428571428571
0.0409283118742	0.5
0.086756692596	0.428571428571
0.0778191010904	0.433070866142
0.0409283118742	0.5
0.0409283118742	0.5
0.086756692596	0.428571428571
0.086756692596	0.428571428571
0.086756692596	0.428571428571
0.086756692596	0.428571428571
0.0409283118742	0.5
0.086756692596	0.428571428571
0.0778191010904	0.433070866142
0.086756692596	0.428571428571
0.086756692596	0.428571428571
0.086756692596	0.428571428571
0.0778191010904	0.433070866142
0.086756692596	0.428571428571
0.086756692596	0.428571428571
0.086756692596	0.428571428571
0.0451331383162	0.485294117647
0.0409283118742	0.5
0.0409283118742	0.5
