0.0246733680753	0.0909090909091
0.0781757190847	0.444444444444
0.0781757190847	0.444444444444
0.0409283118742	0.5
0.0781757190847	0.444444444444
0.0409283118742	0.5
0.0781757190847	0.444444444444
0.0614744071421	0.457364341085
0.0409283118742	0.5
0.0781757190847	0.444444444444
0.0781757190847	0.444444444444
0.0781757190847	0.444444444444
0.0409283118742	0.5
0.0781757190847	0.444444444444
0.0614744071421	0.457364341085
0.0409283118742	0.5
0.0781757190847	0.444444444444
0.0409283118742	0.5
0.0614744071421	0.457364341085
0.0781757190847	0.444444444444
0.0409283118742	0.5
0.0409283118742	0.5
0.0781757190847	0.444444444444
0.0781757190847	0.444444444444
0.0781757190847	0.444444444444
0.0398595331879	0.444444444444
0.0870935341688	0.44
0.0411935813274	0.450704225352
0.0409283118742	0.5
0.0409283118742	0.5
