0.0522652080053	0.469696969697
0.0703665239206	0.415384615385
0.0522652080053	0.469696969697
0.0522652080053	0.469696969697
0.0409283118742	0.5
0.0522652080053	0.469696969697
0.0522652080053	0.469696969697
0.0409283118742	0.5
0.0438801665291	0.489051094891
0.0417970911913	0.496402877698
0.0522652080053	0.469696969697
0.0409283118742	0.5
0.0646475853372	0.409090909091
0.0522652080053	0.469696969697
0.0522652080053	0.469696969697
0.0522652080053	0.469696969697
0.0522652080053	0.469696969697
0.0522652080053	0.469696969697
0.0522652080053	0.469696969697
0.0522652080053	0.469696969697
0.0409283118742	0.5
0.0522652080053	0.469696969697
0.0409283118742	0.5
0.0409283118742	0.5
0.0409283118742	0.5
0.0409283118742	0.5
0.0522652080053	0.469696969697
0.0703665239206	0.415384615385
0.0522652080053	0.469696969697
0.0522652080053	0.469696969697
