0.501802127746	0.619800489366
0.423591308619	0.580282227307
0.104564705882	0.1617
0.521922769108	0.6991
0.25	0.25
0.403623428421	0.544454799627
0.126867787115	0.2519
0.516648019208	0.6939
0.483334293717	0.6645
0.416344162232	0.544391121776
0.311327811124	0.4018
0.0904566626651	0.1504
0.25	0.25
0.105992637055	0.1628
0.135449410554	0.338139534884
0.25	0.25
0.00106947301849	0.0163738019169
0.243563151318	0.275974631599
0.446971028411	0.5944
0.420872829132	0.5828
0.105992637055	0.1628
0.468914605842	0.6528
0.000349803718579	0.00939436338197
