0.07287515006	0.135
0.0111346938776	0.0528
0.0295179460434	0.111664162284
0.25	0.25
0.25	0.25
0.0111346938776	0.0528
0.00229531812725	0.024
0.0940542617047	0.1968
0.0103226766851	0.0446093163035
0.25	0.25
0.317404906908	0.430597295267
0.00853278804024	0.0428489811464
0.308931767925	0.405240420736
0.195000240096	0.2208
0.11610363437	0.331274900398
0.0144169454662	0.0814429899071
0.0671596638655	0.1296
0.602371028411	0.7249
0.0671596638655	0.1296
0.444227290916	0.6317
