0.134375990396	0.1833
0.25	0.25
0.568622969188	0.7341
0.207575510204	0.3186
0.368954941977	0.4797
0.253948379352	0.3546
0.387276018005	0.522077922078
0.213098664405	0.415704824976
0.176386554622	0.21
0.0979878351341	0.2213
0.549809043617	0.7085
0.25	0.25
0.192411364546	0.339
0.675268987595	0.8142
0.642084113645	0.7911
0.279462425691	0.365713206835
0.740094357743	0.8476
0.176386554622	0.21
0.0948403361345	0.154
