0.0918544081683	0.8
0.0918544081683	0.8
0.0918544081683	0.8
0.0918544081683	0.8
0.0918544081683	0.8
0.0918544081683	0.8
0.0918544081683	0.8
0.0918544081683	0.8
0.0918544081683	0.8
0.0918544081683	0.8
0.0918544081683	0.8
0.0918544081683	0.8
0.0918544081683	0.8
0.0918544081683	0.8
0.0918544081683	0.8
2.64881473649e-05	0.01
0.0918544081683	0.8
0.0918544081683	0.8
0.0918544081683	0.8
0.0676515154906	0.519792083167
0.0918544081683	0.8
0.0918544081683	0.8
0.0918544081683	0.8
0.0918544081683	0.8
0.0918544081683	0.8
0.0918544081683	0.8
0.0918544081683	0.8
0.0918544081683	0.8
