0.0918544081683	0.8
0.0918544081683	0.8
0.0918544081683	0.8
0.0918544081683	0.8
0.0918544081683	0.8
0.0918544081683	0.8
0.0918544081683	0.8
0.0918544081683	0.8
0.0918544081683	0.8
0.0918544081683	0.8
0.0918544081683	0.8
0.0918544081683	0.8
0.0918544081683	0.8
0.0918544081683	0.8
0.0918544081683	0.8
0.0918544081683	0.8
0.0918544081683	0.8
0.0918544081683	0.8
0.0918544081683	0.8
0.0918544081683	0.8
0.0918544081683	0.8
0.0918544081683	0.8
0.0918544081683	0.8
0.0918544081683	0.8
0.0918544081683	0.8
0.0918544081683	0.8
0.0918544081683	0.8
0.0918544081683	0.8
0.0918544081683	0.8
