0.0918544081683	0.8
0.0918544081683	0.8
0.0918544081683	0.8
0.0918544081683	0.8
0.0918544081683	0.8
0.0918544081683	0.8
0.0918544081683	0.8
0.0918544081683	0.8
0.0918544081683	0.8
0.0918544081683	0.8
0.0918544081683	0.8
0.0918544081683	0.8
0.0918544081683	0.8
0.0918544081683	0.8
0.0918544081683	0.8
0.0918544081683	0.8
0.0918544081683	0.8
0.0918544081683	0.8
0.0918544081683	0.8
0.0918544081683	0.8
0.0918544081683	0.8
0.0918544081683	0.8
0.0918544081683	0.8
0.0918544081683	0.8
0.0676515154906	0.519792083167
0.0918544081683	0.8
0.0359499544142	0.509796081567
