0.0804880642974	0.228715459298
0.0804665373613	0.768
0.0819944999667	0.233035048471
0.0819288649479	0.232753002514
0.081797289924	0.23219095384
0.0804665373613	0.768
0.0804880642974	0.228715459298
0.0804665373613	0.768
0.080552876299	0.228993363866
0.0819288649479	0.232753002514
0.00191440653227	0.0249500998004
0.0804665373613	0.768
0.0804665373613	0.768
0.0804665373613	0.768
0.0804665373613	0.768
0.0018867068005	0.0249003984064
0.0806175874658	0.2292719446
0.0804665373613	0.768
0.0804665373613	0.768
0.0804665373613	0.768
0.0804665373613	0.768
0.0804665373613	0.768
0.0804665373613	0.768
0.0775633827325	0.222181917113
0.0804665373613	0.768
0.0804665373613	0.768
0.0804665373613	0.768
0.0819288649479	0.232753002514
0.0803581407374	0.22816166884
0.0804880642974	0.228715459298
