0.0470187018569	0.229138819935
0.0852198362133	0.214868929953
0.0832413153545	0.208611481976
0.0846296306206	0.212947189097
0.0847987365364	0.213492741247
0.0474473200093	0.231392209796
0.0817181834104	0.7764
0.00174298266987	0.0249003984064
0.0848831489051	0.213766566909
0.0817181834104	0.7764
0.0848831489051	0.213766566909
0.0368169250699	0.464
0.0849674661271	0.21404109589
0.0833330090646	0.208890374332
0.0817181834104	0.7764
0.0849674661271	0.21404109589
0.0851358108535	0.214592274678
0.0473044801967	0.23063617144
0.00173675925572	0.0249003984064
0.0851358108535	0.214592274678
0.0847987365364	0.213492741247
0.0368169250699	0.464
0.0817181834104	0.7764
0.0817181834104	0.7764
0.0817181834104	0.7764
0.0831495362381	0.208333333333
0.084714230087	0.213219616205
0.0368169250699	0.464
0.084714230087	0.213219616205
0.0847987365364	0.213492741247
