0.0937572343919	0.279548250028
0.093827959095	0.280206231787
0.00184923592679	0.0249003984064
0.0018554890038	0.0249003984064
0.0937335348283	0.279329608939
0.0938981206544	0.280867318279
0.0937097731058	0.27911130959
0.0802555187244	0.746
0.0802555187244	0.746
0.09385140899	0.280426247897
0.0802555187244	0.746
0.0802555187244	0.746
0.0802555187244	0.746
0.0936859493279	0.278893351183
0.0936859493279	0.278893351183
0.0938044466284	0.279986560645
0.0938044466284	0.279986560645
0.00184298079711	0.0249003984064
0.0936620635984	0.278675732917
0.0802555187244	0.746
0.0542796167798	0.318603684721
0.0802555187244	0.746
0.0937335348283	0.279329608939
0.093827959095	0.280206231787
0.00184298079711	0.0249003984064
0.0937097731058	0.27911130959
0.0937097731058	0.27911130959
0.0802555187244	0.746
0.0802555187244	0.746
0.0938044466284	0.279986560645
