0.0843223683215	0.784
0.0843223683215	0.784
0.0843223683215	0.784
0.00179292072329	0.0249003984064
0.053636282148	0.169687096993
0.0843223683215	0.784
0.0617150081608	0.395236225625
0.0843223683215	0.784
0.0843223683215	0.784
0.0843223683215	0.784
0.0843223683215	0.784
0.0843223683215	0.784
0.0573488279516	0.347685931384
0.0843223683215	0.784
0.0843223683215	0.784
0.0843223683215	0.784
0.0843223683215	0.784
0.00179292072329	0.0249003984064
0.0519733315052	0.168067226891
0.0843223683215	0.784
0.0843223683215	0.784
0.0843223683215	0.784
0.0365125787828	0.181804689819
0.0843223683215	0.784
0.0843223683215	0.784
0.0843223683215	0.784
0.0843223683215	0.784
0.0843223683215	0.784
0.0843223683215	0.784
0.0843223683215	0.784
