0.0818252820177	0.7752
0.0378618830495	0.47
0.00182420773981	0.0249003984064
0.0818252820177	0.7752
0.0818252820177	0.7752
0.0818252820177	0.7752
0.0818252820177	0.7752
0.00183672408257	0.0249003984064
0.0818252820177	0.7752
0.0818252820177	0.7752
0.0818252820177	0.7752
0.0818252820177	0.7752
0.0818252820177	0.7752
0.0818252820177	0.7752
0.0818252820177	0.7752
0.0818252820177	0.7752
0.0818252820177	0.7752
0.0818252820177	0.7752
0.0818252820177	0.7752
0.0818252820177	0.7752
0.00184298079711	0.0249003984064
0.0818252820177	0.7752
0.0818252820177	0.7752
0.0818252820177	0.7752
0.0818252820177	0.7752
0.0818252820177	0.7752
0.0818252820177	0.7752
0.0818252820177	0.7752
0.0818252820177	0.7752
0.0818252820177	0.7752
