0.0487757891947	0.238687220288
0.0489636428624	0.23976023976
0.0502910365766	0.247678018576
0.0749024695603	0.7442
0.0503486963784	0.248036378669
0.0489010513013	0.239401496259
0.0334864250328	0.444
0.0586729435861	0.377774892899
0.0503486963784	0.248036378669
0.0503486963784	0.248036378669
0.0585645437214	0.368196371398
0.0489636428624	0.23976023976
0.0487757891947	0.238687220288
0.048713120282	0.238331678252
0.0487757891947	0.238687220288
0.0504063155604	0.248395777272
0.0502910365766	0.247678018576
0.00177416833684	0.0249003984064
0.0490262070008	0.24012006003
0.0749024695603	0.7442
0.0749024695603	0.7442
0.048713120282	0.238331678252
0.0487757891947	0.238687220288
0.0749024695603	0.7442
0.0488384331393	0.239043824701
0.0489636428624	0.23976023976
0.0503486963784	0.248036378669
0.050233336886	0.247320692498
0.0504063155604	0.248395777272
0.048713120282	0.238331678252
