0.810364145658	0.9
0.810364145658	0.9
0.810364145658	0.9
0.114290481126	0.188451680989
0.450668807659	0.405186385737
0.114409926068	0.188693486301
0.810364145658	0.9
0.810364145658	0.9
0.12370659777	0.214887399003
0.810364145658	0.9
0.114050532738	0.187969924812
0.810364145658	0.9
0.123778471426	0.215201859344
0.0262275575859	0.082234137035
0.810364145658	0.9
0.335354768051	0.48
0.810364145658	0.9
0.810364145658	0.9
0.114647742403	0.189178963299
0.810364145658	0.9
0.114409926068	0.188693486301
0.810364145658	0.9
0.114647742403	0.189178963299
0.0261045862668	0.082234137035
0.810364145658	0.9
0.810364145658	0.9
0.810364145658	0.9
0.810364145658	0.9
0.114290481126	0.188451680989
0.114409926068	0.188693486301
