0.0261045862668	0.082234137035
0.796918127251	0.8914
0.12257994135	0.193498452012
0.796918127251	0.8914
0.796918127251	0.8914
0.796918127251	0.8914
0.796918127251	0.8914
0.796918127251	0.8914
0.118797602827	0.189250567752
0.123168665781	0.194582814446
0.0260402100023	0.082234137035
0.120467870019	0.19227811106
0.0260402100023	0.082234137035
0.796918127251	0.8914
0.796918127251	0.8914
0.123314759963	0.194855806703
0.796918127251	0.8914
0.796918127251	0.8914
0.796918127251	0.8914
0.796918127251	0.8914
0.796918127251	0.8914
0.442244786346	0.405897945659
0.796918127251	0.8914
0.123022132464	0.194310586041
0.336090319556	0.48
0.443652531275	0.407315045719
0.796918127251	0.8914
0.796918127251	0.8914
0.796918127251	0.8914
0.796918127251	0.8914
