0.125758703921	0.2035002035
0.795314285714	0.8904
0.795314285714	0.8904
0.121945006755	0.198475706574
0.338597092064	0.486
0.125468963628	0.204582651391
0.025516589074	0.0838788197757
0.795314285714	0.8904
0.795314285714	0.8904
0.125961762666	0.203998368013
0.338152094335	0.484
0.795314285714	0.8904
0.795314285714	0.8904
0.0261045862668	0.082234137035
0.795314285714	0.8904
0.795314285714	0.8904
0.795314285714	0.8904
0.795314285714	0.8904
0.795314285714	0.8904
0.795314285714	0.8904
0.795314285714	0.8904
0.795314285714	0.8904
0.795314285714	0.8904
0.795314285714	0.8904
0.795314285714	0.8904
0.795314285714	0.8904
0.795314285714	0.8904
0.124949206914	0.203334688898
0.795314285714	0.8904
0.0999118124216	0.21521293555
