0.119748433011	0.198886237072
0.793923169268	0.891
0.120043890945	0.199600798403
0.793923169268	0.891
0.793923169268	0.891
0.793923169268	0.891
0.119945771707	0.199362041467
0.0262860936782	0.082234137035
0.793923169268	0.891
0.119847284994	0.199123855038
0.119847284994	0.199123855038
0.793923169268	0.891
0.793923169268	0.891
0.0263971249304	0.082234137035
0.793923169268	0.891
0.793923169268	0.891
0.130494880007	0.207434450714
0.0263426253193	0.082234137035
0.119748433011	0.198886237072
0.793923169268	0.891
0.119649217963	0.198649185538
0.793923169268	0.891
0.119847284994	0.199123855038
0.793923169268	0.891
0.793923169268	0.891
0.119748433011	0.198886237072
0.119847284994	0.199123855038
0.793923169268	0.891
0.793923169268	0.891
0.793923169268	0.891
