0.0263971249304	0.082234137035
0.796918127251	0.8914
0.796918127251	0.8914
0.795028411365	0.8912
0.13460025695	0.207228116711
0.793923169268	0.891
0.132351436439	0.206338725652
0.795028411365	0.8912
0.795028411365	0.8912
0.793923169268	0.891
0.432818788218	0.397082658023
0.133667171418	0.205338809035
0.1353886607	0.208890374332
0.793923169268	0.891
0.796918127251	0.8914
0.133522302745	0.205052493438
0.795028411365	0.8912
0.135258493432	0.208611481976
0.13209787409	0.205795192624
0.795028411365	0.8912
0.795028411365	0.8912
0.132603091979	0.206885137372
0.134467154931	0.206953642384
0.134996668029	0.208055925433
0.135127828005	0.208333333333
0.795028411365	0.8912
0.795028411365	0.8912
0.13209787409	0.205795192624
0.795028411365	0.8912
0.411888796444	0.380434782609
