0.557794477886	0.9
0.557794477886	0.9
0.557794477886	0.9
0.557794477886	0.9
0.557794477886	0.9
0.557794477886	0.9
0.557794477886	0.9
0.557794477886	0.9
0.557794477886	0.9
0.557794477886	0.9
0.557794477886	0.9
0.557794477886	0.9
0.557794477886	0.9
0.557794477886	0.9
0.557794477886	0.9
0.557794477886	0.9
0.557794477886	0.9
0.557794477886	0.9
0.557794477886	0.9
0.557794477886	0.9
0.557794477886	0.9
0.557794477886	0.9
0.557794477886	0.9
0.557794477886	0.9
0.557794477886	0.9
0.557794477886	0.9
0.557794477886	0.9
0.557794477886	0.9
0.557794477886	0.9
0.557794477886	0.9
