0.709195932888	0.94
0.709195932888	0.94
0.709195932888	0.94
0.709195932888	0.94
0.709195932888	0.94
0.709195932888	0.94
0.709195932888	0.94
0.709195932888	0.94
0.709195932888	0.94
0.709195932888	0.94
0.709195932888	0.94
0.709195932888	0.94
0.709195932888	0.94
0.709195932888	0.94
0.709195932888	0.94
0.709195932888	0.94
0.709195932888	0.94
0.709195932888	0.94
0.709195932888	0.94
0.709195932888	0.94
0.709195932888	0.94
0.709195932888	0.94
0.709195932888	0.94
0.709195932888	0.94
0.709195932888	0.94
0.709195932888	0.94
0.709195932888	0.94
0.709195932888	0.94
0.709195932888	0.94
0.709195932888	0.94
