0.854213289511	0.97
0.854213289511	0.97
0.854213289511	0.97
0.854213289511	0.97
0.854213289511	0.97
0.854213289511	0.97
0.854213289511	0.97
0.854213289511	0.97
0.854213289511	0.97
0.854213289511	0.97
0.854213289511	0.97
0.854213289511	0.97
0.854213289511	0.97
0.854213289511	0.97
0.854213289511	0.97
0.854213289511	0.97
0.854213289511	0.97
0.854213289511	0.97
0.854213289511	0.97
0.854213289511	0.97
0.854213289511	0.97
0.854213289511	0.97
0.854213289511	0.97
0.854213289511	0.97
0.854213289511	0.97
0.854213289511	0.97
0.854213289511	0.97
0.854213289511	0.97
0.854213289511	0.97
0.854213289511	0.97
