0.861828354075	0.98
0.861828354075	0.98
0.861828354075	0.98
0.861828354075	0.98
0.861828354075	0.98
0.861828354075	0.98
0.861828354075	0.98
0.861828354075	0.98
0.861828354075	0.98
0.861828354075	0.98
0.861828354075	0.98
0.861828354075	0.98
0.861828354075	0.98
0.861828354075	0.98
0.861828354075	0.98
0.861828354075	0.98
0.861828354075	0.98
0.861828354075	0.98
0.861828354075	0.98
0.861828354075	0.98
0.861828354075	0.98
0.861828354075	0.98
0.861828354075	0.98
0.861828354075	0.98
0.861828354075	0.98
0.861828354075	0.98
0.861828354075	0.98
0.861828354075	0.98
0.861828354075	0.98
0.861828354075	0.98
