0.56494793013	0.91
0.56494793013	0.91
0.56494793013	0.91
0.56494793013	0.91
0.56494793013	0.91
0.56494793013	0.91
0.56494793013	0.91
0.56494793013	0.91
0.56494793013	0.91
0.56494793013	0.91
0.56494793013	0.91
0.56494793013	0.91
0.56494793013	0.91
0.56494793013	0.91
0.56494793013	0.91
0.56494793013	0.91
0.56494793013	0.91
0.56494793013	0.91
0.56494793013	0.91
0.56494793013	0.91
0.56494793013	0.91
0.56494793013	0.91
0.56494793013	0.91
0.56494793013	0.91
0.56494793013	0.91
0.56494793013	0.91
0.56494793013	0.91
0.56494793013	0.91
0.56494793013	0.91
0.56494793013	0.91
