0.770589755899	0.94
0.770589755899	0.94
0.770589755899	0.94
0.770589755899	0.94
0.770589755899	0.94
0.770589755899	0.94
0.770589755899	0.94
0.770589755899	0.94
0.770589755899	0.94
0.770589755899	0.94
0.770589755899	0.94
0.770589755899	0.94
0.770589755899	0.94
0.770589755899	0.94
0.770589755899	0.94
0.770589755899	0.94
0.770589755899	0.94
0.770589755899	0.94
0.770589755899	0.94
0.770589755899	0.94
0.770589755899	0.94
0.770589755899	0.94
0.770589755899	0.94
0.770589755899	0.94
0.770589755899	0.94
0.770589755899	0.94
0.770589755899	0.94
0.770589755899	0.94
0.770589755899	0.94
0.770589755899	0.94
