0.626187882369	0.91
0.626187882369	0.91
0.626187882369	0.91
0.626187882369	0.91
0.626187882369	0.91
0.626187882369	0.91
0.626187882369	0.91
0.626187882369	0.91
0.626187882369	0.91
0.626187882369	0.91
0.626187882369	0.91
0.626187882369	0.91
0.626187882369	0.91
0.626187882369	0.91
0.626187882369	0.91
0.626187882369	0.91
0.626187882369	0.91
0.626187882369	0.91
0.626187882369	0.91
0.626187882369	0.91
0.626187882369	0.91
0.626187882369	0.91
0.626187882369	0.91
0.626187882369	0.91
0.626187882369	0.91
0.626187882369	0.91
0.626187882369	0.91
0.626187882369	0.91
0.626187882369	0.91
0.626187882369	0.91
