0.0376454856587	0.7
0.0376454856587	0.7
0.0376454856587	0.7
0.0376454856587	0.7
0.0376454856587	0.7
0.0376454856587	0.7
0.0376454856587	0.7
0.0376454856587	0.7
0.0376454856587	0.7
0.0376454856587	0.7
0.0376454856587	0.7
0.0376454856587	0.7
0.0376454856587	0.7
0.0312861527303	0.519688187088
0.0325070544423	0.519792083167
0.0376454856587	0.7
0.0376454856587	0.7
0.0376454856587	0.7
0.0376454856587	0.7
0.0376454856587	0.7
0.0376454856587	0.7
0.0376454856587	0.7
0.0376454856587	0.7
0.0376454856587	0.7
0.0376454856587	0.7
0.0325070544423	0.519792083167
