0.0376454856587	0.7
0.0376454856587	0.7
0.0376454856587	0.7
0.0376454856587	0.7
0.0376454856587	0.7
0.0376454856587	0.7
0.0376454856587	0.7
0.0376454856587	0.7
0.0376454856587	0.7
0.0376454856587	0.7
0.0182548486816	0.509796081567
0.0376454856587	0.7
0.0376454856587	0.7
0.0376454856587	0.7
0.0376454856587	0.7
0.0376454856587	0.7
0.0376454856587	0.7
0.0376454856587	0.7
0.0376454856587	0.7
0.0376454856587	0.7
0.0376454856587	0.7
0.0376454856587	0.7
0.0376454856587	0.7
