0.000510486074861	0.022476340694
1.91883089471e-06	0.00155279503106
0.000201512301846	0.0141453831041
0.000360639982505	0.0187940485513
0.0	0.0
0.0	0.0
0.0	0.0
0.000407617165958	0.0199686765857
0.0	0.0
0.0	0.0
0.0	0.0
0.0	0.0
0.0	0.0
0.0	0.0
0.0	0.0
0.000360639982505	0.0187940485513
1.15109569922e-05	0.00349107835531
8.95505680864e-06	0.00311284046693
8.95367369232e-06	0.00310559006211
0.0	0.0
0.0	0.0
4.79709104399e-06	0.002331002331
4.79709104399e-06	0.002331002331
0.0	0.0
3.35806038432e-05	0.00584795321637
3.19718238711e-07	0.000772797527048
0.0	0.0
0.000360639982505	0.0187940485513
0.0	0.0
0.0	0.0
