0.0	0.0
0.000360639982505	0.0187940485513
1.91831249886e-06	0.0015467904099
0.000492475202754	0.0220212347621
0.0	0.0
0.000275461469947	0.0165811290959
0.000407696543309	0.0200156985871
0.000457726070618	0.0212933753943
3.19805558221e-06	0.00194174757282
0.000422989849201	0.0199539524175
4.7943465066e-06	0.00231303006939
0.0	0.0
0.0	0.0
0.00036053001748	0.0187280530628
0.0	0.0
0.0	0.0
0.0	0.0
0.000139054715633	0.011673151751
0.0	0.0
0.00130969758299	0.035996835443
0.0	0.0
0.0	0.0
0.0	0.0
0.0	0.0
0.0	0.0
0.000457644827318	0.021243115657
0.0	0.0
0.0	0.0
0.0	0.0
8.81813084381e-05	0.00926640926641
