0.00276782713085	0.0528
0.000168777827964	0.0128454651615
0.000644688832109	0.0251968503937
0.000360772167579	0.0188827694729
0.0	0.000386249517188
9.59155329451e-07	0.00115964437572
6.71353996331e-06	0.00270688321732
0.0	0.0
0.000685946726403	0.0259944860181
0.0	0.0
0.000888005683236	0.0298210735586
0.000168893793633	0.0129666011788
4.79696831602e-06	0.00233009708738
0.0	0.0
0.000685946726403	0.0259944860181
0.0	0.0
0.0	0.0
0.000407533130046	0.019921875
0.000237006616035	0.0153241650295
0.0235409363745	0.1536
1.15099853919e-05	0.00348702053468
0.000817140774557	0.0282907662083
0.0	0.0
4.7957950469e-06	0.00232198142415
6.71768911494e-06	0.00273224043716
0.000201463005156	0.0140955364135
6.07602190694e-05	0.00780031201248
6.06893027119e-05	0.00769230769231
0.0	0.0
1.43914112058e-05	0.00389105058366
