0.0	0.0
0.000201451345023	0.0140845070423
0.0170077541506	0.127131782946
0.0281680672269	0.168
0.0	0.0
0.0	0.0
0.0	0.0
0.000686101847581	0.0260663507109
0.0	0.0
0.0	0.0
0.000168829906427	0.0128956623681
0.0049299719888	0.0704
0.000360674576567	0.0188161505292
0.0	0.0
0.000407630719179	0.0199764982374
0.0	0.0
8.82715848012e-05	0.00938599921783
0.000120888124757	0.0109546165884
3.83740161862e-05	0.00623052959502
1.4394840889e-05	0.00390625
0.0	0.0
0.000360674576567	0.0188161505292
0.0265795918367	0.1632
0.0409011604642	0.2024
1.91906717983e-06	0.00155581485803
0.0125042016807	0.112
0.0383529411765	0.196
4.79709104399e-06	0.002331002331
0.0	0.0
0.0	0.0
