0.0	0.0
0.000566138217688	0.0236686390533
0.0013636198465	0.0358243451464
0.0014248559986	0.0368932038835
0.0	0.0
0.000685578402842	0.025841816758
3.19719158691e-06	0.00193423597679
0.000510293149986	0.0223704866562
0.0	0.0
0.0	0.0
0.000424101502906	0.0204724409449
0.0044872469486	0.0668257756563
0.0	0.0
0.0	0.0
0.0	0.0
0.000103910121901	0.0101285547332
0.0	0.0
0.0	0.0
0.000236808246679	0.0151632970451
9.59643166285e-07	0.00116867939229
0.0	0.0
0.0	0.0
0.0	0.0
0.0	0.0
1.15130958267e-05	0.00350058343057
0.00111238964654	0.0325455249903
9.59414526879e-07	0.0011641443539
0.00662857142857	0.0816
0.0	0.0
0.00128052640666	0.0354889589905
