1.0	1.0
0.984435797665	0.996
1.0	1.0
1.0	1.0
1.0	1.0
1.0	1.0
0.984438269154	0.996
1.0	1.0
1.0	1.0
1.0	1.0
1.0	1.0
0.992108409725	0.998
1.0	1.0
1.0	1.0
1.0	1.0
1.0	1.0
1.0	1.0
1.0	1.0
0.992108409725	0.998
1.0	1.0
1.0	1.0
1.0	1.0
1.0	1.0
0.812278801011	0.938
1.0	1.0
1.0	1.0
1.0	1.0
1.0	1.0
1.0	1.0
1.0	1.0
