0.984435797665	0.996
0.992108409725	0.998
0.984438269154	0.996
0.992108409725	0.998
0.992108409725	0.998
0.992108409725	0.998
0.992108409725	0.998
1.0	1.0
0.984435797665	0.996
0.984438269154	0.996
0.984438269154	0.996
0.984438269154	0.996
1.0	1.0
0.992108409725	0.998
1.0	1.0
1.0	1.0
0.992108409725	0.998
0.992108409725	0.998
0.992108409725	0.998
1.0	1.0
0.984438269154	0.996
0.992108409725	0.998
0.992108409725	0.998
0.992108409725	0.998
0.992108409725	0.998
0.992108409725	0.998
1.0	1.0
0.992108409725	0.998
0.976986951364	0.994
1.0	1.0
