0.0828619447779	0.288
0.0828619447779	0.288
0.0828619447779	0.288
0.0828619447779	0.288
0.0828619447779	0.288
0.0828619447779	0.288
0.0828619447779	0.288
0.0828619447779	0.288
0.0828619447779	0.288
0.0828619447779	0.288
0.0828619447779	0.288
0.0828619447779	0.288
0.0828619447779	0.288
0.0828619447779	0.288
0.0828619447779	0.288
0.0828619447779	0.288
0.0828619447779	0.288
0.0828619447779	0.288
0.0828619447779	0.288
0.0828619447779	0.288
0.0828619447779	0.288
0.0828619447779	0.288
0.0828619447779	0.288
0.0828619447779	0.288
0.0828619447779	0.288
0.0828619447779	0.288
0.0828619447779	0.288
0.0828619447779	0.288
0.0828619447779	0.288
0.0828619447779	0.288
