0.0465882352941	0.216
0.0465882352941	0.216
0.0465882352941	0.216
0.0465882352941	0.216
0.0465882352941	0.216
0.0465882352941	0.216
0.0465882352941	0.216
0.0465882352941	0.216
0.0465882352941	0.216
0.0465882352941	0.216
0.0465882352941	0.216
0.0465882352941	0.216
0.0465882352941	0.216
0.0465882352941	0.216
0.0465882352941	0.216
0.0465882352941	0.216
0.0465882352941	0.216
0.0465882352941	0.216
0.0465882352941	0.216
0.0465882352941	0.216
0.0465882352941	0.216
0.0465882352941	0.216
0.0465882352941	0.216
0.0465882352941	0.216
0.0465882352941	0.216
0.0465882352941	0.216
0.0465882352941	0.216
0.0465882352941	0.216
0.0465882352941	0.216
0.0465882352941	0.216
