0.0696182472989	0.264
0.0696182472989	0.264
0.0696182472989	0.264
0.0696182472989	0.264
0.0696182472989	0.264
0.0696182472989	0.264
0.0696182472989	0.264
0.0696182472989	0.264
0.0696182472989	0.264
0.0696182472989	0.264
0.0696182472989	0.264
0.0696182472989	0.264
0.0696182472989	0.264
0.0696182472989	0.264
0.0696182472989	0.264
0.0696182472989	0.264
0.0696182472989	0.264
0.0696182472989	0.264
0.0696182472989	0.264
0.0696182472989	0.264
0.0696182472989	0.264
0.0696182472989	0.264
0.0696182472989	0.264
0.0696182472989	0.264
0.0696182472989	0.264
0.0696182472989	0.264
0.0696182472989	0.264
0.0696182472989	0.264
0.0696182472989	0.264
0.0696182472989	0.264
