0.056381272509	0.2376
0.056381272509	0.2376
0.056381272509	0.2376
0.056381272509	0.2376
0.056381272509	0.2376
0.056381272509	0.2376
0.056381272509	0.2376
0.056381272509	0.2376
0.056381272509	0.2376
0.056381272509	0.2376
0.056381272509	0.2376
0.056381272509	0.2376
0.056381272509	0.2376
0.056381272509	0.2376
0.056381272509	0.2376
0.056381272509	0.2376
0.056381272509	0.2376
0.056381272509	0.2376
0.056381272509	0.2376
0.056381272509	0.2376
0.056381272509	0.2376
0.056381272509	0.2376
0.056381272509	0.2376
0.056381272509	0.2376
0.056381272509	0.2376
0.056381272509	0.2376
0.056381272509	0.2376
0.056381272509	0.2376
0.056381272509	0.2376
0.056381272509	0.2376
