0.0847148459384	0.2912
0.0847148459384	0.2912
0.0847148459384	0.2912
0.0847148459384	0.2912
0.0847148459384	0.2912
0.0847148459384	0.2912
0.0847148459384	0.2912
0.0847148459384	0.2912
0.0847148459384	0.2912
0.0847148459384	0.2912
0.0847148459384	0.2912
0.0847148459384	0.2912
0.0847148459384	0.2912
0.0847148459384	0.2912
0.0847148459384	0.2912
0.0847148459384	0.2912
0.0847148459384	0.2912
0.0847148459384	0.2912
0.0847148459384	0.2912
0.0847148459384	0.2912
0.0847148459384	0.2912
0.0847148459384	0.2912
0.0847148459384	0.2912
0.0847148459384	0.2912
0.0847148459384	0.2912
0.0847148459384	0.2912
0.0847148459384	0.2912
0.0847148459384	0.2912
0.0847148459384	0.2912
0.0847148459384	0.2912
