0.272804313123	0.355902162354
0.272804313123	0.355902162354
0.272804313123	0.355902162354
0.272804313123	0.355902162354
0.272804313123	0.355902162354
0.272804313123	0.355902162354
0.272804313123	0.355902162354
0.272804313123	0.355902162354
0.272804313123	0.355902162354
0.272804313123	0.355902162354
0.272804313123	0.355902162354
0.272804313123	0.355902162354
0.272804313123	0.355902162354
0.272804313123	0.355902162354
0.272804313123	0.355902162354
0.272804313123	0.355902162354
0.272804313123	0.355902162354
0.272804313123	0.355902162354
0.272804313123	0.355902162354
0.272804313123	0.355902162354
0.272804313123	0.355902162354
0.272804313123	0.355902162354
0.272804313123	0.355902162354
0.272804313123	0.355902162354
0.272804313123	0.355902162354
0.272804313123	0.355902162354
0.272804313123	0.355902162354
0.272804313123	0.355902162354
0.272804313123	0.355902162354
0.272804313123	0.355902162354
