0.267960977759	0.334889567247
0.267960977759	0.334889567247
0.267960977759	0.334889567247
0.267960977759	0.334889567247
0.267960977759	0.334889567247
0.267960977759	0.334889567247
0.267960977759	0.334889567247
0.267960977759	0.334889567247
0.267960977759	0.334889567247
0.267960977759	0.334889567247
0.267960977759	0.334889567247
0.267960977759	0.334889567247
0.267960977759	0.334889567247
0.267960977759	0.334889567247
0.267960977759	0.334889567247
0.267960977759	0.334889567247
0.267960977759	0.334889567247
0.267960977759	0.334889567247
0.267960977759	0.334889567247
0.267960977759	0.334889567247
0.267960977759	0.334889567247
0.267960977759	0.334889567247
0.267960977759	0.334889567247
0.267960977759	0.334889567247
0.267960977759	0.334889567247
0.267960977759	0.334889567247
0.267960977759	0.334889567247
0.267960977759	0.334889567247
0.267960977759	0.334889567247
0.267960977759	0.334889567247
