0.270779651822	0.322425751378
0.270779651822	0.322425751378
0.270779651822	0.322425751378
0.270779651822	0.322425751378
0.270779651822	0.322425751378
0.270779651822	0.322425751378
0.270779651822	0.322425751378
0.270779651822	0.322425751378
0.270779651822	0.322425751378
0.270779651822	0.322425751378
0.270779651822	0.322425751378
0.270779651822	0.322425751378
0.270779651822	0.322425751378
0.270779651822	0.322425751378
0.270779651822	0.322425751378
0.270779651822	0.322425751378
0.270779651822	0.322425751378
0.270779651822	0.322425751378
0.270779651822	0.322425751378
0.270779651822	0.322425751378
0.270779651822	0.322425751378
0.270779651822	0.322425751378
0.270779651822	0.322425751378
0.270779651822	0.322425751378
0.270779651822	0.322425751378
0.270779651822	0.322425751378
0.270779651822	0.322425751378
0.270779651822	0.322425751378
0.270779651822	0.322425751378
0.270779651822	0.322425751378
