0.269635981526	0.329885877318
0.269635981526	0.329885877318
0.269635981526	0.329885877318
0.269635981526	0.329885877318
0.269635981526	0.329885877318
0.269635981526	0.329885877318
0.269635981526	0.329885877318
0.269635981526	0.329885877318
0.269635981526	0.329885877318
0.269635981526	0.329885877318
0.269635981526	0.329885877318
0.269635981526	0.329885877318
0.269635981526	0.329885877318
0.269635981526	0.329885877318
0.269635981526	0.329885877318
0.269635981526	0.329885877318
0.269635981526	0.329885877318
0.269635981526	0.329885877318
0.269635981526	0.329885877318
0.269635981526	0.329885877318
0.269635981526	0.329885877318
0.269635981526	0.329885877318
0.269635981526	0.329885877318
0.269635981526	0.329885877318
0.269635981526	0.329885877318
0.269635981526	0.329885877318
0.269635981526	0.329885877318
0.269635981526	0.329885877318
0.269635981526	0.329885877318
0.269635981526	0.329885877318
