0.272647018791	0.333860481462
0.272647018791	0.333860481462
0.272647018791	0.333860481462
0.272647018791	0.333860481462
0.272647018791	0.333860481462
0.272647018791	0.333860481462
0.272647018791	0.333860481462
0.272647018791	0.333860481462
0.272647018791	0.333860481462
0.272647018791	0.333860481462
0.272647018791	0.333860481462
0.272647018791	0.333860481462
0.272647018791	0.333860481462
0.272647018791	0.333860481462
0.272647018791	0.333860481462
0.272647018791	0.333860481462
0.272647018791	0.333860481462
0.272647018791	0.333860481462
0.272647018791	0.333860481462
0.272647018791	0.333860481462
0.272647018791	0.333860481462
0.272647018791	0.333860481462
0.272647018791	0.333860481462
0.272647018791	0.333860481462
0.272647018791	0.333860481462
0.272647018791	0.333860481462
0.272647018791	0.333860481462
0.272647018791	0.333860481462
0.272647018791	0.333860481462
0.272647018791	0.333860481462
