0.267669496237	0.316129032258
0.267669496237	0.316129032258
0.267669496237	0.316129032258
0.267669496237	0.316129032258
0.267669496237	0.316129032258
0.267669496237	0.316129032258
0.267669496237	0.316129032258
0.267669496237	0.316129032258
0.267669496237	0.316129032258
0.267669496237	0.316129032258
0.267669496237	0.316129032258
0.267669496237	0.316129032258
0.267669496237	0.316129032258
0.267669496237	0.316129032258
0.267669496237	0.316129032258
0.267669496237	0.316129032258
0.267669496237	0.316129032258
0.267669496237	0.316129032258
0.267669496237	0.316129032258
0.267669496237	0.316129032258
0.267669496237	0.316129032258
0.267669496237	0.316129032258
0.267669496237	0.316129032258
0.267669496237	0.316129032258
0.267669496237	0.316129032258
0.267669496237	0.316129032258
0.267669496237	0.316129032258
0.267669496237	0.316129032258
0.267669496237	0.316129032258
0.267669496237	0.316129032258
