0.123607088096	0.196347928529
0.425524596565	0.548998078507
0.106884526901	0.186323830818
0.236251245779	0.285877644368
0.2	0.2
0.214920354077	0.309004387862
0.333366167477	0.432975406997
0.143498221346	0.222558532894
0.269707316081	0.274213008665
0.147711886573	0.228006022801
0.354314267483	0.509606074504
0.197851943851	0.258852764548
0.350450166491	0.329077267342
0.113437006011	0.136039614736
0.101433710087	0.121124031008
0.320300669233	0.394632991318
0.144924997979	0.200883889112
0.588867366992	0.793650793651
0.0693073709721	0.104286938061
0.225773011013	0.27095865171
0.0596843621526	0.0883454661107
0.112314408866	0.118714088988
0.246184892716	0.271385149805
0.212654379364	0.31605562579
0.198588106113	0.259767248545
0.323227481198	0.402749436151
0.245771752216	0.279908190114
0.0712099402625	0.100361300682
0.581720701436	0.66067653277
0.110199503346	0.177141642457
