0.171595736065	0.334612295886
0.319984634591	0.363636363636
0.150947909381	0.17793594306
0.101418460751	0.165881494261
0.369688366662	0.435464204842
0.0	0.0
0.18851801425	0.244582497676
0.0	0.0
0.498949092218	0.634719136782
7.4512407766e-05	0.00301742718148
0.28356186319	0.373041531957
0.250657064545	0.369130819963
0.178939984451	0.302736740131
0.0	0.0
0.0968158247654	0.111557340473
0.333222511032	0.437266791045
0.272096121379	0.316616008105
0.0808284534165	0.114061501962
0.146335462545	0.269706559264
0.0644733887907	0.108061378863
0.262789001652	0.355416548194
0.0561591448859	0.0836680053548
0.233951384397	0.332594235033
0.0	0.0
0.683714195975	0.85910652921
0.181047189113	0.237778200495
