0.0923133062934	0.121909591847
0.0819394274898	0.168565841818
0.154130083027	0.218933356686
0.124175092784	0.142734798744
0.134906493119	0.124564025909
0.261559955717	0.273238974807
0.185445359659	0.29687685548
0.250926389303	0.363002758821
0.473138548182	0.602772754671
0.313339500762	0.370553359684
0.104972558938	0.116149414607
0.118408673849	0.119668756881
0.210816550964	0.239681702699
0.0972244221025	0.189429816253
0.0614584804213	0.0851991957196
0.470096872688	0.477494110906
0.504303633166	0.507923608289
0.199402298459	0.303336703741
0.254534565366	0.35046728972
0.157606844196	0.138327892436
0.274191370259	0.287323296173
0.540476241971	0.769230769231
0.421356726169	0.48225308642
0.202732532755	0.248780973231
0.378554916972	0.528401585205
0.250071799326	0.42194092827
0.125253225534	0.188040616773
0.183921663826	0.235882436194
0.00100105066928	0.0227762762307
0.422506826498	0.466099061587
