0.160563360011	0.323136579061
0.228846262821	0.258611772008
0.226348206545	0.258611772008
0.0879229933341	0.104414651464
0.136144651933	0.12511886292
0.244684500926	0.259551495017
0.218791245521	0.248447204969
0.207280874394	0.314901121048
0.485314714649	0.733137829912
0.274313948754	0.351947442515
0.109536053667	0.187969924812
0.319932804637	0.289452356142
0.656971150054	0.847457627119
0.0	0.0
0.176147663705	0.291171674819
0.253511319448	0.264536267922
0.285457925687	0.377662520771
0.155355254136	0.488162069807
0.0	0.0
0.3098354185	0.288084812169
0.311455552065	0.597514340344
0.297941215471	0.465592699506
0.358032442811	0.320841889117
0.400054710964	0.481170205941
0.0997032442055	0.113724241459
0.250006002545	0.339658529958
0.403676828769	0.536826283015
0.104387911394	0.123462887056
0.202323093351	0.260851419032
0.0	0.0
