0.0546931252632	0.7
0.0546931252632	0.7
0.0546931252632	0.7
0.0546931252632	0.7
0.0546931252632	0.7
0.0546931252632	0.7
0.0546931252632	0.7
0.0546931252632	0.7
0.0546931252632	0.7
0.0546931252632	0.7
0.0546931252632	0.7
0.0546931252632	0.7
0.0546931252632	0.7
0.0546931252632	0.7
0.0546931252632	0.7
0.0546931252632	0.7
0.0546931252632	0.7
0.0546931252632	0.7
0.0546931252632	0.7
0.0546931252632	0.7
0.0546931252632	0.7
0.0546931252632	0.7
0.0546931252632	0.7
0.0546931252632	0.7
0.0472277269914	0.519792083167
0.0546931252632	0.7
0.0472277269914	0.519792083167
0.0546931252632	0.7
0.0546931252632	0.7
0.0546931252632	0.7
