0.0546931252632	0.7
0.0147894699029	0.389844062375
0.0546931252632	0.7
0.0546931252632	0.7
0.0546931252632	0.7
0.0546931252632	0.7
0.0546931252632	0.7
0.0546931252632	0.7
0.0546931252632	0.7
0.0546931252632	0.7
0.0546931252632	0.7
0.0546931252632	0.7
0.0546931252632	0.7
1.84914312972e-05	0.01
0.0546931252632	0.7
0.0546931252632	0.7
0.0546931252632	0.7
0.0546931252632	0.7
0.0546931252632	0.7
0.0546931252632	0.7
0.0546931252632	0.7
0.0546931252632	0.7
0.0546931252632	0.7
0.0546931252632	0.7
0.0546931252632	0.7
0.0546931252632	0.7
0.0546931252632	0.7
0.0546931252632	0.7
0.0546931252632	0.7
0.0546931252632	0.7
