0.0546931252632	0.7
0.0546931252632	0.7
0.0546931252632	0.7
0.0546931252632	0.7
0.0546931252632	0.7
0.0546931252632	0.7
0.0546931252632	0.7
0.0546931252632	0.7
0.0546931252632	0.7
0.0546931252632	0.7
0.0546931252632	0.7
0.0546931252632	0.7
0.0546931252632	0.7
0.0546931252632	0.7
0.0546931252632	0.7
0.0546931252632	0.7
0.0546931252632	0.7
0.0546931252632	0.7
0.0546931252632	0.7
0.0546931252632	0.7
0.0546931252632	0.7
0.0546931252632	0.7
0.0546931252632	0.7
0.0546931252632	0.7
0.0546931252632	0.7
0.0546931252632	0.7
0.0546931252632	0.7
0.0546931252632	0.7
0.0546931252632	0.7
