0.0431346653602	0.183719615602
0.00374819077714	0.0612685030879
0.00374819077714	0.0612685030879
0.00374819077714	0.0612685030879
0.0345027346612	0.165478615071
0.0370787442665	0.171142706688
0.0399420101186	0.177208287895
0.00374819077714	0.0612685030879
0.00374819077714	0.0612685030879
0.00374819077714	0.0612685030879
0.00374819077714	0.0612685030879
0.0411769490423	0.179756637168
0.0411769490423	0.179756637168
0.0405527185341	0.178473366282
0.00374819077714	0.0612685030879
1.0	1.0
0.0411769490423	0.179756637168
0.036541792984	0.169979079498
0.0431346653602	0.183719615602
0.0459590113706	0.189283634246
0.00374819077714	0.0612685030879
0.00374819077714	0.0612685030879
0.0360160071143	0.168831168831
0.00374819077714	0.0612685030879
0.00374819077714	0.0612685030879
0.00374819077714	0.0612685030879
0.00374819077714	0.0612685030879
0.00374819077714	0.0612685030879
0.0405527185341	0.178473366282
0.0411769490423	0.179756637168
