0.0403599725168	0.166174298375
0.0388208441429	0.166112956811
0.00374819077714	0.0612685030879
0.0393730669247	0.167224080268
0.0403599725168	0.166174298375
0.0392703200531	0.163994169096
0.00374819077714	0.0612685030879
0.0405444089072	0.172630257376
0.00374819077714	0.0612685030879
0.0436860725206	0.178803641092
0.00374819077714	0.0612685030879
0.00374819077714	0.0612685030879
0.0382791890346	0.16501650165
0.0405102007614	0.169491525424
0.0357212537156	0.159744408946
0.0179258608016	0.111544896821
0.00374819077714	0.0612685030879
0.0153352070711	0.110220440882
0.00374819077714	0.0612685030879
0.0382191687331	0.161870503597
0.00374819077714	0.0612685030879
0.0393730669247	0.167224080268
0.041095619108	0.170648464164
0.00374819077714	0.0612685030879
0.0377075599169	0.160829163688
0.0398102378662	0.16507703595
0.0372050173623	0.159801136364
0.014215242463	0.102692834322
0.00374819077714	0.0612685030879
0.00374819077714	0.0612685030879
