0.0194661458333	0.124947938359
0.0191527738097	0.122059476254
0.00374819077714	0.0612685030879
0.00374819077714	0.0612685030879
0.00374819077714	0.0612685030879
0.00374819077714	0.0612685030879
0.00374819077714	0.0612685030879
0.00374819077714	0.0612685030879
0.00374819077714	0.0612685030879
0.00374819077714	0.0612685030879
0.0194881858358	0.128440366972
0.00374819077714	0.0612685030879
0.00374819077714	0.0612685030879
0.0190518669555	0.123711340206
0.0190144224903	0.128424657534
0.00374819077714	0.0612685030879
0.0190518669555	0.123711340206
0.00374819077714	0.0612685030879
0.018268228746	0.124599501602
0.00374819077714	0.0612685030879
0.0187514775965	0.120879120879
0.00374819077714	0.0612685030879
0.0192225456818	0.12908777969
0.0190144224903	0.128424657534
0.00374819077714	0.0612685030879
0.0184635709136	0.125223613596
0.018261192462	0.121310149616
0.00374819077714	0.0612685030879
0.00374819077714	0.0612685030879
1.0	1.0
