0.0209405685283	0.137185280826
0.00374819077714	0.0612685030879
0.00374819077714	0.0612685030879
1.0	1.0
0.0179791684973	0.126342387871
0.00374819077714	0.0612685030879
0.0175927495222	0.126187648456
0.0201345981737	0.131949331457
0.00374819077714	0.0612685030879
0.00374819077714	0.0612685030879
0.0175364627135	0.123599208965
0.0194961932655	0.132563942608
0.00374819077714	0.0612685030879
0.018602244158	0.128410914928
0.0197143640635	0.13201320132
1.0	1.0
0.00374819077714	0.0612685030879
0.00374819077714	0.0612685030879
0.00374819077714	0.0612685030879
0.0199486135714	0.132758048457
0.00374819077714	0.0612685030879
1.0	1.0
0.0214575358699	0.13879817113
0.00374819077714	0.0612685030879
0.00374819077714	0.0612685030879
0.00374819077714	0.0612685030879
0.0206767034183	0.135043889264
0.0201870208587	0.133511348465
0.00374819077714	0.0612685030879
0.0181833676417	0.127024452207
