1.0	1.0
0.00374819077714	0.0612685030879
0.00374819077714	0.0612685030879
0.0180960295971	0.122502826988
0.024208498607	0.143953934741
0.00374819077714	0.0612685030879
0.00374819077714	0.0612685030879
0.00374819077714	0.0612685030879
0.0230691036851	0.140712945591
0.00374819077714	0.0612685030879
0.00374819077714	0.0612685030879
0.00374819077714	0.0612685030879
0.00374819077714	0.0612685030879
0.0251184732267	0.146484375
0.00374819077714	0.0612685030879
0.00374819077714	0.0612685030879
0.0254330417374	0.147347740668
0.00374819077714	0.0612685030879
0.00374819077714	0.0612685030879
0.00374819077714	0.0612685030879
0.0214140347262	0.137315482321
0.0180960295971	0.122502826988
0.024208498607	0.143953934741
1.0	1.0
0.00374819077714	0.0612685030879
0.0230691036851	0.140712945591
0.00374819077714	0.0612685030879
0.0179072800831	0.121905476369
0.0170057315614	0.119004027829
0.00374819077714	0.0612685030879
