0.923985594238	0.96
0.793961584634	0.89
0.793961584634	0.89
0.85887354942	0.925
0.768457382953	0.875
0.802462985194	0.895
0.757354941977	0.87
0.811364545818	0.9
0.740552220888	0.86
0.724851940776	0.845
0.793961584634	0.89
0.734851940776	0.855
0.453963821894	0.662713706888
0.672541016407	0.82
0.78356542617	0.87
0.951690676271	0.975
0.80606442577	0.895
0.869975990396	0.93
0.748555422169	0.86
0.786860744298	0.885
0.824867947179	0.905
0.841670668267	0.915
0.779359743898	0.88
0.85887354942	0.925
0.768457382953	0.875
0.85887354942	0.925
0.894079631853	0.945
0.807264905962	0.895
0.934887955182	0.965
0.808865546218	0.895
