0.822066826731	0.905
0.80606442577	0.895
0.766056422569	0.875
0.813765506202	0.9
0.542631599829	0.663007683864
0.830968387355	0.91
0.774557823129	0.88
0.813765506202	0.9
0.670659871669	0.741620111732
0.813365346138	0.9
0.653541416567	0.8
0.797362945178	0.89
0.914483793517	0.955
0.804863945578	0.895
0.830968387355	0.91
0.804663865546	0.895
0.839869947979	0.915
0.740952380952	0.86
0.774557823129	0.88
0.852773109244	0.92
0.830968387355	0.91
0.887378951581	0.94
0.848771508603	0.92
0.752054821929	0.865
0.85887354942	0.925
0.804863945578	0.895
0.699653861545	0.815
0.830968387355	0.91
0.740952380952	0.86
0.822066826731	0.905
