0.796162464986	0.89
0.756856742697	0.865
0.943589435774	0.97
0.804863945578	0.895
0.923385354142	0.96
0.782961184474	0.88
0.796362545018	0.89
0.831568627451	0.91
0.757354941977	0.87
0.716848739496	0.845
0.765758303321	0.87
0.842871148459	0.915
0.81356542617	0.9
0.733651460584	0.855
0.594535847378	0.699770436171
0.677706318312	0.740496857228
0.765856342537	0.875
0.732352941176	0.85
0.839669867947	0.915
0.748853541417	0.865
0.831568627451	0.91
0.711650660264	0.835
0.860074029612	0.925
0.761156462585	0.87
0.848473389356	0.915
0.750956382553	0.86
0.802462985194	0.895
0.733651460584	0.855
0.793361344538	0.89
0.793161264506	0.89
