0.682446978792	0.815
0.918085234094	0.955
0.674141656663	0.82
0.675742296919	0.82
0.481598454347	0.597915632754
0.880478191277	0.935
0.765958383353	0.87
0.777358943577	0.88
0.443402557749	0.581035508828
0.71174869948	0.84
0.812466986795	0.895
0.84487194878	0.915
0.861274509804	0.925
0.751654661865	0.865
0.738453381353	0.855
0.738053221289	0.855
0.743153261305	0.86
0.934887955182	0.965
0.746954781913	0.86
0.673341336535	0.82
0.625334133653	0.79
0.926386554622	0.96
0.787661064426	0.885
0.771258503401	0.875
0.844471788715	0.915
0.66443977591	0.815
0.815766306523	0.9
0.836370548219	0.91
0.715950380152	0.84
0.732450980392	0.855
