0.923385354142	0.96
0.887178871549	0.94
0.788461384554	0.885
0.840070028011	0.915
0.822066826731	0.905
0.840070028011	0.915
0.830768307323	0.91
0.840070028011	0.915
0.660323239724	0.709261664502
0.78056022409	0.88
0.801662665066	0.895
0.849371748699	0.92
0.836370548219	0.91
0.896480592237	0.945
0.814565826331	0.9
0.878477390956	0.935
0.832168867547	0.91
0.78405962385	0.885
0.980396158463	0.99
0.866774709884	0.93
0.807264905962	0.895
0.785260104042	0.885
0.980396158463	0.99
0.890380152061	0.94
0.750054021609	0.865
0.766456582633	0.875
0.840070028011	0.915
0.831568627451	0.91
0.545697462006	0.67061871077
0.869975990396	0.93
