0.820466186475	0.905
0.694078306513	0.742885671493
0.861274509804	0.925
0.823267306923	0.905
0.811764705882	0.9
0.8768767507	0.935
0.781760704282	0.88
0.803263305322	0.895
0.809665866347	0.895
0.850172068828	0.92
0.667899696603	0.699801587302
0.49368313616	0.624256837099
0.704847939176	0.835
0.849371748699	0.92
0.664959217605	0.697260409455
0.867775110044	0.93
0.770458183273	0.875
0.537998297134	0.65900990099
0.905782312925	0.95
0.909983993597	0.95
0.943589435774	0.97
0.800364145658	0.89
0.897280912365	0.945
0.743753501401	0.86
0.7012505002	0.825
0.785860344138	0.885
0.840270108043	0.915
0.699547819128	0.83
0.829767907163	0.91
0.792961184474	0.89
