0.755656262505	0.865
0.724149659864	0.85
0.764357743097	0.87
0.663243297319	0.805
0.648615829082	0.701555023923
0.897280912365	0.945
0.772458983593	0.875
0.71924969988	0.845
0.78956382553	0.88
0.814165666267	0.9
0.715448179272	0.845
0.698845538215	0.835
0.65343937575	0.805
0.756056422569	0.865
0.78806122449	0.885
0.668343337335	0.81
0.844471788715	0.915
0.79006202481	0.885
0.668441376551	0.815
0.771258503401	0.875
0.739555822329	0.85
0.842871148459	0.915
0.788861544618	0.885
0.762557022809	0.87
0.637589860698	0.700169847138
0.869975990396	0.93
0.812066826731	0.895
0.62243497399	0.785
0.861674669868	0.925
0.796864745898	0.885
