0.420793469838	0.638652543844
0.420793469838	0.638652543844
0.420793469838	0.638652543844
0.420793469838	0.638652543844
0.420793469838	0.638652543844
0.420793469838	0.638652543844
0.420793469838	0.638652543844
0.420793469838	0.638652543844
0.420793469838	0.638652543844
0.420793469838	0.638652543844
0.420793469838	0.638652543844
0.420793469838	0.638652543844
0.420793469838	0.638652543844
0.420793469838	0.638652543844
0.420793469838	0.638652543844
0.420793469838	0.638652543844
0.420793469838	0.638652543844
0.420793469838	0.638652543844
0.420793469838	0.638652543844
0.420793469838	0.638652543844
0.420793469838	0.638652543844
0.420793469838	0.638652543844
0.420793469838	0.638652543844
0.420793469838	0.638652543844
0.420793469838	0.638652543844
0.420793469838	0.638652543844
0.420793469838	0.638652543844
0.420793469838	0.638652543844
0.420793469838	0.638652543844
0.420793469838	0.638652543844
