0.592467397357	0.771737266335
0.592467397357	0.771737266335
0.592467397357	0.771737266335
0.592467397357	0.771737266335
0.592467397357	0.771737266335
0.592467397357	0.771737266335
0.592467397357	0.771737266335
0.592467397357	0.771737266335
0.592467397357	0.771737266335
0.592467397357	0.771737266335
0.592467397357	0.771737266335
0.592467397357	0.771737266335
0.592467397357	0.771737266335
0.592467397357	0.771737266335
0.592467397357	0.771737266335
0.592467397357	0.771737266335
0.592467397357	0.771737266335
0.592467397357	0.771737266335
0.592467397357	0.771737266335
0.592467397357	0.771737266335
0.592467397357	0.771737266335
0.592467397357	0.771737266335
0.592467397357	0.771737266335
0.592467397357	0.771737266335
0.592467397357	0.771737266335
0.592467397357	0.771737266335
0.592467397357	0.771737266335
0.592467397357	0.771737266335
0.592467397357	0.771737266335
0.592467397357	0.771737266335
