0.531208408399	0.72461069736
0.531208408399	0.72461069736
0.531208408399	0.72461069736
0.531208408399	0.72461069736
0.531208408399	0.72461069736
0.531208408399	0.72461069736
0.531208408399	0.72461069736
0.531208408399	0.72461069736
0.531208408399	0.72461069736
0.531208408399	0.72461069736
0.531208408399	0.72461069736
0.531208408399	0.72461069736
0.531208408399	0.72461069736
0.531208408399	0.72461069736
0.531208408399	0.72461069736
0.531208408399	0.72461069736
0.531208408399	0.72461069736
0.531208408399	0.72461069736
0.531208408399	0.72461069736
0.531208408399	0.72461069736
0.531208408399	0.72461069736
0.531208408399	0.72461069736
0.531208408399	0.72461069736
0.531208408399	0.72461069736
0.531208408399	0.72461069736
0.531208408399	0.72461069736
0.531208408399	0.72461069736
0.531208408399	0.72461069736
0.531208408399	0.72461069736
0.531208408399	0.72461069736
