0.537768481548	0.731206516206
0.537768481548	0.731206516206
0.537768481548	0.731206516206
0.537768481548	0.731206516206
0.537768481548	0.731206516206
0.537768481548	0.731206516206
0.537768481548	0.731206516206
0.537768481548	0.731206516206
0.537768481548	0.731206516206
0.537768481548	0.731206516206
0.537768481548	0.731206516206
0.537768481548	0.731206516206
0.537768481548	0.731206516206
0.537768481548	0.731206516206
0.537768481548	0.731206516206
0.537768481548	0.731206516206
0.537768481548	0.731206516206
0.537768481548	0.731206516206
0.537768481548	0.731206516206
0.537768481548	0.731206516206
0.537768481548	0.731206516206
0.537768481548	0.731206516206
0.537768481548	0.731206516206
0.537768481548	0.731206516206
0.537768481548	0.731206516206
0.537768481548	0.731206516206
0.537768481548	0.731206516206
0.537768481548	0.731206516206
0.537768481548	0.731206516206
0.537768481548	0.731206516206
