0.454292284237	0.666209732694
0.454292284237	0.666209732694
0.454292284237	0.666209732694
0.454292284237	0.666209732694
0.454292284237	0.666209732694
0.454292284237	0.666209732694
0.454292284237	0.666209732694
0.454292284237	0.666209732694
0.454292284237	0.666209732694
0.454292284237	0.666209732694
0.454292284237	0.666209732694
0.454292284237	0.666209732694
0.454292284237	0.666209732694
0.454292284237	0.666209732694
0.454292284237	0.666209732694
0.454292284237	0.666209732694
0.454292284237	0.666209732694
0.454292284237	0.666209732694
0.454292284237	0.666209732694
0.454292284237	0.666209732694
0.454292284237	0.666209732694
0.454292284237	0.666209732694
0.454292284237	0.666209732694
0.454292284237	0.666209732694
0.454292284237	0.666209732694
0.454292284237	0.666209732694
0.454292284237	0.666209732694
0.454292284237	0.666209732694
0.454292284237	0.666209732694
0.454292284237	0.666209732694
