1.0	1.0
0.960792316927	0.98
1.0	1.0
1.0	1.0
1.0	1.0
1.0	1.0
1.0	1.0
1.0	1.0
1.0	1.0
1.0	1.0
1.0	1.0
0.960792316927	0.98
1.0	1.0
1.0	1.0
1.0	1.0
1.0	1.0
0.92318527411	0.96
1.0	1.0
1.0	1.0
1.0	1.0
1.0	1.0
1.0	1.0
1.0	1.0
0.92318527411	0.96
1.0	1.0
1.0	1.0
1.0	1.0
1.0	1.0
1.0	1.0
1.0	1.0
