0.980196078431	0.99
1.0	1.0
1.0	1.0
1.0	1.0
0.980196078431	0.99
1.0	1.0
1.0	1.0
1.0	1.0
0.980196078431	0.99
0.980196078431	0.99
0.980196078431	0.99
1.0	1.0
0.980196078431	0.99
1.0	1.0
1.0	1.0
0.980196078431	0.99
0.980196078431	0.99
1.0	1.0
0.499787384153	0.498814229249
1.0	1.0
1.0	1.0
1.0	1.0
1.0	1.0
1.0	1.0
0.980196078431	0.99
0.980196078431	0.99
0.980196078431	0.99
0.980196078431	0.99
1.0	1.0
1.0	1.0
