0.265477838887	0.324302788845
0.265536061333	0.325119236884
0.264474090008	0.294521892794
0.264417267735	0.29348464097
0.265577613949	0.325683496308
0.264498729912	0.295043273013
0.264581244753	0.304863582444
0.264490796108	0.294869274622
0.265023255518	0.316859306497
0.247093260928	0.297809354648
0.236668017451	0.296456692913
0.26450638415	0.295217476875
0.178002456984	0.328217237308
0.264532503395	0.296625222025
0.26448674742	0.296733569461
0.264866963088	0.313752728716
0.264513758774	0.29539188657
0.264629133983	0.306809184481
0.264483475208	0.295713723948
0.266206576056	0.332934370636
0.264490796108	0.294869274622
0.264456266273	0.294175328496
0.264490796108	0.294869274622
0.153871201348	0.344407312758
0.264465317817	0.294348508634
0.265321497824	0.322067594433
0.26448258279	0.294695481336
0.264489424698	0.297361165813
0.264287013934	0.291601866252
0.264532057085	0.295857988166
