0.26450638415	0.295217476875
0.264646006892	0.306608454058
0.264727842262	0.309466984885
0.260639622629	0.295043273013
0.193793874258	0.305361305361
0.229423170279	0.298325123153
0.26448258279	0.294695481336
0.264527668994	0.295741324921
0.264508873429	0.295275590551
0.26448258279	0.294695481336
0.264498729912	0.295043273013
0.265707096587	0.327345309381
0.265016489225	0.316733067729
0.264527668994	0.295741324921
0.222630580232	0.299921073402
0.260623626427	0.294695481336
0.264520853737	0.295566502463
0.265112192437	0.318705321684
0.264822671601	0.312162971839
0.265193253198	0.320095313741
0.264508873429	0.295275590551
0.264655770341	0.306560636183
0.264465317817	0.294348508634
0.264474090008	0.294521892794
0.264527668994	0.295741324921
0.26451657984	0.299131807419
0.208339551016	0.309223492314
0.26450638415	0.295217476875
0.264490796108	0.294869274622
0.26448258279	0.294695481336
