0.264498729912	0.295043273013
0.26448258279	0.294695481336
0.264505423576	0.297595585337
0.264520853737	0.295566502463
0.264498729912	0.295043273013
0.216220488218	0.302110037468
0.264524011217	0.301894238358
0.264427436102	0.293657008614
0.264456266273	0.294175328496
0.264490796108	0.294869274622
0.265889998126	0.329479768786
0.227120248581	0.297318611987
0.2645004314	0.298778084352
0.26448258279	0.294695481336
0.227087011441	0.29626719057
0.264476951983	0.294579732914
0.216271313152	0.305506216696
0.264427436102	0.293657008614
0.264506532903	0.295727505414
0.264622410516	0.307525182698
0.264513758774	0.29539188657
0.264766195219	0.311186037287
0.264515246351	0.296668637887
0.264483028999	0.295459013171
0.241742090423	0.297403619197
0.264456266273	0.294175328496
0.264456266273	0.294175328496
0.264651169355	0.308011869436
0.26448258279	0.294695481336
0.264483475208	0.295713723948
