0.417985356941	0.618911374738
0.4133749468	0.61542215715
0.417985356941	0.618911374738
0.4133749468	0.61542215715
0.4133749468	0.61542215715
0.417985356941	0.618911374738
0.417985356941	0.618911374738
0.417985356941	0.618911374738
0.413687260343	0.615679709842
0.413687260343	0.615679709842
0.417985356941	0.618911374738
0.413687260343	0.615679709842
0.417985356941	0.618911374738
0.4133749468	0.61542215715
0.417985356941	0.618911374738
0.417985356941	0.618911374738
0.413687260343	0.615679709842
0.413687260343	0.615679709842
0.417985356941	0.618911374738
0.413687260343	0.615679709842
0.417985356941	0.618911374738
0.417985356941	0.618911374738
0.413687260343	0.615679709842
0.417985356941	0.618911374738
0.417985356941	0.618911374738
0.4133749468	0.61542215715
0.417985356941	0.618911374738
0.417985356941	0.618911374738
0.417985356941	0.618911374738
0.413687260343	0.615679709842
