0.418110600399	0.619530490346
0.404430185343	0.609243697479
0.37979815921	0.587193080357
0.381967089122	0.589083275017
0.381967089122	0.589083275017
0.37838899364	0.586513549471
0.412944635072	0.615550906555
0.386580966989	0.592413744839
0.412689072611	0.61533635413
0.382257273465	0.589280716485
0.400607787555	0.60555439549
0.409143914258	0.61279296875
0.436904272849	0.633212694878
0.408677671475	0.612588095737
0.381967089122	0.589083275017
0.428489836874	0.627158774373
0.381967089122	0.589083275017
0.42594950951	0.625112792393
0.409143914258	0.61279296875
0.381967089122	0.589083275017
0.421301217688	0.621853427237
0.428489836874	0.627158774373
0.412944635072	0.615550906555
0.412944635072	0.615550906555
0.381967089122	0.589083275017
0.429041163646	0.627306273063
0.381967089122	0.589083275017
0.432391016011	0.630047340574
0.366978271608	0.577416415504
0.424539782507	0.624338255782
