0.415599783829	0.618694983932
0.454491091777	0.646960284777
0.431859316766	0.62807140357
0.431801160317	0.628027439451
0.406844570912	0.611581229457
0.387137453041	0.595474922948
0.413138857565	0.616799552385
0.400490322548	0.606115737177
0.415599783829	0.618694983932
0.44286731945	0.638384120772
0.428943518897	0.625880711545
0.431859316766	0.62807140357
0.447714263093	0.641649196366
0.431859316766	0.62807140357
0.41358170539	0.616884926163
0.447714263093	0.641649196366
0.414208275541	0.617444049362
0.431859316766	0.62807140357
0.412626319743	0.616325389615
0.414208275541	0.617444049362
0.440737085983	0.636743797045
0.415599783829	0.618694983932
0.443537667507	0.638881118881
0.415599783829	0.618694983932
0.431859316766	0.62807140357
0.415120935613	0.618263055013
0.414208275541	0.617444049362
0.41358170539	0.616884926163
0.434399653954	0.632624510353
0.41358170539	0.616884926163
