0.294762101548	0.509208103131
0.287484986576	0.503828158231
0.294762101548	0.509208103131
0.287484986576	0.503828158231
0.287484986576	0.503828158231
0.292796793472	0.508248009101
0.294762101548	0.509208103131
0.294762101548	0.509208103131
0.292796722617	0.508175742926
0.288664151634	0.50515610554
0.294762101548	0.509208103131
0.287484986576	0.503828158231
0.287484986576	0.503828158231
0.294762101548	0.509208103131
0.294762101548	0.509208103131
0.287484986576	0.503828158231
0.287484986576	0.503828158231
0.294762101548	0.509208103131
0.287484986576	0.503828158231
0.278334748174	0.497152214153
0.294762101548	0.509208103131
0.287484986576	0.503828158231
0.294762101548	0.509208103131
0.287484986576	0.503828158231
0.294762101548	0.509208103131
0.287484986576	0.503828158231
0.287484986576	0.503828158231
0.294762101548	0.509208103131
0.292796793472	0.508248009101
0.287484986576	0.503828158231
