0.410680515071	0.61395283745
0.410680515071	0.61395283745
0.410680515071	0.61395283745
0.410680515071	0.61395283745
0.410680515071	0.61395283745
0.410680515071	0.61395283745
0.410680515071	0.61395283745
0.410680515071	0.61395283745
0.410680515071	0.61395283745
0.410680515071	0.61395283745
0.410680515071	0.61395283745
0.410680515071	0.61395283745
0.410680515071	0.61395283745
0.410680515071	0.61395283745
0.410680515071	0.61395283745
0.410680515071	0.61395283745
0.410680515071	0.61395283745
0.410680515071	0.61395283745
0.410680515071	0.61395283745
0.410680515071	0.61395283745
0.410680515071	0.61395283745
0.410680515071	0.61395283745
0.410680515071	0.61395283745
0.410680515071	0.61395283745
0.410680515071	0.61395283745
0.410680515071	0.61395283745
0.410680515071	0.61395283745
0.410680515071	0.61395283745
0.410680515071	0.61395283745
0.410680515071	0.61395283745
