0.356026701864	0.55903021785
0.360652662405	0.561982310824
0.383842004516	0.577972641179
0.377820815231	0.574426275528
0.365025075542	0.565513847884
0.385324103115	0.578910565695
0.361584603326	0.56285151856
0.376628640975	0.573875201797
0.356580453042	0.559541394106
0.359498302496	0.561652497717
0.367373677116	0.567139048688
0.375270272757	0.572709442421
0.352622809102	0.55640683208
0.376628640975	0.573875201797
0.368535565691	0.568175428732
0.358214451339	0.560188440444
0.382805643005	0.577838634927
0.372476748952	0.570857022531
0.372476748952	0.570857022531
0.352792268132	0.556783000281
0.365025075542	0.565513847884
0.354192898601	0.556819778059
0.38203877483	0.577638879135
0.344702583223	0.550502565544
0.358214451339	0.560188440444
0.368849368466	0.568169053637
0.348829892103	0.55364927577
0.376628640975	0.573875201797
0.358214451339	0.560188440444
0.356026701864	0.55903021785
