0.405993361702	0.602314977201
0.404749507572	0.601528537372
0.390675669747	0.590328467153
0.390675669747	0.590328467153
0.393590362037	0.592717322669
0.393590362037	0.592717322669
0.398910456258	0.596953103061
0.393590362037	0.592717322669
0.393590362037	0.592717322669
0.393590362037	0.592717322669
0.393590362037	0.592717322669
0.403299824662	0.600322264257
0.393590362037	0.592717322669
0.393590362037	0.592717322669
0.393590362037	0.592717322669
0.393590362037	0.592717322669
0.403299824662	0.600322264257
0.393590362037	0.592717322669
0.404749507572	0.601528537372
0.393590362037	0.592717322669
0.407629548018	0.603658536585
0.394578154998	0.593294051627
0.404749507572	0.601528537372
0.404749507572	0.601528537372
0.405575842438	0.60193494111
0.393590362037	0.592717322669
0.404620483969	0.601276028886
0.393590362037	0.592717322669
0.390288961085	0.590296306698
0.378170697873	0.580081701648
