0.47037983066	0.659878228008
0.466586756201	0.657076858463
0.47037983066	0.659878228008
0.47037983066	0.659878228008
0.47037983066	0.659878228008
0.467168393831	0.657537125245
0.47037983066	0.659878228008
0.480807985803	0.667390999579
0.47037983066	0.659878228008
0.468791852919	0.658829309377
0.47424728028	0.662678421495
0.432085047219	0.631187249877
0.481184551477	0.667671809257
0.477564223219	0.665169485578
0.481686170133	0.668046589952
0.47424728028	0.662678421495
0.47037983066	0.659878228008
0.47037983066	0.659878228008
0.47035395794	0.659836352192
0.466586756201	0.657076858463
0.474981088252	0.663235294118
0.47424728028	0.662678421495
0.474981088252	0.663235294118
0.474981088252	0.663235294118
0.43187194659	0.631123919308
0.47424728028	0.662678421495
0.47037983066	0.659878228008
0.474981088252	0.663235294118
0.466586756201	0.657076858463
0.427763742851	0.628081758797
