0.438005201765	0.640315929265
0.438005201765	0.640315929265
0.438005201765	0.640315929265
0.438005201765	0.640315929265
0.438005201765	0.640315929265
0.438005201765	0.640315929265
0.438005201765	0.640315929265
0.438005201765	0.640315929265
0.438005201765	0.640315929265
0.438005201765	0.640315929265
0.438005201765	0.640315929265
0.438005201765	0.640315929265
0.438005201765	0.640315929265
0.438005201765	0.640315929265
0.439755977609	0.641626560647
0.439755977609	0.641626560647
0.438005201765	0.640315929265
0.438005201765	0.640315929265
0.438005201765	0.640315929265
0.438005201765	0.640315929265
0.438005201765	0.640315929265
0.438005201765	0.640315929265
0.438005201765	0.640315929265
0.438005201765	0.640315929265
0.438005201765	0.640315929265
0.438005201765	0.640315929265
0.438005201765	0.640315929265
0.438005201765	0.640315929265
0.438005201765	0.640315929265
0.438005201765	0.640315929265
