0.304617732749	0.523893555446
0.305179218388	0.524424678808
0.305179218388	0.524424678808
0.29907834438	0.518884574656
0.305179218388	0.524424678808
0.305179218388	0.524424678808
0.305179218388	0.524424678808
0.305179218388	0.524424678808
0.305179218388	0.524424678808
0.29907834438	0.518884574656
0.305179218388	0.524424678808
0.305179218388	0.524424678808
0.29907834438	0.518884574656
0.305179218388	0.524424678808
0.305179218388	0.524424678808
0.305179218388	0.524424678808
0.305179218388	0.524424678808
0.305179218388	0.524424678808
0.305179218388	0.524424678808
0.305179218388	0.524424678808
0.29907834438	0.518884574656
0.305179218388	0.524424678808
0.305179218388	0.524424678808
0.305179218388	0.524424678808
0.305179218388	0.524424678808
0.307861042426	0.526627636312
0.305179218388	0.524424678808
0.305179218388	0.524424678808
0.311586943101	0.529768623025
0.305179218388	0.524424678808
