0.444934799077	0.645374756199
0.452689183121	0.651211361738
0.452855380892	0.651347399206
0.452855380892	0.651347399206
0.452855380892	0.651347399206
0.452855380892	0.651347399206
0.452855380892	0.651347399206
0.452855380892	0.651347399206
0.452855380892	0.651347399206
0.444934799077	0.645374756199
0.452855380892	0.651347399206
0.445091962116	0.645509649551
0.444934799077	0.645374756199
0.452855380892	0.651347399206
0.444934799077	0.645374756199
0.452855380892	0.651347399206
0.444934799077	0.645374756199
0.452855380892	0.651347399206
0.452855380892	0.651347399206
0.452473805185	0.651086653664
0.452855380892	0.651347399206
0.452855380892	0.651347399206
0.452855380892	0.651347399206
0.421363283765	0.622989626123
0.452855380892	0.651347399206
0.421811105647	0.623320570832
0.452855380892	0.651347399206
0.444934799077	0.645374756199
0.444934799077	0.645374756199
0.452855380892	0.651347399206
