0.033941210834	0.6
0.033941210834	0.6
0.033941210834	0.6
0.033941210834	0.6
0.033941210834	0.6
0.033941210834	0.6
0.033941210834	0.6
0.033941210834	0.6
0.033941210834	0.6
0.033941210834	0.6
0.033941210834	0.6
0.033941210834	0.6
0.033941210834	0.6
0.033941210834	0.6
0.033941210834	0.6
0.033941210834	0.6
0.033941210834	0.6
0.033941210834	0.6
0.033941210834	0.6
0.033941210834	0.6
0.033941210834	0.6
0.033941210834	0.6
0.033941210834	0.6
0.033941210834	0.6
0.033941210834	0.6
0.033941210834	0.6
0.033941210834	0.6
0.033941210834	0.6
0.033941210834	0.6
0.033941210834	0.6
