0.033941210834	0.6
0.033941210834	0.6
0.033941210834	0.6
0.033941210834	0.6
0.00752978181043	0.161290322581
0.033941210834	0.6
0.033941210834	0.6
0.033941210834	0.6
0.033941210834	0.6
0.033941210834	0.6
0.033941210834	0.6
0.033941210834	0.6
0.033941210834	0.6
0.033941210834	0.6
0.033941210834	0.6
0.033941210834	0.6
0.033941210834	0.6
0.033941210834	0.6
0.033941210834	0.6
0.033941210834	0.6
0.0101124196753	0.308823529412
0.033941210834	0.6
0.00752978181043	0.161290322581
0.033941210834	0.6
0.033941210834	0.6
0.033941210834	0.6
0.033941210834	0.6
0.033941210834	0.6
0.033941210834	0.6
0.033941210834	0.6
