0.548634703581	0.728
0.600283628595	0.759
0.439342207403	0.509
0.600283628595	0.759
0.597309842131	0.7368
0.217363813082	0.5658
0.195505685762	0.4968
0.600283628595	0.759
0.548634703581	0.728
0.600283628595	0.759
0.548634703581	0.728
0.597309842131	0.7368
0.600283628595	0.759
0.195505685762	0.4968
0.195505685762	0.4968
0.217363813082	0.5658
0.600283628595	0.759
0.600283628595	0.759
0.548634703581	0.728
0.600283628595	0.759
0.600283628595	0.759
0.597309842131	0.7368
0.597309842131	0.7368
0.600283628595	0.759
0.2283279384	0.564
0.133282367976	0.4668
0.600283628595	0.759
0.600283628595	0.759
0.195505685762	0.4968
0.600283628595	0.759
