0.600199753066	0.7584
0.189138237857	0.3636
0.600199753066	0.7584
0.0203559142087	0.2812
0.0203559142087	0.2812
0.288414127589	0.4784
0.600199753066	0.7584
0.189138237857	0.3636
0.454159374318	0.6014
0.367666750996	0.5644
0.20138810866	0.4544
0.390426469984	0.5712
0.367666750996	0.5644
0.0203559142087	0.2812
0.600199753066	0.7584
0.367666750996	0.5644
0.600199753066	0.7584
0.367666750996	0.5644
0.02122688774	0.28
0.600199753066	0.7584
0.211573828413	0.4484
0.600199753066	0.7584
0.600199753066	0.7584
0.600199753066	0.7584
0.189138237857	0.3636
0.600199753066	0.7584
0.600199753066	0.7584
0.189138237857	0.3636
0.0203559142087	0.2812
0.390426469984	0.5712
