0.317668826802	0.6472
0.234872716343	0.6106
0.317668826802	0.6472
0.155779129935	0.6004
0.234872716343	0.6106
0.317668826802	0.6472
0.234872716343	0.6106
0.317668826802	0.6472
0.234872716343	0.6106
0.234872716343	0.6106
0.234872716343	0.6106
0.317668826802	0.6472
0.155779129935	0.6004
0.317668826802	0.6472
0.234872716343	0.6106
0.234872716343	0.6106
0.155779129935	0.6004
0.317668826802	0.6472
0.317668826802	0.6472
0.317668826802	0.6472
0.317668826802	0.6472
0.317668826802	0.6472
0.317668826802	0.6472
0.234872716343	0.6106
0.317668826802	0.6472
0.234872716343	0.6106
0.234872716343	0.6106
0.317668826802	0.6472
0.317668826802	0.6472
0.317668826802	0.6472
