0.197739123102	0.5088
0.32522026246	0.5418
0.159916470438	0.508
0.629821675305	0.746
0.399022965764	0.5584
0.301528701259	0.5424
0.159916470438	0.508
0.301528701259	0.5424
0.163576224239	0.4938
0.301528701259	0.5424
0.579671633465	0.6872
0.399022965764	0.5584
0.373308985861	0.6016
0.579671633465	0.6872
0.32522026246	0.5418
0.399022965764	0.5584
0.32522026246	0.5418
0.151101279864	0.4952
0.151101279864	0.4952
0.32522026246	0.5418
0.151101279864	0.4952
0.32522026246	0.5418
0.32522026246	0.5418
0.0252510030813	0.392277992278
0.71724890858	0.6648
0.0252510030813	0.392277992278
0.32522026246	0.5418
0.0252510030813	0.392277992278
0.399022965764	0.5584
0.672221717686	0.7852
