0.0198819126352	0.3208
0.0122146995877	0.2426
0.0198819126352	0.3208
0.014343036452	0.268
0.0213053140827	0.3696
0.0122146995877	0.2426
0.0219599306334	0.3776
0.0198819126352	0.3208
0.0219599306334	0.3776
0.0122146995877	0.2426
0.0198819126352	0.3208
0.0219599306334	0.3776
0.0213053140827	0.3696
0.0213053140827	0.3696
0.0219599306334	0.3776
0.0122146995877	0.2426
0.0122146995877	0.2426
0.0262233855311	0.4088
0.0255690636372	0.4008
0.0226602267156	0.383
0.0122146995877	0.2426
0.0226602267156	0.383
0.0226602267156	0.383
0.0226602267156	0.383
0.0198819126352	0.3208
0.0219599306334	0.3776
0.0219599306334	0.3776
0.0219599306334	0.3776
0.0122146995877	0.2426
0.014343036452	0.268
