0.222640554759	0.5262
0.222640554759	0.5262
0.222640554759	0.5262
0.222640554759	0.5262
0.0331168440832	0.4746
0.222640554759	0.5262
0.0331168440832	0.4746
0.222640554759	0.5262
0.222640554759	0.5262
0.222640554759	0.5262
0.222640554759	0.5262
0.370407506633	0.5502
0.222640554759	0.5262
0.222640554759	0.5262
0.222640554759	0.5262
0.222640554759	0.5262
0.457971224142	0.5894
0.0273471201437	0.315
0.0331168440832	0.4746
0.370407506633	0.5502
0.222640554759	0.5262
0.222640554759	0.5262
0.222640554759	0.5262
0.222640554759	0.5262
0.222640554759	0.5262
0.0331168440832	0.4746
0.222640554759	0.5262
0.0331168440832	0.4746
0.0331168440832	0.4746
0.0331168440832	0.4746
