0.0302825690692	0.4734
0.414577108619	0.6604
0.345388143257	0.6336
0.0237972975603	0.2628
0.00591631739715	0.141551659828
0.46205602081	0.6908
0.0302825690692	0.4734
0.459454992854	0.6678
0.0102542213458	0.2736
0.00581354376823	0.154816304149
0.00591631739715	0.141551659828
0.404987772206	0.741
0.290941269831	0.481
0.224728008052	0.319794050343
0.00591631739715	0.141551659828
0.0534731282169	0.292651162791
0.00591631739715	0.141551659828
0.223980876639	0.4658
0.0417064585703	0.307834784219
0.0337200957502	0.250790697674
0.0119496805182	0.2498
0.085170718288	0.4036900369
0.0276328179953	0.240816326531
0.288490197223	0.463
0.0492830520769	0.293395348837
0.0276328179953	0.240816326531
0.290941269831	0.481
0.0337200957502	0.250790697674
0.0492830520769	0.293395348837
0.0492830520769	0.293395348837
