0.65693877551	0.81
0.744957983193	0.85
0.804165666267	0.89
0.564925970388	0.75
0.744957983193	0.85
0.819967987195	0.9
0.744957983193	0.85
0.757755102041	0.87
0.0799965765759	0.594676231829
0.836170468187	0.91
1.0	1.0
0.836170468187	0.91
0.836170468187	0.91
0.86737494998	0.93
0.597731092437	0.77
0.65693877551	0.81
0.673941576631	0.82
0.640336134454	0.8
0.581128451381	0.76
0.744957983193	0.85
0.819967987195	0.9
1.0	1.0
0.640336134454	0.8
0.92318527411	0.96
0.624133653461	0.79
0.672741096439	0.82
0.731156462585	0.84
0.759159663866	0.86
0.632136854742	0.79
0.581128451381	0.76
