0.809963985594	0.9
0.852773109244	0.92
0.757755102041	0.87
0.852773109244	0.92
0.809963985594	0.9
0.757755102041	0.87
0.809963985594	0.9
0.100867661275	0.628332063976
1.0	1.0
0.828167266907	0.91
0.739951980792	0.86
1.0	1.0
0.852773109244	0.92
0.809963985594	0.9
0.693745498199	0.83
0.809963985594	0.9
0.904981992797	0.95
1.0	1.0
0.904981992797	0.95
0.809963985594	0.9
0.724949979992	0.85
0.809963985594	0.9
0.809963985594	0.9
0.809963985594	0.9
0.809963985594	0.9
1.0	1.0
0.904981992797	0.95
0.904981992797	0.95
0.809963985594	0.9
0.904981992797	0.95
