0.81356542617	0.9
0.739951980792	0.86
0.723349339736	0.85
0.709147659064	0.84
1.0	1.0
0.852773109244	0.92
0.804165666267	0.89
0.739951980792	0.86
0.722549019608	0.85
0.804165666267	0.89
0.887178871549	0.94
0.887178871549	0.94
0.887178871549	0.94
1.0	1.0
0.887178871549	0.94
0.852773109244	0.92
0.92318527411	0.96
1.0	1.0
0.852773109244	0.92
0.673941576631	0.82
0.739951980792	0.86
0.727350940376	0.85
0.739951980792	0.86
0.757755102041	0.87
0.691344537815	0.83
0.673941576631	0.82
0.757755102041	0.87
0.847971188475	0.92
0.723349339736	0.85
0.65693877551	0.81
