0.810364145658	0.9
1.0	1.0
0.92318527411	0.96
1.0	1.0
0.810364145658	0.9
0.739951980792	0.86
0.941788715486	0.97
0.756954781913	0.87
0.92318527411	0.96
0.792961184474	0.89
0.792961184474	0.89
0.869775910364	0.93
0.887178871549	0.94
0.887178871549	0.94
0.792961184474	0.89
0.887178871549	0.94
0.810364145658	0.9
0.774357743097	0.88
0.774357743097	0.88
0.792160864346	0.89
0.887178871549	0.94
0.792961184474	0.89
0.887178871549	0.94
1.0	1.0
0.92318527411	0.96
0.810364145658	0.9
0.774357743097	0.88
0.810364145658	0.9
0.756954781913	0.87
0.92318527411	0.96
