0.391346938384	0.485537602234
0.0599296962934	0.578880866426
0.869775910364	0.93
1.0	1.0
0.792160864346	0.89
0.887178871549	0.94
0.774357743097	0.88
0.869775910364	0.93
0.887178871549	0.94
0.887178871549	0.94
0.869775910364	0.93
0.887178871549	0.94
0.756954781913	0.87
0.828967587035	0.91
0.869775910364	0.93
0.792160864346	0.89
0.92318527411	0.96
0.774357743097	0.88
0.869775910364	0.93
0.887178871549	0.94
0.774357743097	0.88
0.756954781913	0.87
1.0	1.0
0.376106405589	0.486044657097
0.774357743097	0.88
0.774757903161	0.88
0.756954781913	0.87
0.756954781913	0.87
0.756954781913	0.87
0.81156462585	0.9
