0.688943577431	0.83
0.672741096439	0.82
0.562525010004	0.75
0.626534613846	0.79
0.819967987195	0.9
0.836170468187	0.91
0.887178871549	0.94
0.688943577431	0.83
0.641536614646	0.8
0.887178871549	0.94
0.632136854742	0.79
0.352174202123	0.486781951898
0.675942376951	0.82
0.759355742297	0.87
0.672340936375	0.82
0.723349339736	0.85
0.707146858743	0.84
0.887178871549	0.94
0.887178871549	0.94
0.723349339736	0.85
0.819967987195	0.9
0.887178871549	0.94
0.632136854742	0.79
0.836170468187	0.91
0.632136854742	0.79
0.836170468187	0.91
0.887178871549	0.94
0.852773109244	0.92
0.678743497399	0.82
0.887178871549	0.94
