1.0	1.0
1.0	1.0
0.674521279097	0.717856667996
1.0	1.0
1.0	1.0
1.0	1.0
1.0	1.0
0.666342428014	0.658241179568
1.0	1.0
1.0	1.0
1.0	1.0
1.0	1.0
1.0	1.0
1.0	1.0
1.0	1.0
0.666454880677	0.660900567807
1.0	1.0
1.0	1.0
0.666526937579	0.673361522199
1.0	1.0
0.666342428014	0.658241179568
1.0	1.0
1.0	1.0
1.0	1.0
1.0	1.0
1.0	1.0
0.666105372446	0.665175046065
1.0	1.0
0.673031484309	0.712765957447
1.0	1.0
