1.0	1.0
1.0	1.0
0.890780312125	0.94
1.0	1.0
1.0	1.0
1.0	1.0
1.0	1.0
1.0	1.0
1.0	1.0
1.0	1.0
1.0	1.0
1.0	1.0
1.0	1.0
1.0	1.0
1.0	1.0
1.0	1.0
1.0	1.0
1.0	1.0
0.673819373191	0.715520680942
1.0	1.0
1.0	1.0
0.986797385621	0.993333333333
0.632529575222	0.658074697528
1.0	1.0
1.0	1.0
1.0	1.0
1.0	1.0
1.0	1.0
0.675833259254	0.721956406167
1.0	1.0
