0.041211380734	0.434208177111
0.041211380734	0.434208177111
0.041211380734	0.434208177111
0.041211380734	0.434208177111
0.041211380734	0.434208177111
0.041211380734	0.434208177111
0.041211380734	0.434208177111
0.041211380734	0.434208177111
0.041211380734	0.434208177111
0.041211380734	0.434208177111
0.041211380734	0.434208177111
0.041211380734	0.434208177111
0.041211380734	0.434208177111
0.041211380734	0.434208177111
0.041211380734	0.434208177111
0.041211380734	0.434208177111
0.041211380734	0.434208177111
0.041211380734	0.434208177111
0.041211380734	0.434208177111
0.041211380734	0.434208177111
0.041211380734	0.434208177111
0.041211380734	0.434208177111
0.041211380734	0.434208177111
0.041211380734	0.434208177111
0.041211380734	0.434208177111
0.041211380734	0.434208177111
0.041211380734	0.434208177111
0.041211380734	0.434208177111
0.041211380734	0.434208177111
0.041211380734	0.434208177111
