0.0443475507969	0.426996265339
0.0443475507969	0.426996265339
0.0443475507969	0.426996265339
0.0443475507969	0.426996265339
0.0443475507969	0.426996265339
0.0443475507969	0.426996265339
0.0443475507969	0.426996265339
0.0443475507969	0.426996265339
0.0443475507969	0.426996265339
0.0443475507969	0.426996265339
0.0443475507969	0.426996265339
0.0443475507969	0.426996265339
0.0443475507969	0.426996265339
0.0443475507969	0.426996265339
0.0443475507969	0.426996265339
0.0443475507969	0.426996265339
0.0443475507969	0.426996265339
0.0443475507969	0.426996265339
0.0443475507969	0.426996265339
0.0443475507969	0.426996265339
0.0443475507969	0.426996265339
0.0443475507969	0.426996265339
0.0443475507969	0.426996265339
0.0443475507969	0.426996265339
0.0443475507969	0.426996265339
0.0443475507969	0.426996265339
0.0443475507969	0.426996265339
0.0443475507969	0.426996265339
0.0443475507969	0.426996265339
0.0443475507969	0.426996265339
