0.0408867388194	0.424155283968
0.0408867388194	0.424155283968
0.0408867388194	0.424155283968
0.0408867388194	0.424155283968
0.0408867388194	0.424155283968
0.0408867388194	0.424155283968
0.0408867388194	0.424155283968
0.0408867388194	0.424155283968
0.0408867388194	0.424155283968
0.0408867388194	0.424155283968
0.0408867388194	0.424155283968
0.0408867388194	0.424155283968
0.0408867388194	0.424155283968
0.0408867388194	0.424155283968
0.0408867388194	0.424155283968
0.0408867388194	0.424155283968
0.0408867388194	0.424155283968
0.0408867388194	0.424155283968
0.0408867388194	0.424155283968
0.0408867388194	0.424155283968
0.0408867388194	0.424155283968
0.0408867388194	0.424155283968
0.0408867388194	0.424155283968
0.0408867388194	0.424155283968
0.0408867388194	0.424155283968
0.0408867388194	0.424155283968
0.0408867388194	0.424155283968
0.0408867388194	0.424155283968
0.0408867388194	0.424155283968
0.0408867388194	0.424155283968
