0.0432048456447	0.439098551243
0.0432048456447	0.439098551243
0.0432048456447	0.439098551243
0.0432048456447	0.439098551243
0.0432048456447	0.439098551243
0.0432048456447	0.439098551243
0.0432048456447	0.439098551243
0.0432048456447	0.439098551243
0.0432048456447	0.439098551243
0.0432048456447	0.439098551243
0.0432048456447	0.439098551243
0.0432048456447	0.439098551243
0.0432048456447	0.439098551243
0.0432048456447	0.439098551243
0.0432048456447	0.439098551243
0.0432048456447	0.439098551243
0.0432048456447	0.439098551243
0.0432048456447	0.439098551243
0.0432048456447	0.439098551243
0.0432048456447	0.439098551243
0.0432048456447	0.439098551243
0.0432048456447	0.439098551243
0.0432048456447	0.439098551243
0.0432048456447	0.439098551243
0.0432048456447	0.439098551243
0.0432048456447	0.439098551243
0.0432048456447	0.439098551243
0.0432048456447	0.439098551243
0.0432048456447	0.439098551243
0.0432048456447	0.439098551243
