0.0427350307525	0.382644043832
0.0427350307525	0.382644043832
0.0427350307525	0.382644043832
0.0427350307525	0.382644043832
0.0427350307525	0.382644043832
0.0427350307525	0.382644043832
0.0427350307525	0.382644043832
0.0427350307525	0.382644043832
0.0427350307525	0.382644043832
0.0427350307525	0.382644043832
0.0427350307525	0.382644043832
0.0427350307525	0.382644043832
0.0427350307525	0.382644043832
0.0427350307525	0.382644043832
0.0427350307525	0.382644043832
0.0427350307525	0.382644043832
0.0427350307525	0.382644043832
0.0427350307525	0.382644043832
0.0427350307525	0.382644043832
0.0427350307525	0.382644043832
0.0427350307525	0.382644043832
0.0427350307525	0.382644043832
0.0427350307525	0.382644043832
0.0427350307525	0.382644043832
0.0427350307525	0.382644043832
0.0427350307525	0.382644043832
0.0427350307525	0.382644043832
0.0427350307525	0.382644043832
0.0427350307525	0.382644043832
0.0427350307525	0.382644043832
