0.0427693353519	0.400818359722
0.0427693353519	0.400818359722
0.0427693353519	0.400818359722
0.0427693353519	0.400818359722
0.0427693353519	0.400818359722
0.0427693353519	0.400818359722
0.0427693353519	0.400818359722
0.0427693353519	0.400818359722
0.0427693353519	0.400818359722
0.0427693353519	0.400818359722
0.0427693353519	0.400818359722
0.0427693353519	0.400818359722
0.0427693353519	0.400818359722
0.0427693353519	0.400818359722
0.0427693353519	0.400818359722
0.0427693353519	0.400818359722
0.0427693353519	0.400818359722
0.0427693353519	0.400818359722
0.0427693353519	0.400818359722
0.0427693353519	0.400818359722
0.0427693353519	0.400818359722
0.0427693353519	0.400818359722
0.0427693353519	0.400818359722
0.0427693353519	0.400818359722
0.0427693353519	0.400818359722
0.0427693353519	0.400818359722
0.0427693353519	0.400818359722
0.0427693353519	0.400818359722
0.0427693353519	0.400818359722
0.0427693353519	0.400818359722
