0.0410204765281	0.46246408046
0.0410204765281	0.46246408046
0.0410204765281	0.46246408046
0.0410204765281	0.46246408046
0.0410204765281	0.46246408046
0.0410204765281	0.46246408046
0.0410204765281	0.46246408046
0.0410204765281	0.46246408046
0.0410204765281	0.46246408046
0.0410204765281	0.46246408046
0.0410204765281	0.46246408046
0.0410204765281	0.46246408046
0.0410204765281	0.46246408046
0.0410204765281	0.46246408046
0.0410204765281	0.46246408046
0.0410204765281	0.46246408046
0.0410204765281	0.46246408046
0.0410204765281	0.46246408046
0.0410204765281	0.46246408046
0.0410204765281	0.46246408046
0.0410204765281	0.46246408046
0.0410204765281	0.46246408046
0.0410204765281	0.46246408046
0.0410204765281	0.46246408046
0.0410204765281	0.46246408046
0.0410204765281	0.46246408046
0.0410204765281	0.46246408046
0.0410204765281	0.46246408046
0.0410204765281	0.46246408046
0.0410204765281	0.46246408046
