0.0427852946631	0.430074919729
0.0427852946631	0.430074919729
0.0427852946631	0.430074919729
0.0427852946631	0.430074919729
0.0427852946631	0.430074919729
0.0427852946631	0.430074919729
0.0427852946631	0.430074919729
0.0427852946631	0.430074919729
0.0427852946631	0.430074919729
0.0427852946631	0.430074919729
0.0427852946631	0.430074919729
0.0427852946631	0.430074919729
0.0427852946631	0.430074919729
0.0427852946631	0.430074919729
0.0427852946631	0.430074919729
0.0427852946631	0.430074919729
0.0427852946631	0.430074919729
0.0427852946631	0.430074919729
0.0427852946631	0.430074919729
0.0427852946631	0.430074919729
0.0427852946631	0.430074919729
0.0427852946631	0.430074919729
0.0427852946631	0.430074919729
0.0427852946631	0.430074919729
0.0427852946631	0.430074919729
0.0427852946631	0.430074919729
0.0427852946631	0.430074919729
0.0427852946631	0.430074919729
0.0427852946631	0.430074919729
0.0427852946631	0.430074919729
