1.0	1.0
0.247055205401	0.296303578451
0.19426708209	0.309258171854
0.887178871549	0.94
0.264508873429	0.295275590551
0.237981097256	0.309837335399
0.24709216457	0.297553275454
0.224616070098	0.288522012579
0.101850102232	0.760180995475
0.203870114452	0.312965139052
0.0991330466166	0.810329474622
0.26448258279	0.294695481336
0.210072971056	0.296651654592
0.222647697912	0.302013422819
0.264396093923	0.293140512019
0.264518519826	0.295508274232
0.192485738254	0.311405216037
0.258403923645	0.295342896443
1.0	1.0
0.236602485286	0.296709753231
0.238011450416	0.310934161973
1.0	1.0
0.251502123832	0.284872298625
0.264474090008	0.294521892794
1.0	1.0
0.205780811871	0.30261106781
0.941788715486	0.97
0.233472505789	0.301615100214
0.246594194661	0.301615100214
1.0	1.0
