1.0	1.0
0.264456266273	0.294175328496
0.215414930819	0.289815178923
0.904981992797	0.95
0.264513758774	0.29539188657
0.819967987195	0.9
0.264490796108	0.294869274622
0.264532057085	0.295857988166
0.241759303949	0.297142857143
0.196881942833	0.307962529274
0.214093548721	0.297037473023
1.0	1.0
0.255484536877	0.296398346782
0.26448258279	0.294695481336
0.218340102632	0.303532662325
0.264534204502	0.295916354311
0.26448258279	0.294695481336
0.218296068967	0.300787401575
0.218325683144	0.303328737443
0.227113712607	0.297398502168
0.258430755241	0.296690307329
0.261452256335	0.296449704142
0.222605962945	0.297696396929
0.887178871549	0.94
0.887178871549	0.94
0.887178871549	0.94
0.206302983251	0.303638151426
0.209815614625	0.320247534326
0.231790797939	0.297361165813
0.904981992797	0.95
