0.941788715486	0.97
0.206279274339	0.302709069494
0.26448258279	0.294695481336
0.264446935432	0.294002352019
0.225344514163	0.30935808198
0.264498729912	0.295043273013
0.18400374625	0.303326810176
0.251532293236	0.285545490351
0.206291332057	0.303767660911
0.227059235623	0.298706389651
0.231796595144	0.299448384555
0.224834480746	0.30223880597
0.23186407562	0.303840063341
0.264520853737	0.295566502463
0.13985342834	0.377453838678
0.264446935432	0.294002352019
0.207304358468	0.301615100214
0.180348895291	0.303973380309
0.227044434387	0.296985121378
0.247073033271	0.297222769352
0.26448258279	0.294695481336
0.836170468187	0.91
0.249718161025	0.29513006063
0.222570609249	0.296528731124
0.258428730333	0.295669291339
0.236386682219	0.35466461064
1.0	1.0
0.218329261698	0.303448275862
0.255492288814	0.295866141732
0.167027199825	0.3249419055
