0.218316576849	0.302815514865
0.231807643978	0.300808200276
0.200819641404	0.306423099588
0.190008464428	0.284137931034
0.252608436039	0.296675191816
0.26448258279	0.294695481336
0.214134311219	0.300669027942
0.214129224068	0.299350521551
0.255492288814	0.295866141732
0.26450638415	0.295217476875
0.264465317817	0.294348508634
0.249793228654	0.296187106918
0.241754425613	0.298483953534
0.210092906175	0.299823633157
0.258444071581	0.297494574867
0.200769159907	0.303536345776
0.241697474092	0.295396669931
0.238448267403	0.27375831052
0.252568427851	0.295802275402
0.264474090008	0.294521892794
0.214120321656	0.297797010228
0.252633724345	0.297318611987
0.264513758774	0.29539188657
0.26448258279	0.294695481336
0.232892852786	0.277141729175
0.26448258279	0.294695481336
1.0	1.0
0.264474090008	0.294521892794
0.255460834687	0.295619721076
0.241769527856	0.298895899054
