0.218266080773	0.299234243079
0.252628959337	0.296924290221
0.0720102098885	0.750220653133
0.191846608507	0.281995661605
0.247071662958	0.296631869214
0.247048450309	0.295852172204
0.887178871549	0.94
0.179526875747	0.284175479828
1.0	1.0
0.186165889979	0.31175898931
0.247028556117	0.296819787986
0.264508873429	0.295275590551
0.26448258279	0.294695481336
0.264532057085	0.295857988166
0.214105802324	0.300784313725
0.206246282062	0.300058835066
0.887178871549	0.94
0.210135671749	0.301396812906
0.227113588662	0.29866036249
0.241721926923	0.296172718351
0.264527668994	0.295741324921
0.210159079976	0.302934804018
0.255512392848	0.297355958958
0.252622814359	0.296237935789
0.218311926435	0.302146937168
0.264520853737	0.295566502463
0.249825838558	0.296551724138
0.26448258279	0.294695481336
0.26450638415	0.295217476875
0.210035213784	0.29842012873
