0.185843597213	0.306070661722
0.227105335877	0.2991537099
0.819967987195	0.9
0.227103358788	0.300825796304
0.212048138243	0.300175884307
0.65693877551	0.81
0.247024446128	0.296056503826
0.2301354279	0.276432368576
0.264474090008	0.294521892794
0.213258829714	0.291625615764
0.252638973345	0.296529968454
0.252592212393	0.296070726916
0.264446935432	0.294002352019
0.241769522325	0.297654247979
0.225580813461	0.265997243552
0.214121542416	0.297403619197
0.222632619175	0.300926838888
0.134589486844	0.376369327074
0.264456266273	0.294175328496
0.241752164338	0.29842519685
0.244352244871	0.296739984289
0.206838446166	0.30243902439
0.238554737813	0.275862068966
0.200224361525	0.308173640986
0.218312281437	0.301321238415
0.26448258279	0.294695481336
0.264437325355	0.293829578844
0.202184980124	0.307361002349
0.224809235567	0.277385159011
0.163996297293	0.305960007765
