0.222613035179	0.298128078818
0.222645934437	0.301953818828
0.231782883808	0.297696396929
0.264465317817	0.294348508634
0.261409238907	0.295910342116
0.264520853737	0.295566502463
0.198837368676	0.297591297591
0.241738352437	0.296696814786
0.26448258279	0.294695481336
0.26450638415	0.295217476875
0.261433455274	0.295472440945
0.869775910364	0.93
0.852773109244	0.92
0.836170468187	0.91
0.852773109244	0.92
1.0	1.0
0.249826532885	0.296807252661
0.0955889823591	0.796777081468
0.231756817691	0.298390263055
0.231756366419	0.296994696523
1.0	1.0
0.869775910364	0.93
0.26450638415	0.295217476875
0.200702149184	0.298022322303
0.26450638415	0.295217476875
0.26448258279	0.294695481336
0.212094936712	0.302175191064
0.132122764732	0.842182350787
0.170156756857	0.300912444186
0.869775910364	0.93
