0.149375478621	0.7916
0.125030265773	0.268240343348
0.149691434929	0.7914
0.149375478621	0.7916
0.124272099465	0.263047138047
0.149375478621	0.7916
0.149375478621	0.7916
0.149691434929	0.7914
0.149375478621	0.7916
0.149375478621	0.7916
0.149375478621	0.7916
0.12514668453	0.2691065662
0.126567910393	0.269541778976
0.126042980057	0.266014045542
0.072912221969	0.476
0.149375478621	0.7916
0.149691434929	0.7914
0.126751299829	0.270855904659
0.149375478621	0.7916
0.0235314582413	0.0816966765792
0.123787985505	0.260064495995
0.125474758944	0.262522314397
0.149375478621	0.7916
0.0233961864592	0.0816966765792
0.113049619589	0.425199583478
0.126320407385	0.267838011571
0.149375478621	0.7916
0.126182850248	0.266922912663
0.0235314582413	0.0816966765792
0.149375478621	0.7916
