0.107627122657	0.205119789957
0.0229580281636	0.0816966765792
0.146583915298	0.7648
0.146583915298	0.7648
0.107627122657	0.205119789957
0.109457315215	0.208803140399
0.110692531302	0.211398613225
0.107627122657	0.205119789957
0.146583915298	0.7648
0.146583915298	0.7648
0.146583915298	0.7648
0.109651510996	0.209205020921
0.146583915298	0.7648
0.146583915298	0.7648
0.146583915298	0.7648
0.108872791611	0.207606709849
0.0229580281636	0.0816966765792
0.0230342559806	0.0816966765792
0.107832662187	0.20552449852
0.146583915298	0.7648
0.146583915298	0.7648
0.022880587991	0.0816966765792
0.146583915298	0.7648
0.111059372413	0.212188083517
0.108481566739	0.206816677697
0.10906794839	0.208003993677
0.146583915298	0.7648
0.110508594352	0.211006076975
0.108481566739	0.206816677697
0.0230342559806	0.0816966765792
