0.151400944097	0.7928
0.0229580281636	0.0816966765792
0.119014630108	0.242248062016
0.151400944097	0.7928
0.0699665990428	0.474
0.119232353177	0.2431670071
0.151400944097	0.7928
0.119232353177	0.2431670071
0.151400944097	0.7928
0.0296647573802	0.158304842172
0.151400944097	0.7928
0.119232353177	0.2431670071
0.119087500916	0.242553604347
0.118082225282	0.238504102271
0.151400944097	0.7928
0.151400944097	0.7928
0.151400944097	0.7928
0.11944738953	0.244092950596
0.151400944097	0.7928
0.119087500916	0.242553604347
0.0699665990428	0.474
0.119160075688	0.242859918399
0.151400944097	0.7928
0.119014630108	0.242248062016
0.119160075688	0.242859918399
0.118164549125	0.238823079862
0.151400944097	0.7928
0.151400944097	0.7928
0.151400944097	0.7928
0.11930433214	0.243474873393
