0.117593313078	0.435391800727
0.161845218365	0.8
0.0240706069033	0.0833306101108
0.123564073865	0.28675093633
0.0749198912237	0.48
0.123526413697	0.286214953271
0.123449164505	0.285148975791
0.0245654528931	0.0816966765792
0.123601089476	0.287288930582
0.123488110171	0.285680970149
0.161845218365	0.8
0.161845218365	0.8
0.161845218365	0.8
0.161845218365	0.8
0.161845218365	0.8
0.161845218365	0.8
0.117028593778	0.424354865913
0.123564073865	0.28675093633
0.123488110171	0.285680970149
0.161845218365	0.8
0.161845218365	0.8
0.161845218365	0.8
0.0749198912237	0.48
0.123751187944	0.289598108747
0.123582662314	0.28701968135
0.161845218365	0.8
0.161845218365	0.8
0.161845218365	0.8
0.161845218365	0.8
0.161845218365	0.8
