0.153844395424	0.8
0.153844395424	0.8
0.153844395424	0.8
0.150194115204	0.7912
0.153844395424	0.8
0.123206744145	0.268817204301
0.153844395424	0.8
0.0239018215294	0.0816966765792
0.122870413193	0.267094017094
0.153844395424	0.8
0.153844395424	0.8
0.153844395424	0.8
0.150194115204	0.7912
0.153844395424	0.8
0.153844395424	0.8
0.0237234880802	0.0816966765792
0.122870413193	0.267094017094
0.153844395424	0.8
0.153844395424	0.8
0.153844395424	0.8
0.122756574177	0.266524520256
0.122409946064	0.264830508475
0.150194115204	0.7912
0.153844395424	0.8
0.153844395424	0.8
0.153844395424	0.8
0.153844395424	0.8
0.153844395424	0.8
0.153844395424	0.8
0.153844395424	0.8
