0.152415677041	0.8
0.129426800045	0.288201388072
0.129464330993	0.288574793875
0.152415677041	0.8
0.152415677041	0.8
0.12975284568	0.291597238753
0.152415677041	0.8
0.152415677041	0.8
0.129689113353	0.290904773213
0.152415677041	0.8
0.152415677041	0.8
0.129538418571	0.289324515824
0.152415677041	0.8
0.152415677041	0.8
0.129538418571	0.289324515824
0.129501537361	0.288949168534
0.129125908232	0.285348241323
0.129212810003	0.286148096239
0.13010945123	0.295786550767
0.129538418571	0.289324515824
0.152415677041	0.8
0.152415677041	0.8
0.152415677041	0.8
0.129464330993	0.288574793875
0.152415677041	0.8
0.0237844892758	0.0816966765792
0.152415677041	0.8
0.152415677041	0.8
0.152415677041	0.8
0.128123964679	0.290318758147
