0.331678271309	0.576
0.331678271309	0.576
0.331678271309	0.576
0.331678271309	0.576
0.331678271309	0.576
0.331678271309	0.576
0.331678271309	0.576
0.331678271309	0.576
0.331678271309	0.576
0.331678271309	0.576
0.331678271309	0.576
0.331678271309	0.576
0.331678271309	0.576
0.331678271309	0.576
0.331678271309	0.576
0.331678271309	0.576
0.331678271309	0.576
0.331678271309	0.576
0.331678271309	0.576
0.331678271309	0.576
0.331678271309	0.576
0.331678271309	0.576
0.331678271309	0.576
0.331678271309	0.576
0.331678271309	0.576
0.331678271309	0.576
0.331678271309	0.576
0.331678271309	0.576
0.331678271309	0.576
0.331678271309	0.576
