0.29150060024	0.54
0.21150060024	0.46
0.29150060024	0.54
0.29150060024	0.54
0.29150060024	0.54
0.29150060024	0.54
0.159903961585	0.4
0.29150060024	0.54
0.29150060024	0.54
0.29150060024	0.54
0.29150060024	0.54
0.159903961585	0.4
0.29150060024	0.54
0.21150060024	0.46
0.159903961585	0.4
0.29150060024	0.54
0.29150060024	0.54
0.29150060024	0.54
0.159903961585	0.4
0.21150060024	0.46
0.29150060024	0.54
0.29150060024	0.54
0.159903961585	0.4
0.159903961585	0.4
0.29150060024	0.54
0.21150060024	0.46
0.29150060024	0.54
0.21150060024	0.46
0.29150060024	0.54
0.29150060024	0.54
