0.407462184874	0.6384
0.407462184874	0.6384
0.407462184874	0.6384
0.407462184874	0.6384
0.407462184874	0.6384
0.407462184874	0.6384
0.407462184874	0.6384
0.407462184874	0.6384
0.407462184874	0.6384
0.407462184874	0.6384
0.407462184874	0.6384
0.407462184874	0.6384
0.407462184874	0.6384
0.407462184874	0.6384
0.407462184874	0.6384
0.407462184874	0.6384
0.407462184874	0.6384
0.407462184874	0.6384
0.407462184874	0.6384
0.407462184874	0.6384
0.407462184874	0.6384
0.407462184874	0.6384
0.407462184874	0.6384
0.407462184874	0.6384
0.407462184874	0.6384
0.407462184874	0.6384
0.407462184874	0.6384
0.407462184874	0.6384
0.407462184874	0.6384
0.407462184874	0.6384
