1.0	1.0
1.0	1.0
1.0	1.0
1.0	1.0
1.0	1.0
0.384305722289	0.62
0.384305722289	0.62
0.144305722289	0.38
1.0	1.0
0.384305722289	0.62
0.384305722289	0.62
0.384305722289	0.62
1.0	1.0
1.0	1.0
0.384305722289	0.62
0.384305722289	0.62
1.0	1.0
1.0	1.0
0.384305722289	0.62
0.384305722289	0.62
0.144305722289	0.38
1.0	1.0
1.0	1.0
1.0	1.0
0.144305722289	0.38
1.0	1.0
0.144305722289	0.38
1.0	1.0
0.144305722289	0.38
1.0	1.0
