0.279952941176	0.5292
0.279952941176	0.5292
0.279952941176	0.5292
0.279952941176	0.5292
0.21150060024	0.46
0.279952941176	0.5292
0.279952941176	0.5292
0.21150060024	0.46
0.279952941176	0.5292
0.279952941176	0.5292
0.279952941176	0.5292
0.279952941176	0.5292
0.279952941176	0.5292
0.21150060024	0.46
0.279952941176	0.5292
0.279952941176	0.5292
0.279952941176	0.5292
0.21150060024	0.46
0.279952941176	0.5292
0.279952941176	0.5292
0.279952941176	0.5292
0.279952941176	0.5292
0.279952941176	0.5292
0.279952941176	0.5292
0.279952941176	0.5292
0.279952941176	0.5292
0.279952941176	0.5292
0.279952941176	0.5292
0.279952941176	0.5292
0.279952941176	0.5292
