0.299328691477	0.5472
0.369568627451	0.608
0.369568627451	0.608
0.369568627451	0.608
0.369568627451	0.608
0.369568627451	0.608
0.369568627451	0.608
0.369568627451	0.608
0.369568627451	0.608
0.369568627451	0.608
0.369568627451	0.608
0.369568627451	0.608
0.299328691477	0.5472
0.369568627451	0.608
0.369568627451	0.608
0.369568627451	0.608
0.369568627451	0.608
0.369568627451	0.608
0.369568627451	0.608
0.369568627451	0.608
0.369568627451	0.608
0.369568627451	0.608
0.369568627451	0.608
0.369568627451	0.608
0.369568627451	0.608
0.369568627451	0.608
0.369568627451	0.608
0.369568627451	0.608
0.369568627451	0.608
0.369568627451	0.608
