0.213344537815	0.462
0.31350140056	0.56
0.31350140056	0.56
0.213344537815	0.462
0.31350140056	0.56
0.31350140056	0.56
0.31350140056	0.56
0.31350140056	0.56
0.31350140056	0.56
0.31350140056	0.56
0.31350140056	0.56
0.31350140056	0.56
0.213344537815	0.462
0.31350140056	0.56
0.31350140056	0.56
0.213344537815	0.462
0.31350140056	0.56
0.31350140056	0.56
0.213344537815	0.462
0.213344537815	0.462
0.31350140056	0.56
0.31350140056	0.56
0.213344537815	0.462
0.31350140056	0.56
0.31350140056	0.56
0.31350140056	0.56
0.31350140056	0.56
0.31350140056	0.56
0.31350140056	0.56
0.31350140056	0.56
