0.684202641056	0.8272
0.684202641056	0.8272
0.684202641056	0.8272
0.565429371749	0.752
0.684202641056	0.8272
0.684202641056	0.8272
0.684202641056	0.8272
0.565429371749	0.752
0.684202641056	0.8272
0.565429371749	0.752
0.684202641056	0.8272
0.684202641056	0.8272
0.684202641056	0.8272
0.684202641056	0.8272
0.684202641056	0.8272
0.684202641056	0.8272
0.684202641056	0.8272
0.684202641056	0.8272
0.684202641056	0.8272
0.684202641056	0.8272
0.684202641056	0.8272
0.684202641056	0.8272
0.684202641056	0.8272
0.684202641056	0.8272
0.684202641056	0.8272
0.684202641056	0.8272
0.684202641056	0.8272
0.684202641056	0.8272
0.684202641056	0.8272
0.684202641056	0.8272
