0.140436540139	0.768
0.140436540139	0.768
0.140436540139	0.768
0.140436540139	0.768
0.140436540139	0.768
0.140436540139	0.768
0.140436540139	0.768
0.140436540139	0.768
0.140436540139	0.768
0.140436540139	0.768
0.140436540139	0.768
0.140436540139	0.768
0.140436540139	0.768
0.140436540139	0.768
0.140436540139	0.768
0.140436540139	0.768
0.140436540139	0.768
0.140436540139	0.768
0.140436540139	0.768
0.140436540139	0.768
0.140436540139	0.768
0.140436540139	0.768
0.140436540139	0.768
0.140436540139	0.768
0.140436540139	0.768
0.140436540139	0.768
0.140436540139	0.768
0.140436540139	0.768
0.140436540139	0.768
0.140436540139	0.768
