0.134646992262	0.752
0.134646992262	0.752
0.134646992262	0.752
0.134646992262	0.752
0.134646992262	0.752
0.134646992262	0.752
0.134646992262	0.752
0.134646992262	0.752
0.134646992262	0.752
0.134646992262	0.752
0.134646992262	0.752
0.134646992262	0.752
0.134646992262	0.752
0.134646992262	0.752
0.134646992262	0.752
0.134646992262	0.752
0.134646992262	0.752
0.134646992262	0.752
0.134646992262	0.752
0.134646992262	0.752
0.134646992262	0.752
0.134646992262	0.752
0.134646992262	0.752
0.134646992262	0.752
0.134646992262	0.752
0.134646992262	0.752
0.134646992262	0.752
0.134646992262	0.752
0.134646992262	0.752
0.134646992262	0.752
