0.14345323138	0.776
0.14345323138	0.776
0.14345323138	0.776
0.14345323138	0.776
0.14345323138	0.776
0.14345323138	0.776
0.14345323138	0.776
0.14345323138	0.776
0.14345323138	0.776
0.14345323138	0.776
0.14345323138	0.776
0.14345323138	0.776
0.14345323138	0.776
0.14345323138	0.776
0.14345323138	0.776
0.14345323138	0.776
0.14345323138	0.776
0.14345323138	0.776
0.14345323138	0.776
0.14345323138	0.776
0.14345323138	0.776
0.14345323138	0.776
0.14345323138	0.776
0.14345323138	0.776
0.14345323138	0.776
0.14345323138	0.776
0.14345323138	0.776
0.14345323138	0.776
0.14345323138	0.776
0.14345323138	0.776
