0.134829868215	0.752
0.134829868215	0.752
0.134829868215	0.752
0.134829868215	0.752
0.134829868215	0.752
0.134829868215	0.752
0.134829868215	0.752
0.134829868215	0.752
0.134829868215	0.752
0.134829868215	0.752
0.134829868215	0.752
0.134829868215	0.752
0.134829868215	0.752
0.134829868215	0.752
0.134829868215	0.752
0.134829868215	0.752
0.134829868215	0.752
0.134829868215	0.752
0.134829868215	0.752
0.134829868215	0.752
0.134829868215	0.752
0.134829868215	0.752
0.134829868215	0.752
0.134829868215	0.752
0.134829868215	0.752
0.134829868215	0.752
0.134829868215	0.752
0.134829868215	0.752
0.134829868215	0.752
0.134829868215	0.752
