0.131874135625	0.744
0.131874135625	0.744
0.131874135625	0.744
0.131874135625	0.744
0.131874135625	0.744
0.131874135625	0.744
0.131874135625	0.744
0.131874135625	0.744
0.131874135625	0.744
0.131874135625	0.744
0.131874135625	0.744
0.131874135625	0.744
0.131874135625	0.744
0.131874135625	0.744
0.131874135625	0.744
0.131874135625	0.744
0.131874135625	0.744
0.131874135625	0.744
0.131874135625	0.744
0.131874135625	0.744
0.131874135625	0.744
0.131874135625	0.744
0.131874135625	0.744
0.131874135625	0.744
0.131874135625	0.744
0.131874135625	0.744
0.131874135625	0.744
0.131874135625	0.744
0.131874135625	0.744
0.131874135625	0.744
