0.111368407417	0.672
0.111368407417	0.672
0.111368407417	0.672
0.111368407417	0.672
0.111368407417	0.672
0.111368407417	0.672
0.111368407417	0.672
0.111368407417	0.672
0.111368407417	0.672
0.111368407417	0.672
0.111368407417	0.672
0.111368407417	0.672
0.111368407417	0.672
0.111368407417	0.672
0.111368407417	0.672
0.111368407417	0.672
0.111368407417	0.672
0.111368407417	0.672
0.111368407417	0.672
0.111368407417	0.672
0.111368407417	0.672
0.111368407417	0.672
0.111368407417	0.672
0.111368407417	0.672
0.111368407417	0.672
0.111368407417	0.672
0.111368407417	0.672
0.111368407417	0.672
0.111368407417	0.672
0.111368407417	0.672
