0.290572029986	0.864
0.290572029986	0.864
0.0791864361128	0.211602891906
0.290572029986	0.864
0.0794770878058	0.211995406766
0.00195939688223	0.024975024975
0.0791864361128	0.211602891906
0.0791864361128	0.211602891906
0.290572029986	0.864
0.290572029986	0.864
0.290572029986	0.864
0.290572029986	0.864
0.290572029986	0.864
0.00195299713989	0.024975024975
0.078896948959	0.211211827862
0.00195939688223	0.024975024975
0.0831874778399	0.216998191682
0.290572029986	0.864
0.0794770878058	0.211995406766
0.0791864361128	0.211602891906
0.290572029986	0.864
0.078896948959	0.211211827862
0.290572029986	0.864
0.290572029986	0.864
0.290572029986	0.864
0.0794770878058	0.211995406766
0.290572029986	0.864
0.290572029986	0.864
0.290572029986	0.864
0.00194659050583	0.024975024975
