0.312065315066	0.9
0.0856100959811	0.22001232069
0.00199127269728	0.024975024975
0.131190484933	0.476
0.0849856391614	0.21920210434
0.312065315066	0.9
0.0893226320602	0.224820143885
0.0849856391614	0.21920210434
0.312065315066	0.9
0.312065315066	0.9
0.0849856391614	0.21920210434
0.0856100959811	0.22001232069
0.312065315066	0.9
0.312065315066	0.9
0.312065315066	0.9
0.00199761929208	0.024975024975
0.312065315066	0.9
0.0849856391614	0.21920210434
0.312065315066	0.9
0.312065315066	0.9
0.312065315066	0.9
0.0846752961602	0.218799229827
0.312065315066	0.9
0.312065315066	0.9
0.312065315066	0.9
0.312065315066	0.9
0.312065315066	0.9
0.00199127269728	0.024975024975
0.00199761929208	0.024975024975
0.312065315066	0.9
