0.305158425348	0.8908
0.305158425348	0.8908
0.305158425348	0.8908
0.305158425348	0.8908
0.305158425348	0.8908
0.00199127269728	0.024975024975
0.305158425348	0.8908
0.305158425348	0.8908
0.305158425348	0.8908
0.305158425348	0.8908
0.305158425348	0.8908
0.305158425348	0.8908
0.305158425348	0.8908
0.305158425348	0.8908
0.305158425348	0.8908
0.305158425348	0.8908
0.305158425348	0.8908
0.305158425348	0.8908
0.305158425348	0.8908
0.305158425348	0.8908
0.305158425348	0.8908
0.305158425348	0.8908
0.305158425348	0.8908
0.305158425348	0.8908
0.305158425348	0.8908
0.305158425348	0.8908
0.305158425348	0.8908
0.305158425348	0.8908
0.305158425348	0.8908
0.305158425348	0.8908
