0.127655337418	0.23206163557
0.133187290142	0.255466993664
0.294270344794	0.8736
0.294270344794	0.8736
0.294270344794	0.8736
0.294270344794	0.8736
0.294270344794	0.8736
0.294270344794	0.8736
0.00202917710644	0.024975024975
0.294270344794	0.8736
0.0722255537061	0.207715648028
0.294270344794	0.8736
0.129942357326	0.240084509747
0.133187290142	0.255466993664
0.118506334836	0.458
0.129732698837	0.239280245023
0.0714628872267	0.206213959893
0.294270344794	0.8736
0.294270344794	0.8736
0.294270344794	0.8736
0.294270344794	0.8736
0.294270344794	0.8736
0.00202917710644	0.024975024975
0.294270344794	0.8736
0.294270344794	0.8736
0.127655337418	0.23206163557
0.131598475315	0.247108826727
0.131661056788	0.247402276101
0.294270344794	0.8736
0.118506334836	0.458
