0.299261481837	0.882
0.135780011911	0.244570534142
0.132373213771	0.231910946197
0.299261481837	0.882
0.299261481837	0.882
0.132587654021	0.232601414217
0.135615726093	0.243854857589
0.299261481837	0.882
0.135812597739	0.244714173845
0.299261481837	0.882
0.299261481837	0.882
0.299261481837	0.882
0.132534248975	0.232428412049
0.135909809993	0.24514610708
0.299113704347	0.882
0.299261481837	0.882
0.299261481837	0.882
0.299261481837	0.882
0.299261481837	0.882
0.299261481837	0.882
0.299261481837	0.882
0.132534248975	0.232428412049
0.299261481837	0.882
0.133440927858	0.49
0.299261481837	0.882
0.132534248975	0.232428412049
0.299261481837	0.882
0.299261481837	0.882
0.299261481837	0.882
0.299261481837	0.882
