0.00682545018007	0.0828
0.000391933778869	0.0197784810127
0.025037214886	0.1584
0.0121488595438	0.1104
0.025037214886	0.1584
0.00538967587035	0.0736
0.000391952965644	0.0197941409343
0.000424282798884	0.0206022187005
0.025037214886	0.1584
0.00682545018007	0.0828
0.025037214886	0.1584
0.00682545018007	0.0828
0.025037214886	0.1584
0.00412324929972	0.0644
0.025037214886	0.1584
0.0184489795918	0.136
0.00538708903288	0.07336523126
0.00538967587035	0.0736
0.025037214886	0.1584
0.0111135654262	0.1056
0.0077118847539	0.088
0.025037214886	0.1584
0.025037214886	0.1584
0.00933525410164	0.0968
0.0230524209684	0.152
0.000139240323998	0.0119521912351
0.025037214886	0.1584
0.00412324929972	0.0644
