0.0130468187275	0.1144
0.00872701080432	0.0936
0.0130468187275	0.1144
0.0130468187275	0.1144
0.0130468187275	0.1144
0.0045412304764	0.0672502984481
0.0130468187275	0.1144
0.00454453781513	0.0676
0.0130468187275	0.1144
0.0130468187275	0.1144
0.0130468187275	0.1144
0.0130468187275	0.1144
0.0130468187275	0.1144
0.0130468187275	0.1144
0.0045412304764	0.0672502984481
0.00325026010404	0.0572
0.0045412304764	0.0672502984481
0.0130468187275	0.1144
0.0130468187275	0.1144
0.0130468187275	0.1144
0.0130468187275	0.1144
0.0130468187275	0.1144
0.0130468187275	0.1144
0.0130468187275	0.1144
0.0130468187275	0.1144
0.0130468187275	0.1144
0.0130468187275	0.1144
0.0130468187275	0.1144
