0.0166476190476	0.1292
0.0166476190476	0.1292
0.0230524209684	0.152
0.014743817527	0.1216
0.0166476190476	0.1292
0.0166476190476	0.1292
0.00574056667114	0.0753968253968
0.000566360128247	0.0238000793336
0.00695830332133	0.0836
0.0166476190476	0.1292
0.014743817527	0.1216
0.0166476190476	0.1292
0.0166476190476	0.1292
0.0166476190476	0.1292
0.0166476190476	0.1292
0.0166476190476	0.1292
0.014743817527	0.1216
0.00695306362168	0.0832337714058
0.000911974902451	0.0302066772655
0.0166476190476	0.1292
0.0166476190476	0.1292
0.0166476190476	0.1292
0.0166476190476	0.1292
0.00695830332133	0.0836
0.0166476190476	0.1292
0.00695306362168	0.0832337714058
0.000224997583596	0.0151033386328
0.0166476190476	0.1292
0.0166476190476	0.1292
0.0166476190476	0.1292
