0.00872701080432	0.0936
0.0107787114846	0.104
0.00586986794718	0.0768
0.00872701080432	0.0936
0.00872701080432	0.0936
0.00280922788797	0.0530514559234
0.00872701080432	0.0936
0.0125042016807	0.112
0.00872701080432	0.0936
0.0107787114846	0.104
0.00872701080432	0.0936
0.0107787114846	0.104
0.00872701080432	0.0936
0.0125042016807	0.112
0.00799551820728	0.0896
0.00799551820728	0.0896
0.00743337334934	0.0864
0.00872701080432	0.0936
0.0107787114846	0.104
0.00743337334934	0.0864
0.0107787114846	0.104
0.00872701080432	0.0936
0.0107787114846	0.104
0.0107787114846	0.104
0.00872701080432	0.0936
0.00872701080432	0.0936
0.00799551820728	0.0896
0.00799551820728	0.0896
