0.121052003397	0.600549073439
0.121052003397	0.600549073439
0.121052003397	0.600549073439
0.121052003397	0.600549073439
0.121052003397	0.600549073439
0.121052003397	0.600549073439
0.121052003397	0.600549073439
0.121052003397	0.600549073439
0.121052003397	0.600549073439
0.121052003397	0.600549073439
0.121052003397	0.600549073439
0.121052003397	0.600549073439
0.121052003397	0.600549073439
0.121052003397	0.600549073439
0.121052003397	0.600549073439
0.121052003397	0.600549073439
0.121052003397	0.600549073439
0.121052003397	0.600549073439
0.121052003397	0.600549073439
0.121052003397	0.600549073439
0.121052003397	0.600549073439
0.121052003397	0.600549073439
0.121052003397	0.600549073439
0.121052003397	0.600549073439
0.121052003397	0.600549073439
0.121052003397	0.600549073439
0.121052003397	0.600549073439
0.121052003397	0.600549073439
0.121052003397	0.600549073439
0.121052003397	0.600549073439
