0.114287248846	0.59587020649
0.114287248846	0.59587020649
0.114287248846	0.59587020649
0.114287248846	0.59587020649
0.114287248846	0.59587020649
0.114287248846	0.59587020649
0.114287248846	0.59587020649
0.114287248846	0.59587020649
0.114287248846	0.59587020649
0.114287248846	0.59587020649
0.114287248846	0.59587020649
0.114287248846	0.59587020649
0.114287248846	0.59587020649
0.114287248846	0.59587020649
0.114287248846	0.59587020649
0.114287248846	0.59587020649
0.114287248846	0.59587020649
0.114287248846	0.59587020649
0.114287248846	0.59587020649
0.114287248846	0.59587020649
0.114287248846	0.59587020649
0.114287248846	0.59587020649
0.114287248846	0.59587020649
0.114287248846	0.59587020649
0.114287248846	0.59587020649
0.114287248846	0.59587020649
0.114287248846	0.59587020649
0.114287248846	0.59587020649
0.114287248846	0.59587020649
0.114287248846	0.59587020649
