0.127515352652	0.630985426787
0.127515352652	0.630985426787
0.127515352652	0.630985426787
0.127515352652	0.630985426787
0.127515352652	0.630985426787
0.127515352652	0.630985426787
0.127515352652	0.630985426787
0.127515352652	0.630985426787
0.127515352652	0.630985426787
0.127515352652	0.630985426787
0.127515352652	0.630985426787
0.127515352652	0.630985426787
0.127515352652	0.630985426787
0.127515352652	0.630985426787
0.127515352652	0.630985426787
0.127515352652	0.630985426787
0.127515352652	0.630985426787
0.127515352652	0.630985426787
0.127515352652	0.630985426787
0.127515352652	0.630985426787
0.127515352652	0.630985426787
0.127515352652	0.630985426787
0.127515352652	0.630985426787
0.127515352652	0.630985426787
0.127515352652	0.630985426787
0.127515352652	0.630985426787
0.127515352652	0.630985426787
0.127515352652	0.630985426787
0.127515352652	0.630985426787
0.127515352652	0.630985426787
