0.141634049363	0.656121045392
0.141634049363	0.656121045392
0.141634049363	0.656121045392
0.141634049363	0.656121045392
0.141634049363	0.656121045392
0.141634049363	0.656121045392
0.141634049363	0.656121045392
0.141634049363	0.656121045392
0.141634049363	0.656121045392
0.141634049363	0.656121045392
0.141634049363	0.656121045392
0.141634049363	0.656121045392
0.141634049363	0.656121045392
0.141634049363	0.656121045392
0.141634049363	0.656121045392
0.141634049363	0.656121045392
0.141634049363	0.656121045392
0.141634049363	0.656121045392
0.141634049363	0.656121045392
0.141634049363	0.656121045392
0.141634049363	0.656121045392
0.141634049363	0.656121045392
0.141634049363	0.656121045392
0.141634049363	0.656121045392
0.141634049363	0.656121045392
0.141634049363	0.656121045392
0.141634049363	0.656121045392
0.141634049363	0.656121045392
0.141634049363	0.656121045392
0.141634049363	0.656121045392
