0.362308123249	0.602
0.362308123249	0.602
0.362308123249	0.602
0.362308123249	0.602
0.362308123249	0.602
0.362308123249	0.602
0.362308123249	0.602
0.362308123249	0.602
0.362308123249	0.602
0.362308123249	0.602
0.362308123249	0.602
0.362308123249	0.602
0.362308123249	0.602
0.362308123249	0.602
0.362308123249	0.602
0.362308123249	0.602
0.362308123249	0.602
0.362308123249	0.602
0.362308123249	0.602
0.362308123249	0.602
0.362308123249	0.602
0.362308123249	0.602
0.362308123249	0.602
0.362308123249	0.602
0.362308123249	0.602
0.362308123249	0.602
0.362308123249	0.602
0.362308123249	0.602
0.362308123249	0.602
0.362308123249	0.602
