0.337231212485	0.5808
0.337231212485	0.5808
0.337231212485	0.5808
0.12381272509	0.352
0.337231212485	0.5808
0.24870140056	0.4988
0.12381272509	0.352
0.22419719888	0.4736
0.337231212485	0.5808
0.0875326130452	0.296
0.147976310524	0.3848
0.337231212485	0.5808
0.337231212485	0.5808
0.337231212485	0.5808
0.337231212485	0.5808
0.337231212485	0.5808
0.337231212485	0.5808
0.337231212485	0.5808
0.337231212485	0.5808
0.337231212485	0.5808
0.337231212485	0.5808
0.337231212485	0.5808
0.337231212485	0.5808
0.12381272509	0.352
0.337231212485	0.5808
0.337231212485	0.5808
0.337231212485	0.5808
0.337231212485	0.5808
0.337231212485	0.5808
0.22419719888	0.4736
