0.430245698279	0.656
0.430245698279	0.656
0.430245698279	0.656
0.430245698279	0.656
0.430245698279	0.656
0.430245698279	0.656
0.430245698279	0.656
0.430245698279	0.656
0.430245698279	0.656
0.430245698279	0.656
0.430245698279	0.656
0.430245698279	0.656
0.430245698279	0.656
0.430245698279	0.656
0.430245698279	0.656
0.430245698279	0.656
0.430245698279	0.656
0.430245698279	0.656
0.430245698279	0.656
0.430245698279	0.656
0.430245698279	0.656
0.430245698279	0.656
0.430245698279	0.656
0.430245698279	0.656
0.430245698279	0.656
0.430245698279	0.656
0.430245698279	0.656
0.430245698279	0.656
0.430245698279	0.656
0.430245698279	0.656
