0.29150060024	0.54
0.29150060024	0.54
0.203482352941	0.4512
0.960392156863	0.98
0.960392156863	0.98
0.29150060024	0.54
0.960392156863	0.98
0.369082352941	0.6076
0.203482352941	0.4512
0.149210084034	0.3864
0.203482352941	0.4512
0.960392156863	0.98
0.203482352941	0.4512
0.960392156863	0.98
0.29150060024	0.54
0.960392156863	0.98
0.960392156863	0.98
0.960392156863	0.98
0.149210084034	0.3864
0.29150060024	0.54
0.369082352941	0.6076
0.203482352941	0.4512
0.960392156863	0.98
0.960392156863	0.98
0.960392156863	0.98
0.29150060024	0.54
0.203482352941	0.4512
0.960392156863	0.98
0.29150060024	0.54
0.203482352941	0.4512
