0.0470626098742	0.369907076483
0.0470626098742	0.369907076483
0.0470626098742	0.369907076483
0.0470626098742	0.369907076483
0.0470626098742	0.369907076483
0.0470626098742	0.369907076483
0.0470626098742	0.369907076483
0.0470626098742	0.369907076483
0.0470626098742	0.369907076483
0.0470626098742	0.369907076483
0.0470626098742	0.369907076483
0.0470626098742	0.369907076483
0.0470626098742	0.369907076483
0.0470626098742	0.369907076483
0.0470626098742	0.369907076483
0.0470626098742	0.369907076483
0.0470626098742	0.369907076483
0.0470626098742	0.369907076483
0.0470626098742	0.369907076483
0.0470626098742	0.369907076483
0.0470626098742	0.369907076483
0.0470626098742	0.369907076483
0.0470626098742	0.369907076483
0.0470626098742	0.369907076483
0.0470626098742	0.369907076483
0.0470626098742	0.369907076483
0.0470626098742	0.369907076483
0.0470626098742	0.369907076483
0.0470626098742	0.369907076483
0.0470626098742	0.369907076483
