0.045859087553	0.344153515065
0.045859087553	0.344153515065
0.045859087553	0.344153515065
0.045859087553	0.344153515065
0.045859087553	0.344153515065
0.045859087553	0.344153515065
0.045859087553	0.344153515065
0.045859087553	0.344153515065
0.045859087553	0.344153515065
0.045859087553	0.344153515065
0.045859087553	0.344153515065
0.045859087553	0.344153515065
0.045859087553	0.344153515065
0.045859087553	0.344153515065
0.045859087553	0.344153515065
0.045859087553	0.344153515065
0.045859087553	0.344153515065
0.045859087553	0.344153515065
0.045859087553	0.344153515065
0.045859087553	0.344153515065
0.045859087553	0.344153515065
0.045859087553	0.344153515065
0.045859087553	0.344153515065
0.045859087553	0.344153515065
0.045859087553	0.344153515065
0.045859087553	0.344153515065
0.045859087553	0.344153515065
0.045859087553	0.344153515065
0.045859087553	0.344153515065
0.045859087553	0.344153515065
