0.0540560897334	0.396657871592
0.0540560897334	0.396657871592
0.0540560897334	0.396657871592
0.0540560897334	0.396657871592
0.0540560897334	0.396657871592
0.0540560897334	0.396657871592
0.0540560897334	0.396657871592
0.0540560897334	0.396657871592
0.0540560897334	0.396657871592
0.0540560897334	0.396657871592
0.0540560897334	0.396657871592
0.0540560897334	0.396657871592
0.0540560897334	0.396657871592
0.0540560897334	0.396657871592
0.0540560897334	0.396657871592
0.0540560897334	0.396657871592
0.0540560897334	0.396657871592
0.0540560897334	0.396657871592
0.0540560897334	0.396657871592
0.0540560897334	0.396657871592
0.0540560897334	0.396657871592
0.0540560897334	0.396657871592
0.0540560897334	0.396657871592
0.0540560897334	0.396657871592
0.0540560897334	0.396657871592
0.0540560897334	0.396657871592
0.0540560897334	0.396657871592
0.0540560897334	0.396657871592
0.0540560897334	0.396657871592
0.0540560897334	0.396657871592
