0.0509203076631	0.394549340933
0.0509203076631	0.394549340933
0.0509203076631	0.394549340933
0.0509203076631	0.394549340933
0.0509203076631	0.394549340933
0.0509203076631	0.394549340933
0.0509203076631	0.394549340933
0.0509203076631	0.394549340933
0.0509203076631	0.394549340933
0.0509203076631	0.394549340933
0.0509203076631	0.394549340933
0.0509203076631	0.394549340933
0.0509203076631	0.394549340933
0.0509203076631	0.394549340933
0.0509203076631	0.394549340933
0.0509203076631	0.394549340933
0.0509203076631	0.394549340933
0.0509203076631	0.394549340933
0.0509203076631	0.394549340933
0.0509203076631	0.394549340933
0.0509203076631	0.394549340933
0.0509203076631	0.394549340933
0.0509203076631	0.394549340933
0.0509203076631	0.394549340933
0.0509203076631	0.394549340933
0.0509203076631	0.394549340933
0.0509203076631	0.394549340933
0.0509203076631	0.394549340933
0.0509203076631	0.394549340933
0.0509203076631	0.394549340933
