0.961161239702	0.980392156863
0.961161239702	0.980392156863
0.961161239702	0.980392156863
0.961161239702	0.980392156863
0.961161239702	0.980392156863
0.793670467371	0.884086444008
0.961161239702	0.980392156863
0.793670467371	0.884086444008
0.961161239702	0.980392156863
0.961161239702	0.980392156863
0.961161239702	0.980392156863
0.793670467371	0.884086444008
0.961161239702	0.980392156863
0.961161239702	0.980392156863
0.833006664053	0.980392156863
0.961161239702	0.980392156863
0.793670467371	0.884086444008
0.961161239702	0.980392156863
0.961161239702	0.980392156863
0.961161239702	0.980392156863
0.961161239702	0.980392156863
0.961161239702	0.980392156863
0.961161239702	0.980392156863
0.961161239702	0.980392156863
0.793670467371	0.884086444008
0.961161239702	0.980392156863
0.961161239702	0.980392156863
0.961161239702	0.980392156863
0.961161239702	0.980392156863
0.961161239702	0.980392156863
