0.359903961585	0.6
0.359903961585	0.6
0.359903961585	0.6
0.359903961585	0.6
0.359903961585	0.6
0.359903961585	0.6
0.359903961585	0.6
0.359903961585	0.6
0.359903961585	0.6
0.359903961585	0.6
0.359903961585	0.6
0.359903961585	0.6
0.359903961585	0.6
0.359903961585	0.6
0.359903961585	0.6
0.359903961585	0.6
0.359903961585	0.6
0.359903961585	0.6
0.359903961585	0.6
0.359903961585	0.6
0.359903961585	0.6
0.359903961585	0.6
0.359903961585	0.6
0.359903961585	0.6
0.359903961585	0.6
0.359903961585	0.6
0.359903961585	0.6
0.359903961585	0.6
0.359903961585	0.6
0.359903961585	0.6
