0.995085571854	0.9606
0.995085571854	0.9606
0.995085571854	0.9606
0.995085571854	0.9606
0.995085571854	0.9606
0.995085571854	0.9606
0.995085571854	0.9606
0.995085571854	0.9606
0.995085571854	0.9606
0.995085571854	0.9606
0.995085571854	0.9606
0.995085571854	0.9606
0.995085571854	0.9606
0.995085571854	0.9606
0.995085571854	0.9606
0.995085571854	0.9606
0.995085571854	0.9606
0.995085571854	0.9606
0.995085571854	0.9606
0.995085571854	0.9606
0.995085571854	0.9606
0.995085571854	0.9606
0.995085571854	0.9606
0.995085571854	0.9606
0.995085571854	0.9606
0.995085571854	0.9606
0.995085571854	0.9606
0.995085571854	0.9606
0.995085571854	0.9606
0.995085571854	0.9606
