0.995085571854	0.9606
0.995085571854	0.9606
0.995085571854	0.9606
0.995085571854	0.9606
0.995085571854	0.9606
0.995085571854	0.9606
0.995085571854	0.9606
0.995085571854	0.9606
0.995085571854	0.9606
0.995085571854	0.9606
0.995085571854	0.9606
0.995085571854	0.9606
0.995085571854	0.9606
0.995085571854	0.9606
0.995085571854	0.9606
0.995085571854	0.9606
0.0327310575127	0.6606
0.0327310575127	0.6606
0.995085571854	0.9606
0.995085571854	0.9606
0.995085571854	0.9606
0.995085571854	0.9606
0.995085571854	0.9606
0.995085571854	0.9606
0.995085571854	0.9606
0.995085571854	0.9606
0.995085571854	0.9606
0.995085571854	0.9606
0.995085571854	0.9606
0.995085571854	0.9606
