0.029994882142	0.557395993837
0.029994882142	0.557395993837
0.0309355794552	0.555680119581
0.029994882142	0.557395993837
0.0309355794552	0.555680119581
0.029994882142	0.557395993837
0.0309355794552	0.555680119581
0.0309355794552	0.555680119581
0.030784174874	0.57280431433
0.029994882142	0.557395993837
0.029994882142	0.557395993837
0.0309355794552	0.555680119581
0.029994882142	0.557395993837
0.0309355794552	0.555680119581
0.029994882142	0.557395993837
0.0309355794552	0.555680119581
0.029994882142	0.557395993837
0.0309355794552	0.555680119581
0.029994882142	0.557395993837
0.029994882142	0.557395993837
0.0309355794552	0.555680119581
0.0309355794552	0.555680119581
0.029994882142	0.557395993837
0.029994882142	0.557395993837
0.0309355794552	0.555680119581
0.029994882142	0.557395993837
0.0309355794552	0.555680119581
0.029994882142	0.557395993837
0.029994882142	0.557395993837
0.029994882142	0.557395993837
