0.0235617065924	0.423412204234
0.0235617065924	0.423412204234
0.0235617065924	0.423412204234
0.0235617065924	0.423412204234
0.0235617065924	0.423412204234
0.0235617065924	0.423412204234
0.0235617065924	0.423412204234
0.0235617065924	0.423412204234
0.0235617065924	0.423412204234
0.0235617065924	0.423412204234
0.0235617065924	0.423412204234
0.0235617065924	0.423412204234
0.0235617065924	0.423412204234
0.0235617065924	0.423412204234
0.0235617065924	0.423412204234
0.0235617065924	0.423412204234
0.0235617065924	0.423412204234
0.0235617065924	0.423412204234
0.0235617065924	0.423412204234
0.0235617065924	0.423412204234
0.0235617065924	0.423412204234
0.0235617065924	0.423412204234
0.0235617065924	0.423412204234
0.0235617065924	0.423412204234
0.0235617065924	0.423412204234
0.0235617065924	0.423412204234
0.0235617065924	0.423412204234
0.0235617065924	0.423412204234
0.0235617065924	0.423412204234
0.0235617065924	0.423412204234
