0.244396070678	0.490729295426
0.244396070678	0.490729295426
0.244396070678	0.490729295426
0.244396070678	0.490729295426
0.244396070678	0.490729295426
0.244396070678	0.490729295426
0.244396070678	0.490729295426
0.244396070678	0.490729295426
0.244396070678	0.490729295426
0.244396070678	0.490729295426
0.244396070678	0.490729295426
0.244396070678	0.490729295426
0.244396070678	0.490729295426
0.244396070678	0.490729295426
0.244396070678	0.490729295426
0.244396070678	0.490729295426
0.244396070678	0.490729295426
0.244396070678	0.490729295426
0.244396070678	0.490729295426
0.244396070678	0.490729295426
0.244396070678	0.490729295426
0.244396070678	0.490729295426
0.244396070678	0.490729295426
0.244396070678	0.490729295426
0.244396070678	0.490729295426
0.244396070678	0.490729295426
0.244396070678	0.490729295426
0.244396070678	0.490729295426
0.244396070678	0.490729295426
0.244396070678	0.490729295426
