0.0235666880022	0.425
0.0235666880022	0.425
0.0235666880022	0.425
0.0235666880022	0.425
0.0235666880022	0.425
0.0235666880022	0.425
0.0235666880022	0.425
0.0235666880022	0.425
0.0235666880022	0.425
0.0235666880022	0.425
0.0235666880022	0.425
0.0235666880022	0.425
0.0235666880022	0.425
0.0235666880022	0.425
0.0235666880022	0.425
0.0235666880022	0.425
0.0235666880022	0.425
0.0235666880022	0.425
0.0235666880022	0.425
0.0235666880022	0.425
0.0235666880022	0.425
0.0235666880022	0.425
0.0235666880022	0.425
0.0235666880022	0.425
0.0235666880022	0.425
0.0235666880022	0.425
0.0235666880022	0.425
0.0235666880022	0.425
0.0235666880022	0.425
0.0235666880022	0.425
