0.0715330524302	0.49504950495
0.0715330524302	0.49504950495
0.0583406851712	0.295325640524
0.0584113274141	0.311348781937
0.0583654719891	0.30305403289
0.0715330524302	0.49504950495
0.0715330524302	0.49504950495
0.0583268781551	0.289128758674
0.0629624284433	0.301332288401
0.0715330524302	0.49504950495
0.0583350043778	0.291262135922
0.0715330524302	0.49504950495
0.0715330524302	0.49504950495
0.0715330524302	0.49504950495
0.0715330524302	0.49504950495
0.0583371077136	0.291942390035
0.0715330524302	0.49504950495
0.0715330524302	0.49504950495
0.0715330524302	0.49504950495
0.0583377594388	0.292169848072
0.0584692586079	0.315457413249
0.0715330524302	0.49504950495
0.0615238929827	0.298805560995
0.0584191438214	0.311119873817
0.0610075398482	0.386291600634
0.0715330524302	0.49504950495
0.0715330524302	0.49504950495
0.0583400127266	0.29456606724
0.0583371077136	0.291942390035
0.0715330524302	0.49504950495
