0.0715330524302	0.49504950495
0.0715330524302	0.49504950495
0.0598503138695	0.363062352013
0.0715330524302	0.49504950495
0.0715330524302	0.49504950495
0.0715330524302	0.49504950495
0.0715330524302	0.49504950495
0.0715330524302	0.49504950495
0.0715330524302	0.49504950495
0.0715330524302	0.49504950495
0.0762863980347	0.296411856474
0.0715330524302	0.49504950495
0.0715330524302	0.49504950495
0.0715330524302	0.49504950495
0.0634359618351	0.299706170421
0.0715330524302	0.49504950495
0.0584754755666	0.31746031746
0.0715330524302	0.49504950495
0.0715330524302	0.49504950495
0.0715330524302	0.49504950495
0.058340902441	0.293427230047
0.0715330524302	0.49504950495
0.0583714300207	0.30463836478
0.0583371077136	0.291942390035
0.0612049751361	0.296728971963
0.0603506909399	0.294959796038
0.0715330524302	0.49504950495
0.0715330524302	0.49504950495
0.0583417457807	0.293829578844
0.0715330524302	0.49504950495
