0.0715330524302	0.49504950495
0.0715330524302	0.49504950495
0.0715330524302	0.49504950495
0.0715330524302	0.49504950495
0.0715330524302	0.49504950495
0.0583366290714	0.294357976654
0.0715330524302	0.49504950495
0.0584747850722	0.317208564631
0.0583411511155	0.293542074364
0.0715330524302	0.49504950495
0.0715330524302	0.49504950495
0.0668257892511	0.302175191064
0.0715330524302	0.49504950495
0.0583742599592	0.305151395989
0.0715330524302	0.49504950495
0.0715330524302	0.49504950495
0.0715330524302	0.49504950495
0.0583357301814	0.291488534784
0.061832626536	0.294129120343
0.0715330524302	0.49504950495
0.0715330524302	0.49504950495
0.0583386907206	0.292511700468
0.0715330524302	0.49504950495
0.0613531315801	0.390147783251
0.0583398459838	0.29296875
0.0715330524302	0.49504950495
0.0715330524302	0.49504950495
0.0704810730565	0.303220738413
0.0584758115306	0.317586343787
0.0715330524302	0.49504950495
