0.0715330524302	0.49504950495
0.0584740698239	0.316957210777
0.0715330524302	0.49504950495
0.0583374366631	0.292056074766
0.0583412735609	0.295832518098
0.0583389887988	0.292625829107
0.0632786496498	0.300784313725
0.0715330524302	0.49504950495
0.0715330524302	0.49504950495
0.0583589826449	0.29487429351
0.0715330524302	0.49504950495
0.0715330524302	0.49504950495
0.0583416952205	0.296006264683
0.0583385393659	0.292454669526
0.0583398459838	0.29296875
0.0583326788394	0.290585044556
0.0583571127718	0.302325581395
0.0584754755666	0.31746031746
0.0715330524302	0.49504950495
0.0715330524302	0.49504950495
0.0583398459838	0.29296875
0.0584705449269	0.315831030399
0.0715330524302	0.49504950495
0.0584737029175	0.316831683168
0.0693825306889	0.29872423945
0.0715330524302	0.49504950495
0.0583420840502	0.294002352019
0.0715330524302	0.49504950495
0.0584701223393	0.315706393054
0.0629565691996	0.29935433379
