0.0715330524302	0.49504950495
0.0715330524302	0.49504950495
0.0715330524302	0.49504950495
0.0715330524302	0.49504950495
0.0583541512893	0.30127826942
0.0715330524302	0.49504950495
0.0715330524302	0.49504950495
0.0583425820417	0.295387634936
0.0583385393659	0.292454669526
0.0715330524302	0.49504950495
0.0715330524302	0.49504950495
0.0584754755666	0.31746031746
0.0583406475903	0.293312475557
0.0715330524302	0.49504950495
0.0583416952205	0.296006264683
0.0715330524302	0.49504950495
0.0666465394774	0.300471327573
0.0583415145864	0.295672606227
0.0583417457807	0.293829578844
0.0715330524302	0.49504950495
0.0715330524302	0.49504950495
0.0715330524302	0.49504950495
0.0583380760404	0.292283710055
0.0584754755666	0.31746031746
0.0715330524302	0.49504950495
0.0584751334138	0.317334391115
0.0584655563064	0.314465408805
0.0607531637469	0.301096319499
0.0715330524302	0.49504950495
0.0715330524302	0.49504950495
