0.0583411511155	0.293542074364
0.0715330524302	0.49504950495
0.0584692586079	0.315457413249
0.0583406475903	0.293312475557
0.0715330524302	0.49504950495
0.0583655189302	0.304382155547
0.0715330524302	0.49504950495
0.0715330524302	0.49504950495
0.0715330524302	0.49504950495
0.0715330524302	0.49504950495
0.0583350043778	0.291262135922
0.0583395664306	0.292854353768
0.0628341916065	0.30665097116
0.0584747850722	0.317208564631
0.0584729505417	0.316580925999
0.0583688461213	0.304690579425
0.0583621089244	0.303328737443
0.0715330524302	0.49504950495
0.0715330524302	0.49504950495
0.0715330524302	0.49504950495
0.0583369932804	0.294609846274
0.0715330524302	0.49504950495
0.0663092928937	0.301197722364
0.0715330524302	0.49504950495
0.0583420362456	0.295766366131
0.0715330524302	0.49504950495
0.0618390055649	0.297939156035
0.0715330524302	0.49504950495
0.0583461194782	0.298472385429
0.0715330524302	0.49504950495
