0.504141891011	0.694736842105
0.504141891011	0.694736842105
0.504141891011	0.694736842105
0.504141891011	0.694736842105
0.504141891011	0.694736842105
0.504141891011	0.694736842105
0.504141891011	0.694736842105
0.504141891011	0.694736842105
0.504141891011	0.694736842105
0.504141891011	0.694736842105
0.504141891011	0.694736842105
0.504141891011	0.694736842105
0.504141891011	0.694736842105
0.504141891011	0.694736842105
0.504141891011	0.694736842105
0.504141891011	0.694736842105
0.504141891011	0.694736842105
0.504141891011	0.694736842105
0.504141891011	0.694736842105
0.504141891011	0.694736842105
0.504141891011	0.694736842105
0.504141891011	0.694736842105
0.504141891011	0.694736842105
0.504141891011	0.694736842105
0.504141891011	0.694736842105
0.504141891011	0.694736842105
0.504141891011	0.694736842105
0.504141891011	0.694736842105
0.504141891011	0.694736842105
0.504141891011	0.694736842105
