0.58968684974	0.75897261439
0.58968684974	0.75897261439
0.58968684974	0.75897261439
0.58968684974	0.75897261439
0.58968684974	0.75897261439
0.58968684974	0.75897261439
0.58968684974	0.75897261439
0.58968684974	0.75897261439
0.58968684974	0.75897261439
0.58968684974	0.75897261439
0.58968684974	0.75897261439
0.58968684974	0.75897261439
0.58968684974	0.75897261439
0.58968684974	0.75897261439
0.58968684974	0.75897261439
0.58968684974	0.75897261439
0.58968684974	0.75897261439
0.58968684974	0.75897261439
0.58968684974	0.75897261439
0.58968684974	0.75897261439
0.58968684974	0.75897261439
0.58968684974	0.75897261439
0.58968684974	0.75897261439
0.58968684974	0.75897261439
0.58968684974	0.75897261439
0.58968684974	0.75897261439
0.58968684974	0.75897261439
0.58968684974	0.75897261439
0.58968684974	0.75897261439
0.58968684974	0.75897261439
