0.612000414974	0.774270196877
0.612000414974	0.774270196877
0.612000414974	0.774270196877
0.612000414974	0.774270196877
0.612000414974	0.774270196877
0.612000414974	0.774270196877
0.612000414974	0.774270196877
0.612000414974	0.774270196877
0.612000414974	0.774270196877
0.612000414974	0.774270196877
0.612000414974	0.774270196877
0.612000414974	0.774270196877
0.612000414974	0.774270196877
0.612000414974	0.774270196877
0.612000414974	0.774270196877
0.612000414974	0.774270196877
0.612000414974	0.774270196877
0.612000414974	0.774270196877
0.612000414974	0.774270196877
0.612000414974	0.774270196877
0.612000414974	0.774270196877
0.612000414974	0.774270196877
0.612000414974	0.774270196877
0.612000414974	0.774270196877
0.612000414974	0.774270196877
0.612000414974	0.774270196877
0.612000414974	0.774270196877
0.612000414974	0.774270196877
0.612000414974	0.774270196877
0.612000414974	0.774270196877
