0.611385998232	0.775551439636
0.611385998232	0.775551439636
0.611385998232	0.775551439636
0.611385998232	0.775551439636
0.611385998232	0.775551439636
0.611385998232	0.775551439636
0.611385998232	0.775551439636
0.611385998232	0.775551439636
0.611385998232	0.775551439636
0.611385998232	0.775551439636
0.611385998232	0.775551439636
0.611385998232	0.775551439636
0.611385998232	0.775551439636
0.611385998232	0.775551439636
0.611385998232	0.775551439636
0.611385998232	0.775551439636
0.611385998232	0.775551439636
0.611385998232	0.775551439636
0.611385998232	0.775551439636
0.611385998232	0.775551439636
0.611385998232	0.775551439636
0.611385998232	0.775551439636
0.611385998232	0.775551439636
0.611385998232	0.775551439636
0.611385998232	0.775551439636
0.611385998232	0.775551439636
0.611385998232	0.775551439636
0.611385998232	0.775551439636
0.611385998232	0.775551439636
0.611385998232	0.775551439636
