1.0	1.0
1.0	1.0
0.159903961585	0.4
0.359903961585	0.6
0.159903961585	0.4
0.359903961585	0.6
0.159903961585	0.4
1.0	1.0
0.359903961585	0.6
0.159903961585	0.4
0.359903961585	0.6
1.0	1.0
0.159903961585	0.4
1.0	1.0
0.159903961585	0.4
0.159903961585	0.4
1.0	1.0
0.359903961585	0.6
0.359903961585	0.6
0.159903961585	0.4
1.0	1.0
0.159903961585	0.4
0.159903961585	0.4
0.159903961585	0.4
0.159903961585	0.4
0.359903961585	0.6
0.359903961585	0.6
1.0	1.0
0.359903961585	0.6
1.0	1.0
