0.215567827131	0.4644
0.215567827131	0.4644
0.215567827131	0.4644
0.215567827131	0.4644
0.215567827131	0.4644
0.215567827131	0.4644
0.215567827131	0.4644
0.215567827131	0.4644
0.215567827131	0.4644
0.215567827131	0.4644
0.215567827131	0.4644
0.215567827131	0.4644
0.215567827131	0.4644
0.215567827131	0.4644
0.215567827131	0.4644
0.215567827131	0.4644
0.215567827131	0.4644
0.215567827131	0.4644
0.215567827131	0.4644
0.215567827131	0.4644
0.215567827131	0.4644
0.215567827131	0.4644
0.215567827131	0.4644
0.215567827131	0.4644
0.215567827131	0.4644
0.215567827131	0.4644
0.215567827131	0.4644
0.215567827131	0.4644
0.215567827131	0.4644
0.215567827131	0.4644
