0.144305722289	0.38
0.144305722289	0.38
1.0	1.0
0.144305722289	0.38
0.144305722289	0.38
0.144305722289	0.38
0.359903961585	0.6
0.144305722289	0.38
0.359903961585	0.6
0.144305722289	0.38
0.359903961585	0.6
1.0	1.0
0.144305722289	0.38
1.0	1.0
1.0	1.0
1.0	1.0
1.0	1.0
0.359903961585	0.6
1.0	1.0
0.144305722289	0.38
0.144305722289	0.38
0.359903961585	0.6
0.359903961585	0.6
0.359903961585	0.6
0.144305722289	0.38
0.359903961585	0.6
0.144305722289	0.38
1.0	1.0
0.144305722289	0.38
0.144305722289	0.38
