0.41981272509	0.648
0.41981272509	0.648
0.41981272509	0.648
0.41981272509	0.648
0.41981272509	0.648
0.41981272509	0.648
0.41981272509	0.648
0.41981272509	0.648
0.41981272509	0.648
0.41981272509	0.648
0.41981272509	0.648
0.41981272509	0.648
0.41981272509	0.648
0.41981272509	0.648
0.41981272509	0.648
0.41981272509	0.648
0.41981272509	0.648
0.41981272509	0.648
0.41981272509	0.648
0.41981272509	0.648
0.41981272509	0.648
0.41981272509	0.648
0.41981272509	0.648
0.41981272509	0.648
0.41981272509	0.648
0.41981272509	0.648
0.41981272509	0.648
0.41981272509	0.648
0.41981272509	0.648
0.41981272509	0.648
