0.137089736153	0.192696629213
0.960392156863	0.98
0.960392156863	0.98
0.133543688776	0.189642462219
0.0259058288725	0.082234137035
0.137089736153	0.192696629213
0.960392156863	0.98
0.960392156863	0.98
0.141099394302	0.196242967484
0.185186831277	0.258930458677
0.141099394302	0.196242967484
0.960392156863	0.98
0.137089736153	0.192696629213
0.960392156863	0.98
0.127409544935	0.184507799892
0.129628104466	0.186345526983
0.960392156863	0.98
0.960392156863	0.98
0.960392156863	0.98
0.136675862918	0.192336448598
0.137503964878	0.193058161351
0.960392156863	0.98
0.128294614051	0.185238523852
0.133113018169	0.189276188724
0.133113018169	0.189276188724
0.960392156863	0.98
0.136675862918	0.192336448598
0.960392156863	0.98
0.960392156863	0.98
0.132682900449	0.188911327336
