0.940988395358	0.97
0.940988395358	0.97
0.940988395358	0.97
0.940988395358	0.97
0.0257641538756	0.082234137035
0.372868421278	0.357302367128
0.025690662465	0.082234137035
0.111015344788	0.145518044237
0.37004354323	0.355502888461
0.940988395358	0.97
0.940988395358	0.97
0.371457537286	0.3564003564
0.940988395358	0.97
0.114555208157	0.148875986303
0.239385321559	0.285714285714
0.24169671294	0.286875448243
0.940988395358	0.97
0.940988395358	0.97
0.940988395358	0.97
0.940988395358	0.97
0.940988395358	0.97
0.239385321559	0.285714285714
0.940988395358	0.97
0.940988395358	0.97
0.940988395358	0.97
0.940988395358	0.97
0.940988395358	0.97
0.940988395358	0.97
0.940988395358	0.97
0.940988395358	0.97
