0.883977591036	0.94
0.883977591036	0.94
0.883977591036	0.94
0.883977591036	0.94
0.40403816574	0.398613518198
0.883977591036	0.94
0.883977591036	0.94
0.883977591036	0.94
0.883977591036	0.94
0.883977591036	0.94
0.883977591036	0.94
0.883977591036	0.94
0.883977591036	0.94
0.883977591036	0.94
0.883977591036	0.94
0.883977591036	0.94
0.883977591036	0.94
0.403704334846	0.39813051757
0.883977591036	0.94
0.883977591036	0.94
0.883977591036	0.94
0.0263047166843	0.0825082508251
0.421500217777	0.440275650842
0.883977591036	0.94
0.883977591036	0.94
0.448084625655	0.438848920863
0.403368039599	0.39764868603
0.883977591036	0.94
0.883977591036	0.94
0.883977591036	0.94
