0.921584633854	0.96
0.921584633854	0.96
0.921584633854	0.96
0.367958894129	0.354191263282
0.114306924734	0.148632580262
0.367958894129	0.354191263282
0.921584633854	0.96
0.921584633854	0.96
0.366621685848	0.353356890459
0.113944893102	0.14827995255
0.921584633854	0.96
0.921584633854	0.96
0.921584633854	0.96
0.112486977859	0.146886016451
0.921584633854	0.96
0.362597583187	0.350877192982
0.3692937648	0.355029585799
0.921584633854	0.96
0.114306924734	0.148632580262
0.921584633854	0.96
0.921584633854	0.96
0.921584633854	0.96
0.921584633854	0.96
0.3692937648	0.355029585799
0.366621685848	0.353356890459
0.921584633854	0.96
0.921584633854	0.96
0.921584633854	0.96
0.367958894129	0.354191263282
0.921584633854	0.96
