0.37004354323	0.355502888461
0.980196078431	0.99
0.114171285042	0.1485001485
0.37004354323	0.355502888461
0.37004354323	0.355502888461
0.980196078431	0.99
0.372868421278	0.357302367128
0.980196078431	0.99
0.239385321559	0.285714285714
0.980196078431	0.99
0.980196078431	0.99
0.24286034619	0.287459575997
0.388569746263	0.364746166443
0.980196078431	0.99
0.980196078431	0.99
0.0261670454086	0.082234137035
0.980196078431	0.99
0.372868421278	0.357302367128
0.0262275575859	0.082234137035
0.372868421278	0.357302367128
0.114171285042	0.1485001485
0.114171285042	0.1485001485
0.980196078431	0.99
0.0261670454086	0.082234137035
0.240538368786	0.28629368961
0.980196078431	0.99
0.0262860936782	0.082234137035
0.980196078431	0.99
0.0766939458613	0.119047619048
0.372868421278	0.357302367128
