0.940988395358	0.97
0.940988395358	0.97
0.026719588688	0.082234137035
0.940988395358	0.97
0.940988395358	0.97
0.940988395358	0.97
0.940988395358	0.97
0.940988395358	0.97
0.940988395358	0.97
0.940988395358	0.97
0.940988395358	0.97
0.940988395358	0.97
0.940988395358	0.97
0.940988395358	0.97
0.940988395358	0.97
0.940988395358	0.97
0.940988395358	0.97
0.940988395358	0.97
0.940988395358	0.97
0.940988395358	0.97
0.940988395358	0.97
0.940988395358	0.97
0.0266800127514	0.082234137035
0.940988395358	0.97
0.940988395358	0.97
0.940988395358	0.97
0.940988395358	0.97
0.940988395358	0.97
0.940988395358	0.97
0.940988395358	0.97
