0.229681501109	0.285714285714
0.471634016533	0.714285714286
0.418303188666	0.642857142857
1.0	1.0
0.00861297244139	0.0488424343069
0.471634016533	0.714285714286
0.00861297244139	0.0488424343069
1.0	1.0
0.229681501109	0.285714285714
0.013491591413	0.0714285714286
0.471634016533	0.714285714286
0.00861297244139	0.0488424343069
1.0	1.0
1.0	1.0
1.0	1.0
0.229681501109	0.285714285714
0.199963066695	0.333333333333
1.0	1.0
0.229681501109	0.285714285714
0.471634016533	0.714285714286
0.471634016533	0.714285714286
1.0	1.0
1.0	1.0
0.471634016533	0.714285714286
1.0	1.0
0.229681501109	0.285714285714
0.351322121884	0.428571428571
0.351322121884	0.428571428571
0.199963066695	0.333333333333
0.229681501109	0.285714285714
