0.00410790875339	0.037037037037
0.229681501109	0.285714285714
0.471634016533	0.714285714286
1.0	1.0
1.0	1.0
0.471634016533	0.714285714286
0.0	0.0
0.471634016533	0.714285714286
0.471634016533	0.714285714286
0.0244173471043	0.135714285714
0.351322121884	0.428571428571
0.199963066695	0.333333333333
1.0	1.0
1.0	1.0
0.471634016533	0.714285714286
1.0	1.0
0.471634016533	0.714285714286
0.471634016533	0.714285714286
0.199963066695	0.333333333333
0.0	0.0
0.418303188666	0.642857142857
0.418303188666	0.642857142857
0.013491591413	0.0714285714286
1.0	1.0
0.229681501109	0.285714285714
1.0	1.0
0.471634016533	0.714285714286
0.471634016533	0.714285714286
0.00736956026026	0.0457875457875
0.00410790875339	0.037037037037
