0.471634016533	0.714285714286
1.0	1.0
0.00750720029271	0.0461254612546
0.351322121884	0.428571428571
1.0	1.0
1.0	1.0
1.0	1.0
0.471634016533	0.714285714286
0.471634016533	0.714285714286
1.0	1.0
0.471634016533	0.714285714286
0.351322121884	0.428571428571
0.351322121884	0.428571428571
1.0	1.0
1.0	1.0
0.112523993673	0.204081632653
1.0	1.0
1.0	1.0
1.0	1.0
0.284896786854	0.387096774194
1.0	1.0
1.0	1.0
0.199963066695	0.333333333333
0.423811895441	0.646551724138
1.0	1.0
0.284896786854	0.387096774194
1.0	1.0
1.0	1.0
1.0	1.0
1.0	1.0
