1.0	1.0
0.471634016533	0.714285714286
1.0	1.0
1.0	1.0
0.351322121884	0.428571428571
0.013491591413	0.0714285714286
1.0	1.0
0.00786100111661	0.046992481203
0.471634016533	0.714285714286
0.471634016533	0.714285714286
0.00743809832719	0.0459558823529
0.229681501109	0.285714285714
1.0	1.0
0.418303188666	0.642857142857
0.471634016533	0.714285714286
0.199963066695	0.333333333333
1.0	1.0
0.351322121884	0.428571428571
0.418303188666	0.642857142857
0.0041970440698	0.0373134328358
1.0	1.0
0.351322121884	0.428571428571
0.00743809832719	0.0459558823529
1.0	1.0
0.471634016533	0.714285714286
0.229681501109	0.285714285714
1.0	1.0
1.0	1.0
0.140773230317	0.223214285714
0.229681501109	0.285714285714
