0.00730158990291	0.0456204379562
1.0	1.0
1.0	1.0
1.0	1.0
0.471634016533	0.714285714286
1.0	1.0
0.199963066695	0.333333333333
0.429410029053	0.650289017341
0.471634016533	0.714285714286
0.0	0.0
0.0078142397058	0.0468779298706
1.0	1.0
1.0	1.0
0.471634016533	0.714285714286
0.471634016533	0.714285714286
1.0	1.0
0.199963066695	0.333333333333
1.0	1.0
0.00730158990291	0.0456204379562
0.471634016533	0.714285714286
0.418303188666	0.642857142857
0.199963066695	0.333333333333
0.125523538018	0.212765957447
0.418303188666	0.642857142857
1.0	1.0
0.471634016533	0.714285714286
1.0	1.0
0.229681501109	0.285714285714
0.00730158990291	0.0456204379562
0.0	0.0
