0.057143817527	0.2392
0.057143817527	0.2392
0.057143817527	0.2392
0.057143817527	0.2392
0.057143817527	0.2392
0.057143817527	0.2392
0.057143817527	0.2392
0.057143817527	0.2392
0.0616278511405	0.2484
0.057143817527	0.2392
0.057143817527	0.2392
0.057143817527	0.2392
0.057143817527	0.2392
0.057143817527	0.2392
0.057143817527	0.2392
0.057143817527	0.2392
0.057143817527	0.2392
0.057143817527	0.2392
0.057143817527	0.2392
0.057143817527	0.2392
0.057143817527	0.2392
0.057143817527	0.2392
0.057143817527	0.2392
0.057143817527	0.2392
0.057143817527	0.2392
0.057143817527	0.2392
0.057143817527	0.2392
0.057143817527	0.2392
0.057143817527	0.2392
0.057143817527	0.2392
