0.215196478591	0.464
0.215196478591	0.464
0.0116254501801	0.108
0.015531332533	0.1248
0.0485074029612	0.2204
0.215196478591	0.464
0.278684273709	0.528
0.215196478591	0.464
0.215196478591	0.464
0.215196478591	0.464
0.215196478591	0.464
0.0235409363745	0.1536
0.215196478591	0.464
0.215196478591	0.464
0.215196478591	0.464
0.067731092437	0.2604
0.0276334533814	0.1664
0.215196478591	0.464
0.278684273709	0.528
0.215196478591	0.464
0.278684273709	0.528
0.215196478591	0.464
0.0628254501801	0.2508
0.215196478591	0.464
0.215196478591	0.464
0.215196478591	0.464
0.215196478591	0.464
0.215196478591	0.464
0.278684273709	0.528
0.215196478591	0.464
