0.122408963585	0.35
0.0349829531813	0.1872
0.122408963585	0.35
0.00334135065459	0.0578842315369
0.0377286914766	0.1944
0.122408963585	0.35
0.122408963585	0.35
0.0206866746699	0.144
0.122408963585	0.35
0.122408963585	0.35
0.0336489795918	0.1836
0.0134149659864	0.116
0.122408963585	0.35
0.122408963585	0.35
0.0336489795918	0.1836
0.122408963585	0.35
0.122408963585	0.35
0.122408963585	0.35
0.122408963585	0.35
0.00412173453342	0.0642201834862
0.122408963585	0.35
0.028843537415	0.17
0.122408963585	0.35
0.122408963585	0.35
0.0298026410564	0.1728
0.122408963585	0.35
0.122408963585	0.35
0.122408963585	0.35
0.122408963585	0.35
0.00381976838154	0.061876247505
