0.146441296519	0.3828
0.00743337334934	0.0864
0.146441296519	0.3828
0.146441296519	0.3828
0.0554352941176	0.2356
0.146441296519	0.3828
0.138290516206	0.372
0.146441296519	0.3828
0.138290516206	0.372
0.0472816326531	0.2176
0.0554352941176	0.2356
0.0696182472989	0.264
0.138290516206	0.372
0.0332100840336	0.1824
0.0049299719888	0.0704
0.146441296519	0.3828
0.146441296519	0.3828
0.146441296519	0.3828
0.0628254501801	0.2508
0.138290516206	0.372
0.0242833133253	0.156
0.0696182472989	0.264
0.050106442577	0.224
0.0502857142857	0.2244
0.0696182472989	0.264
0.0165445378151	0.1288
0.0628254501801	0.2508
0.0472816326531	0.2176
0.0405781512605	0.2016
0.146441296519	0.3828
