0.221929731893	0.4712
0.221929731893	0.4712
0.221929731893	0.4712
0.221929731893	0.4712
0.0743404561825	0.2728
0.0743404561825	0.2728
0.0345354141657	0.186
0.014743817527	0.1216
0.221929731893	0.4712
0.0743404561825	0.2728
0.0743404561825	0.2728
0.221929731893	0.4712
0.221929731893	0.4712
0.221929731893	0.4712
0.0743404561825	0.2728
0.0743404561825	0.2728
0.0743404561825	0.2728
0.0743404561825	0.2728
0.221929731893	0.4712
0.0743404561825	0.2728
0.0345354141657	0.186
0.0743404561825	0.2728
0.0743404561825	0.2728
0.221929731893	0.4712
0.0743404561825	0.2728
0.0743404561825	0.2728
0.0743404561825	0.2728
0.0743404561825	0.2728
0.0743404561825	0.2728
0.221929731893	0.4712
