0.0293736148207	0.40243902439
0.0293736148207	0.40243902439
0.0293736148207	0.40243902439
0.0293736148207	0.40243902439
0.0293736148207	0.40243902439
0.0293736148207	0.40243902439
0.0293736148207	0.40243902439
0.0293736148207	0.40243902439
0.0293736148207	0.40243902439
0.0293736148207	0.40243902439
0.0293736148207	0.40243902439
0.0293736148207	0.40243902439
0.0293736148207	0.40243902439
0.0293736148207	0.40243902439
0.0293736148207	0.40243902439
0.0293736148207	0.40243902439
0.0293736148207	0.40243902439
0.0293736148207	0.40243902439
0.0293736148207	0.40243902439
0.0293736148207	0.40243902439
0.0293736148207	0.40243902439
0.0293736148207	0.40243902439
0.0293736148207	0.40243902439
0.0293736148207	0.40243902439
0.0293736148207	0.40243902439
0.0293736148207	0.40243902439
0.0293736148207	0.40243902439
0.0293736148207	0.40243902439
0.0293736148207	0.40243902439
0.0293736148207	0.40243902439
