0.990473495033	0.980392156863
0.990473495033	0.980392156863
0.990473495033	0.980392156863
0.990473495033	0.980392156863
0.990473495033	0.980392156863
0.990473495033	0.980392156863
0.990473495033	0.980392156863
0.990473495033	0.980392156863
0.990473495033	0.980392156863
0.990473495033	0.980392156863
0.990473495033	0.980392156863
0.990473495033	0.980392156863
0.990473495033	0.980392156863
0.990473495033	0.980392156863
0.990473495033	0.980392156863
0.990473495033	0.980392156863
0.990473495033	0.980392156863
0.990473495033	0.980392156863
0.160793611861	0.787401574803
0.990473495033	0.980392156863
0.990473495033	0.980392156863
0.990473495033	0.980392156863
0.118467955743	0.498633346349
0.160793611861	0.787401574803
0.990473495033	0.980392156863
0.160793611861	0.787401574803
0.990473495033	0.980392156863
0.990473495033	0.980392156863
0.990473495033	0.980392156863
0.990473495033	0.980392156863
