0.990473495033	0.980392156863
0.990473495033	0.980392156863
0.990473495033	0.980392156863
0.990473495033	0.980392156863
0.990473495033	0.980392156863
0.990473495033	0.980392156863
0.990473495033	0.980392156863
0.990473495033	0.980392156863
0.118531344914	0.505393214356
0.990473495033	0.980392156863
0.106296314823	0.479294478528
0.990473495033	0.980392156863
0.990473495033	0.980392156863
0.990473495033	0.980392156863
0.990473495033	0.980392156863
0.118625630674	0.513833992095
0.990473495033	0.980392156863
0.118420416647	0.485436893204
0.990473495033	0.980392156863
0.990473495033	0.980392156863
0.990473495033	0.980392156863
0.0779916144229	0.49504950495
0.990473495033	0.980392156863
0.136522257391	0.492181391712
0.990473495033	0.980392156863
0.990473495033	0.980392156863
0.990473495033	0.980392156863
0.990473495033	0.980392156863
0.118408404546	0.483185156552
0.990473495033	0.980392156863
