0.990473495033	0.980392156863
0.990473495033	0.980392156863
0.990473495033	0.980392156863
0.849427451693	0.77329678935
0.990473495033	0.980392156863
0.990473495033	0.980392156863
0.160793611861	0.787401574803
0.990473495033	0.980392156863
0.990473495033	0.980392156863
0.990473495033	0.980392156863
0.990473495033	0.980392156863
0.990473495033	0.980392156863
0.990473495033	0.980392156863
0.990473495033	0.980392156863
0.990473495033	0.980392156863
0.990473495033	0.980392156863
0.990473495033	0.980392156863
0.920966619684	0.980392156863
0.990473495033	0.980392156863
0.160793611861	0.787401574803
0.990473495033	0.980392156863
0.990473495033	0.980392156863
0.990473495033	0.980392156863
0.990473495033	0.980392156863
0.990473495033	0.980392156863
0.990473495033	0.980392156863
0.990473495033	0.980392156863
0.990473495033	0.980392156863
0.0779916144229	0.49504950495
0.990473495033	0.980392156863
