0.000624756247562	0.025
0.000624756247562	0.025
1.0	1.0
0.0	0.0
0.000624756247562	0.025
0.000624756247562	0.025
0.000624756247562	0.025
0.000624756247562	0.025
0.0	0.0
0.000624756247562	0.025
0.0	0.0
1.0	1.0
0.000624756247562	0.025
0.000624756247562	0.025
0.000624756247562	0.025
0.000624756247562	0.025
0.000624756247562	0.025
0.000624756247562	0.025
0.000624756247562	0.025
0.000624756247562	0.025
