0.000624756247562	0.025
0.000624756247562	0.025
0.000624756247562	0.025
0.000624756247562	0.025
0.00132590559685	0.0278551532033
1.0	1.0
0.000624756247562	0.025
0.00176247442146	0.0306697266847
0.00179192072254	0.0309278350515
0.0015420107262	0.0297265160523
0.000624756247562	0.025
0.000970515820779	0.0243055555556
0.00114085247364	0.0259424402108
0.000624756247562	0.025
0.000624756247562	0.025
0.000624756247562	0.025
0.000624756247562	0.025
0.00101453715998	0.0237116661397
0.000624756247562	0.025
0.00103231320466	0.0238929595413
0.000624756247562	0.025
0.00115595667962	0.0262708524892
0.000758735440932	0.0199625701809
0.00099662559601	0.0246669955599
0.00132860430847	0.0277856535299
0.00102041794675	0.0237717908082
0.000624756247562	0.025
0.000624756247562	0.025
0.00101453715998	0.0237116661397
0.000624756247562	0.025
