0.000624756247562	0.025
0.000624756247562	0.025
0.000624756247562	0.025
0.000624756247562	0.025
0.000624756247562	0.025
0.000624756247562	0.025
0.000437454279444	0.0153333333333
0.000519534226272	0.0165735903441
0.000624756247562	0.025
0.000624756247562	0.025
0.000624756247562	0.025
0.000624756247562	0.025
0.000611572631409	0.0179057999221
0.000624756247562	0.025
0.0	0.0
1.0	1.0
0.000630916728337	0.0181818181818
0.000624756247562	0.025
0.000624756247562	0.025
0.000641939459423	0.0183864915572
0.000512499239393	0.0164697457931
0.000624756247562	0.025
0.000624756247562	0.025
0.000624756247562	0.025
0.000624756247562	0.025
0.000624756247562	0.025
0.000624756247562	0.025
0.000624756247562	0.025
0.000545479391025	0.016982836495
