0.000624756247562	0.025
0.000631463894043	0.0182715147086
0.000647807424694	0.0184661767477
0.000547937320398	0.0171232876712
0.000624756247562	0.025
0.000658084710259	0.0186289120715
0.00065086104314	0.0185322461082
0.000624756247562	0.025
0.00065627019771	0.0186046511628
0.000659904973684	0.0186532363365
1.0	1.0
0.00065086104314	0.0185322461082
0.000624756247562	0.025
0.000643728600901	0.0184365781711
0.000624756247562	0.025
0.000624756247562	0.025
0.000624756247562	0.025
0.000624756247562	0.025
0.000624756247562	0.025
0.000670947992585	0.0188005264147
0.000624756247562	0.025
0.000624756247562	0.025
0.000624756247562	0.025
0.00065086104314	0.0185322461082
0.000643728600901	0.0184365781711
0.000661731000065	0.0186776242062
0.000652658376455	0.0185563184264
1.0	1.0
0.000647807424694	0.0184661767477
0.000624756247562	0.025
