1.0	1.0
1.0	1.0
1.0	1.0
1.0	1.0
1.0	1.0
1.0	1.0
1.0	1.0
1.0	1.0
0.504470149211	0.547320183303
1.0	1.0
1.0	1.0
1.0	1.0
1.0	1.0
0.50623201841	0.555821371611
1.0	1.0
1.0	1.0
0.526808664713	0.615476427293
1.0	1.0
1.0	1.0
1.0	1.0
1.0	1.0
1.0	1.0
1.0	1.0
1.0	1.0
1.0	1.0
1.0	1.0
1.0	1.0
1.0	1.0
1.0	1.0
1.0	1.0
