1.0	1.0
1.0	1.0
1.0	1.0
1.0	1.0
1.0	1.0
0.505218924549	0.551105797968
1.0	1.0
1.0	1.0
1.0	1.0
1.0	1.0
0.378501479473	0.48971596474
1.0	1.0
1.0	1.0
1.0	1.0
1.0	1.0
1.0	1.0
1.0	1.0
0.485040342297	0.516966067864
1.0	1.0
1.0	1.0
1.0	1.0
1.0	1.0
0.369626434585	0.499112950917
0.443068326348	0.492610837438
1.0	1.0
1.0	1.0
1.0	1.0
1.0	1.0
1.0	1.0
1.0	1.0
