1.0	1.0
1.0	1.0
1.0	1.0
1.0	1.0
1.0	1.0
1.0	1.0
1.0	1.0
1.0	1.0
1.0	1.0
1.0	1.0
1.0	1.0
1.0	1.0
1.0	1.0
1.0	1.0
1.0	1.0
1.0	1.0
1.0	1.0
1.0	1.0
0.499875614319	0.511513481598
1.0	1.0
1.0	1.0
1.0	1.0
1.0	1.0
1.0	1.0
0.430825794055	0.494676656151
1.0	1.0
1.0	1.0
1.0	1.0
1.0	1.0
1.0	1.0
