0.0507010784197	0.322222222222
0.0507010784197	0.322222222222
0.0507010784197	0.322222222222
0.0507010784197	0.322222222222
0.0507010784197	0.322222222222
0.0507010784197	0.322222222222
0.0507010784197	0.322222222222
0.0507010784197	0.322222222222
0.0507010784197	0.322222222222
0.0507010784197	0.322222222222
0.0507010784197	0.322222222222
0.0507010784197	0.322222222222
0.0507010784197	0.322222222222
0.0507010784197	0.322222222222
0.0507010784197	0.322222222222
0.0507010784197	0.322222222222
0.0507010784197	0.322222222222
0.0507010784197	0.322222222222
0.0507010784197	0.322222222222
0.0507010784197	0.322222222222
0.0507010784197	0.322222222222
0.0507010784197	0.322222222222
0.0507010784197	0.322222222222
0.0507010784197	0.322222222222
0.0507010784197	0.322222222222
0.0507010784197	0.322222222222
0.0507010784197	0.322222222222
0.0507010784197	0.322222222222
0.0507010784197	0.322222222222
0.0507010784197	0.322222222222
