1.0	1.0
1.0	1.0
1.0	1.0
1.0	1.0
0.114965421621	0.189077669903
1.0	1.0
1.0	1.0
1.0	1.0
1.0	1.0
1.0	1.0
1.0	1.0
1.0	1.0
1.0	1.0
1.0	1.0
0.0266382364022	0.082234137035
1.0	1.0
1.0	1.0
1.0	1.0
1.0	1.0
1.0	1.0
1.0	1.0
1.0	1.0
1.0	1.0
1.0	1.0
1.0	1.0
1.0	1.0
1.0	1.0
0.0266382364022	0.082234137035
0.0266800127514	0.082234137035
0.418535757927	0.381097560976
