0.883577430972	0.94
0.134866297969	0.223274091274
0.883577430972	0.94
0.883577430972	0.94
0.134402348256	0.221591916327
0.145030408718	0.259416830964
0.143664115221	0.244929950034
0.883577430972	0.94
0.883577430972	0.94
0.883577430972	0.94
0.0263971249304	0.082234137035
0.145030408718	0.259416830964
0.883577430972	0.94
0.883577430972	0.94
0.883577430972	0.94
0.134956893859	0.223613595707
0.883577430972	0.94
0.883577430972	0.94
0.883577430972	0.94
0.0263971249304	0.082234137035
0.883577430972	0.94
0.137425772152	0.22526581366
0.145030408718	0.259416830964
0.145030408718	0.259416830964
0.0263426253193	0.082234137035
0.883577430972	0.94
0.883577430972	0.94
0.0263971249304	0.082234137035
0.883577430972	0.94
0.883577430972	0.94
