0.940988395358	0.97
0.940988395358	0.97
0.940988395358	0.97
0.373480956676	0.355587808418
0.940988395358	0.97
0.940988395358	0.97
0.940988395358	0.97
0.940988395358	0.97
0.940988395358	0.97
0.940988395358	0.97
0.0266382364022	0.082234137035
0.940988395358	0.97
0.401958459279	0.373475609756
0.389001539915	0.365017878427
0.940988395358	0.97
0.940988395358	0.97
0.381187850221	0.360188179947
0.0266800127514	0.082234137035
0.403634428654	0.374617737003
0.940988395358	0.97
0.405967482817	0.376228501229
0.940988395358	0.97
0.940988395358	0.97
0.940988395358	0.97
0.940988395358	0.97
0.940988395358	0.97
0.940988395358	0.97
0.940988395358	0.97
0.940988395358	0.97
0.0264999218767	0.082234137035
