0.044528597427	0.434138737334
0.69913970987	0.82
0.0313179556922	0.301712261366
0.0355349065971	0.494275562574
0.702918284906	0.85
0.702918284906	0.85
0.702918284906	0.85
1.0	1.0
0.0286764508174	0.464813719692
0.702918284906	0.85
0.726245030993	0.79
0.702918284906	0.85
0.725219280473	0.78
0.702918284906	0.85
0.048477412773	0.497936726272
0.702918284906	0.85
0.702918284906	0.85
0.726245030993	0.79
0.702918284906	0.85
0.0611185353795	0.506930693069
0.0407675488111	0.496451104101
0.628892916737	0.75
0.445771435043	0.75
0.628892916737	0.75
0.702918284906	0.85
0.702918284906	0.85
1.0	1.0
0.0456434913736	0.353504404443
0.702918284906	0.85
0.0316768482034	0.429237947123
