0.83459519609	0.92
0.830816621055	0.89
0.0204032277579	0.31202435312
0.797361724986	0.87
0.901504988228	0.96
0.796180124804	0.86
0.830816621055	0.89
0.901504988228	0.96
0.764114628465	0.85
0.901504988228	0.96
1.0	1.0
0.901504988228	0.96
1.0	1.0
0.93388218389	0.97
0.828427445749	0.87
0.833309696135	0.91
0.76532220359	0.86
0.967544879507	0.99
0.83459519609	0.92
0.82960904593	0.88
0.900323388047	0.95
0.901504988228	0.96
0.93388218389	0.97
0.82960904593	0.88
0.83459519609	0.92
0.895337237887	0.91
0.83459519609	0.92
0.901504988228	0.96
0.901504988228	0.96
0.82960904593	0.88
