1.0	1.0
0.664217489241	0.79
0.737931158088	0.89
0.804529250903	0.93
1.0	1.0
0.698438386395	0.82
0.737931158088	0.89
1.0	1.0
0.804529250903	0.93
1.0	1.0
0.705761761974	0.88
0.770126529145	0.9
0.697308736101	0.81
0.737931158088	0.89
1.0	1.0
1.0	1.0
1.0	1.0
1.0	1.0
1.0	1.0
0.737931158088	0.89
1.0	1.0
0.804529250903	0.93
0.737931158088	0.89
0.804529250903	0.93
1.0	1.0
1.0	1.0
0.804529250903	0.93
1.0	1.0
1.0	1.0
0.729478132215	0.82
