1.0	1.0
0.0324809376285	0.510115033717
0.036460573361	0.496845425868
0.866608742543	0.93
0.0402659391773	0.497041420118
1.0	1.0
0.0397328430546	0.499605988968
0.799543100743	0.89
1.0	1.0
1.0	1.0
0.901504988228	0.96
0.898959963261	0.94
1.0	1.0
1.0	1.0
0.139678259861	0.595072521359
0.128616074169	0.506551926462
0.541915454676	0.8
1.0	1.0
0.139266075301	0.577879450965
0.867998142272	0.94
0.132823119096	0.567137457728
1.0	1.0
1.0	1.0
0.900323388047	0.95
0.173224115471	0.513072537842
1.0	1.0
0.13730650755	0.583598726115
0.799543100743	0.89
1.0	1.0
0.381043538161	0.71
