0.86915376751	0.95
0.0289862335992	0.434397163121
0.0382122416186	0.494488188976
0.0370649450747	0.439920948617
0.0400995510869	0.493516699411
0.0324543414558	0.49115913556
1.0	1.0
0.870335367691	0.96
0.0324547811521	0.492707922743
1.0	1.0
0.86915376751	0.95
0.0324540228183	0.490196078431
0.0234472274114	0.41063746578
0.867998142272	0.94
0.902712563353	0.97
0.59919062076	0.76
0.0324547561997	0.492610837438
0.10174722635	0.572139303483
0.0414236590312	0.424740653748
0.0407279912028	0.500296853354
0.867998142272	0.94
0.0251313395347	0.432474936112
0.733412556911	0.85
0.0240015992374	0.422148046338
0.703840135652	0.86
0.0210010779802	0.352625527022
0.0301124890721	0.428853754941
0.0240016673142	0.422396856582
0.0321202475954	0.490003920031
0.039938512588	0.497632202052
