0.043455926255	0.447712418301
0.043455926255	0.447712418301
0.043455926255	0.447712418301
0.043455926255	0.447712418301
0.043455926255	0.447712418301
0.112846168072	0.54
0.043455926255	0.447712418301
0.043455926255	0.447712418301
0.043455926255	0.447712418301
0.043455926255	0.447712418301
0.043455926255	0.447712418301
0.043455926255	0.447712418301
0.043455926255	0.447712418301
0.112846168072	0.54
0.043455926255	0.447712418301
0.043455926255	0.447712418301
0.043455926255	0.447712418301
0.043455926255	0.447712418301
0.043455926255	0.447712418301
0.043455926255	0.447712418301
0.043455926255	0.447712418301
0.043455926255	0.447712418301
0.043455926255	0.447712418301
0.043455926255	0.447712418301
0.043455926255	0.447712418301
0.043455926255	0.447712418301
0.043455926255	0.447712418301
0.043455926255	0.447712418301
0.043455926255	0.447712418301
0.043455926255	0.447712418301
