0.043455926255	0.424836601307
0.043455926255	0.424836601307
0.043455926255	0.424836601307
0.043455926255	0.424836601307
0.043455926255	0.424836601307
0.043455926255	0.424836601307
0.043455926255	0.424836601307
0.0469106960661	0.49
0.043455926255	0.424836601307
0.0469106960661	0.49
0.043455926255	0.424836601307
0.043455926255	0.424836601307
0.0469106960661	0.49
0.043455926255	0.424836601307
0.043455926255	0.424836601307
0.043455926255	0.424836601307
0.043455926255	0.424836601307
0.0469106960661	0.49
0.0469106960661	0.49
0.043455926255	0.424836601307
0.043455926255	0.424836601307
0.043455926255	0.424836601307
0.043455926255	0.424836601307
0.043455926255	0.424836601307
0.043455926255	0.424836601307
0.043455926255	0.424836601307
0.043455926255	0.424836601307
0.043455926255	0.424836601307
0.043455926255	0.424836601307
0.0469106960661	0.49
