0.0447924481264	0.4375
0.0447924481264	0.4375
0.0443142407108	0.45
0.0447924481264	0.4375
0.0447924481264	0.4375
0.0443142407108	0.45
0.0447924481264	0.4375
0.0443142407108	0.45
0.0447924481264	0.4375
0.0447924481264	0.4375
0.0447924481264	0.4375
0.0447924481264	0.4375
0.0447924481264	0.4375
0.0443142407108	0.45
0.0447924481264	0.4375
0.0447924481264	0.4375
0.0447924481264	0.4375
0.0447924481264	0.4375
0.0447924481264	0.4375
0.0443142407108	0.45
0.0447924481264	0.4375
0.0447924481264	0.4375
0.0447924481264	0.4375
0.0447924481264	0.4375
0.0443142407108	0.45
0.0443142407108	0.45
0.0443142407108	0.45
0.0447924481264	0.4375
0.0447924481264	0.4375
0.0447924481264	0.4375
