0.000117023540037	0.0126939351199
0.000117023540037	0.0126939351199
0.000117023540037	0.0126939351199
0.000117023540037	0.0126939351199
0.000117023540037	0.0126939351199
0.000117023540037	0.0126939351199
0.000117023540037	0.0126939351199
0.000117023540037	0.0126939351199
0.000117023540037	0.0126939351199
0.000117023540037	0.0126939351199
0.000117023540037	0.0126939351199
0.000117023540037	0.0126939351199
0.000117023540037	0.0126939351199
0.000117023540037	0.0126939351199
0.000117023540037	0.0126939351199
0.0220122061455	0.56
0.000117023540037	0.0126939351199
0.000117023540037	0.0126939351199
0.000117023540037	0.0126939351199
0.000117023540037	0.0126939351199
0.000117023540037	0.0126939351199
0.000117023540037	0.0126939351199
0.000117023540037	0.0126939351199
0.000117023540037	0.0126939351199
0.000117023540037	0.0126939351199
0.000117023540037	0.0126939351199
0.000117023540037	0.0126939351199
0.000117023540037	0.0126939351199
0.000117023540037	0.0126939351199
0.0220122061455	0.56
