0.0428169468625	0.442996742671
0.0428169468625	0.442996742671
0.0428169468625	0.442996742671
0.0428169468625	0.442996742671
0.0428169468625	0.442996742671
0.0428169468625	0.442996742671
0.0428169468625	0.442996742671
0.0428169468625	0.442996742671
0.0428169468625	0.442996742671
0.242497033661	0.61
0.0428169468625	0.442996742671
0.0428169468625	0.442996742671
0.0428169468625	0.442996742671
0.0428169468625	0.442996742671
0.0428169468625	0.442996742671
0.0428169468625	0.442996742671
0.0428169468625	0.442996742671
0.0428169468625	0.442996742671
0.0428169468625	0.442996742671
0.242497033661	0.61
0.0428169468625	0.442996742671
0.0428169468625	0.442996742671
0.0428169468625	0.442996742671
0.0428169468625	0.442996742671
0.0428169468625	0.442996742671
0.0428169468625	0.442996742671
0.0428169468625	0.442996742671
0.0428169468625	0.442996742671
0.0428169468625	0.442996742671
0.242497033661	0.61
