0.0410073017905	0.458064516129
0.0410073017905	0.458064516129
0.0410073017905	0.454838709677
0.0404373835633	0.456591639871
0.0410073017905	0.454838709677
0.0410073017905	0.458064516129
0.0404373835633	0.456591639871
0.0410073017905	0.454838709677
0.0404373835633	0.456591639871
0.0410073017905	0.454838709677
0.0404373835633	0.456591639871
0.0410073017905	0.454838709677
0.0404373835633	0.456591639871
0.0404373835633	0.456591639871
0.0404373835633	0.456591639871
0.0404373835633	0.456591639871
0.0404373835633	0.456591639871
0.0410073017905	0.454838709677
0.0404373835633	0.456591639871
0.0404373835633	0.456591639871
0.0220122061455	0.56
0.0404373835633	0.456591639871
0.0410073017905	0.454838709677
0.0404373835633	0.456591639871
0.0410073017905	0.454838709677
0.0410073017905	0.458064516129
0.0404373835633	0.456591639871
0.0404373835633	0.456591639871
0.0410073017905	0.454838709677
0.0410073017905	0.458064516129
