0.0421963644809	0.441558441558
0.0421963644809	0.441558441558
0.0421963644809	0.441558441558
0.0421963644809	0.441558441558
0.0421963644809	0.441558441558
0.0421963644809	0.441558441558
0.0421963644809	0.441558441558
0.174081733796	0.53
0.0421963644809	0.441558441558
0.174081733796	0.53
0.0421963644809	0.441558441558
0.0421963644809	0.441558441558
0.0421963644809	0.441558441558
0.0421963644809	0.441558441558
0.0421963644809	0.441558441558
0.174081733796	0.53
0.0421963644809	0.441558441558
0.0421963644809	0.441558441558
0.0421963644809	0.441558441558
0.0421963644809	0.441558441558
0.0421963644809	0.441558441558
0.0421963644809	0.441558441558
0.0421963644809	0.441558441558
0.0421963644809	0.441558441558
0.0421963644809	0.441558441558
0.174081733796	0.53
0.0421963644809	0.441558441558
0.0421963644809	0.441558441558
0.0421963644809	0.441558441558
0.0421963644809	0.441558441558
