0.000602371222684	0.023178807947
0.000602371222684	0.023178807947
0.000602371222684	0.023178807947
0.000602371222684	0.023178807947
0.000602371222684	0.023178807947
0.000602371222684	0.023178807947
0.000602371222684	0.023178807947
0.000602371222684	0.023178807947
0.000602371222684	0.023178807947
0.000602371222684	0.023178807947
0.000602371222684	0.023178807947
0.000602371222684	0.023178807947
0.000602371222684	0.023178807947
0.000602371222684	0.023178807947
0.000602371222684	0.023178807947
0.000602371222684	0.023178807947
0.000602371222684	0.023178807947
0.000602371222684	0.023178807947
0.000602371222684	0.023178807947
0.000602371222684	0.023178807947
0.000602371222684	0.023178807947
0.000602371222684	0.023178807947
0.000602371222684	0.023178807947
0.000602371222684	0.023178807947
0.000602371222684	0.023178807947
0.000602371222684	0.023178807947
0.000602371222684	0.023178807947
0.000602371222684	0.023178807947
0.000602371222684	0.023178807947
0.000602371222684	0.023178807947
