0.000582634481561	0.022687609075
0.000582634481561	0.022687609075
0.000582634481561	0.022687609075
0.000582634481561	0.022687609075
0.000582634481561	0.022687609075
0.000582634481561	0.022687609075
0.000582634481561	0.022687609075
0.000582634481561	0.022687609075
0.000582634481561	0.022687609075
0.000582634481561	0.022687609075
0.000582634481561	0.022687609075
0.000582634481561	0.022687609075
0.000582634481561	0.022687609075
0.000582634481561	0.022687609075
0.000582634481561	0.022687609075
0.000582634481561	0.022687609075
0.000582634481561	0.022687609075
0.000582634481561	0.022687609075
0.000582634481561	0.022687609075
0.000582634481561	0.022687609075
0.000582634481561	0.022687609075
0.000582634481561	0.022687609075
0.000582634481561	0.022687609075
0.000582634481561	0.022687609075
0.000582634481561	0.022687609075
0.000582634481561	0.022687609075
0.000582634481561	0.022687609075
0.000582634481561	0.022687609075
0.000582634481561	0.022687609075
0.000582634481561	0.022687609075
