0.00133820942367	0.0349417637271
0.00133820942367	0.0349417637271
0.00133820942367	0.0349417637271
0.00133820942367	0.0349417637271
0.00133820942367	0.0349417637271
0.00133820942367	0.0349417637271
0.00133820942367	0.0349417637271
0.00133820942367	0.0349417637271
0.00133820942367	0.0349417637271
0.00133820942367	0.0349417637271
0.00133820942367	0.0349417637271
0.00133820942367	0.0349417637271
0.00133820942367	0.0349417637271
0.00133820942367	0.0349417637271
0.00133820942367	0.0349417637271
0.00133820942367	0.0349417637271
0.00133820942367	0.0349417637271
0.00133820942367	0.0349417637271
0.00133820942367	0.0349417637271
0.00133820942367	0.0349417637271
0.00133820942367	0.0349417637271
0.00133820942367	0.0349417637271
0.00133820942367	0.0349417637271
0.00133820942367	0.0349417637271
0.00133820942367	0.0349417637271
0.00133820942367	0.0349417637271
0.00133820942367	0.0349417637271
0.00133820942367	0.0349417637271
0.00133820942367	0.0349417637271
0.00133820942367	0.0349417637271
