0.00108567419952	0.03125
0.00108567419952	0.03125
0.00108567419952	0.03125
0.00108567419952	0.03125
0.00108567419952	0.03125
0.00108567419952	0.03125
0.00108567419952	0.03125
0.00108567419952	0.03125
0.00108567419952	0.03125
0.00108567419952	0.03125
0.00108567419952	0.03125
0.00108567419952	0.03125
0.00108567419952	0.03125
0.00108567419952	0.03125
0.00108567419952	0.03125
0.00108567419952	0.03125
0.00108567419952	0.03125
0.00108567419952	0.03125
0.00108567419952	0.03125
0.00108567419952	0.03125
0.00108567419952	0.03125
0.00108567419952	0.03125
0.00108567419952	0.03125
0.00108567419952	0.03125
0.00108567419952	0.03125
0.00108567419952	0.03125
0.00108567419952	0.03125
0.00108567419952	0.03125
0.00108567419952	0.03125
0.00108567419952	0.03125
