0.000800957810002	0.0265151515152
0.000800957810002	0.0265151515152
0.000800957810002	0.0265151515152
0.000800957810002	0.0265151515152
0.000800957810002	0.0265151515152
0.000800957810002	0.0265151515152
0.000800957810002	0.0265151515152
0.000800957810002	0.0265151515152
0.000800957810002	0.0265151515152
0.000800957810002	0.0265151515152
0.000800957810002	0.0265151515152
0.000800957810002	0.0265151515152
0.000800957810002	0.0265151515152
0.000800957810002	0.0265151515152
0.000800957810002	0.0265151515152
0.000800957810002	0.0265151515152
0.000800957810002	0.0265151515152
0.000800957810002	0.0265151515152
0.000800957810002	0.0265151515152
0.000800957810002	0.0265151515152
0.000800957810002	0.0265151515152
0.000800957810002	0.0265151515152
0.000800957810002	0.0265151515152
0.000800957810002	0.0265151515152
0.000800957810002	0.0265151515152
0.000800957810002	0.0265151515152
0.000800957810002	0.0265151515152
0.000800957810002	0.0265151515152
0.000800957810002	0.0265151515152
0.000800957810002	0.0265151515152
