1.0	1.0
1.0	1.0
1.0	1.0
1.0	1.0
0.024150121283	0.442961165049
1.0	1.0
1.0	1.0
0.024150121283	0.442961165049
1.0	1.0
1.0	1.0
1.0	1.0
1.0	1.0
1.0	1.0
1.0	1.0
0.024150121283	0.442961165049
0.024150121283	0.442961165049
1.0	1.0
1.0	1.0
1.0	1.0
0.024150121283	0.442961165049
1.0	1.0
1.0	1.0
1.0	1.0
0.024150121283	0.442961165049
1.0	1.0
1.0	1.0
1.0	1.0
1.0	1.0
1.0	1.0
0.024150121283	0.442961165049
