1.0	1.0
1.0	1.0
1.0	1.0
1.0	1.0
1.0	1.0
0.021759182993	0.382096069869
0.021759182993	0.382096069869
0.021759182993	0.382096069869
0.021759182993	0.382096069869
0.021759182993	0.382096069869
1.0	1.0
1.0	1.0
0.021759182993	0.382096069869
1.0	1.0
1.0	1.0
1.0	1.0
1.0	1.0
1.0	1.0
0.021759182993	0.382096069869
1.0	1.0
1.0	1.0
1.0	1.0
1.0	1.0
1.0	1.0
1.0	1.0
1.0	1.0
0.021759182993	0.382096069869
1.0	1.0
1.0	1.0
1.0	1.0
