1.0	1.0
0.0218369421159	0.385869565217
0.0218369421159	0.385869565217
1.0	1.0
1.0	1.0
1.0	1.0
0.0218369421159	0.385869565217
1.0	1.0
0.0218369421159	0.385869565217
0.0218369421159	0.385869565217
1.0	1.0
1.0	1.0
1.0	1.0
1.0	1.0
1.0	1.0
1.0	1.0
1.0	1.0
1.0	1.0
1.0	1.0
1.0	1.0
0.0218369421159	0.385869565217
1.0	1.0
1.0	1.0
1.0	1.0
1.0	1.0
1.0	1.0
1.0	1.0
0.0218369421159	0.385869565217
1.0	1.0
1.0	1.0
