1.0	1.0
0.0223694224892	0.403761061947
1.0	1.0
1.0	1.0
1.0	1.0
1.0	1.0
1.0	1.0
1.0	1.0
0.0223694224892	0.403761061947
1.0	1.0
0.0223694224892	0.403761061947
1.0	1.0
0.0223694224892	0.403761061947
0.0223694224892	0.403761061947
1.0	1.0
0.0223694224892	0.403761061947
0.0223694224892	0.403761061947
1.0	1.0
0.0223694224892	0.403761061947
1.0	1.0
1.0	1.0
1.0	1.0
1.0	1.0
1.0	1.0
1.0	1.0
0.0223694224892	0.403761061947
0.0223694224892	0.403761061947
1.0	1.0
0.0223694224892	0.403761061947
0.0223694224892	0.403761061947
