0.0222779536998	0.4
1.0	1.0
1.0	1.0
1.0	1.0
1.0	1.0
0.0222779536998	0.4
0.0222779536998	0.4
1.0	1.0
1.0	1.0
0.0222779536998	0.4
1.0	1.0
1.0	1.0
0.0222779536998	0.4
1.0	1.0
1.0	1.0
0.0222779536998	0.4
1.0	1.0
1.0	1.0
0.0222779536998	0.4
1.0	1.0
1.0	1.0
0.0222779536998	0.4
1.0	1.0
0.0222779536998	0.4
1.0	1.0
0.0222779536998	0.4
0.0222779536998	0.4
1.0	1.0
1.0	1.0
1.0	1.0
