1.0	1.0
0.0220451151849	0.388513513514
0.0220451151849	0.388513513514
0.0220451151849	0.388513513514
0.0220451151849	0.388513513514
1.0	1.0
1.0	1.0
1.0	1.0
1.0	1.0
1.0	1.0
1.0	1.0
0.0220451151849	0.388513513514
1.0	1.0
1.0	1.0
0.0220451151849	0.388513513514
1.0	1.0
0.0220451151849	0.388513513514
1.0	1.0
0.0220451151849	0.388513513514
1.0	1.0
1.0	1.0
0.0220451151849	0.388513513514
0.0220451151849	0.388513513514
1.0	1.0
1.0	1.0
1.0	1.0
1.0	1.0
1.0	1.0
0.0220451151849	0.388513513514
1.0	1.0
