1.0	1.0
1.0	1.0
0.0116913959029	0.0836820083682
1.0	1.0
0.0116913959029	0.0836820083682
1.0	1.0
1.0	1.0
0.0116913959029	0.0836820083682
1.0	1.0
1.0	1.0
1.0	1.0
1.0	1.0
1.0	1.0
1.0	1.0
1.0	1.0
1.0	1.0
1.0	1.0
1.0	1.0
1.0	1.0
1.0	1.0
0.0116913959029	0.0836820083682
1.0	1.0
1.0	1.0
1.0	1.0
1.0	1.0
0.0116913959029	0.0836820083682
1.0	1.0
1.0	1.0
1.0	1.0
1.0	1.0
