1.0	1.0
1.0	1.0
0.023128528199	0.422453703704
0.023128528199	0.422453703704
1.0	1.0
1.0	1.0
1.0	1.0
1.0	1.0
0.023128528199	0.422453703704
1.0	1.0
1.0	1.0
0.023128528199	0.422453703704
0.023128528199	0.422453703704
0.023128528199	0.422453703704
1.0	1.0
1.0	1.0
0.023128528199	0.422453703704
1.0	1.0
1.0	1.0
1.0	1.0
1.0	1.0
1.0	1.0
1.0	1.0
1.0	1.0
1.0	1.0
0.023128528199	0.422453703704
1.0	1.0
1.0	1.0
0.023128528199	0.422453703704
0.023128528199	0.422453703704
