0.819967987195	0.9
0.819967987195	0.9
0.819967987195	0.9
0.819967987195	0.9
0.819967987195	0.9
0.819967987195	0.9
0.819967987195	0.9
0.819967987195	0.9
0.819967987195	0.9
0.819967987195	0.9
0.819967987195	0.9
0.819967987195	0.9
0.819967987195	0.9
0.819967987195	0.9
0.819967987195	0.9
0.819967987195	0.9
0.819967987195	0.9
0.819967987195	0.9
0.819967987195	0.9
0.819967987195	0.9
0.819967987195	0.9
0.501752333924	0.529682190686
0.819967987195	0.9
0.819967987195	0.9
0.819967987195	0.9
0.819967987195	0.9
0.819967987195	0.9
0.819967987195	0.9
0.819967987195	0.9
0.819967987195	0.9
