0.24343384486	0.435
0.24343384486	0.435
0.24343384486	0.435
0.24343384486	0.435
0.24343384486	0.435
0.24343384486	0.435
0.24343384486	0.435
0.24343384486	0.435
0.24343384486	0.435
0.24343384486	0.435
0.24343384486	0.435
0.24343384486	0.435
0.24343384486	0.435
0.24343384486	0.435
0.24343384486	0.435
0.24343384486	0.435
0.24343384486	0.435
0.24343384486	0.435
0.24343384486	0.435
0.24343384486	0.435
0.24343384486	0.435
0.24343384486	0.435
0.24343384486	0.435
0.24343384486	0.435
0.24343384486	0.435
0.24343384486	0.435
0.24343384486	0.435
0.24343384486	0.435
0.24343384486	0.435
0.24343384486	0.435
