0.221402788603	0.43
0.221402788603	0.43
0.221402788603	0.43
0.221402788603	0.43
0.221402788603	0.43
0.221402788603	0.43
0.221402788603	0.43
0.221402788603	0.43
0.221402788603	0.43
0.221402788603	0.43
0.221402788603	0.43
0.221402788603	0.43
0.221402788603	0.43
0.221402788603	0.43
0.221402788603	0.43
0.221402788603	0.43
0.221402788603	0.43
0.221402788603	0.43
0.221402788603	0.43
0.221402788603	0.43
0.221402788603	0.43
0.221402788603	0.43
0.221402788603	0.43
0.221402788603	0.43
0.221402788603	0.43
0.221402788603	0.43
0.221402788603	0.43
0.221402788603	0.43
0.221402788603	0.43
0.221402788603	0.43
