0.773761504602	0.87
1.0	1.0
1.0	1.0
0.773761504602	0.87
1.0	1.0
0.773761504602	0.87
1.0	1.0
1.0	1.0
0.773761504602	0.87
1.0	1.0
0.649664345738	0.7736
0.773761504602	0.87
0.649664345738	0.7736
0.773761504602	0.87
1.0	1.0
1.0	1.0
1.0	1.0
0.275696678671	0.37
1.0	1.0
0.773761504602	0.87
0.275696678671	0.37
1.0	1.0
0.852773109244	0.92
0.852773109244	0.92
1.0	1.0
0.773761504602	0.87
