1.0	1.0
0.60575030012	0.73
0.579951980792	0.7
0.60575030012	0.73
0.744957983193	0.85
1.0	1.0
0.60575030012	0.73
0.60575030012	0.73
0.744957983193	0.85
0.635150060024	0.76
0.60575030012	0.73
1.0	1.0
0.744957983193	0.85
0.60575030012	0.73
0.635150060024	0.76
0.60575030012	0.73
0.60575030012	0.73
1.0	1.0
0.60575030012	0.73
0.744957983193	0.85
1.0	1.0
0.744957983193	0.85
0.60575030012	0.73
