0.704753901561	0.82
0.635150060024	0.76
1.0	1.0
0.704753901561	0.82
0.427966386555	0.6512
0.717755102041	0.83
0.422509003601	0.65
1.0	1.0
1.0	1.0
0.422509003601	0.65
1.0	1.0
0.717755102041	0.83
0.236468187275	0.32
0.558556222489	0.688
1.0	1.0
0.172823529412	0.294
0.362401920768	0.6008
1.0	1.0
1.0	1.0
0.657648019208	0.7808
0.717755102041	0.83
1.0	1.0
0.704753901561	0.82
0.704753901561	0.82
0.704753901561	0.82
1.0	1.0
0.243639071615	0.318852132324
1.0	1.0
1.0	1.0
