0.176106442577	0.41
1.0	1.0
0.158013605442	0.2312
0.60575030012	0.73
0.375162064826	0.6052
0.551156462585	0.66
0.158013605442	0.2312
1.0	1.0
0.744957983193	0.85
0.0371928212856	0.219604863222
0.272300120048	0.35
0.273721488595	0.35
0.272300120048	0.35
0.272300120048	0.35
0.106857142857	0.2312
0.243309323729	0.47
1.0	1.0
1.0	1.0
0.158013605442	0.2312
0.551156462585	0.66
1.0	1.0
0.272300120048	0.35
0.158013605442	0.2312
0.610964865946	0.7356
1.0	1.0
0.59534789916	0.7184
0.272300120048	0.35
0.551156462585	0.66
0.551156462585	0.66
0.255647218888	0.504
