0.65675070028	0.78
1.0	1.0
0.626957983193	0.752
0.65675070028	0.78
0.65675070028	0.78
0.65675070028	0.78
0.050167633	0.194053208138
0.65675070028	0.78
0.323846338535	0.5672
0.430512204882	0.65
1.0	1.0
0.207907162865	0.44
0.65675070028	0.78
0.198187755102	0.26
0.65675070028	0.78
0.635150060024	0.76
0.18837454982	0.26
0.65675070028	0.78
0.744957983193	0.85
0.631022008804	0.756
0.65675070028	0.78
0.65675070028	0.78
0.626957983193	0.752
1.0	1.0
