0.0308676862971	0.418918918919
0.0308676862971	0.418918918919
0.0308676862971	0.418918918919
0.0308676862971	0.418918918919
0.0308676862971	0.418918918919
0.0308676862971	0.418918918919
0.0308676862971	0.418918918919
0.0308676862971	0.418918918919
0.0308676862971	0.418918918919
0.0308676862971	0.418918918919
0.0308676862971	0.418918918919
0.0308676862971	0.418918918919
0.0308676862971	0.418918918919
0.0308676862971	0.418918918919
0.0308676862971	0.418918918919
0.0308676862971	0.418918918919
0.0308676862971	0.418918918919
0.0308676862971	0.418918918919
0.0308676862971	0.418918918919
0.0308676862971	0.418918918919
0.0308676862971	0.418918918919
0.0308676862971	0.418918918919
0.0308676862971	0.418918918919
0.0308676862971	0.418918918919
0.0308676862971	0.418918918919
0.0308676862971	0.418918918919
0.0308676862971	0.418918918919
0.0308676862971	0.418918918919
0.0308676862971	0.418918918919
0.0308676862971	0.418918918919
