0.679951980792	0.8
0.679951980792	0.8
0.679951980792	0.8
0.679951980792	0.8
0.679951980792	0.8
0.679951980792	0.8
0.679951980792	0.8
0.679951980792	0.8
0.679951980792	0.8
0.679951980792	0.8
0.679951980792	0.8
0.679951980792	0.8
0.679951980792	0.8
0.679951980792	0.8
0.679951980792	0.8
0.679951980792	0.8
0.679951980792	0.8
0.679951980792	0.8
0.679951980792	0.8
0.679951980792	0.8
0.679951980792	0.8
0.679951980792	0.8
0.679951980792	0.8
0.679951980792	0.8
0.679951980792	0.8
0.679951980792	0.8
0.679951980792	0.8
0.679951980792	0.8
0.679951980792	0.8
0.679951980792	0.8
