0.679951980792	0.8
0.679951980792	0.8
0.679951980792	0.8
0.679951980792	0.8
0.679951980792	0.8
0.679951980792	0.8
0.679951980792	0.8
0.679951980792	0.8
0.679951980792	0.8
0.679951980792	0.8
0.679951980792	0.8
0.679951980792	0.8
0.679951980792	0.8
0.679951980792	0.8
0.679951980792	0.8
0.679951980792	0.8
0.679951980792	0.8
0.679951980792	0.8
0.000196078431373	0.01
0.679951980792	0.8
0.679951980792	0.8
0.679951980792	0.8
0.679951980792	0.8
0.679951980792	0.8
0.679951980792	0.8
0.679951980792	0.8
0.679951980792	0.8
0.679951980792	0.8
0.679951980792	0.8
0.679951980792	0.8
