0.832072896996	0.9
0.80341110301	0.91
0.836770097922	0.93
0.824828784441	0.86
0.78643295007	0.81
0.832072896996	0.9
0.835166626665	0.92
1.0	1.0
0.821433153853	0.84
0.753224905618	0.79
0.796166990455	0.87
1.0	1.0
0.0308499206831	0.295217476875
0.832072896996	0.9
0.791130150996	0.84
1.0	1.0
0.832072896996	0.9
0.768750537761	0.88
0.80341110301	0.91
0.0370497304267	0.366569484937
0.832072896996	0.9
0.866959887934	0.93
0.85467893592	0.86
0.902186517407	0.96
0.791130150996	0.84
1.0	1.0
0.832072896996	0.9
0.821319941009	0.84
1.0	1.0
0.791130150996	0.84
