0.138141107629	0.546071001197
1.0	1.0
1.0	1.0
0.0365107331276	0.43145714846
0.0308499574859	0.295275590551
0.0365205083569	0.442136498516
1.0	1.0
0.898790886819	0.94
0.0471503069765	0.493225996466
0.898790886819	0.94
0.0422945506841	0.435477505919
0.0493807241985	0.433372874654
0.898790886819	0.94
0.964320519149	0.97
1.0	1.0
0.964320519149	0.97
1.0	1.0
0.0308482894901	0.293140512019
0.115360423777	0.537387836491
0.0713397241205	0.511952191235
0.0593615990794	0.304305091409
0.0471502993053	0.49115913556
0.0471508437567	0.492029128124
0.0511390598464	0.493890421758
1.0	1.0
0.0335328244087	0.297302618626
0.0565414231339	0.504145282274
0.046870330779	0.497431845121
1.0	1.0
0.898790886819	0.94
