0.93237630742	0.96
1.0	1.0
1.0	1.0
0.866959887934	0.93
0.866959887934	0.93
0.025795251788	0.304399057345
1.0	1.0
0.930659623318	0.95
0.930659623318	0.95
1.0	1.0
1.0	1.0
0.866959887934	0.93
1.0	1.0
0.93237630742	0.96
0.93237630742	0.96
1.0	1.0
1.0	1.0
0.767335754579	0.87
0.93237630742	0.96
1.0	1.0
1.0	1.0
0.756696011436	0.81
0.923415510764	0.91
0.930659623318	0.95
0.93237630742	0.96
1.0	1.0
1.0	1.0
0.930659623318	0.95
0.866959887934	0.93
1.0	1.0
