1.0	1.0
0.806580307909	0.93
0.934130729136	0.97
1.0	1.0
0.769146405341	0.89
0.934130729136	0.97
0.806580307909	0.93
1.0	1.0
1.0	1.0
1.0	1.0
1.0	1.0
0.76471336772	0.86
0.806580307909	0.93
0.934130729136	0.97
1.0	1.0
1.0	1.0
0.0471497669651	0.490388387603
0.834713775286	0.92
1.0	1.0
1.0	1.0
0.80109061707	0.9
0.96611267848	0.98
0.934130729136	0.97
0.934130729136	0.97
0.934130729136	0.97
0.800977404226	0.9
0.902186517407	0.96
0.838411306793	0.94
0.934130729136	0.97
0.934130729136	0.97
