0.799487145814	0.89
0.804976836652	0.92
1.0	1.0
1.0	1.0
1.0	1.0
1.0	1.0
0.804976836652	0.92
0.791092413381	0.84
1.0	1.0
1.0	1.0
1.0	1.0
1.0	1.0
0.835166626665	0.92
0.77169331697	0.9
1.0	1.0
0.836770097922	0.93
1.0	1.0
0.835166626665	0.92
0.836770097922	0.93
1.0	1.0
0.142830057067	0.486760899861
0.835166626665	0.92
0.835166626665	0.92
1.0	1.0
0.835166626665	0.92
0.804976836652	0.92
0.791092413381	0.84
0.835166626665	0.92
0.835166626665	0.92
0.030621771526	0.296791970085
