0.868601096806	0.94
1.0	1.0
0.868601096806	0.94
0.902186517407	0.96
0.903940939123	0.97
0.900469833305	0.95
0.903940939123	0.97
1.0	1.0
0.903940939123	0.97
1.0	1.0
0.903940939123	0.97
0.903940939123	0.97
0.903940939123	0.97
0.864790352454	0.92
0.900469833305	0.95
0.900469833305	0.95
0.903940939123	0.97
1.0	1.0
0.900469833305	0.95
1.0	1.0
1.0	1.0
1.0	1.0
0.935922888467	0.98
0.900469833305	0.95
1.0	1.0
0.864790352454	0.92
0.903940939123	0.97
0.900469833305	0.95
1.0	1.0
0.900469833305	0.95
