0.706956174553	0.87
1.0	1.0
0.706956174553	0.87
0.706956174553	0.87
0.804976836652	0.92
0.804976836652	0.92
1.0	1.0
1.0	1.0
1.0	1.0
1.0	1.0
1.0	1.0
0.804976836652	0.92
0.804976836652	0.92
0.824489145907	0.86
1.0	1.0
0.833600893023	0.91
1.0	1.0
1.0	1.0
0.835166626665	0.92
0.706956174553	0.87
1.0	1.0
0.804976836652	0.92
0.804976836652	0.92
1.0	1.0
0.796016039996	0.87
1.0	1.0
1.0	1.0
1.0	1.0
0.838411306793	0.94
1.0	1.0
