0.323389232127	0.5
0.323389232127	0.5
0.323389232127	0.5
0.579951980792	0.7
0.323389232127	0.5
0.000196078431373	0.01
0.323389232127	0.5
0.323389232127	0.5
0.323389232127	0.5
0.579951980792	0.7
0.323389232127	0.5
0.579951980792	0.7
0.323389232127	0.5
0.323389232127	0.5
0.579951980792	0.7
0.323389232127	0.5
0.323389232127	0.5
0.323389232127	0.5
0.323389232127	0.5
0.323389232127	0.5
0.579951980792	0.7
0.579951980792	0.7
0.323389232127	0.5
0.323389232127	0.5
0.323389232127	0.5
0.323389232127	0.5
0.323389232127	0.5
0.323389232127	0.5
0.323389232127	0.5
0.323389232127	0.5
