1.0	1.0
1.0	1.0
0.236415741612	0.719424460432
0.0759848780341	0.405844155844
0.236415741612	0.719424460432
0.231773447952	0.714285714286
0.144576481758	0.64829821718
0.144576481758	0.64829821718
0.0846176335463	0.5
0.0795897141179	0.403225806452
0.236415741612	0.719424460432
0.0846176335463	0.5
0.236415741612	0.719424460432
0.175199524479	0.730519480519
1.0	1.0
1.0	1.0
0.144280626368	0.645161290323
0.236415741612	0.719424460432
1.0	1.0
0.0795897141179	0.403225806452
0.231773447952	0.714285714286
0.231773447952	0.714285714286
0.231773447952	0.714285714286
0.231773447952	0.714285714286
0.236415741612	0.719424460432
0.144280626368	0.645161290323
0.236415741612	0.719424460432
0.231773447952	0.714285714286
0.236415741612	0.719424460432
0.231773447952	0.714285714286
