0.231773447952	0.714285714286
0.0795897141179	0.403225806452
0.231773447952	0.714285714286
0.144280626368	0.645161290323
0.231773447952	0.714285714286
0.231773447952	0.714285714286
1.0	1.0
0.231773447952	0.714285714286
0.231773447952	0.714285714286
0.144280626368	0.645161290323
0.144280626368	0.645161290323
1.0	1.0
0.17444077816	0.725806451613
0.231773447952	0.714285714286
0.0756568115234	0.403225806452
0.231773447952	0.714285714286
0.231773447952	0.714285714286
1.0	1.0
1.0	1.0
0.231773447952	0.714285714286
1.0	1.0
0.0756568115234	0.403225806452
1.0	1.0
0.0756568115234	0.403225806452
0.231773447952	0.714285714286
0.231773447952	0.714285714286
0.231773447952	0.714285714286
0.231773447952	0.714285714286
0.231773447952	0.714285714286
1.0	1.0
