0.236415741612	0.719424460432
0.231773447952	0.714285714286
0.0803851964509	0.393329137823
0.236415741612	0.719424460432
0.231773447952	0.714285714286
1.0	1.0
0.236415741612	0.719424460432
0.236415741612	0.719424460432
1.0	1.0
1.0	1.0
0.17444077816	0.725806451613
0.0846176335463	0.5
0.231773447952	0.714285714286
0.236415741612	0.719424460432
0.236415741612	0.719424460432
0.17444077816	0.725806451613
0.236415741612	0.719424460432
1.0	1.0
1.0	1.0
0.17444077816	0.725806451613
0.236415741612	0.719424460432
1.0	1.0
0.17444077816	0.725806451613
0.144576481758	0.64829821718
0.236415741612	0.719424460432
0.17444077816	0.725806451613
0.236415741612	0.719424460432
0.231773447952	0.714285714286
0.231773447952	0.714285714286
0.17444077816	0.725806451613
