0.0756568115234	0.403225806452
0.0795897141179	0.403225806452
0.17444077816	0.725806451613
0.231773447952	0.714285714286
0.17444077816	0.725806451613
0.231773447952	0.714285714286
0.111338645637	0.451612903226
0.0756568115234	0.403225806452
0.231773447952	0.714285714286
0.0795897141179	0.403225806452
0.231773447952	0.714285714286
0.231773447952	0.714285714286
0.231773447952	0.714285714286
1.0	1.0
0.231773447952	0.714285714286
1.0	1.0
1.0	1.0
0.231773447952	0.714285714286
0.231773447952	0.714285714286
0.0846176335463	0.5
0.231773447952	0.714285714286
1.0	1.0
0.231773447952	0.714285714286
1.0	1.0
0.231773447952	0.714285714286
0.231773447952	0.714285714286
0.231773447952	0.714285714286
0.231773447952	0.714285714286
1.0	1.0
0.231773447952	0.714285714286
