0.033673364292	0.365188190849
0.0377219504316	0.666666666667
1.0	1.0
0.0377219504316	0.666666666667
0.675624526874	0.833333333333
0.183683708603	0.216606498195
0.675624526874	0.833333333333
0.235685936907	0.404411764706
0.0377219504316	0.666666666667
0.235685936907	0.404411764706
0.0377219504316	0.666666666667
0.0377219504316	0.666666666667
0.0377219504316	0.666666666667
1.0	1.0
0.0377219504316	0.666666666667
0.675624526874	0.833333333333
0.235685936907	0.404411764706
0.327481547906	0.583333333333
0.29302614334	0.416666666667
0.0377219504316	0.666666666667
0.0377219504316	0.666666666667
0.675624526874	0.833333333333
0.033673364292	0.365188190849
0.252136585366	0.44
0.0377219504316	0.666666666667
0.0299297461094	0.596774193548
0.252136585366	0.44
0.0377219504316	0.666666666667
0.0377219504316	0.666666666667
0.0377219504316	0.666666666667
