0.29302614334	0.416666666667
0.0377219504316	0.666666666667
0.0328820277603	0.367790470883
0.0377219504316	0.666666666667
0.327481547906	0.583333333333
0.225805851954	0.276
0.675624526874	0.833333333333
0.327481547906	0.583333333333
0.0377219504316	0.666666666667
0.0377219504316	0.666666666667
0.0271451809368	0.594090202177
0.0288893286403	0.609105180534
0.225805851954	0.276
0.0377219504316	0.666666666667
0.287708666394	0.476
0.688560635493	0.840336134454
0.0377219504316	0.666666666667
0.265179682065	0.418772563177
1.0	1.0
0.0377219504316	0.666666666667
0.0377219504316	0.666666666667
0.688560635493	0.840336134454
0.0377219504316	0.666666666667
1.0	1.0
0.0328820277603	0.367790470883
0.287708666394	0.464
0.0377219504316	0.666666666667
1.0	1.0
0.0377219504316	0.666666666667
0.0377219504316	0.666666666667
