0.210311350449	0.264
0.0278230020304	0.594936708861
0.206784047012	0.239130434783
0.327481547906	0.583333333333
0.0296526548372	0.610223642173
0.0377219504316	0.666666666667
0.0377219504316	0.666666666667
0.21377370674	0.31050955414
0.29302614334	0.416666666667
0.327481547906	0.583333333333
0.0377219504316	0.666666666667
0.327481547906	0.583333333333
1.0	1.0
0.0377219504316	0.666666666667
0.0296526548372	0.610223642173
0.0278230020304	0.594936708861
0.675624526874	0.833333333333
1.0	1.0
0.0377219504316	0.666666666667
0.0377219504316	0.666666666667
0.327481547906	0.583333333333
0.327481547906	0.583333333333
0.0377219504316	0.666666666667
0.29302614334	0.416666666667
1.0	1.0
0.0296526548372	0.610223642173
0.0278230020304	0.594936708861
0.0377219504316	0.666666666667
0.20736046066	0.241095890411
0.327481547906	0.583333333333
