1.0	1.0
0.0377219504316	0.666666666667
0.0377219504316	0.666666666667
0.0377219504316	0.666666666667
0.0377219504316	0.666666666667
0.0377219504316	0.666666666667
0.0377219504316	0.666666666667
0.0377219504316	0.666666666667
0.0377219504316	0.666666666667
0.327481547906	0.583333333333
0.0377219504316	0.666666666667
0.0309452565718	0.60453808752
0.0289681991275	0.589085072231
0.675624526874	0.833333333333
0.184068610529	0.222826086957
0.0377219504316	0.666666666667
0.675624526874	0.833333333333
0.234992735244	0.397435897436
0.675624526874	0.833333333333
0.0377219504316	0.666666666667
0.25228319413	0.446
0.0377219504316	0.666666666667
0.0377219504316	0.666666666667
0.0377219504316	0.666666666667
0.0377219504316	0.666666666667
0.0377219504316	0.666666666667
0.187299976583	0.246
0.675624526874	0.833333333333
0.0416771897974	0.360854503464
0.675624526874	0.833333333333
