0.0276838022321	0.390243902439
0.194792794186	0.246
0.0377219504316	0.666666666667
1.0	1.0
0.0377219504316	0.666666666667
0.327481547906	0.583333333333
0.0377219504316	0.666666666667
0.259158033091	0.446
0.0369405759356	0.357142857143
1.0	1.0
0.29302614334	0.416666666667
0.259158033091	0.446
0.0294991814812	0.598715890851
0.0377219504316	0.666666666667
0.0377219504316	0.666666666667
0.194792794186	0.246
0.193001898522	0.228624535316
0.0377219504316	0.666666666667
0.0294991814812	0.598715890851
0.259158033091	0.446
0.0377219504316	0.666666666667
0.0377219504316	0.666666666667
0.0294991814812	0.598715890851
0.675624526874	0.833333333333
0.0294991814812	0.598715890851
0.259158033091	0.446
0.327481547906	0.583333333333
0.0377219504316	0.666666666667
0.0377219504316	0.666666666667
0.0294991814812	0.598715890851
