0.578025690276	0.759
0.100914983737	0.286655499721
0.0426651939515	0.151209677419
0.112652878046	0.310328107322
0.479303481393	0.6763
0.0184963960007	0.313407937722
0.0243682190874	0.113760147981
0.0725036329194	0.22408650261
0.0571498058183	0.179743040685
0.56924969988	0.7475
0.0977769764639	0.192018593611
0.0486664429888	0.166601366941
0.200716028052	0.368438170819
0.123534875029	0.324048838984
0.0725250287703	0.207685393258
0.0406519529255	0.155685519692
0.0192069582021	0.112872975277
0.461210084034	0.6601
0.130573789193	0.322962962963
0.0466152962698	0.160448065173
0.0177547612703	0.0648244455064
0.610783673469	0.7564
0.204039363969	0.264850571885
0.0930979535844	0.270145089286
0.556563505402	0.7234
0.160181111739	0.375365292545
0.483554621849	0.6811
0.0272561367158	0.116610800745
0.637635134054	0.7867
0.593483873549	0.769
