0.0832631832225	0.187426763534
0.19447199621	0.366614906832
0.00564567686399	0.0512516371364
0.19543564606	0.348140645348
0.0535177998334	0.208959389682
0.0106435120069	0.11409558798
0.321409240487	0.547011952191
0.0131150938918	0.176971072036
0.00750462172511	0.0846224064343
0.0234636180993	0.0928303068253
0.427343897559	0.6353
0.0318665062452	0.12632837407
0.337059863946	0.5779
0.00875532100589	0.110398558406
0.0482388751719	0.185111685435
0.115404912479	0.305898649429
0.0318455930103	0.12265060241
0.203552874811	0.353396266591
0.00930874511606	0.123507891153
0.228220394131	0.378802477632
0.0410424031646	0.237858170152
0.00950098724083	0.0984142638395
0.0111980472706	0.09779257615
0.181741736562	0.33914265636
0.0498840924606	0.263555555556
0.0991081720684	0.282021957914
0.0482428150228	0.257035119316
0.00820719495826	0.114482136221
0.0737920167713	0.311086474501
0.00845927512035	0.0440054415331
