0.140905214276	0.314708810353
0.0910720010407	0.190903071359
0.155453724712	0.317887931034
0.00797906011565	0.0890050937466
0.0360534203179	0.133838786911
0.0823981397025	0.202899293105
0.0316631536199	0.141532119547
0.112510813593	0.279581529582
0.0689731233462	0.169749679926
0.0281195448246	0.112059765208
0.377256182473	0.6109
0.0477828976158	0.126546681665
0.030470096153	0.152043817831
0.0332612477585	0.074071062688
0.035864692817	0.129836734694
0.1881975504	0.345702708467
0.301199241076	0.425055756364
0.395709963986	0.6197
0.168594739956	0.345738942826
0.164665258923	0.326375328261
0.00767614076465	0.0914513981358
0.0222173804235	0.162524089539
0.0089424811846	0.112693923937
0.22885543253	0.369642857143
0.0633864999281	0.166051969824
0.175126321057	0.335678467181
0.0888066095226	0.189118264521
0.216308506068	0.363524083985
0.259436587429	0.388667425968
0.183454143218	0.317926296065
