0.00992438304806	0.048609503654
0.453741976791	0.6686
0.450109563826	0.6605
0.00804378612077	0.0448299090603
0.034663847617	0.124600512922
0.145020923872	0.314740778953
0.061528967915	0.277091827945
0.0	0.0
0.182127657424	0.269317450097
0.0321056414789	0.158009259259
0.0350768331275	0.115313713872
0.228010878404	0.365582743078
0.0125602028633	0.0935628742515
0.452740936375	0.6529
0.0890964347739	0.288801350591
0.0319103551665	0.191354174788
0.0267344486588	0.108410428932
0.0172886605272	0.0831509846827
0.00847014605191	0.0420032310178
0.275313219262	0.433452434122
0.178215241013	0.349670962435
0.0247472057587	0.110823510672
0.034558366471	0.20789271294
0.013253662718	0.183482778849
0.00315649761272	0.027117768595
0.0282354224533	0.187675070028
0.0929468921534	0.185625113629
0.0297855645033	0.127185597721
0.0981610656914	0.270029850746
0.45388987595	0.6687
