1.0	1.0
1.0	1.0
0.775958383353	0.88
1.0	1.0
0.852773109244	0.92
1.0	1.0
0.739951980792	0.86
1.0	1.0
0.788763505402	0.88
0.705546218487	0.84
0.759159663866	0.86
0.739951980792	0.86
1.0	1.0
0.759159663866	0.86
1.0	1.0
0.739951980792	0.86
1.0	1.0
0.756954781913	0.87
0.869775910364	0.93
0.675942376951	0.82
0.756954781913	0.87
0.739951980792	0.86
1.0	1.0
0.836170468187	0.91
1.0	1.0
0.869775910364	0.93
0.887178871549	0.94
1.0	1.0
1.0	1.0
1.0	1.0
