0.869775910364	0.93
0.756954781913	0.87
0.819967987195	0.9
0.819967987195	0.9
1.0	1.0
0.819967987195	0.9
0.774757903161	0.88
0.869775910364	0.93
0.819967987195	0.9
0.756954781913	0.87
0.887178871549	0.94
1.0	1.0
0.887178871549	0.94
0.756954781913	0.87
1.0	1.0
1.0	1.0
1.0	1.0
0.819967987195	0.9
0.887178871549	0.94
0.887178871549	0.94
1.0	1.0
1.0	1.0
0.904981992797	0.95
0.869775910364	0.93
1.0	1.0
0.869775910364	0.93
0.756954781913	0.87
1.0	1.0
0.869775910364	0.93
1.0	1.0
