0.904981992797	0.95
0.904981992797	0.95
1.0	1.0
0.804165666267	0.89
0.836170468187	0.91
0.709147659064	0.84
0.727350940376	0.85
1.0	1.0
1.0	1.0
1.0	1.0
0.788763505402	0.88
1.0	1.0
0.57912765106	0.76
0.57912765106	0.76
0.819967987195	0.9
1.0	1.0
0.887178871549	0.94
0.904981992797	0.95
1.0	1.0
1.0	1.0
0.887178871549	0.94
0.57912765106	0.76
0.656138455382	0.81
0.819967987195	0.9
0.759159663866	0.86
1.0	1.0
1.0	1.0
0.904981992797	0.95
0.819967987195	0.9
0.836170468187	0.91
