0.476914804352	0.493096646943
0.739551820728	0.86
0.686752576731	0.804844153266
0.852773109244	0.92
1.0	1.0
0.852773109244	0.92
0.804165666267	0.89
0.869775910364	0.93
1.0	1.0
0.705946378551	0.84
1.0	1.0
0.836170468187	0.91
1.0	1.0
1.0	1.0
0.804165666267	0.89
0.869775910364	0.93
0.658539415766	0.81
1.0	1.0
0.869775910364	0.93
0.739551820728	0.86
1.0	1.0
0.869775910364	0.93
1.0	1.0
1.0	1.0
0.852773109244	0.92
0.515217964388	0.587064676617
0.788763505402	0.88
0.819967987195	0.9
0.869775910364	0.93
0.512881565857	0.58013139558
