0.836170468187	0.91
0.887178871549	0.94
0.904981992797	0.95
0.773761504602	0.87
1.0	1.0
0.887178871549	0.94
1.0	1.0
1.0	1.0
0.810364145658	0.9
1.0	1.0
1.0	1.0
0.828967587035	0.91
1.0	1.0
0.887178871549	0.94
0.804165666267	0.89
0.773761504602	0.87
0.869775910364	0.93
0.980196078431	0.99
0.887178871549	0.94
1.0	1.0
1.0	1.0
1.0	1.0
0.887178871549	0.94
1.0	1.0
0.904981992797	0.95
1.0	1.0
0.673941576631	0.82
0.852773109244	0.92
0.836170468187	0.91
0.904981992797	0.95
