0.756954781913	0.87
0.689743897559	0.83
0.869775910364	0.93
1.0	1.0
0.887178871549	0.94
1.0	1.0
0.887178871549	0.94
1.0	1.0
0.869775910364	0.93
0.852773109244	0.92
0.887178871549	0.94
0.887178871549	0.94
1.0	1.0
0.709147659064	0.84
1.0	1.0
1.0	1.0
1.0	1.0
0.980196078431	0.99
1.0	1.0
1.0	1.0
0.887178871549	0.94
0.869775910364	0.93
1.0	1.0
0.804165666267	0.89
0.692152861144	0.81
0.852773109244	0.92
0.852773109244	0.92
1.0	1.0
0.887178871549	0.94
0.500265390998	0.513105639396
