0.980196078431	0.99
0.980196078431	0.99
0.980196078431	0.99
1.0	1.0
0.980196078431	0.99
0.980196078431	0.99
0.980196078431	0.99
0.980196078431	0.99
0.980196078431	0.99
0.980196078431	0.99
0.980196078431	0.99
1.0	1.0
1.0	1.0
0.980196078431	0.99
0.484160500235	0.493805309735
1.0	1.0
1.0	1.0
1.0	1.0
1.0	1.0
0.980196078431	0.99
1.0	1.0
0.980196078431	0.99
0.980196078431	0.99
0.980196078431	0.99
1.0	1.0
1.0	1.0
1.0	1.0
1.0	1.0
0.980196078431	0.99
0.980196078431	0.99
