1.0	1.0
1.0	1.0
0.980196078431	0.99
1.0	1.0
0.960392156863	0.98
0.960392156863	0.98
1.0	1.0
1.0	1.0
1.0	1.0
0.980196078431	0.99
0.960392156863	0.98
0.980196078431	0.99
0.980196078431	0.99
1.0	1.0
0.960392156863	0.98
0.980196078431	0.99
0.980196078431	0.99
0.980196078431	0.99
0.980196078431	0.99
0.980196078431	0.99
0.980196078431	0.99
1.0	1.0
0.960392156863	0.98
0.0872729870031	0.65335075602
1.0	1.0
0.980196078431	0.99
0.091851593055	0.651188707281
0.980196078431	0.99
0.960392156863	0.98
0.980196078431	0.99
