0.0449403491489	0.262867647059
0.0247126139272	0.569983136594
0.0572568452147	0.411439114391
0.260190358773	0.654300168634
0.045648215684	0.316
0.0449403491489	0.290441176471
0.222041716438	0.714285714286
0.111524943795	0.603448275862
0.0572135254992	0.4375
0.222041716438	0.714285714286
0.0580376413362	0.446
0.222041716438	0.714285714286
0.0449403491489	0.290441176471
0.0580376413362	0.476
0.111524943795	0.603448275862
0.045648215684	0.316
0.0294616140014	0.367647058824
0.222041716438	0.714285714286
0.045648215684	0.316
0.045648215684	0.316
0.222041716438	0.714285714286
0.0554887575299	0.426
0.0572135254992	0.4375
0.222041716438	0.714285714286
0.222041716438	0.714285714286
0.222041716438	0.714285714286
0.222041716438	0.714285714286
0.222041716438	0.714285714286
0.111524943795	0.603448275862
0.222041716438	0.714285714286
