0.0509654041929	0.287272727273
0.222041716438	0.714285714286
0.0631256483223	0.441391941392
0.0620291886984	0.46
0.0509462135272	0.291666666667
0.0615434225284	0.462
0.0640790738664	0.476
0.0621545974885	0.410344827586
0.0631256483223	0.441391941392
0.111524943795	0.603448275862
0.222041716438	0.714285714286
0.0640790738664	0.476
0.222041716438	0.714285714286
0.0640790738664	0.476
0.0632214162464	0.439114391144
0.0615434225284	0.462
0.0620291886984	0.46
0.222041716438	0.714285714286
0.222041716438	0.714285714286
0.0620291886984	0.46
0.111524943795	0.603448275862
0.0517474523822	0.322
0.0509654041929	0.287272727273
0.100151066716	0.465517241379
0.222041716438	0.714285714286
0.222041716438	0.714285714286
0.222041716438	0.714285714286
0.111524943795	0.603448275862
0.0509462135272	0.291666666667
0.222041716438	0.714285714286
