0.222041716438	0.714285714286
0.111524943795	0.603448275862
0.0217192170285	0.534173855342
0.248054245044	0.637729549249
0.0448729852585	0.28007518797
0.222041716438	0.714285714286
0.0217192170285	0.534173855342
0.222041716438	0.714285714286
0.0217192170285	0.534173855342
0.0448334327407	0.282527881041
0.0572730365429	0.434456928839
0.248054245044	0.637729549249
0.021044113042	0.529900332226
0.222041716438	0.714285714286
0.222041716438	0.714285714286
0.222041716438	0.714285714286
0.222041716438	0.714285714286
0.0454968228008	0.304
0.0454968228008	0.304
0.021044113042	0.529900332226
0.021044113042	0.529900332226
0.0578842902005	0.464
0.222041716438	0.714285714286
0.0448729852585	0.28007518797
0.0217192170285	0.534173855342
0.111524943795	0.603448275862
0.021044113042	0.529900332226
0.0448729852585	0.28007518797
0.0578842902005	0.458
0.0217192170285	0.534173855342
