0.111524943795	0.603448275862
0.0209308174589	0.531561461794
0.222041716438	0.714285714286
0.222041716438	0.714285714286
0.0468875567951	0.289179104478
0.0209308174589	0.531561461794
0.0591062700209	0.428044280443
0.0591062700209	0.428044280443
0.0527494816695	0.382575757576
0.0527494816695	0.382575757576
0.0593210422922	0.441729323308
0.0599108477901	0.47
0.0468875567951	0.289179104478
0.222041716438	0.714285714286
0.222041716438	0.714285714286
0.0527494816695	0.382575757576
0.0591062700209	0.428044280443
0.0527494816695	0.382575757576
0.222041716438	0.714285714286
0.0339750697078	0.314285714286
0.0294616140014	0.367647058824
0.0294616140014	0.367647058824
0.222041716438	0.714285714286
0.222041716438	0.714285714286
0.222041716438	0.714285714286
0.222041716438	0.714285714286
0.222041716438	0.714285714286
0.222041716438	0.714285714286
0.0599108477901	0.47
0.222041716438	0.714285714286
