0.111524943795	0.603448275862
0.0467946791242	0.282846715328
0.222041716438	0.714285714286
0.0599108477901	0.47
0.222041716438	0.714285714286
0.111524943795	0.603448275862
0.0468433208794	0.280442804428
0.0592368296805	0.432835820896
0.0538125036717	0.415011914218
0.0294616140014	0.367647058824
0.0599108477901	0.464
0.222041716438	0.714285714286
0.242852347751	0.639534883721
0.222041716438	0.714285714286
0.0599108477901	0.47
0.0468433208794	0.280442804428
0.222041716438	0.714285714286
0.0542546264289	0.416
0.111524943795	0.603448275862
0.222041716438	0.714285714286
0.222041716438	0.714285714286
0.0542546264289	0.416
0.0475415036056	0.31
0.222041716438	0.714285714286
0.0542546264289	0.416
0.020740225708	0.310344827586
0.0538125036717	0.415011914218
0.0467946791242	0.282846715328
0.0468433208794	0.280442804428
0.0592368296805	0.432835820896
