0.486386846102	0.626814462919
0.923452047486	0.96
0.551365633957	0.639553429027
0.864641856743	0.926666666667
0.923452047486	0.96
0.911583299987	0.953333333333
0.766490596238	0.873333333333
0.775158063225	0.88
0.936654661865	0.966666666667
0.763289315726	0.873333333333
0.901848739496	0.946666666667
0.839570494865	0.913333333333
0.78156062425	0.88
0.816633319995	0.9
0.740618914232	0.86
0.798628784847	0.893333333333
0.841171135121	0.913333333333
0.751687341603	0.866666666667
0.850638922236	0.92
0.936654661865	0.966666666667
0.764089635854	0.873333333333
0.960658930239	0.98
0.936654661865	0.966666666667
0.986797385621	0.993333333333
0.82743497399	0.906666666667
0.500533189117	0.614321774944
0.81023075897	0.9
0.877577697746	0.933333333333
0.591576331022	0.682343563173
1.0	1.0
