0.820770975057	0.893333333333
0.694744564492	0.833333333333
0.781827397626	0.88
0.841171135121	0.913333333333
0.765156729358	0.873333333333
0.792629051621	0.886666666667
0.78156062425	0.88
0.741952781112	0.86
0.803964252368	0.893333333333
0.56073095905	0.733333333333
0.717948512738	0.846666666667
0.839570494865	0.913333333333
0.770758970255	0.873333333333
0.816633319995	0.9
0.765423502734	0.873333333333
0.683676137122	0.826666666667
0.752754435107	0.866666666667
0.770758970255	0.873333333333
0.803169267707	0.88
0.78862745098	0.886666666667
0.731951447246	0.853333333333
0.589929305055	0.766666666667
0.779959983994	0.88
0.804764572496	0.893333333333
0.94879018274	0.973333333333
0.753821528611	0.866666666667
0.803697478992	0.893333333333
0.71848205949	0.846666666667
0.78156062425	0.88
0.683409363745	0.826666666667
