0.781827397626	0.88
0.910516206483	0.953333333333
0.859175670268	0.92
0.890780312125	0.94
0.761024409764	0.866666666667
0.818233960251	0.9
0.794229691877	0.886666666667
0.838503401361	0.913333333333
0.787560357476	0.886666666667
0.57955414203	0.613408851423
0.720616246499	0.846666666667
0.850638922236	0.92
0.776225156729	0.88
0.849838602108	0.92
0.561755136448	0.658254748307
0.873576097106	0.933333333333
0.824767240229	0.906666666667
0.604849385096	0.656133828996
0.861974122983	0.926666666667
0.798628784847	0.893333333333
0.888646125117	0.94
0.924785914366	0.96
0.863041216487	0.926666666667
0.68581032413	0.826666666667
0.815032679739	0.9
0.922651727358	0.96
0.973861544618	0.986666666667
0.838503401361	0.913333333333
0.872775776977	0.933333333333
0.863041216487	0.926666666667
