0.792629051621	0.886666666667
0.849571828731	0.92
0.838503401361	0.913333333333
0.679543817527	0.82
0.849838602108	0.92
0.837969854609	0.913333333333
0.986797385621	0.993333333333
0.877577697746	0.933333333333
0.86144057623	0.926666666667
0.727955182073	0.84
0.78822995865	0.88
0.815032679739	0.9
0.837969854609	0.913333333333
0.913183940243	0.953333333333
0.781827397626	0.88
0.849571828731	0.92
0.913183940243	0.953333333333
0.872775776977	0.933333333333
0.490228396942	0.59039510443
0.76302254235	0.873333333333
0.775424836601	0.88
0.337508541634	0.527009222661
0.901848739496	0.946666666667
0.869443777511	0.926666666667
0.913183940243	0.953333333333
0.826367880486	0.906666666667
0.728750166733	0.853333333333
0.434964928503	0.584895625582
0.803964252368	0.893333333333
0.801830065359	0.893333333333
