0.779426437242	0.88
0.901848739496	0.946666666667
0.877577697746	0.933333333333
0.986797385621	0.993333333333
0.877577697746	0.933333333333
0.792629051621	0.886666666667
0.913183940243	0.953333333333
0.890780312125	0.94
0.751023075897	0.86
0.798634120315	0.88
0.792629051621	0.886666666667
0.859175670268	0.92
0.888646125117	0.94
0.837969854609	0.913333333333
0.792629051621	0.886666666667
0.657809790583	0.8
0.790761637989	0.886666666667
0.71368547419	0.833333333333
0.768358009871	0.873333333333
0.803964252368	0.893333333333
0.811836734694	0.886666666667
0.986797385621	0.993333333333
0.779426437242	0.88
0.888646125117	0.94
0.78156062425	0.88
0.779426437242	0.88
0.779426437242	0.88
1.0	1.0
0.899981325864	0.946666666667
0.792629051621	0.886666666667
