1.0	1.0
1.0	1.0
1.0	1.0
0.980196078431	0.99
0.980196078431	0.99
1.0	1.0
0.980196078431	0.99
0.980196078431	0.99
1.0	1.0
1.0	1.0
1.0	1.0
1.0	1.0
1.0	1.0
1.0	1.0
0.980196078431	0.99
1.0	1.0
1.0	1.0
1.0	1.0
1.0	1.0
0.980196078431	0.99
1.0	1.0
0.960392156863	0.98
0.980196078431	0.99
1.0	1.0
1.0	1.0
1.0	1.0
1.0	1.0
0.980196078431	0.99
1.0	1.0
0.980196078431	0.99
