1.0	1.0
1.0	1.0
1.0	1.0
0.941788715486	0.97
1.0	1.0
1.0	1.0
0.941788715486	0.97
0.153371194611	0.590513068732
1.0	1.0
1.0	1.0
1.0	1.0
1.0	1.0
1.0	1.0
1.0	1.0
1.0	1.0
0.980196078431	0.99
1.0	1.0
1.0	1.0
1.0	1.0
1.0	1.0
1.0	1.0
1.0	1.0
0.980196078431	0.99
1.0	1.0
1.0	1.0
0.980196078431	0.99
1.0	1.0
1.0	1.0
1.0	1.0
1.0	1.0
