1.0	1.0
1.0	1.0
0.960792316927	0.98
1.0	1.0
0.960792316927	0.98
0.92318527411	0.96
0.92318527411	0.96
1.0	1.0
0.980196078431	0.99
1.0	1.0
1.0	1.0
0.960792316927	0.98
0.960792316927	0.98
1.0	1.0
1.0	1.0
0.960792316927	0.98
1.0	1.0
0.980196078431	0.99
0.980196078431	0.99
1.0	1.0
1.0	1.0
0.960792316927	0.98
0.941788715486	0.97
1.0	1.0
0.941788715486	0.97
1.0	1.0
0.921984793918	0.96
1.0	1.0
0.980196078431	0.99
0.960792316927	0.98
