1.0	1.0
1.0	1.0
1.0	1.0
1.0	1.0
1.0	1.0
0.960792316927	0.98
0.941788715486	0.97
1.0	1.0
1.0	1.0
1.0	1.0
1.0	1.0
1.0	1.0
0.941788715486	0.97
1.0	1.0
0.941788715486	0.97
1.0	1.0
1.0	1.0
1.0	1.0
1.0	1.0
1.0	1.0
0.960792316927	0.98
1.0	1.0
1.0	1.0
1.0	1.0
1.0	1.0
0.960792316927	0.98
1.0	1.0
1.0	1.0
1.0	1.0
1.0	1.0
