1.0	1.0
0.980196078431	0.99
1.0	1.0
1.0	1.0
0.980196078431	0.99
1.0	1.0
1.0	1.0
1.0	1.0
1.0	1.0
0.980196078431	0.99
0.980196078431	0.99
0.980196078431	0.99
0.980196078431	0.99
0.980196078431	0.99
1.0	1.0
0.980196078431	0.99
0.980196078431	0.99
0.980196078431	0.99
1.0	1.0
0.980196078431	0.99
1.0	1.0
0.980196078431	0.99
1.0	1.0
1.0	1.0
1.0	1.0
1.0	1.0
1.0	1.0
1.0	1.0
0.980196078431	0.99
1.0	1.0
