0.826875625208	0.896
0.523320881329	0.63104
0.833277759253	0.9
1.0	1.0
1.0	1.0
0.689171816845	0.787248
0.833277759253	0.9
0.686710488711	0.774
0.833277759253	0.9
0.830010003334	0.898
0.794864954985	0.864
0.833277759253	0.9
0.711403258074	0.798
0.795865288429	0.866
0.833277759253	0.9
0.526938562346	0.642432
0.821007002334	0.892
0.791663887963	0.852
0.792664221407	0.858
0.833277759253	0.9
1.0	1.0
0.503569325051	0.6144
0.652014861389	0.736
0.539289867166	0.665584
1.0	1.0
0.798266088696	0.87
0.537081551862	0.657448
0.833277759253	0.9
0.523156285237	0.629744
1.0	1.0
