1.0	1.0
0.531222332654	0.65728
0.516353939577	0.617408
0.425345259124	0.537264
0.520328491509	0.627312
1.0	1.0
1.0	1.0
1.0	1.0
0.683109459846	0.768
1.0	1.0
0.500365615401	0.617784
0.795865288429	0.866
0.530419943258	0.6496
0.51213002229	0.635824
0.509750025638	0.620176
0.424573395128	0.55184
0.799666555519	0.872
0.654186910546	0.74
0.826875625208	0.896
0.679394112604	0.758
1.0	1.0
0.818272757586	0.89
0.823874624875	0.894
0.643783938268	0.712
0.52250782931	0.628096
1.0	1.0
0.708716776222	0.796
0.833277759253	0.9
0.806602200734	0.88
0.714204058302	0.8
