0.520735760801	0.625664
0.804668222741	0.878
0.791863954652	0.854
0.522811698507	0.62912
0.833277759253	0.9
1.0	1.0
0.810870290097	0.884
0.826875625208	0.896
0.833277759253	0.9
0.793997999333	0.862
0.525279176696	0.64228
0.714204058302	0.8
0.567991019133	0.6932
0.646870534438	0.724
0.793997999333	0.862
0.801200400133	0.874
1.0	1.0
0.520614687588	0.626896
0.792664221407	0.858
0.806602200734	0.88
0.504312831387	0.644392
1.0	1.0
0.68053729637	0.762
0.804668222741	0.878
0.645613032295	0.72
0.545288029152	0.6928
0.531738010102	0.652352
1.0	1.0
0.646870534438	0.724
0.833277759253	0.9
