1.0	1.0
0.792664221407	0.858
1.0	1.0
0.504005737341	0.63116
0.638414753759	0.721104
0.791663887963	0.852
0.662074878537	0.752
0.833277759253	0.9
0.524700045784	0.633216
0.833277759253	0.9
0.833277759253	0.9
0.798266088696	0.87
1.0	1.0
0.833277759253	0.9
0.507037544631	0.618784
0.532856288291	0.639504
0.791863954652	0.854
0.533628515006	0.655384
0.833277759253	0.9
0.792197399133	0.856
1.0	1.0
1.0	1.0
0.833277759253	0.9
0.520863576405	0.6296
0.833277759253	0.9
0.527941067344	0.648688
0.806602200734	0.88
0.833277759253	0.9
0.638690511646	0.702592
0.793264421474	0.86
