0.833277759253	0.9
0.652014861389	0.736
0.833277759253	0.9
0.681280365819	0.764
1.0	1.0
0.791663887963	0.852
0.833277759253	0.9
0.516738046473	0.6372
0.791863954652	0.854
0.63959678166	0.710576
0.81567189063	0.888
0.833277759253	0.9
1.0	1.0
0.524862130391	0.639928
0.433591376048	0.554776
0.675793083738	0.768
0.638577227429	0.6986
0.519009205546	0.656048
0.808669556519	0.882
1.0	1.0
1.0	1.0
1.0	1.0
0.792197399133	0.856
1.0	1.0
0.64647042012	0.718
0.802867622541	0.876
0.823874624875	0.894
1.0	1.0
0.830010003334	0.898
0.668419548442	0.754
