0.806602200734	0.88
0.833277759253	0.9
1.0	1.0
0.799666555519	0.872
0.493398533007	0.604
0.791663887963	0.852
0.528490059652	0.648528
1.0	1.0
0.833277759253	0.9
0.794864954985	0.864
0.708602457845	0.796
1.0	1.0
0.793264421474	0.86
0.520804399072	0.638736
0.798266088696	0.87
0.793264421474	0.86
0.638577227429	0.6986
0.650071448985	0.732
0.833277759253	0.9
0.833277759253	0.9
1.0	1.0
0.802867622541	0.876
1.0	1.0
0.644184052586	0.714
0.643212346385	0.708
0.793997999333	0.862
0.793264421474	0.86
0.517228063885	0.62832
0.679794226922	0.772
0.572223239851	0.6912
