0.640389762497	0.714568
0.691340382967	0.78
0.833277759253	0.9
0.654644184053	0.74
0.804668222741	0.878
0.644584166905	0.716
0.689682766505	0.778
1.0	1.0
1.0	1.0
0.528290817111	0.644528
0.651100314376	0.732
1.0	1.0
0.826875625208	0.896
0.833277759253	0.9
0.833277759253	0.9
0.538875981315	0.665856
1.0	1.0
0.792664221407	0.858
0.793264421474	0.86
0.792197399133	0.856
1.0	1.0
0.833277759253	0.9
0.833277759253	0.9
0.55137322899	0.680816
0.833277759253	0.9
0.833277759253	0.9
0.521610880531	0.621024
0.714204058302	0.8
1.0	1.0
0.520614687588	0.626896
