0.522811698507	0.62912
0.806602200734	0.88
0.823874624875	0.894
0.515873954803	0.62448
0.792197399133	0.856
0.643212346385	0.708
1.0	1.0
0.81567189063	0.888
0.679394112604	0.758
0.526114808571	0.64128
1.0	1.0
1.0	1.0
0.530148888306	0.648672
0.793264421474	0.86
0.793264421474	0.86
0.508045464851	0.6444
0.791597199066	0.85
0.520744112852	0.625896
0.808669556519	0.882
0.643212346385	0.708
1.0	1.0
0.524036329271	0.627072
0.833277759253	0.9
0.802867622541	0.876
1.0	1.0
0.833277759253	0.9
0.572223239851	0.6912
0.52569955566	0.652992
0.792197399133	0.856
0.833277759253	0.9
