1.0	1.0
1.0	1.0
1.0	1.0
0.894876258231	0.97
1.0	1.0
1.0	1.0
0.984201333757	0.996
0.689713322091	0.85
1.0	1.0
1.0	1.0
1.0	1.0
1.0	1.0
0.755592958833	0.906
1.0	1.0
1.0	1.0
1.0	1.0
1.0	1.0
1.0	1.0
0.96162599074	0.99
1.0	1.0
1.0	1.0
0.842120744172	0.95
1.0	1.0
0.777840788261	0.912
1.0	1.0
1.0	1.0
0.976986951364	0.994
1.0	1.0
0.83378329077	0.948
0.718427835052	0.822
