0.984438269154	0.996
1.0	1.0
1.0	1.0
1.0	1.0
1.0	1.0
1.0	1.0
0.976666930317	0.994
0.97697966933	0.994
1.0	1.0
1.0	1.0
1.0	1.0
1.0	1.0
1.0	1.0
1.0	1.0
1.0	1.0
0.992108409725	0.998
1.0	1.0
0.992108409725	0.998
0.984279475983	0.996
1.0	1.0
0.992108409725	0.998
1.0	1.0
0.94286157907	0.984
1.0	1.0
0.97697966933	0.994
0.976670620799	0.994
0.984438269154	0.996
0.992108409725	0.998
1.0	1.0
1.0	1.0
