1.0	1.0
1.0	1.0
0.992108409725	0.998
0.947729220223	0.986
0.992108409725	0.998
0.992108409725	0.998
0.97697966933	0.994
0.954513481829	0.988
1.0	1.0
1.0	1.0
1.0	1.0
0.955138726065	0.988
0.954641432705	0.988
1.0	1.0
0.992108409725	0.998
1.0	1.0
1.0	1.0
0.992108409725	0.998
0.984438269154	0.996
1.0	1.0
0.969737567972	0.992
0.984438269154	0.996
0.95592028136	0.988
0.969751870815	0.992
1.0	1.0
0.969279243797	0.992
1.0	1.0
1.0	1.0
1.0	1.0
0.992108409725	0.998
