0.0661280067949	0.281416980012
0.86720257013	0.93
1.0	1.0
0.058467080777	0.295217476875
0.826650748196	0.89
0.0511797110842	0.274887099941
0.0522757926235	0.291609353508
0.934790687281	0.97
0.0517516622157	0.292223095051
0.0612948910718	0.322178988327
0.0533525668782	0.288525880732
0.17862326592	0.562462641961
0.934790687281	0.97
0.0574008123328	0.297090051121
0.836683936966	0.92
0.0584672048768	0.295275590551
0.0572523575025	0.297302618626
0.92844674899	0.95
0.058467080777	0.295217476875
0.0533494220215	0.28677912907
1.0	1.0
0.938066112693	0.98
1.0	1.0
0.0563775583815	0.300157356412
0.0510451350054	0.275787401575
0.0483100681219	0.33796832754
0.0566676342431	0.300118156755
0.86720257013	0.93
1.0	1.0
0.0547699046656	0.285208497246
