0.0584661686596	0.294811320755
1.0	1.0
0.056377034656	0.3
0.0580015985502	0.29500489716
0.0584678021145	0.295566502463
0.05846723296	0.295844002364
0.0584674484242	0.29539188657
0.0850005441532	0.29866036249
0.127490681851	0.307022749753
0.993242236642	0.98
0.0575510479741	0.296456692913
0.0575512794882	0.297323888233
0.0796941861395	0.297889130006
1.0	1.0
0.993242236642	0.98
0.102255259345	0.323407611911
0.993242236642	0.98
0.0574013128976	0.297185593387
0.078376401045	0.305870841487
0.0520560769111	0.305610043154
0.993242236642	0.98
1.0	1.0
1.0	1.0
0.962378749255	0.97
0.0584678021145	0.295566502463
0.0584666991734	0.295043273013
0.0584654706297	0.294521892794
0.0584666991734	0.295043273013
0.0584645818292	0.294175328496
1.0	1.0
