0.0584674484242	0.29539188657
0.850825443069	0.88
1.0	1.0
0.0533816943945	0.302759424796
1.0	1.0
1.0	1.0
0.86720257013	0.93
0.86720257013	0.93
1.0	1.0
0.0698799097521	0.298048492017
0.0555290922067	0.302229236536
0.92844674899	0.95
0.86720257013	0.93
0.0555198389442	0.297822248381
0.0563774153993	0.300177270041
0.92844674899	0.95
0.057551966566	0.297755021662
1.0	1.0
1.0	1.0
0.844866682986	0.952100510404
0.0584659221817	0.295204402516
1.0	1.0
0.92844674899	0.95
1.0	1.0
0.92844674899	0.95
0.0584663036139	0.294869274622
1.0	1.0
0.850756472224	0.88
0.08822188402	0.304459861249
0.0584672048768	0.295275590551
