0.060798686736	0.297457125961
0.435833655915	0.761374187558
0.956034810965	0.95
0.445419328622	0.769088213491
0.435833655915	0.761374187558
0.759476456112	0.85
0.0584678021145	0.295566502463
0.445419328622	0.769088213491
0.435833655915	0.761374187558
0.175978264305	0.564827723561
0.0555352479438	0.303185214314
0.0556362981858	0.318164288469
0.0552540379623	0.302732455278
0.058467080777	0.295217476875
0.0683553208374	0.29842519685
0.0528192771459	0.342505291514
0.0653377505253	0.325048543689
0.806234274647	0.91
0.0509463294531	0.31884057971
0.435833655915	0.761374187558
0.0557826546549	0.317796610169
0.445419328622	0.769088213491
0.956034810965	0.95
0.415706569427	0.745851202685
0.759476456112	0.85
0.0549767849059	0.302435192459
0.0581575497463	0.295852172204
0.956034810965	0.95
1.0	1.0
0.0543423838672	0.314381270903
