0.861410398596	0.91
1.0	1.0
0.0552544659576	0.302911093627
0.0737987808186	0.297993705744
0.0577001250297	0.296092676222
0.0558063894665	0.300630417652
0.0560898110914	0.300039323634
0.0562310276641	0.298048492017
0.052745037784	0.304483430799
0.489317669318	0.774253731343
0.841964758657	0.85
0.0584666991734	0.295043273013
0.825651360657	0.88
0.861410398596	0.91
0.767889519742	0.87
0.897790174138	0.94
0.0529058185594	0.311647837943
0.841964758657	0.85
0.0634337930898	0.308118811881
0.841964758657	0.85
0.0558988280648	0.303089558076
0.800717986493	0.89
0.0558965192786	0.30202650039
0.0584654706297	0.294521892794
0.0617658536805	0.287968441815
0.0875416815165	0.305719921105
0.861410398596	0.91
0.051923529511	0.30261616556
0.0584645818292	0.294175328496
0.0491355582799	0.318717403902
