0.0549669876167	0.297939156035
0.0875239307339	0.301827471016
0.0560931703012	0.301240401654
0.0575515077364	0.297164237889
0.0563738305191	0.297600314713
1.0	1.0
0.0611210817288	0.29684418146
0.0558124994777	0.302784910132
1.0	1.0
1.0	1.0
1.0	1.0
1.0	1.0
1.0	1.0
1.0	1.0
0.0572532796863	0.298228346457
0.055246158245	0.30070754717
0.873270625041	0.95
0.0560905621448	0.300176574456
0.903996170739	0.96
0.077040191588	0.297595585337
0.0584683605816	0.295857988166
0.0583125198232	0.295727505414
0.0756421874101	0.301543332014
1.0	1.0
0.058467080777	0.295217476875
1.0	1.0
0.907202625306	0.97
0.0828082583562	0.301359070317
0.0558113089619	0.302348529702
1.0	1.0
