0.0638870906159	0.299901671583
1.0	1.0
1.0	1.0
1.0	1.0
0.0549646581476	0.296470588235
0.0575516279788	0.297222769352
0.0707943958941	0.298742138365
0.0584652145613	0.296150824823
0.873270625041	0.95
0.873270625041	0.95
0.0584666991734	0.295043273013
1.0	1.0
0.0578500025779	0.294924554184
0.0558050794184	0.300118156755
0.845682563067	0.95
0.0558019042036	0.297249508841
0.0581572005776	0.29626719057
1.0	1.0
0.873270625041	0.95
0.845682563067	0.95
1.0	1.0
0.873270625041	0.95
0.809095874992	0.92
0.873270625041	0.95
1.0	1.0
0.0572488600044	0.296397807361
0.0575518639559	0.297339901478
1.0	1.0
1.0	1.0
0.110722552142	0.505060527883
