0.0547702630383	0.285376894312
0.0643832293204	0.30106257379
0.0581587350216	0.296179598267
0.0584666991734	0.295043273013
0.740301457768	0.87
0.0479195203799	0.30552842352
1.0	1.0
0.836683936966	0.92
0.0578535762287	0.296434902501
0.903353053289	0.931800158604
0.0584666991734	0.295043273013
1.0	1.0
0.0509857976175	0.303386181249
0.836683936966	0.92
0.0580064313658	0.296332807571
0.770475236708	0.88
0.466860866421	0.741088180113
0.0482608309579	0.303637424626
1.0	1.0
0.0780397023525	0.300197238659
1.0	1.0
0.0584650332062	0.294348508634
0.0632766874161	0.30090765588
0.836683936966	0.92
0.0546986898131	0.301294625343
0.0662750591289	0.302165354331
0.770475236708	0.88
0.0495963259829	0.329011031546
0.0516485325948	0.303498143443
1.0	1.0
