0.842614050189	0.94
0.0828061123529	0.301294625343
0.842614050189	0.94
0.800717986493	0.89
0.812026446181	0.93
1.0	1.0
0.0654220156762	0.307783719548
0.800717986493	0.89
1.0	1.0
0.812026446181	0.93
0.812026446181	0.93
0.0572603663411	0.301380670611
0.831029707122	0.9
0.0584674484242	0.29539188657
0.750684742546	0.82
0.0552384399909	0.297913823357
0.842614050189	0.94
0.058467080777	0.295217476875
0.842614050189	0.94
0.812026446181	0.93
0.0580043025228	0.295539398703
1.0	1.0
0.812026446181	0.93
0.800717986493	0.89
0.0484069057256	0.30865648257
0.0584650332062	0.294348508634
0.0580057211784	0.296573454116
0.833822336622	0.91
0.831029707122	0.9
0.800717986493	0.89
