0.0	0.0
4.79709104399e-06	0.002331002331
0.000168839678092	0.0129057489245
0.0	0.0
0.000457214499738	0.0210198520825
0.0	0.0
0.0	0.0
1.43899109456e-05	0.003885003885
0.0	0.0
0.000360047725475	0.0184899845917
0.0	0.0
0.0	0.0
1.9192881744e-06	0.00155884645362
0.00013910847775	0.0117324990223
0.0	0.0
0.0	0.0
0.0	0.0
8.95437808326e-06	0.0031092110377
0.0	0.0
3.35635043879e-05	0.00580720092915
0.0	0.0
0.0	0.0
0.000201261237086	0.0139318885449
9.59643166285e-07	0.00116867939229
0.0	0.000387747188833
0.0	0.0
0.0	0.0
1.91878180381e-06	0.00155219247187
0.0	0.0
0.0	0.0
