3.19797376382e-06	0.00194099378882
0.0	0.0
0.0	0.0
8.81302027953e-05	0.00921305182342
0.0	0.0
0.0	0.0
1.9192881744e-06	0.00155884645362
0.0	0.0
0.0	0.0
0.0	0.0
0.0	0.0
0.0	0.0
0.0	0.0
4.34559077508e-05	0.00655611261088
1.91883089471e-06	0.00155279503106
3.19821616295e-06	0.00194325689856
0.0	0.0
0.0	0.0
3.19797376382e-06	0.00194099378882
0.0	0.0
0.0	0.0
0.0	0.0
4.7982342498e-06	0.00234009360374
0.0	0.0
0.0	0.0
0.0	0.0
0.0	0.0
0.0	0.0
0.0	0.0
0.0	0.0
