4.79619987492e-06	0.00232468035645
1.91878180381e-06	0.00155219247187
0.0	0.0
0.0	0.0
0.0	0.0
0.0	0.0
0.0	0.0
0.0	0.0
0.000509773859716	0.0221359223301
3.19821616295e-06	0.00194325689856
0.0	0.0
3.19804637743e-07	0.00077579519007
2.10830961485e-05	0.00460652591171
0.0	0.0
0.0	0.0
0.0	0.0
0.0	0.0
0.0	0.0
0.00013913076853	0.0117600940808
3.35771031019e-05	0.0058388478007
3.19805558221e-06	0.00194174757282
0.0	0.0
0.0	0.0
1.43914112058e-05	0.00389105058366
0.0	0.0
0.0	0.0
0.0	0.0
0.0	0.0
0.0	0.0
0.0	0.0
