6.71469270688e-06	0.00271317829457
3.19804637743e-07	0.00077579519007
9.59414526879e-07	0.0011641443539
0.0	0.0
0.000158582020955	0.0124853687085
2.90873291119e-05	0.00541586073501
0.0	0.0
0.0	0.0
0.0	0.0
0.0	0.0
0.0	0.0
0.0	0.0
0.0	0.0
8.95460717737e-06	0.00311041990669
0.0	0.0
0.000316505169105	0.0175987485334
0.0	0.0
0.0	0.0
0.0	0.0
0.0	0.0
0.000491959654197	0.0217729393468
0.0	0.0
3.19737252715e-06	0.00193573364305
4.7957950469e-06	0.00232198142415
0.0	0.0
1.9192881744e-06	0.00155884645362
9.59462700888e-07	0.00116504854369
0.0	0.0
6.71469270688e-06	0.00271317829457
0.0	0.0
