0.0	0.0
0.0	0.0
0.0	0.0
0.0	0.0
1.15068729593e-05	0.0034749034749
9.59462700888e-07	0.00116504854369
9.59155329451e-07	0.00115964437572
0.000236987287119	0.015306122449
1.91842106273e-06	0.0015479876161
1.43849705827e-05	0.00386697602475
0.0	0.0
0.0	0.0
1.91883089471e-06	0.00155279503106
0.0	0.0
0.000316564982157	0.0176401411211
9.59505662683e-05	0.00978473581213
9.59155329451e-07	0.00115964437572
0.0	0.0
4.7953764898e-06	0.00231928875145
0.000302373407505	0.0171606864275
0.0	0.0
0.0	0.0
3.19881771697e-06	0.00194931773879
0.0	0.0
0.0	0.0
0.0	0.0
3.19804637743e-07	0.00077579519007
0.000275398824517	0.0165224232887
0.0	0.0
9.59532669209e-07	0.00116640746501
