0.184503065186	0.262770653773
0.448893670768	0.430416068867
0.448732037391	0.430107526882
0.622068827531	0.7852
0.622068827531	0.7852
0.622068827531	0.7852
0.185207784215	0.26525198939
0.184207063084	0.261780104712
0.272938025694	0.48
0.622068827531	0.7852
0.622068827531	0.7852
0.622068827531	0.7852
0.184503065186	0.262770653773
0.371291342726	0.356294536817
0.622068827531	0.7852
0.622068827531	0.7852
0.622068827531	0.7852
0.184696918081	0.263435194942
0.180616596514	0.251509054326
0.622068827531	0.7852
0.622068827531	0.7852
0.184207063084	0.261780104712
0.622068827531	0.7852
0.184503065186	0.262770653773
0.272938025694	0.48
0.622068827531	0.7852
0.415110707484	0.378845279588
0.184207063084	0.261780104712
0.622068827531	0.7852
0.261449521785	0.468
