0.266221170653	0.462
0.272549771923	0.488
0.177929448101	0.284216046146
0.0252980175303	0.082234137035
0.272549771923	0.488
0.628890916367	0.7914
0.182180626513	0.269998931966
0.183463763757	0.272472515628
0.183209970818	0.271974179666
0.105148174075	0.206535362578
0.628890916367	0.7914
0.628890916367	0.7914
0.18396699369	0.273474686283
0.266221170653	0.462
0.628890916367	0.7914
0.628890916367	0.7914
0.151469429299	0.260723108017
0.0518828077303	0.180498519721
0.628890916367	0.7914
0.0253797897137	0.082234137035
0.628890916367	0.7914
0.628890916367	0.7914
0.628890916367	0.7914
0.181112429308	0.267889324711
0.628890916367	0.7914
0.628890916367	0.7914
0.0264900910673	0.0877778167901
0.149522238296	0.250055865922
0.628890916367	0.7914
0.181673118293	0.269050659855
