0.157572161429	0.21415110502
0.646338535414	0.8
0.156741144991	0.213056076359
0.646338535414	0.8
0.646338535414	0.8
0.275960818127	0.488
0.646338535414	0.8
0.155680972496	0.211685012701
0.154880651907	0.210668239656
0.157323430229	0.213821416353
0.646338535414	0.8
0.154360447297	0.212332257517
0.243462728594	0.289720709236
0.158808087537	0.215814917127
0.646338535414	0.8
0.109694670408	0.178679778219
0.11048666703	0.179392920912
0.1517766394	0.208907829865
0.156212079971	0.212368331634
0.275960818127	0.488
0.157820388651	0.214481811942
0.112479520525	0.181200933588
0.480898014982	0.438212094654
0.646338535414	0.8
0.153309204015	0.210917067409
0.15126199352	0.208246563932
0.155946776657	0.212026121618
0.277737365193	0.488
0.646338535414	0.8
0.0252980175303	0.082234137035
