0.178493982203	0.253421186011
0.0249557764468	0.082234137035
0.267163927281	0.476
0.177381805371	0.250200160128
0.178995510715	0.254971953085
0.401984770044	0.38212537502
0.179118444813	0.255362614913
0.602170468187	0.776
0.392470651359	0.375697458153
0.178746695976	0.254194204372
0.178493982203	0.253421186011
0.393407791686	0.375970195591
0.602170468187	0.776
0.178620824229	0.253807106599
0.178237405377	0.252652854977
0.178493982203	0.253421186011
0.265236329804	0.472
0.602170468187	0.776
0.178493982203	0.253421186011
0.178871592958	0.254582484725
0.178871592958	0.254582484725
0.602170468187	0.776
0.602170468187	0.776
0.60192605042	0.7758
0.602170468187	0.776
0.602170468187	0.776
0.602170468187	0.776
0.178871592958	0.254582484725
0.267163927281	0.476
0.178493982203	0.253421186011
