0.175358994738	0.244953948658
0.641536614646	0.8
0.17552625426	0.245362645991
0.175692405245	0.245772709398
0.17552625426	0.245362645991
0.107196843405	0.239623196938
0.107196843405	0.239623196938
0.627563505402	0.7916
0.107196843405	0.239623196938
0.17552625426	0.245362645991
0.641536614646	0.8
0.17552625426	0.245362645991
0.641536614646	0.8
0.641536614646	0.8
0.641536614646	0.8
0.107196843405	0.239623196938
0.175857440487	0.246184145741
0.641536614646	0.8
0.641536614646	0.8
0.17649687145	0.247819191118
0.175692405245	0.245772709398
0.175692405245	0.245772709398
0.641536614646	0.8
0.177525637856	0.250601443464
0.107196843405	0.239623196938
0.175692405245	0.245772709398
0.641536614646	0.8
0.17552625426	0.245362645991
0.641536614646	0.8
0.641536614646	0.8
