0.991983156531	0.996015936255
0.991983156531	0.996015936255
0.991983156531	0.996015936255
0.991983156531	0.996015936255
0.991983156531	0.996015936255
0.991983156531	0.996015936255
0.991983156531	0.996015936255
0.991983156531	0.996015936255
0.991983156531	0.996015936255
0.991983156531	0.996015936255
0.991983156531	0.996015936255
0.991983156531	0.996015936255
0.991983156531	0.996015936255
0.991983156531	0.996015936255
0.991983156531	0.996015936255
0.991983156531	0.996015936255
0.991983156531	0.996015936255
0.991983156531	0.996015936255
0.991983156531	0.996015936255
0.991983156531	0.996015936255
0.991983156531	0.996015936255
0.991983156531	0.996015936255
0.984093830334	0.992063492063
0.991983156531	0.996015936255
0.991983156531	0.996015936255
0.991983156531	0.996015936255
0.991983156531	0.996015936255
0.991983156531	0.996015936255
0.991983156531	0.996015936255
0.991983156531	0.996015936255
