0.984699860908	0.980392156863
0.984699860908	0.980392156863
0.984699860908	0.980392156863
0.984699860908	0.980392156863
0.984699860908	0.980392156863
0.984699860908	0.980392156863
0.984699860908	0.980392156863
0.984699860908	0.980392156863
0.984699860908	0.980392156863
0.984699860908	0.980392156863
0.984699860908	0.980392156863
0.984699860908	0.980392156863
0.311330005552	0.884086444008
0.984699860908	0.980392156863
0.984699860908	0.980392156863
0.984699860908	0.980392156863
0.984699860908	0.980392156863
0.984699860908	0.980392156863
0.984699860908	0.980392156863
0.984699860908	0.980392156863
0.311330005552	0.884086444008
0.984699860908	0.980392156863
0.984699860908	0.980392156863
0.311330005552	0.884086444008
0.984699860908	0.980392156863
0.311330005552	0.884086444008
0.984699860908	0.980392156863
0.984699860908	0.980392156863
0.984699860908	0.980392156863
0.984699860908	0.980392156863
