0.984699860908	0.980392156863
0.984699860908	0.980392156863
0.984699860908	0.980392156863
0.984699860908	0.980392156863
0.984699860908	0.980392156863
0.984699860908	0.980392156863
0.984699860908	0.980392156863
0.984699860908	0.980392156863
0.984699860908	0.980392156863
0.984699860908	0.980392156863
0.984699860908	0.980392156863
0.984699860908	0.980392156863
0.984699860908	0.980392156863
0.984699860908	0.980392156863
0.984699860908	0.980392156863
0.984699860908	0.980392156863
0.984699860908	0.980392156863
0.984699860908	0.980392156863
0.984699860908	0.980392156863
0.928431345658	0.980392156863
0.984699860908	0.980392156863
0.984699860908	0.980392156863
0.984699860908	0.980392156863
0.984699860908	0.980392156863
0.984699860908	0.980392156863
0.984699860908	0.980392156863
0.207646487233	0.495734780923
0.984699860908	0.980392156863
0.984699860908	0.980392156863
0.311330005552	0.884086444008
