0.984699860908	0.980392156863
0.984699860908	0.980392156863
0.311330005552	0.884086444008
0.984699860908	0.980392156863
0.984699860908	0.980392156863
0.984699860908	0.980392156863
0.984699860908	0.980392156863
0.984699860908	0.980392156863
0.190773513869	0.496278887583
0.984699860908	0.980392156863
0.190704359799	0.484120836561
0.311330005552	0.884086444008
0.984699860908	0.980392156863
0.415104219457	0.57714958775
0.984699860908	0.980392156863
0.984699860908	0.980392156863
0.215801303952	0.521704814522
0.984699860908	0.980392156863
0.984699860908	0.980392156863
0.984699860908	0.980392156863
0.984699860908	0.980392156863
0.984699860908	0.980392156863
0.984699860908	0.980392156863
0.984699860908	0.980392156863
0.984699860908	0.980392156863
0.984699860908	0.980392156863
0.984699860908	0.980392156863
0.190777373469	0.496867658575
0.984699860908	0.980392156863
0.984699860908	0.980392156863
