0.984699860908	0.980392156863
0.984699860908	0.980392156863
0.984699860908	0.980392156863
0.984699860908	0.980392156863
0.984699860908	0.980392156863
0.984699860908	0.980392156863
0.984699860908	0.980392156863
0.984699860908	0.980392156863
0.984699860908	0.980392156863
0.984699860908	0.980392156863
0.984699860908	0.980392156863
0.984699860908	0.980392156863
0.984699860908	0.980392156863
0.984699860908	0.980392156863
0.984699860908	0.980392156863
0.984699860908	0.980392156863
0.984699860908	0.980392156863
0.984699860908	0.980392156863
0.984699860908	0.980392156863
0.984699860908	0.980392156863
0.984699860908	0.980392156863
0.984699860908	0.980392156863
0.984699860908	0.980392156863
0.984699860908	0.980392156863
0.984699860908	0.980392156863
0.984699860908	0.980392156863
0.984699860908	0.980392156863
0.984699860908	0.980392156863
0.984699860908	0.980392156863
0.984699860908	0.980392156863
