0.729150860344	0.852
0.800683473389	0.892
0.577245743954	0.686616923321
0.807804721889	0.896
0.762277711084	0.868
0.803966386555	0.888
0.872056022409	0.932
0.663942376951	0.808
0.773959183673	0.876
0.766837935174	0.872
0.682503401361	0.824
0.791641456583	0.888
0.599069409187	0.713946117274
0.710828331333	0.84
0.82668907563	0.904
0.607223538836	0.719508301405
0.781240496198	0.88
0.810045618247	0.896
0.900541016407	0.948
0.851332533013	0.92
0.771718287315	0.876
0.81412565026	0.9
0.634078537467	0.731746285349
0.682585034014	0.82
0.804044817927	0.892
0.72674989996	0.852
0.839651060424	0.912
0.667790813119	0.734710087371
0.609678906645	0.750595710882
0.79956302521	0.892
