0.830448979592	0.908
0.857653461385	0.924
0.835969587835	0.912
0.760196878752	0.868
0.767556622649	0.876
0.67112850603	0.748142822909
0.788845138055	0.876
0.699865546218	0.836
0.813805522209	0.9
0.876537815126	0.932
0.817006802721	0.9
0.748273709484	0.864
0.792441776711	0.888
0.581016296274	0.71882446386
0.778679471789	0.88
0.768356942777	0.876
0.736033613445	0.852
0.772198479392	0.876
0.727550220088	0.852
0.701306122449	0.836
0.740913965586	0.856
0.909262905162	0.952
0.871735894358	0.932
0.864774709884	0.928
0.850852340936	0.92
0.75131492597	0.864
0.573107430521	0.692615089514
0.770117647059	0.876
0.851012404962	0.92
0.84581192477	0.916
