0.720350540216	0.844
0.807484593838	0.896
0.851012404962	0.92
0.792761904762	0.888
0.701946378551	0.836
0.655860744298	0.804
0.765557422969	0.872
0.655533590184	0.725767945249
0.788361744698	0.884
0.917824729892	0.956
0.854213685474	0.92
0.628599122566	0.709815756036
0.752595438175	0.864
0.849571828731	0.92
0.834130452181	0.908
0.852292917167	0.92
0.647057222889	0.804
0.774119247699	0.876
0.631455214281	0.734025559105
0.764597038816	0.872
0.728670668267	0.852
0.873176470588	0.932
0.80356462585	0.892
0.827727891156	0.908
0.818447378952	0.9
0.751795118047	0.864
0.80356462585	0.892
0.774759503802	0.876
0.817326930772	0.9
0.562033160944	0.683390588799
