0.0253902843189	0.33418972332
0.0210219902327	0.289556962025
0.0210219902327	0.289556962025
0.0210219902327	0.289556962025
0.0270392461946	0.35151755604
0.0253902843189	0.33418972332
0.0210219902327	0.289556962025
0.0253902843189	0.33418972332
0.0253902843189	0.33418972332
0.0253902843189	0.33418972332
0.0210219902327	0.289556962025
0.0210219902327	0.289556962025
0.0210219902327	0.289556962025
0.131263910726	0.432185657219
0.0210219902327	0.289556962025
0.0210219902327	0.289556962025
0.0253902843189	0.33418972332
0.0210219902327	0.289556962025
0.0210219902327	0.289556962025
0.0253902843189	0.33418972332
0.0210219902327	0.289556962025
0.0210219902327	0.289556962025
0.0210219902327	0.289556962025
0.0210219902327	0.289556962025
0.0210219902327	0.289556962025
0.0210219902327	0.289556962025
0.0253902843189	0.33418972332
0.0210219902327	0.289556962025
0.0210219902327	0.289556962025
0.131263910726	0.432185657219
