0.0615224797809	0.396
0.0305671085748	0.292056074766
0.0617032042709	0.3988
0.0615224797809	0.396
0.0305671085748	0.292056074766
0.0615224797809	0.396
0.0226881091398	0.273181993074
0.0625956027511	0.4116
0.0601867477552	0.372
0.0305671085748	0.292056074766
0.0272762024216	0.279371316306
0.0305671085748	0.292056074766
0.0305671085748	0.292056074766
0.0305671085748	0.292056074766
0.1547741528	0.405738494127
0.0213873162441	0.261900173444
0.0272762024216	0.279371316306
0.0305671085748	0.292056074766
0.0272762024216	0.279371316306
0.0305671085748	0.292056074766
0.0305671085748	0.292056074766
0.0305671085748	0.292056074766
0.0305671085748	0.292056074766
0.0615224797809	0.396
0.0305671085748	0.292056074766
0.0305671085748	0.292056074766
0.0293161001425	0.312
0.0305671085748	0.292056074766
0.0615224797809	0.396
0.0305671085748	0.292056074766
