0.0584721072407	0.3
0.0189787867808	0.242128337983
0.0653402216137	0.444
0.0287700476299	0.296042319749
0.0367980261273	0.334980237154
0.0189787867808	0.242128337983
0.0189787867808	0.242128337983
0.0367980261273	0.334980237154
0.0367980261273	0.334980237154
0.0189787867808	0.242128337983
0.0287700476299	0.296042319749
0.0189787867808	0.242128337983
0.0367980261273	0.334980237154
0.0189787867808	0.242128337983
0.0584721072407	0.3
0.0584721072407	0.3
0.0189787867808	0.242128337983
0.0189787867808	0.242128337983
0.0585549174604	0.315495207668
0.0189787867808	0.242128337983
0.0584721072407	0.3
0.0623193285784	0.4078
0.0717259440871	0.5
0.0189787867808	0.242128337983
0.0717259440871	0.5
0.0367980261273	0.334980237154
0.0616510380182	0.398
0.0701824492135	0.488
0.0189787867808	0.242128337983
0.0189787867808	0.242128337983
