0.0351898154354	0.406140691799
0.0721287823598	0.486111111111
0.0351898154354	0.406140691799
0.0643709727777	0.408928571429
0.031259132266	0.395899053628
0.0678402545514	0.458333333333
0.0351898154354	0.406140691799
0.031259132266	0.395899053628
0.0351898154354	0.406140691799
0.031259132266	0.395899053628
0.031259132266	0.395899053628
0.0351898154354	0.406140691799
0.031259132266	0.395899053628
0.0351898154354	0.406140691799
0.0351898154354	0.406140691799
0.0351898154354	0.406140691799
0.0351898154354	0.406140691799
0.0411363820005	0.360469667319
0.0351898154354	0.406140691799
0.065405655558	0.431944444444
0.0642242401734	0.416865079365
0.031259132266	0.395899053628
0.0684957570372	0.464682539683
0.0351898154354	0.406140691799
0.0323609223162	0.389063729347
0.031259132266	0.395899053628
0.0611527609239	0.350396825397
0.0323609223162	0.389063729347
0.0351898154354	0.406140691799
0.0619812996357	0.360015319801
