0.0413648466767	0.480979884485
0.381843308293	0.679851909587
0.287477464178	0.551819075713
0.287477464178	0.551819075713
0.287477464178	0.551819075713
0.0337654339055	0.434730538922
0.0759360102072	0.656405163853
0.381843308293	0.679851909587
0.0413648466767	0.480979884485
0.287477464178	0.551819075713
0.0546989738706	0.554445554446
0.0337654339055	0.434730538922
0.0759360102072	0.656405163853
0.061743450408	0.4092
0.0283532490208	0.38286505738
0.0546989738706	0.554445554446
0.0218100369055	0.330750893921
0.0283532490208	0.38286505738
0.287477464178	0.551819075713
0.0283532490208	0.38286505738
0.0283532490208	0.38286505738
0.503761012786	0.527308838133
0.287477464178	0.551819075713
0.0658124043855	0.4538
0.287477464178	0.551819075713
0.0665488218171	0.4606
0.287477464178	0.551819075713
0.0337654339055	0.434730538922
0.287477464178	0.551819075713
0.0972064323448	0.372166998012
