0.0195147702921	0.38
0.0195147702921	0.38
0.0195147702921	0.38
0.0195147702921	0.38
0.0195147702921	0.38
0.0195147702921	0.38
0.0195147702921	0.38
0.0195147702921	0.38
0.0195147702921	0.38
0.0195147702921	0.38
0.0195147702921	0.38
0.0195147702921	0.38
0.0195147702921	0.38
0.0195147702921	0.38
0.0195147702921	0.38
0.0195147702921	0.38
0.0195147702921	0.38
0.0195147702921	0.38
0.0195147702921	0.38
0.0195147702921	0.38
0.0195147702921	0.38
0.0195147702921	0.38
0.0195147702921	0.38
0.0195147702921	0.38
0.0195147702921	0.38
0.0195147702921	0.38
0.0195147702921	0.38
0.0195147702921	0.38
0.0195147702921	0.38
0.0195147702921	0.38
