0.0195088964056	0.378486055777
0.0195088964056	0.378486055777
0.0195088964056	0.378486055777
0.0195088964056	0.378486055777
0.0195088964056	0.378486055777
0.0195088964056	0.378486055777
0.0195088964056	0.378486055777
0.0195088964056	0.378486055777
0.0195088964056	0.378486055777
0.0195088964056	0.378486055777
0.0195088964056	0.378486055777
0.0195088964056	0.378486055777
0.0195088964056	0.378486055777
0.0195088964056	0.378486055777
0.0150753564099	0.398406374502
0.0195088964056	0.378486055777
0.0195088964056	0.378486055777
0.0195088964056	0.378486055777
0.0195088964056	0.378486055777
0.0195088964056	0.378486055777
0.0195088964056	0.378486055777
0.0195088964056	0.378486055777
0.0150753564099	0.398406374502
0.0150753564099	0.398406374502
0.0195088964056	0.378486055777
0.0195088964056	0.378486055777
0.0195088964056	0.378486055777
0.0195088964056	0.378486055777
0.0195088964056	0.378486055777
0.0167945119243	0.241935483871
