0.0195147702921	0.38
0.0195147702921	0.38
0.0195147702921	0.38
0.0195147702921	0.38
0.0195147702921	0.38
0.0195147702921	0.38
0.0195147702921	0.38
0.0195147702921	0.38
0.0195147702921	0.38
0.0195147702921	0.38
0.0195147702921	0.38
0.0195147702921	0.38
0.0195147702921	0.38
0.0195147702921	0.38
0.0195147702921	0.38
0.0195147702921	0.38
0.0195147702921	0.38
0.0195147702921	0.38
0.0195147702921	0.38
0.0195147702921	0.38
0.0195147702921	0.38
0.0195147702921	0.38
0.0195147702921	0.38
0.0195147702921	0.38
0.0195147702921	0.38
0.0195147702921	0.38
0.0195147702921	0.38
0.0150799509109	0.4
0.0195147702921	0.38
0.0195147702921	0.38
