0.489915966387	0.7
0.489915966387	0.7
0.489915966387	0.7
0.489915966387	0.7
0.489915966387	0.7
0.489915966387	0.7
0.489915966387	0.7
0.489915966387	0.7
0.489915966387	0.7
0.489915966387	0.7
0.489915966387	0.7
0.489915966387	0.7
0.489915966387	0.7
0.489915966387	0.7
0.489915966387	0.7
0.489915966387	0.7
0.489915966387	0.7
0.489915966387	0.7
0.489915966387	0.7
0.489915966387	0.7
0.489915966387	0.7
0.489915966387	0.7
0.489915966387	0.7
0.489915966387	0.7
0.489915966387	0.7
0.489915966387	0.7
0.489915966387	0.7
0.489915966387	0.7
0.489915966387	0.7
0.489915966387	0.7
