0.237263865546	0.4872
0.24	0.49
0.218924369748	0.468
0.0	0.0
0.230300120048	0.48
0.177311884754	0.4212
0.218924369748	0.468
0.144305722289	0.38
0.0833232492997	0.2888
0.225715246098	0.4752
0.177311884754	0.4212
0.181719087635	0.4264
0.215567827131	0.4644
0.0	0.0
0.000158591502821	0.0124951190941
0.181719087635	0.4264
0.186525810324	0.432
0.225715246098	0.4752
0.225715246098	0.4752
0.199888915566	0.4472
0.177311884754	0.4212
0.225715246098	0.4752
3.19804637743e-07	0.00077579519007
0.237263865546	0.4872
0.209298439376	0.4576
0.230300120048	0.48
0.24	0.49
0.225715246098	0.4752
0.202400960384	0.45
0.202400960384	0.45
