0.369082352941	0.6076
0.384305722289	0.62
0.359903961585	0.6
0.369082352941	0.6076
0.369082352941	0.6076
0.359903961585	0.6
0.369082352941	0.6076
0.369082352941	0.6076
0.384305722289	0.62
0.384305722289	0.62
0.384305722289	0.62
0.384305722289	0.62
0.000120878266951	0.0109417741305
0.369082352941	0.6076
0.384305722289	0.62
0.369082352941	0.6076
0.384305722289	0.62
0.369082352941	0.6076
0.39328627451	0.6272
0.384305722289	0.62
0.369082352941	0.6076
0.384305722289	0.62
0.384305722289	0.62
0.384305722289	0.62
0.39328627451	0.6272
0.359903961585	0.6
0.384305722289	0.62
0.39328627451	0.6272
0.384305722289	0.62
0.384305722289	0.62
