0.435510204082	0.66
0.435510204082	0.66
0.435510204082	0.66
0.435510204082	0.66
0.435510204082	0.66
0.435510204082	0.66
0.435510204082	0.66
0.435510204082	0.66
0.435510204082	0.66
0.435510204082	0.66
0.435510204082	0.66
0.435510204082	0.66
0.435510204082	0.66
0.435510204082	0.66
0.435510204082	0.66
0.435510204082	0.66
0.435510204082	0.66
0.435510204082	0.66
0.435510204082	0.66
3.35570362553e-05	0.00579374275782
0.435510204082	0.66
0.435510204082	0.66
0.435510204082	0.66
0.435510204082	0.66
0.435510204082	0.66
0.435510204082	0.66
0.435510204082	0.66
0.435510204082	0.66
0.435510204082	0.66
0.435510204082	0.66
