0.444	0.6664
0.401356062425	0.6336
0.444	0.6664
0.408484353741	0.6392
0.435510204082	0.66
0.435510204082	0.66
0.435510204082	0.66
0.418258823529	0.6468
0.401356062425	0.6336
0.408484353741	0.6392
0.444	0.6664
0.444	0.6664
0.401356062425	0.6336
0.444	0.6664
0.435510204082	0.66
0.401356062425	0.6336
0.384801920768	0.6204
0.401356062425	0.6336
0.435510204082	0.66
0.0021323815729	0.0458135860979
0.435510204082	0.66
0.444	0.6664
0.418258823529	0.6468
0.444	0.6664
0.435510204082	0.66
0.435510204082	0.66
0.435510204082	0.66
0.401356062425	0.6336
1.9192881744e-06	0.00155884645362
0.401356062425	0.6336
