0.147976310524	0.3848
0.147976310524	0.3848
0.0894367346939	0.2992
0.171630252101	0.4144
0.230300120048	0.48
0.000179310622572	0.0132244262933
0.0	0.0
0.230300120048	0.48
9.5920961128e-07	0.00116054158607
0.151070348139	0.3888
0.16247394958	0.4032
2.11075448599e-05	0.00467289719626
0.142789915966	0.378
0.163766626651	0.4048
0.171630252101	0.4144
0.230300120048	0.48
0.0	0.0
0.230300120048	0.48
0.230300120048	0.48
0.230300120048	0.48
0.147976310524	0.3848
0.230300120048	0.48
0.230300120048	0.48
0.230300120048	0.48
0.110666986795	0.3328
0.220800320128	0.47
0.000201427255985	0.0140625
0.230300120048	0.48
0.0972581032413	0.312
0.0471484472514	0.216216216216
