0.31350140056	0.56
0.265331092437	0.5152
0.265331092437	0.5152
0.265331092437	0.5152
0.288914285714	0.5376
0.265331092437	0.5152
0.31350140056	0.56
0.000750488489311	0.0273051048674
0.301082352941	0.5488
0.301082352941	0.5488
0.288914285714	0.5376
0.301082352941	0.5488
0.288914285714	0.5376
0.288914285714	0.5376
0.265331092437	0.5152
0.288914285714	0.5376
0.0	0.0
0.301082352941	0.5488
0.31350140056	0.56
0.253915966387	0.504
0.27699719888	0.5264
0.301082352941	0.5488
0.0	0.0
0.288914285714	0.5376
0.288914285714	0.5376
0.301082352941	0.5488
8.82422903095e-05	0.00934215648112
0.288914285714	0.5376
0.265331092437	0.5152
0.301082352941	0.5488
