0.608331332533	0.78
0.608331332533	0.78
0.608331332533	0.78
0.608331332533	0.78
0.608331332533	0.78
0.608331332533	0.78
0.608331332533	0.78
0.608331332533	0.78
0.608331332533	0.78
0.608331332533	0.78
0.608331332533	0.78
0.608331332533	0.78
0.608331332533	0.78
0.608331332533	0.78
0.608331332533	0.78
0.608331332533	0.78
0.608331332533	0.78
0.608331332533	0.78
0.608331332533	0.78
0.608331332533	0.78
0.608331332533	0.78
0.608331332533	0.78
0.608331332533	0.78
0.608331332533	0.78
0.608331332533	0.78
0.608331332533	0.78
0.608331332533	0.78
0.608331332533	0.78
0.608331332533	0.78
0.608331332533	0.78
