0.23882545018	0.4888
0.246710204082	0.4968
0.246710204082	0.4968
0.270300120048	0.52
0.228766706683	0.4784
0.257557743097	0.5076
0.246710204082	0.4968
0.246710204082	0.4968
0.246710204082	0.4968
0.246710204082	0.4968
0.246710204082	0.4968
0.228766706683	0.4784
0.246710204082	0.4968
0.246710204082	0.4968
0.257557743097	0.5076
0.23882545018	0.4888
0.246710204082	0.4968
0.246710204082	0.4968
0.199888915566	0.4472
0.246710204082	0.4968
0.246710204082	0.4968
0.246710204082	0.4968
0.246710204082	0.4968
0.257557743097	0.5076
0.246710204082	0.4968
0.246710204082	0.4968
0.257557743097	0.5076
0.246710204082	0.4968
0.246710204082	0.4968
0.246710204082	0.4968
