0.0822285317902	0.408163265306
0.0807359238181	0.408328826393
0.082019534969	0.405503258508
0.0227015123618	0.0814305722941
0.0510208295841	0.237951443411
0.0483151425671	0.219767706673
0.0481261333499	0.218796054869
0.0488546941476	0.221192819919
0.0564360292665	0.285117181669
0.0481893194674	0.217490321111
0.022759293748	0.0814305722941
0.0491452860024	0.222896487338
0.0481093410124	0.218622564567
0.117725905506	0.302480338778
0.0485629748915	0.219514998276
0.116905485266	0.295508274232
0.0483848731298	0.21858548867
0.0226423371861	0.0814305722941
0.0563861595798	0.284480190646
0.0226423371861	0.0814305722941
0.0489516884285	0.221757807965
0.0479031462781	0.217489294568
0.116763634365	0.294394724447
0.0706116936512	0.494
0.0487575746147	0.220630703477
0.0706116936512	0.5
0.0479933685917	0.216406072966
0.116905485266	0.295508274232
0.0227015123618	0.0814305722941
0.0482702296891	0.217862438691
