0.274356581527	0.367447595561
0.274356581527	0.367447595561
0.274356581527	0.367447595561
0.274356581527	0.367447595561
0.274356581527	0.367447595561
0.274356581527	0.367447595561
0.274356581527	0.367447595561
0.274356581527	0.367447595561
0.274356581527	0.367447595561
0.274356581527	0.367447595561
0.274356581527	0.367447595561
0.274356581527	0.367447595561
0.274356581527	0.367447595561
0.274356581527	0.367447595561
0.274356581527	0.367447595561
0.274356581527	0.367447595561
0.274356581527	0.367447595561
0.274356581527	0.367447595561
0.274356581527	0.367447595561
0.274356581527	0.367447595561
0.274356581527	0.367447595561
0.274356581527	0.367447595561
0.274356581527	0.367447595561
0.274356581527	0.367447595561
0.274356581527	0.367447595561
0.274356581527	0.367447595561
0.274356581527	0.367447595561
0.274356581527	0.367447595561
0.274356581527	0.367447595561
0.274356581527	0.367447595561
