0.27618701279	0.39808408728
0.27618701279	0.39808408728
0.27618701279	0.39808408728
0.27618701279	0.39808408728
0.27618701279	0.39808408728
0.27618701279	0.39808408728
0.27618701279	0.39808408728
0.27618701279	0.39808408728
0.27618701279	0.39808408728
0.27618701279	0.39808408728
0.27618701279	0.39808408728
0.27618701279	0.39808408728
0.27618701279	0.39808408728
0.27618701279	0.39808408728
0.27618701279	0.39808408728
0.27618701279	0.39808408728
0.27618701279	0.39808408728
0.27618701279	0.39808408728
0.27618701279	0.39808408728
0.27618701279	0.39808408728
0.27618701279	0.39808408728
0.27618701279	0.39808408728
0.27618701279	0.39808408728
0.27618701279	0.39808408728
0.27618701279	0.39808408728
0.27618701279	0.39808408728
0.27618701279	0.39808408728
0.27618701279	0.39808408728
0.27618701279	0.39808408728
0.27618701279	0.39808408728
