0.27537641989	0.38041563931
0.27537641989	0.38041563931
0.27537641989	0.38041563931
0.27537641989	0.38041563931
0.27537641989	0.38041563931
0.27537641989	0.38041563931
0.27537641989	0.38041563931
0.27537641989	0.38041563931
0.27537641989	0.38041563931
0.27537641989	0.38041563931
0.27537641989	0.38041563931
0.27537641989	0.38041563931
0.27537641989	0.38041563931
0.27537641989	0.38041563931
0.27537641989	0.38041563931
0.27537641989	0.38041563931
0.27537641989	0.38041563931
0.27537641989	0.38041563931
0.27537641989	0.38041563931
0.27537641989	0.38041563931
0.27537641989	0.38041563931
0.27537641989	0.38041563931
0.27537641989	0.38041563931
0.27537641989	0.38041563931
0.27537641989	0.38041563931
0.27537641989	0.38041563931
0.27537641989	0.38041563931
0.27537641989	0.38041563931
0.27537641989	0.38041563931
0.27537641989	0.38041563931
