0.0521533795937	0.227616394747
2.11125751296e-05	0.00469116497263
0.0671078031212	0.2592
0.0557997246344	0.226928895613
0.04075291704	0.200634417129
0.0392989195678	0.1984
0.0	0.0
0.000103891088894	0.0101049358725
0.0	0.0
0.0715089752556	0.26435877262
9.58285818328e-05	0.00963391136802
3.19719158691e-06	0.00193423597679
0.0	0.0
0.0	0.0
0.0389302980023	0.195420450059
0.0	0.0
0.0828619447779	0.288
8.95460717737e-06	0.00311041990669
0.000316505169105	0.0175987485334
0.025418487395	0.1596
0.0132302521008	0.1152
0.0276334533814	0.1664
0.0	0.0
1.91831249886e-06	0.0015467904099
0.00145598053584	0.0374414976599
0.000565310082162	0.0233009708738
8.95367369232e-06	0.00310559006211
0.0	0.0
0.0	0.0
0.0	0.0
