0.199888915566	0.4472
0.0	0.0
0.115782312925	0.3404
0.117696038415	0.3432
0.0	0.0
0.000275158551726	0.0163424124514
0.0931563867214	0.283687943262
0.136806722689	0.37
0.210765266106	0.4592
0.0942866746699	0.3072
0.000407696543309	0.0200156985871
0.0840176070428	0.29
0.0	0.0
0.210765266106	0.4592
0.151070348139	0.3888
0.0	0.0
0.210765266106	0.4592
0.0	0.0
0.00734110630662	0.081880212282
0.209298439376	0.4576
0.171298919568	0.414
0.0	0.0
0.171298919568	0.414
0.112806722689	0.336
6.71469270688e-06	0.00271317829457
0.132403361345	0.364
0.00100983115367	0.0313479623824
0.000770947259546	0.0271317829457
6.71412594549e-06	0.00271002710027
8.82422903095e-05	0.00934215648112
