0.000565976920932	0.0235849056604
8.95437808326e-06	0.0031092110377
0.0140298521469	0.111690245719
0.000360410791619	0.0186625194401
0.0	0.0
0.057143817527	0.2392
0.126075390156	0.3552
0.0	0.0
0.168143188085	0.408171360571
0.0899159663866	0.3
3.35613909758e-05	0.00580270793037
0.000685498870605	0.025811497849
0.000624027054592	0.0245805696449
0.000360604357558	0.0187719984357
0.00223950699587	0.0462495141858
0.0	0.0
0.000624244266494	0.0246671887236
1.91883089471e-06	0.00155279503106
0.0	0.0
0.00077147183409	0.0272904483431
0.132986314526	0.3648
0.0	0.0
1.43914112058e-05	0.00389105058366
0.0	0.0
0.151627983425	0.385826771654
0.0792176070428	0.2816
0.0	0.0
0.00133719136148	0.0359937402191
7.37690625964e-05	0.00844854070661
0.0	0.0
