0.0125042016807	0.112
0.0077118847539	0.088
0.000886688835485	0.0293312475557
0.0	0.0
0.0	0.0
0.102057142857	0.3196
0.0304973189276	0.1748
1.91883089471e-06	0.00155279503106
0.0	0.0
3.19844939173e-06	0.00194552529183
0.00119440669021	0.0338653172441
0.0	0.0
9.58956655159e-05	0.00970873786408
0.00411131841491	0.0631620243233
0.0074270536667	0.0859872611465
0.00827684938552	0.0907643312102
0.0	0.000386249517188
4.79709104399e-06	0.002331002331
0.0	0.0
0.0360384153661	0.19
0.00158463385354	0.04
0.0	0.0
0.0	0.0
0.0532126117525	0.229638458482
0.000236895688211	0.0152284263959
0.102057142857	0.3196
0.0262707599396	0.161495624503
0.0	0.0
0.00224567154087	0.0472034906783
0.0273680672269	0.1656
