1.15109569922e-05	0.00349107835531
0.00228340730422	0.0475435816165
6.07448339716e-05	0.00777302759425
1.91847442913e-06	0.00154858691444
0.0	0.0
0.0	0.0
0.000644772544971	0.0252365930599
0.0	0.0
0.0	0.0
3.19718238711e-07	0.000772797527048
0.0025849934262	0.0490045941807
0.0	0.0
0.0	0.0
0.0	0.0
0.0	0.0
3.19804637743e-07	0.00077579519007
0.00133768191803	0.0361067503925
0.0	0.0
6.07810363167e-05	0.0078431372549
0.00343035901292	0.0581487341772
0.0220258580241	0.147385103011
0.0	0.0
4.7957950469e-06	0.00232198142415
0.0	0.0
0.0	0.0
0.00111311922446	0.0327102803738
0.0	0.0
0.000492579954683	0.0220820189274
0.0	0.0
1.15118956255e-05	0.00349514563107
