0.000249483760526	0.0157232704403
0.0	0.0
0.0210061519318	0.144563918757
0.0228100840336	0.1512
0.000360708139149	0.0188383045526
0.0227850068496	0.150657632523
1.15099853919e-05	0.00348702053468
0.00205694883687	0.0446358653093
8.82343350488e-05	0.00933125972006
0.0	0.0
0.000728533836847	0.0268138801262
1.91883089471e-06	0.00155279503106
0.0118857142857	0.1092
0.00133584716836	0.0357142857143
0.0	0.0
0.0	0.0
8.95674117929e-06	0.00312256049961
0.0	0.0
3.19718238711e-07	0.000772797527048
4.7957950469e-06	0.00232198142415
2.49371934404e-05	0.00504071345483
0.0	0.0
0.0	0.0
0.0	0.0
1.91883089471e-06	0.00155279503106
0.000103944618307	0.0101761252446
0.0	0.0
0.0211495798319	0.1456
0.0369555822329	0.1924
0.00243354345755	0.0483619344774
