0.0368790200071	0.180811808118
6.71576852857e-06	0.0027195027195
1.75877251748e-05	0.00427516517684
0.0	0.0
0.000457214499738	0.0210198520825
0.0311976853958	0.16623568526
0.0	0.0
0.0	0.0
0.00072822781063	0.0266875981162
0.0711039615846	0.2668
0.00142523577039	0.0369649805447
0.100275630252	0.3168
0.0942866746699	0.3072
3.19602057087e-06	0.00192529842126
1.15128012756e-05	0.00349922239502
0.0006633291854	0.0249711870918
0.0	0.0
0.0	0.0
0.0743404561825	0.2728
0.0913613445378	0.3024
0.107495798319	0.328
9.59314512222e-07	0.00116234017823
0.0	0.0
0.0445387755102	0.2112
0.0	0.0
0.026205952441	0.158612626656
2.11075448599e-05	0.00467289719626
0.00583014179492	0.0741312741313
0.054644106265	0.230046948357
0.0304973189276	0.1748
