0.368110764306	0.6068
0.368110764306	0.6068
0.368110764306	0.6068
0.368110764306	0.6068
0.368110764306	0.6068
0.368110764306	0.6068
0.368110764306	0.6068
0.368110764306	0.6068
0.368110764306	0.6068
0.368110764306	0.6068
0.368110764306	0.6068
0.368110764306	0.6068
0.368110764306	0.6068
0.368110764306	0.6068
0.368110764306	0.6068
0.368110764306	0.6068
0.368110764306	0.6068
0.368110764306	0.6068
0.368110764306	0.6068
0.368110764306	0.6068
0.368110764306	0.6068
0.368110764306	0.6068
0.368110764306	0.6068
0.368110764306	0.6068
0.368110764306	0.6068
0.368110764306	0.6068
0.368110764306	0.6068
0.368110764306	0.6068
0.368110764306	0.6068
0.368110764306	0.6068
