0.383314285714	0.6192
0.383314285714	0.6192
0.383314285714	0.6192
0.383314285714	0.6192
0.383314285714	0.6192
0.383314285714	0.6192
0.383314285714	0.6192
0.383314285714	0.6192
0.383314285714	0.6192
0.383314285714	0.6192
0.383314285714	0.6192
0.383314285714	0.6192
0.383314285714	0.6192
0.383314285714	0.6192
0.383314285714	0.6192
0.383314285714	0.6192
0.383314285714	0.6192
0.383314285714	0.6192
0.383314285714	0.6192
0.383314285714	0.6192
0.383314285714	0.6192
0.383314285714	0.6192
0.383314285714	0.6192
0.383314285714	0.6192
0.383314285714	0.6192
0.383314285714	0.6192
0.383314285714	0.6192
0.383314285714	0.6192
0.383314285714	0.6192
0.383314285714	0.6192
