0.16734789916	0.4092
0.0875326130452	0.296
0.16734789916	0.4092
0.0875326130452	0.296
0.0875326130452	0.296
0.0875326130452	0.296
0.16734789916	0.4092
0.16734789916	0.4092
0.645709803922	0.8036
0.0875326130452	0.296
0.0875326130452	0.296
0.0875326130452	0.296
0.0875326130452	0.296
0.645709803922	0.8036
0.645709803922	0.8036
0.645709803922	0.8036
0.16734789916	0.4092
0.16734789916	0.4092
0.16734789916	0.4092
0.16734789916	0.4092
0.645709803922	0.8036
0.0875326130452	0.296
0.16734789916	0.4092
0.117696038415	0.3432
0.0875326130452	0.296
0.0875326130452	0.296
0.117696038415	0.3432
0.645709803922	0.8036
0.645709803922	0.8036
0.0875326130452	0.296
