0.156720288115	0.396
0.0783193277311	0.28
0.0783193277311	0.28
0.156720288115	0.396
0.156720288115	0.396
0.156720288115	0.396
0.156720288115	0.396
0.156720288115	0.396
0.156720288115	0.396
0.156720288115	0.396
0.156720288115	0.396
0.156720288115	0.396
0.0783193277311	0.28
0.0783193277311	0.28
0.156720288115	0.396
0.156720288115	0.396
0.156720288115	0.396
0.156720288115	0.396
0.0783193277311	0.28
0.156720288115	0.396
0.0783193277311	0.28
0.156720288115	0.396
0.0783193277311	0.28
0.156720288115	0.396
0.0783193277311	0.28
0.0783193277311	0.28
0.0783193277311	0.28
0.0783193277311	0.28
0.0783193277311	0.28
0.156720288115	0.396
