0.130084353741	0.3608
0.130084353741	0.3608
0.130084353741	0.3608
0.130084353741	0.3608
0.130084353741	0.3608
0.130084353741	0.3608
0.130084353741	0.3608
0.130084353741	0.3608
0.130084353741	0.3608
0.130084353741	0.3608
0.130084353741	0.3608
0.130084353741	0.3608
0.130084353741	0.3608
0.130084353741	0.3608
0.130084353741	0.3608
0.130084353741	0.3608
0.130084353741	0.3608
0.130084353741	0.3608
0.130084353741	0.3608
0.130084353741	0.3608
0.130084353741	0.3608
0.130084353741	0.3608
0.130084353741	0.3608
0.130084353741	0.3608
0.130084353741	0.3608
0.130084353741	0.3608
0.130084353741	0.3608
0.130084353741	0.3608
0.130084353741	0.3608
0.130084353741	0.3608
