0.467769507803	0.684
0.467769507803	0.684
0.467769507803	0.684
0.467769507803	0.684
0.467769507803	0.684
0.467769507803	0.684
0.467769507803	0.684
0.467769507803	0.684
0.467769507803	0.684
0.467769507803	0.684
0.467769507803	0.684
0.467769507803	0.684
0.467769507803	0.684
0.0143577430972	0.12
0.467769507803	0.684
0.467769507803	0.684
0.467769507803	0.684
0.467769507803	0.684
0.467769507803	0.684
0.467769507803	0.684
0.467769507803	0.684
0.467769507803	0.684
0.467769507803	0.684
0.467769507803	0.684
0.467769507803	0.684
0.467769507803	0.684
0.467769507803	0.684
0.467769507803	0.684
0.467769507803	0.684
0.467769507803	0.684
