0.402992076831	0.6278
0.36593837535	0.605
0.402992076831	0.6278
0.000147903872249	0.00951289398281
0.0322980338023	0.123930131004
0.402992076831	0.6278
0.0322980338023	0.123930131004
0.383848739496	0.6092
0.355652501	0.5934
0.438985994398	0.6622
0.041959621706	0.140262008734
0.453802160864	0.6614
0.336509163665	0.5748
3.0043311276e-05	0.00341730906779
0.402992076831	0.6278
0.453802160864	0.6614
0.420039215686	0.647
0.0980565195835	0.196421052632
0.438985994398	0.6622
0.0775628101557	0.168784216507
0.402992076831	0.6278
0.0462483548594	0.146899563319
0.438985994398	0.6622
0.397244177671	0.6238
0.0124510431144	0.0823509015257
0.000138546120351	0.00533300260449
0.378100840336	0.6052
0.402992076831	0.6278
0.402992076831	0.6278
0.00014932705792	0.00960893854749
