0.351546378551	0.5928
0.362851540616	0.6012
0.410801120448	0.6402
0.469798479392	0.676
0.469798479392	0.676
0.428906762705	0.6492
0.469798479392	0.676
0.428906762705	0.6492
0.0796626808958	0.175639557083
0.428906762705	0.6492
0.469798479392	0.676
0.362851540616	0.6012
0.368839695878	0.6074
0.362851540616	0.6012
0.362851540616	0.6012
0.368839695878	0.6074
0.410801120448	0.6402
0.410801120448	0.6402
0.368839695878	0.6074
0.362851540616	0.6012
0.362851540616	0.6012
0.469798479392	0.676
0.469798479392	0.676
0.428906762705	0.6492
0.428906762705	0.6492
0.410801120448	0.6402
0.469798479392	0.676
0.0395654920799	0.131504424779
0.362851540616	0.6012
0.428906762705	0.6492
