0.588545178071	0.7648
9.67889840411e-05	0.00730769230769
0.0767034224214	0.173419621084
0.508925010004	0.7134
0.0232135880387	0.162754573697
0.0469394211665	0.141787234043
0.521231852741	0.7218
0.0907577549796	0.183482506103
1.4722127666e-05	0.00218396058713
0.588545178071	0.7648
3.45232814537e-05	0.00361532899494
0.0907577549796	0.183482506103
0.508925010004	0.7134
0.508925010004	0.7134
0.508925010004	0.7134
0.533134533814	0.7298
0.521231852741	0.7218
0.521231852741	0.7218
0.521231852741	0.7218
0.0658510522519	0.175659574468
0.0601675630741	0.161918120452
3.45232814537e-05	0.00361532899494
0.521231852741	0.7218
0.508925010004	0.7134
0.508925010004	0.7134
0.588545178071	0.7648
0.521231852741	0.7218
0.508925010004	0.7134
0.0551387605826	0.161361702128
0.0212585583364	0.155678287884
