0.312069787915	0.5488
0.0522760855829	0.144028805761
0.203704841937	0.4026
0.0481530455596	0.130861504907
0.312069787915	0.5488
0.037066777873	0.122178217822
0.312069787915	0.5488
0.351243857543	0.592
0.308296278511	0.5508
0.310503881553	0.5476
0.37720160064	0.6142
0.37720160064	0.6142
0.0920056129802	0.18118768964
0.308296278511	0.5508
0.308296278511	0.5508
0.0587936264942	0.156930693069
0.312069787915	0.5488
0.351243857543	0.592
0.322121008403	0.5564
0.308296278511	0.5508
0.322121008403	0.5564
0.310503881553	0.5476
0.0816522759323	0.277317554241
0.322121008403	0.5564
0.308296278511	0.5508
0.351243857543	0.592
0.308296278511	0.5508
0.0587936264942	0.156930693069
0.161315726291	0.24
0.312069787915	0.5488
