0.343770468187	0.5864
0.196117647059	0.294
0.049209277492	0.143316582915
0.355002320928	0.5958
0.049209277492	0.143316582915
0.320741896759	0.566
0.0568526494882	0.153567839196
0.0496612448493	0.144752475248
0.355002320928	0.5958
0.0308856380139	0.1256
0.353790636255	0.5948
0.353790636255	0.5948
0.186973829532	0.2924
0.343770468187	0.5864
0.328233053221	0.5728
0.398571428571	0.63
0.343770468187	0.5864
0.222961344538	0.4524
0.0326681900694	0.12896
0.0326681900694	0.12896
0.355002320928	0.5958
0.197453541417	0.4076
0.343770468187	0.5864
0.0516956538486	0.146733668342
0.328233053221	0.5728
0.343770468187	0.5864
0.353790636255	0.5948
0.049209277492	0.143316582915
0.343770468187	0.5864
0.181916126451	0.394
