0.0481383275411	0.143414634146
0.665839135654	0.788
0.0243283311443	0.0989130434783
0.665839135654	0.788
0.333990396158	0.578
0.263464745898	0.3588
0.414185034014	0.6388
9.49114642134e-06	0.00169033130494
0.042904349062	0.13134057971
0.0243283311443	0.0989130434783
0.665839135654	0.788
0.392584393758	0.6188
0.00394325462942	0.0520795660036
0.333990396158	0.578
0.757434333733	0.8588
0.0187998666954	0.0869565217391
0.0466531728451	0.136956521739
0.00394325462942	0.0520795660036
0.321248659464	0.5668
0.392584393758	0.6188
0.00612116750526	0.0648824593128
0.333990396158	0.578
0.253990396158	0.498
0.0758031079995	0.16488372093
1.81980568344e-05	0.00264680304004
0.425585594238	0.6488
0.333990396158	0.578
0.757434333733	0.8588
0.00612116750526	0.0648824593128
0.257896438575	0.5026
