0.57772244898	0.7518
0.467415606242	0.6824
0.57772244898	0.7518
0.558142136855	0.7428
0.534440816327	0.7244
0.0335195395822	0.117079646018
0.0	0.0
0.0696458672642	0.166498301038
0.0854454403808	0.186902654867
0.468236254502	0.684
0.0	0.0
0.468236254502	0.684
0.105694586446	0.200780487805
0.139040498202	0.225281602003
0.0696458672642	0.166498301038
0.467415606242	0.6824
0.0854454403808	0.186902654867
0.468236254502	0.684
0.139040498202	0.225281602003
0.558142136855	0.7428
0.0854454403808	0.186902654867
0.021109188232	0.0929203539823
0.0696458672642	0.166498301038
0.0571929925429	0.152920353982
0.0590225665511	0.151563981043
0.0590225665511	0.151563981043
0.558142136855	0.7428
0.468236254502	0.684
0.0753701238705	0.170204554226
0.0510129995573	0.144424778761
