0.000391376716806	0.0192660550459
0.000391376716806	0.0192660550459
0.000890385906142	0.0292146381579
0.000391376716806	0.0192660550459
0.000391376716806	0.0192660550459
0.000391376716806	0.0192660550459
0.000890385906142	0.0292146381579
0.000391376716806	0.0192660550459
0.000391376716806	0.0192660550459
0.000391376716806	0.0192660550459
0.000890385906142	0.0292146381579
0.000890385906142	0.0292146381579
0.000391376716806	0.0192660550459
0.000391376716806	0.0192660550459
0.000890385906142	0.0292146381579
0.000391376716806	0.0192660550459
0.000391376716806	0.0192660550459
0.000890385906142	0.0292146381579
0.000391376716806	0.0192660550459
0.000391376716806	0.0192660550459
0.000391376716806	0.0192660550459
0.000391376716806	0.0192660550459
0.000391376716806	0.0192660550459
0.000391376716806	0.0192660550459
0.000391376716806	0.0192660550459
0.000391376716806	0.0192660550459
0.000890385906142	0.0292146381579
0.000391376716806	0.0192660550459
0.000391376716806	0.0192660550459
0.000391376716806	0.0192660550459
