0.000658407442543	0.0251945887484
0.000658407442543	0.0251945887484
0.000658407442543	0.0251945887484
0.000658407442543	0.0251945887484
0.000658407442543	0.0251945887484
0.000658407442543	0.0251945887484
0.000658407442543	0.0251945887484
0.000658407442543	0.0251945887484
0.000658407442543	0.0251945887484
0.000658407442543	0.0251945887484
0.000658407442543	0.0251945887484
0.000658407442543	0.0251945887484
0.000658407442543	0.0251945887484
0.000658407442543	0.0251945887484
0.000658407442543	0.0251945887484
0.000658407442543	0.0251945887484
0.000658407442543	0.0251945887484
0.000658407442543	0.0251945887484
0.000658407442543	0.0251945887484
0.000658407442543	0.0251945887484
0.000658407442543	0.0251945887484
0.000658407442543	0.0251945887484
0.000658407442543	0.0251945887484
0.000658407442543	0.0251945887484
0.000658407442543	0.0251945887484
0.000658407442543	0.0251945887484
0.000658407442543	0.0251945887484
0.000658407442543	0.0251945887484
0.000658407442543	0.0251945887484
0.000658407442543	0.0251945887484
