0.000117420633649	0.0104472991797
0.000117420633649	0.0104472991797
0.000117420633649	0.0104472991797
0.000117420633649	0.0104472991797
0.000117420633649	0.0104472991797
0.000117420633649	0.0104472991797
0.000117420633649	0.0104472991797
0.000117420633649	0.0104472991797
0.000117420633649	0.0104472991797
0.000117420633649	0.0104472991797
0.000117420633649	0.0104472991797
0.000117420633649	0.0104472991797
0.000117420633649	0.0104472991797
0.000117420633649	0.0104472991797
0.000117420633649	0.0104472991797
0.000117420633649	0.0104472991797
0.000117420633649	0.0104472991797
0.000117420633649	0.0104472991797
0.000117420633649	0.0104472991797
0.000117420633649	0.0104472991797
0.000117420633649	0.0104472991797
0.000117420633649	0.0104472991797
0.000117420633649	0.0104472991797
0.000117420633649	0.0104472991797
0.000117420633649	0.0104472991797
0.000117420633649	0.0104472991797
0.000117420633649	0.0104472991797
0.000117420633649	0.0104472991797
0.000117420633649	0.0104472991797
0.000117420633649	0.0104472991797
