0.00091989165366	0.0297619047619
0.00091989165366	0.0297619047619
0.00091989165366	0.0297619047619
0.00091989165366	0.0297619047619
0.00091989165366	0.0297619047619
0.00091989165366	0.0297619047619
0.00091989165366	0.0297619047619
0.00091989165366	0.0297619047619
0.00091989165366	0.0297619047619
0.00091989165366	0.0297619047619
0.00091989165366	0.0297619047619
0.00091989165366	0.0297619047619
0.00091989165366	0.0297619047619
0.00091989165366	0.0297619047619
0.00091989165366	0.0297619047619
0.00091989165366	0.0297619047619
0.00091989165366	0.0297619047619
0.00091989165366	0.0297619047619
0.00091989165366	0.0297619047619
0.00091989165366	0.0297619047619
0.00091989165366	0.0297619047619
0.00091989165366	0.0297619047619
0.00091989165366	0.0297619047619
0.00091989165366	0.0297619047619
0.00091989165366	0.0297619047619
0.00091989165366	0.0297619047619
0.00091989165366	0.0297619047619
0.00091989165366	0.0297619047619
0.00091989165366	0.0297619047619
0.00091989165366	0.0297619047619
