0.000624756247562	0.025
0.172958783513	0.416
0.000624756247562	0.025
0.134742857143	0.3672
0.000624756247562	0.025
0.0974801455363	0.269427112876
0.028893199558	0.135035600295
0.134742857143	0.3672
0.000624756247562	0.025
0.106484731775	0.286403376545
0.000624756247562	0.025
0.134742857143	0.3672
0.134742857143	0.3672
0.000624756247562	0.025
0.000624756247562	0.025
0.000624756247562	0.025
0.134742857143	0.3672
0.000624756247562	0.025
0.000624756247562	0.025
0.134742857143	0.3672
0.028893199558	0.135035600295
0.134742857143	0.3672
0.000624756247562	0.025
0.134742857143	0.3672
0.000624756247562	0.025
0.0287643421611	0.134671890304
0.000624756247562	0.025
0.000624756247562	0.025
0.000624756247562	0.025
0.0287643421611	0.134671890304
