0.357986394558	0.5984
0.357986394558	0.5984
0.000624756247562	0.025
0.357986394558	0.5984
0.357986394558	0.5984
0.357986394558	0.5984
0.000624756247562	0.025
0.000624756247562	0.025
0.000624756247562	0.025
0.295836734694	0.544
0.357986394558	0.5984
0.357986394558	0.5984
0.357986394558	0.5984
0.357986394558	0.5984
0.357986394558	0.5984
0.000624756247562	0.025
0.000624756247562	0.025
0.000624756247562	0.025
0.000624756247562	0.025
0.357986394558	0.5984
0.000624756247562	0.025
0.357986394558	0.5984
0.357986394558	0.5984
0.000624756247562	0.025
0.000624756247562	0.025
0.000624756247562	0.025
0.357986394558	0.5984
0.000624756247562	0.025
0.357986394558	0.5984
0.000624756247562	0.025
