0.000624756247562	0.025
0.230300120048	0.48
0.000624756247562	0.025
0.000624756247562	0.025
0.000624756247562	0.025
0.155500719847	0.384615384615
0.131807721311	0.354330708661
0.000624756247562	0.025
0.230300120048	0.48
0.000624756247562	0.025
0.000624756247562	0.025
0.230300120048	0.48
0.230300120048	0.48
0.000624756247562	0.025
0.000624756247562	0.025
0.000624756247562	0.025
0.230300120048	0.48
0.000624756247562	0.025
0.000624756247562	0.025
0.000624756247562	0.025
0.230300120048	0.48
0.000624756247562	0.025
0.131807721311	0.354330708661
0.000624756247562	0.025
0.230300120048	0.48
0.133926799122	0.357142857143
0.150282657021	0.378151260504
0.000624756247562	0.025
0.230300120048	0.48
0.000624756247562	0.025
