0.0727335564914	0.246749319625
0.000624756247562	0.025
0.0670737335567	0.223048327138
0.0727335564914	0.246749319625
0.000624756247562	0.025
0.000624756247562	0.025
0.0689451733491	0.226073850791
0.0816959634714	0.24645030426
0.0719630257415	0.245487364621
0.000624756247562	0.025
0.000624756247562	0.025
0.214393539236	0.43956043956
0.0727335564914	0.246749319625
0.000624756247562	0.025
0.0712042456241	0.24423825202
0.000624756247562	0.025
0.000624756247562	0.025
0.000624756247562	0.025
0.000624756247562	0.025
0.0712042456241	0.24423825202
0.000624756247562	0.025
0.068313599876	0.225056264066
0.0735160717807	0.248024316109
0.0689451733491	0.226073850791
0.0712042456241	0.24423825202
0.000624756247562	0.025
0.000624756247562	0.025
0.0825929138784	0.247807464817
0.0702321644569	0.228136882129
0.0735160717807	0.248024316109
