0.249899959984	0.5
0.230300120048	0.48
0.230300120048	0.48
0.00047453110096	0.0214424951267
0.249899959984	0.5
0.230300120048	0.48
0.230300120048	0.48
0.230300120048	0.48
9.59246416016e-05	0.00974658869396
0.00311106137392	0.0554455445545
0.249899959984	0.5
0.230300120048	0.48
0.249899959984	0.5
0.230300120048	0.48
0.230300120048	0.48
0.203482352941	0.4512
0.230300120048	0.48
0.249899959984	0.5
0.230300120048	0.48
0.230300120048	0.48
0.230300120048	0.48
0.249899959984	0.5
0.249899959984	0.5
0.230300120048	0.48
0.00276422202784	0.0522151898734
0.221176470588	0.4704
0.249899959984	0.5
0.249899959984	0.5
0.230300120048	0.48
0.00329348270442	0.0572337042925
