0.46231292517	0.68
0.46231292517	0.68
0.46231292517	0.68
0.46231292517	0.68
0.46231292517	0.68
0.46231292517	0.68
0.46231292517	0.68
3.19771299567e-07	0.000774593338497
0.435510204082	0.66
0.46231292517	0.68
0.46231292517	0.68
0.46231292517	0.68
0.46231292517	0.68
0.00184452899866	0.0421381193913
0.46231292517	0.68
0.46231292517	0.68
0.46231292517	0.68
0.000817487320311	0.0284247927359
0.435510204082	0.66
0.46231292517	0.68
0.46231292517	0.68
0.435510204082	0.66
0.46231292517	0.68
0.46231292517	0.68
0.435510204082	0.66
0.46231292517	0.68
0.46231292517	0.68
0.000816224864202	0.0279937791602
0.46231292517	0.68
0.00145690578133	0.0376323010584
