0.257557743097	0.5076
0.284629371749	0.5336
0.279952941176	0.5292
0.297580152061	0.5456
0.228766706683	0.4784
0.284629371749	0.5336
0.265331092437	0.5152
0.220800320128	0.47
0.228766706683	0.4784
0.00184702845153	0.0425867507886
0.284629371749	0.5336
0.257557743097	0.5076
0.257557743097	0.5076
0.284629371749	0.5336
9.59246416016e-05	0.00974658869396
0.284629371749	0.5336
0.228766706683	0.4784
0.284629371749	0.5336
0.257557743097	0.5076
0.284629371749	0.5336
0.000817171079049	0.0283018867925
1.75891088238e-05	0.00428015564202
0.178324129652	0.4224
0.284629371749	0.5336
0.249899959984	0.5
0.218924369748	0.468
0.257557743097	0.5076
0.220800320128	0.47
0.257557743097	0.5076
0.297580152061	0.5456
