0.0	0.0
0.01127611591	0.106102911847
0.000771570178861	0.0273224043716
0.00356220032093	0.0583203732504
0.309927490996	0.5568
0.00688798576329	0.0829346092504
0.260408163265	0.5104
0.31350140056	0.56
0.27699719888	0.5264
0.309927490996	0.5568
0.0	0.0
0.272384153661	0.522
4.89192678608e-05	0.00699844479005
0.226095558223	0.4756
0.00329314455964	0.0571882446386
0.242751820728	0.4928
0.000686080341447	0.0260560600079
0.309927490996	0.5568
0.0	0.0
0.226095558223	0.4756
0.226095558223	0.4756
0.226095558223	0.4756
0.253915966387	0.504
0.000817820553021	0.0285714285714
0.301082352941	0.5488
0.0671078031212	0.2592
0.297143817527	0.5452
0.00228480365569	0.0478087649402
0.00515453032342	0.0717417297728
0.226095558223	0.4756
