0.0540346522344	0.666666666667
1.0	1.0
1.0	1.0
0.561737136692	0.769230769231
0.0540346522344	0.666666666667
1.0	1.0
0.561737136692	0.769230769231
0.0540346522344	0.666666666667
1.0	1.0
0.0540346522344	0.666666666667
0.561737136692	0.769230769231
0.0540346522344	0.666666666667
0.561737136692	0.769230769231
0.0540346522344	0.666666666667
0.561737136692	0.769230769231
0.0540346522344	0.666666666667
0.561737136692	0.769230769231
0.561737136692	0.769230769231
0.0540346522344	0.666666666667
1.0	1.0
0.561737136692	0.769230769231
1.0	1.0
0.561737136692	0.769230769231
1.0	1.0
0.561737136692	0.769230769231
0.0540346522344	0.666666666667
