0.359903961585	0.6
0.359903961585	0.6
0.359903961585	0.6
0.359903961585	0.6
0.359903961585	0.6
0.359903961585	0.6
0.359903961585	0.6
0.359903961585	0.6
0.359903961585	0.6
0.359903961585	0.6
0.359903961585	0.6
0.359903961585	0.6
0.359903961585	0.6
0.359903961585	0.6
0.359903961585	0.6
0.359903961585	0.6
0.359903961585	0.6
0.013512127292	0.319829424307
0.359903961585	0.6
0.359903961585	0.6
0.359903961585	0.6
0.359903961585	0.6
0.359903961585	0.6
0.359903961585	0.6
0.359903961585	0.6
0.359903961585	0.6
0.359903961585	0.6
0.359903961585	0.6
0.359903961585	0.6
0.359903961585	0.6
