0.8	0.8
0.8	0.8
0.793586525225	0.796812749004
0.8	0.8
0.8	0.8
0.8	0.8
0.8	0.8
0.8	0.8
0.793586525225	0.796812749004
0.793586525225	0.796812749004
0.8	0.8
0.8	0.8
0.8	0.8
0.8	0.8
0.8	0.8
0.8	0.8
0.793586525225	0.796812749004
0.793586525225	0.796812749004
0.8	0.8
0.8	0.8
0.8	0.8
0.8	0.8
0.793586525225	0.796812749004
0.8	0.8
0.8	0.8
0.8	0.8
0.793586525225	0.796812749004
0.8	0.8
0.8	0.8
0.8	0.8
