1.0	1.0
1.0	1.0
1.0	1.0
1.0	1.0
1.0	1.0
1.0	1.0
1.0	1.0
0.762392977912	0.805666400638
1.0	1.0
1.0	1.0
1.0	1.0
0.756116462482	0.789237668161
1.0	1.0
1.0	1.0
1.0	1.0
0.75762220719	0.793695131684
1.0	1.0
1.0	1.0
1.0	1.0
1.0	1.0
0.763712525474	0.808555189949
1.0	1.0
1.0	1.0
1.0	1.0
1.0	1.0
0.762170948379	0.8052
1.0	1.0
1.0	1.0
0.60457976795	0.742206828303
1.0	1.0
