1.0	1.0
1.0	1.0
0.720843194761	0.748611111111
1.0	1.0
1.0	1.0
0.749810612789	0.745532168388
1.0	1.0
1.0	1.0
1.0	1.0
1.0	1.0
1.0	1.0
0.754775824406	0.784609242439
1.0	1.0
1.0	1.0
1.0	1.0
1.0	1.0
0.624416103895	0.738043692187
1.0	1.0
1.0	1.0
0.406182107937	0.489668005093
1.0	1.0
1.0	1.0
1.0	1.0
0.756495305913	0.790340285401
1.0	1.0
1.0	1.0
1.0	1.0
1.0	1.0
1.0	1.0
1.0	1.0
