1.0	1.0
0.757791983949	0.794173401177
0.759502501461	0.798762845455
1.0	1.0
1.0	1.0
1.0	1.0
1.0	1.0
1.0	1.0
1.0	1.0
1.0	1.0
1.0	1.0
1.0	1.0
0.756521926903	0.790419161677
1.0	1.0
1.0	1.0
1.0	1.0
0.720920784605	0.743310208127
1.0	1.0
1.0	1.0
1.0	1.0
1.0	1.0
1.0	1.0
1.0	1.0
1.0	1.0
0.753361280313	0.779086010776
1.0	1.0
1.0	1.0
1.0	1.0
1.0	1.0
1.0	1.0
