1.0	1.0
1.0	1.0
0.749615769008	0.746878097126
1.0	1.0
1.0	1.0
1.0	1.0
1.0	1.0
0.749984939878	0.754927334262
0.749790814663	0.743752479175
1.0	1.0
1.0	1.0
1.0	1.0
0.754000930951	0.781723862729
0.538528468697	0.731564572766
1.0	1.0
1.0	1.0
1.0	1.0
1.0	1.0
1.0	1.0
1.0	1.0
0.742335791402	0.743310208127
0.752355201605	0.774338492262
1.0	1.0
1.0	1.0
0.754770996717	0.784587742064
1.0	1.0
1.0	1.0
1.0	1.0
1.0	1.0
1.0	1.0
