0.720921578937	0.744001586357
1.0	1.0
1.0	1.0
1.0	1.0
1.0	1.0
1.0	1.0
1.0	1.0
1.0	1.0
1.0	1.0
1.0	1.0
1.0	1.0
1.0	1.0
1.0	1.0
0.757230337701	0.792580773833
1.0	1.0
1.0	1.0
1.0	1.0
0.765159663866	0.8116
1.0	1.0
1.0	1.0
1.0	1.0
1.0	1.0
1.0	1.0
1.0	1.0
1.0	1.0
1.0	1.0
0.952490996399	0.975
1.0	1.0
1.0	1.0
1.0	1.0
