0.0554431978283	0.150767060483
0.459349339736	0.666
0.459349339736	0.666
0.47943817527	0.684
0.47943817527	0.684
0.0991986383959	0.319826201946
0.22330180072	0.2816
0.0255207199416	0.0948142153888
0.100067828495	0.320947867299
0.0554431978283	0.150767060483
0.0554431978283	0.150767060483
0.0121268181358	0.0705342973021
0.0255207199416	0.0948142153888
0.47943817527	0.684
0.0255207199416	0.0948142153888
0.47943817527	0.684
0.47943817527	0.684
0.0554431978283	0.150767060483
0.47943817527	0.684
0.102697217852	0.235174654752
0.155289430468	0.285131405256
0.459349339736	0.666
0.47943817527	0.684
0.0991986383959	0.319826201946
0.47943817527	0.684
0.47943817527	0.684
0.459349339736	0.666
0.000350489708189	0.0108748422177
0.0255207199416	0.0948142153888
0.0834409516124	0.174714104193
