0.122038029936	0.204173583116
0.0261172997308	0.319384057971
0.114922727337	0.295197740113
0.352705882353	0.588
0.356983913565	0.5892
0.12792027581	0.209034858904
0.0478999783585	0.151044776119
0.368416006403	0.5974
0.0453887394823	0.0985169491525
0.134136854742	0.312
0.269664345738	0.5186
0.352705882353	0.588
0.375412244898	0.6096
0.368416006403	0.5974
0.0478999783585	0.151044776119
0.0324464231881	0.138377741793
0.0122942144867	0.0721984349624
0.0407186492674	0.140298507463
0.12792027581	0.209034858904
0.114922727337	0.295197740113
0.356983913565	0.5892
0.114922727337	0.295197740113
0.122038029936	0.204173583116
0.113893926906	0.196807872315
0.356983913565	0.5892
0.0478999783585	0.151044776119
0.0478999783585	0.151044776119
0.0122942144867	0.0721984349624
0.210795678271	0.4568
0.114922727337	0.295197740113
