0.401148939576	0.6296
0.0737928654861	0.180165289256
0.0655559226529	0.181415929204
0.00407634059682	0.0493802775172
0.187711404562	0.2744
0.414185034014	0.6388
0.0026082051146	0.0395042220137
0.281778311325	0.5242
0.401148939576	0.6296
0.172457142857	0.409
0.0	0.0
0.018261271398	0.104488667226
0.0063705573141	0.0617253468964
0.018261271398	0.104488667226
0.187711404562	0.2744
0.151891350066	0.228714034058
0.209454341737	0.4424
0.108159368079	0.281767955801
0.371349019608	0.6076
0.724594317727	0.8396
0.018261271398	0.104488667226
0.202517647059	0.3116
0.248878271309	0.4878
0.401148939576	0.6296
0.00576372526117	0.0587131499679
0.371349019608	0.6076
0.00407634059682	0.0493802775172
0.414185034014	0.6388
0.025492430309	0.123450693793
0.018261271398	0.104488667226
