0.0616049779898	0.152678661172
0.528283313325	0.705
0.269160093726	0.331437291898
0.56412484994	0.737
0.166806600702	0.256206653935
0.528283313325	0.705
0.0616049779898	0.152678661172
0.166806600702	0.256206653935
0.528283313325	0.705
0.528283313325	0.705
0.528283313325	0.705
0.0616049779898	0.152678661172
0.56412484994	0.737
0.166806600702	0.256206653935
0.528283313325	0.705
0.528283313325	0.705
0.528283313325	0.705
0.000834792203619	0.0191659126429
0.528283313325	0.705
0.0616049779898	0.152678661172
0.528283313325	0.705
0.000834792203619	0.0191659126429
0.528283313325	0.705
0.536859543818	0.713
0.166806600702	0.256206653935
0.528283313325	0.705
0.528283313325	0.705
0.0616049779898	0.152678661172
0.269160093726	0.331437291898
0.528283313325	0.705
