0.426437454982	0.6186
0.426437454982	0.6186
0.426437454982	0.6186
0.0203048213231	0.180722891566
0.0302668253569	0.106173913043
0.207756619686	0.263694267516
0.426437454982	0.6186
0.426437454982	0.6186
0.0203048213231	0.180722891566
0.0664352427812	0.187089006205
0.0664352427812	0.187089006205
0.426437454982	0.6186
0.0044943797301	0.051849291393
0.426437454982	0.6186
0.0664352427812	0.187089006205
0.0302668253569	0.106173913043
0.0118132350496	0.0840452323342
0.511993437375	0.7084
0.426437454982	0.6186
0.0664352427812	0.187089006205
0.0285524645262	0.102956521739
0.22089822444	0.271439811172
0.426437454982	0.6186
0.0127786561774	0.159292035398
0.0203048213231	0.180722891566
0.0302668253569	0.106173913043
0.496310844338	0.6952
0.426437454982	0.6186
0.0127786561774	0.159292035398
0.0127786561774	0.159292035398
