0.0261548490881	0.429958391123
0.0261548490881	0.429958391123
0.0261548490881	0.429958391123
0.0261548490881	0.429958391123
0.0261548490881	0.429958391123
0.0261548490881	0.429958391123
0.0261548490881	0.429958391123
0.0261548490881	0.429958391123
0.0261548490881	0.429958391123
0.0261548490881	0.429958391123
0.0261548490881	0.429958391123
0.0261548490881	0.429958391123
0.0261548490881	0.429958391123
0.0261548490881	0.429958391123
0.0261548490881	0.429958391123
0.0261548490881	0.429958391123
0.0261548490881	0.429958391123
0.0261548490881	0.429958391123
0.0261548490881	0.429958391123
0.0261548490881	0.429958391123
0.0261548490881	0.429958391123
0.0261548490881	0.429958391123
0.0261548490881	0.429958391123
0.0261548490881	0.429958391123
0.0261548490881	0.429958391123
0.0261548490881	0.429958391123
0.0261548490881	0.429958391123
0.0261548490881	0.429958391123
0.0261548490881	0.429958391123
0.0261548490881	0.429958391123
