0.0261645431583	0.433566433566
0.0261645431583	0.433566433566
0.0261645431583	0.433566433566
0.0261645431583	0.433566433566
0.0261645431583	0.433566433566
0.0261645431583	0.433566433566
0.0261645431583	0.433566433566
0.0261645431583	0.433566433566
0.0261645431583	0.433566433566
0.0261645431583	0.433566433566
0.0261645431583	0.433566433566
0.0261645431583	0.433566433566
0.0261645431583	0.433566433566
0.0261645431583	0.433566433566
0.0261645431583	0.433566433566
0.0261645431583	0.433566433566
0.0261645431583	0.433566433566
0.0261645431583	0.433566433566
0.0261645431583	0.433566433566
0.0261645431583	0.433566433566
0.0261645431583	0.433566433566
0.0261645431583	0.433566433566
0.0261645431583	0.433566433566
0.0261645431583	0.433566433566
0.0261645431583	0.433566433566
0.0261645431583	0.433566433566
0.0261645431583	0.433566433566
0.0261645431583	0.433566433566
0.0261645431583	0.433566433566
0.0261645431583	0.433566433566
