0.0261783060318	0.439093484419
0.0261783060318	0.439093484419
0.0261783060318	0.439093484419
0.0261783060318	0.439093484419
0.0261783060318	0.439093484419
0.0261783060318	0.439093484419
0.0261783060318	0.439093484419
0.0261783060318	0.439093484419
0.0261783060318	0.439093484419
0.0261783060318	0.439093484419
0.0261783060318	0.439093484419
0.0261783060318	0.439093484419
0.0261783060318	0.439093484419
0.0261783060318	0.439093484419
0.0261783060318	0.439093484419
0.0261783060318	0.439093484419
0.0261783060318	0.439093484419
0.0261783060318	0.439093484419
0.0261783060318	0.439093484419
0.0261783060318	0.439093484419
0.0261783060318	0.439093484419
0.0261783060318	0.439093484419
0.0261783060318	0.439093484419
0.0261783060318	0.439093484419
0.0261783060318	0.439093484419
0.0261783060318	0.439093484419
0.0261783060318	0.439093484419
0.0261783060318	0.439093484419
0.0261783060318	0.439093484419
0.0261783060318	0.439093484419
