0.0261692346596	0.435393258427
0.0261692346596	0.435393258427
0.0261692346596	0.435393258427
0.0261692346596	0.435393258427
0.0261692346596	0.435393258427
0.0261692346596	0.435393258427
0.0261692346596	0.435393258427
0.0261692346596	0.435393258427
0.0261692346596	0.435393258427
0.0261692346596	0.435393258427
0.0261692346596	0.435393258427
0.0261692346596	0.435393258427
0.0261692346596	0.435393258427
0.0261692346596	0.435393258427
0.0261692346596	0.435393258427
0.0261692346596	0.435393258427
0.0261692346596	0.435393258427
0.0261692346596	0.435393258427
0.0261692346596	0.435393258427
0.0261692346596	0.435393258427
0.0261692346596	0.435393258427
0.0261692346596	0.435393258427
0.0261692346596	0.435393258427
0.0261692346596	0.435393258427
0.0261692346596	0.435393258427
0.0261692346596	0.435393258427
0.0261692346596	0.435393258427
0.0261692346596	0.435393258427
0.0261692346596	0.435393258427
0.0261692346596	0.435393258427
