0.026186961175	0.442857142857
0.026186961175	0.442857142857
0.026186961175	0.442857142857
0.026186961175	0.442857142857
0.026186961175	0.442857142857
0.026186961175	0.442857142857
0.026186961175	0.442857142857
0.026186961175	0.442857142857
0.026186961175	0.442857142857
0.026186961175	0.442857142857
0.026186961175	0.442857142857
0.026186961175	0.442857142857
0.026186961175	0.442857142857
0.026186961175	0.442857142857
0.026186961175	0.442857142857
0.026186961175	0.442857142857
0.026186961175	0.442857142857
0.026186961175	0.442857142857
0.026186961175	0.442857142857
0.026186961175	0.442857142857
0.026186961175	0.442857142857
0.026186961175	0.442857142857
0.026186961175	0.442857142857
0.026186961175	0.442857142857
0.026186961175	0.442857142857
0.026186961175	0.442857142857
0.026186961175	0.442857142857
0.026186961175	0.442857142857
0.026186961175	0.442857142857
0.026186961175	0.442857142857
