0.0261738223208	0.437235543018
0.0261738223208	0.437235543018
0.0261738223208	0.437235543018
0.0261738223208	0.437235543018
0.0261738223208	0.437235543018
0.0261738223208	0.437235543018
0.0261738223208	0.437235543018
0.0261738223208	0.437235543018
0.0261738223208	0.437235543018
0.0261738223208	0.437235543018
0.0261738223208	0.437235543018
0.0261738223208	0.437235543018
0.0261738223208	0.437235543018
0.0261738223208	0.437235543018
0.0261738223208	0.437235543018
0.0261738223208	0.437235543018
0.0261738223208	0.437235543018
0.0261738223208	0.437235543018
0.0261738223208	0.437235543018
0.0261738223208	0.437235543018
0.0261738223208	0.437235543018
0.0261738223208	0.437235543018
0.0261738223208	0.437235543018
0.0261738223208	0.437235543018
0.0261738223208	0.437235543018
0.0261738223208	0.437235543018
0.0261738223208	0.437235543018
0.0261738223208	0.437235543018
0.0261738223208	0.437235543018
0.0261738223208	0.437235543018
