0.0486192647755	0.6
0.0486192647755	0.6
0.0486192647755	0.6
0.0486192647755	0.6
0.0486192647755	0.6
0.0486192647755	0.6
0.0486192647755	0.6
0.0486192647755	0.6
0.0486192647755	0.6
0.0486192647755	0.6
0.0486192647755	0.6
0.0486192647755	0.6
0.0486192647755	0.6
0.0486192647755	0.6
0.0486192647755	0.6
0.0486192647755	0.6
0.0486192647755	0.6
0.0486192647755	0.6
0.0486192647755	0.6
0.0486192647755	0.6
0.0486192647755	0.6
0.0486192647755	0.6
0.0486192647755	0.6
0.0486192647755	0.6
0.0486192647755	0.6
0.0486192647755	0.6
0.0486192647755	0.6
0.0486192647755	0.6
0.0486192647755	0.6
0.0486192647755	0.6
