0.26450638415	0.295217476875
0.236646969766	0.295874263261
0.264485656505	0.300452845048
0.264808940235	0.312450436162
0.212135962169	0.30165615142
0.22038231305	0.298372868065
0.26448808939	0.294811320755
0.264523085176	0.297100019728
0.26448258279	0.294695481336
0.264483921418	0.295888254968
0.26450638415	0.295217476875
0.264490796108	0.294869274622
0.264446935432	0.294002352019
0.247024446128	0.296056503826
0.264498729912	0.295043273013
0.264534204502	0.295916354311
0.218304265538	0.300748916043
0.264513758774	0.29539188657
0.264478322731	0.302458210423
0.264508873429	0.295275590551
0.264534288639	0.297393364929
0.26448258279	0.294695481336
0.264508873429	0.295275590551
0.264474090008	0.294521892794
0.190782108919	0.312586172937
0.264527668994	0.295741324921
0.264484813839	0.296223446105
0.264515990141	0.296924290221
0.231780850047	0.296420141621
0.26448258279	0.294695481336
