0.264520853737	0.295566502463
0.264498729912	0.295043273013
0.264490796108	0.294869274622
0.200777306139	0.303578450649
0.264509022183	0.295785742418
0.264455566488	0.295758051846
0.26448258279	0.294695481336
0.264498729912	0.295043273013
0.26450638415	0.295217476875
0.264417267735	0.29348464097
0.264527668994	0.295741324921
0.26065190769	0.296807252661
0.264465317817	0.294348508634
0.264552132124	0.296442687747
0.264427436102	0.293657008614
0.264533091472	0.300671671276
0.264532057085	0.295857988166
0.264582182656	0.303762376238
0.249791024721	0.29897718332
0.264746208672	0.311102315456
0.264465317817	0.294348508634
0.264520853737	0.295566502463
0.26451303856	0.297318611987
0.264427436102	0.293657008614
0.224778390923	0.296905601253
0.264513758774	0.29539188657
0.264456266273	0.294175328496
0.264456266273	0.294175328496
0.264490796108	0.294869274622
0.264474090008	0.294521892794
