0.197206323397	0.30160595378
0.264513758774	0.29539188657
0.208181012059	0.299881936246
0.264437325355	0.293829578844
0.264532057085	0.295857988166
0.264718313089	0.310671936759
0.451055953643	0.486007094994
0.264482731526	0.295204402516
0.1872799394	0.306102554104
0.210228161387	0.307086614173
0.264465317817	0.294348508634
0.264508873429	0.295275590551
0.264550430752	0.300356153542
0.222565696969	0.295570364563
0.264492283529	0.296143250689
0.218235225037	0.297021943574
1.0	1.0
0.264474090008	0.294521892794
0.247046229378	0.298918387414
0.26450638415	0.295217476875
0.264465317817	0.294348508634
0.210325768326	0.310283336636
0.222544681895	0.295245548816
0.247070155617	0.296062992126
0.264513758774	0.29539188657
0.264520853737	0.295566502463
0.222702778272	0.305225653207
0.264465317817	0.294348508634
0.212100032824	0.299587183016
0.264549119215	0.300692383778
