0.264520853737	0.295566502463
0.229549632353	0.306962025316
0.264862867162	0.313272220008
0.264498729912	0.295043273013
0.264994743267	0.31675911252
0.210201090672	0.306134486827
0.26450638415	0.295217476875
0.264508873429	0.295275590551
0.264544998625	0.300771208226
0.216205673905	0.303066037736
0.231793168681	0.299389403191
0.264532057085	0.295857988166
0.264527668994	0.295741324921
0.264498729912	0.295043273013
0.218341430343	0.304022082019
0.26563713865	0.326449563145
0.26448258279	0.294695481336
0.252857470654	0.289313127337
0.249816818643	0.296631869214
0.26452180679	0.303173664498
0.192497403602	0.315041452823
0.26448258279	0.294695481336
0.265632346691	0.326461843409
0.264541873999	0.303532662325
0.264508873429	0.295275590551
0.264520853737	0.295566502463
0.264550942371	0.30195768242
0.26448258279	0.294695481336
0.264458308034	0.299587183016
0.249793367497	0.29604875172
