0.960792316927	0.98
0.264456266273	0.294175328496
0.264474090008	0.294521892794
0.264505339857	0.29929022082
0.264481605446	0.305064782097
0.264796964555	0.311478676764
0.24977380994	0.296936370778
0.216230451972	0.302192376062
0.267997321795	0.347973647435
0.176574930941	0.318908382066
0.189425861843	0.318743866536
0.264508873429	0.295275590551
0.26438508861	0.29296875
0.264511104746	0.296807252661
0.264508873429	0.295275590551
0.26450638415	0.295217476875
0.255492288814	0.295669291339
0.264474090008	0.294521892794
0.960792316927	0.98
0.249837498158	0.297217288336
0.264501853613	0.296828835927
0.264576020112	0.302417756639
0.264678178521	0.30821102737
0.264456266273	0.294175328496
0.264498729912	0.295043273013
0.237239352709	0.276687598116
0.264509022183	0.295785742418
0.264513758774	0.29539188657
0.960792316927	0.98
0.264513758774	0.29539188657
