0.2645472864	0.302371541502
0.264520853737	0.295566502463
0.264417267735	0.29348464097
0.234173268233	0.296601846396
0.264498729912	0.295043273013
0.231792390715	0.296573454116
0.264532057085	0.295857988166
0.264475191359	0.299094844549
0.214116090477	0.300137497545
0.26446754869	0.295874263261
0.198017926885	0.285573512022
0.255493144768	0.296237935789
0.264513758774	0.29539188657
0.264500217387	0.296318172869
0.264498729912	0.295043273013
0.264509765954	0.296354679803
0.212136078749	0.302206461781
0.264509022183	0.295785742418
0.220460727244	0.30100730792
0.264417267735	0.29348464097
0.264522429284	0.301164397079
0.216184278594	0.27960591133
0.264508873429	0.295275590551
0.247047217167	0.295874263261
0.264490796108	0.294869274622
0.264396093923	0.293140512019
0.26450593845	0.298895899054
0.222770249458	0.308363059849
0.264498729912	0.295043273013
0.26450638415	0.295217476875
