0.990098039216	0.995
0.224803175294	0.424042347316
0.990098039216	0.995
0.990098039216	0.995
0.257401927703	0.443367226295
0.268235506266	0.449101796407
0.990098039216	0.995
0.990098039216	0.995
0.990098039216	0.995
0.25487496909	0.442008486563
0.257401927703	0.443367226295
0.990098039216	0.995
0.990098039216	0.995
0.221241441646	0.421952877209
0.990098039216	0.995
0.234710066909	0.429741578219
0.990098039216	0.995
0.269525208534	0.449775112444
0.990098039216	0.995
0.0820540408504	0.234857553268
0.990098039216	0.995
0.990098039216	0.995
0.224803175294	0.424042347316
0.22242057827	0.422647075509
0.990098039216	0.995
0.172167765673	0.348147756698
0.990098039216	0.995
0.221241441646	0.421952877209
0.22242057827	0.422647075509
0.226006750734	0.424743443558
