0.970494197679	0.985
0.162634451639	0.356193009119
0.970494197679	0.985
0.970494197679	0.985
0.970494197679	0.985
0.970494197679	0.985
0.970494197679	0.985
0.970494197679	0.985
0.970494197679	0.985
0.970494197679	0.985
0.157843627471	0.348202522116
0.159378491037	0.346769689071
0.970494197679	0.985
0.142838626704	0.308059548255
0.152974755724	0.316398311709
0.970494197679	0.985
0.970494197679	0.985
0.156342124315	0.348675034868
0.970494197679	0.985
0.970494197679	0.985
0.156064751128	0.315725593668
0.970494197679	0.985
0.153247157813	0.340277777778
0.148488954568	0.310470441299
0.158788765154	0.34948521772
0.970494197679	0.985
0.970494197679	0.985
0.970494197679	0.985
0.970494197679	0.985
0.970494197679	0.985
