0.980396158463	0.99
0.980396158463	0.99
0.980396158463	0.99
0.980396158463	0.99
0.980396158463	0.99
0.980396158463	0.99
0.980396158463	0.99
0.980396158463	0.99
0.198616522358	0.347542857143
0.179327890262	0.371581450654
0.313017498564	0.46915615292
0.980396158463	0.99
0.311595754161	0.468473031147
0.178686865619	0.370699881376
0.980396158463	0.99
0.181890848168	0.375168825972
0.29370930493	0.459741550696
0.175760582999	0.366748166259
0.980396158463	0.99
0.980396158463	0.99
0.980396158463	0.99
0.116656178813	0.235974551764
0.980396158463	0.99
0.980396158463	0.99
0.178025991093	0.317196954909
0.980396158463	0.99
0.179967558309	0.372467222884
0.980396158463	0.99
0.980396158463	0.99
0.310181289668	0.467791895821
