0.177024451254	0.392752408881
1.0	1.0
0.196954992277	0.402792696026
1.0	1.0
1.0	1.0
1.0	1.0
1.0	1.0
1.0	1.0
1.0	1.0
1.0	1.0
1.0	1.0
1.0	1.0
0.196779927597	0.402446877012
0.189993089087	0.396825396825
0.33181417523	0.488747878698
1.0	1.0
1.0	1.0
0.222420334388	0.38956846755
1.0	1.0
1.0	1.0
1.0	1.0
0.191853658728	0.396699460489
0.329422968832	0.494390261788
0.194022775525	0.400983746792
0.191272322442	0.403399311532
0.193343451873	0.399616368286
1.0	1.0
0.196954992277	0.402792696026
0.191853658728	0.396699460489
0.191554552192	0.392752408881
