0.203482352941	0.4512
0.203482352941	0.4512
0.24910060024	0.4992
0.186525810324	0.432
0.24910060024	0.4992
0.178324129652	0.4224
0.203482352941	0.4512
0.24910060024	0.4992
0.24910060024	0.4992
0.144305722289	0.38
0.203482352941	0.4512
0.24910060024	0.4992
0.203482352941	0.4512
0.24910060024	0.4992
0.24910060024	0.4992
0.24910060024	0.4992
0.144305722289	0.38
0.203482352941	0.4512
0.203482352941	0.4512
0.24910060024	0.4992
0.144305722289	0.38
0.203482352941	0.4512
0.24910060024	0.4992
0.203482352941	0.4512
0.203482352941	0.4512
0.24910060024	0.4992
0.178324129652	0.4224
0.203482352941	0.4512
0.24910060024	0.4992
0.24910060024	0.4992
