0.0812574629852	0.2852
0.0812574629852	0.2852
0.0812574629852	0.2852
0.0812574629852	0.2852
0.0812574629852	0.2852
0.0812574629852	0.2852
0.0812574629852	0.2852
0.0812574629852	0.2852
0.0812574629852	0.2852
0.0812574629852	0.2852
0.0	0.0
0.0812574629852	0.2852
1.93083401498e-05	0.0036855036855
0.0812574629852	0.2852
0.0812574629852	0.2852
0.0812574629852	0.2852
0.0812574629852	0.2852
0.0812574629852	0.2852
0.0812574629852	0.2852
0.0812574629852	0.2852
0.0812574629852	0.2852
0.0812574629852	0.2852
0.0812574629852	0.2852
0.0812574629852	0.2852
0.0812574629852	0.2852
0.0812574629852	0.2852
0.0812574629852	0.2852
3.47697590021e-05	0.00485731633273
0.0812574629852	0.2852
0.0812574629852	0.2852
