0.153568627451	0.392
0.153568627451	0.392
0.153568627451	0.392
0.153568627451	0.392
0.153568627451	0.392
0.147361344538	0.384
0.153568627451	0.392
0.153568627451	0.392
0.153568627451	0.392
0.153568627451	0.392
0.153568627451	0.392
0.153568627451	0.392
0.153568627451	0.392
0.153568627451	0.392
0.153568627451	0.392
0.153568627451	0.392
0.153568627451	0.392
0.153568627451	0.392
0.147361344538	0.384
0.153568627451	0.392
0.153568627451	0.392
0.153568627451	0.392
0.153568627451	0.392
0.153568627451	0.392
0.153568627451	0.392
0.147361344538	0.384
0.147361344538	0.384
0.153568627451	0.392
0.153568627451	0.392
0.153568627451	0.392
