0.0971903466244	0.309948474039
0.0971903466244	0.309948474039
0.0971903466244	0.309948474039
0.0971903466244	0.309948474039
0.0971903466244	0.309948474039
0.0971903466244	0.309948474039
0.0971903466244	0.309948474039
0.0971903466244	0.309948474039
0.0971903466244	0.309948474039
0.0971903466244	0.309948474039
0.0971903466244	0.309948474039
0.0971903466244	0.309948474039
0.0971903466244	0.309948474039
0.0971903466244	0.309948474039
0.0971903466244	0.309948474039
0.0971903466244	0.309948474039
0.0971903466244	0.309948474039
0.0971903466244	0.309948474039
0.0971903466244	0.309948474039
0.0971903466244	0.309948474039
0.0971903466244	0.309948474039
0.0971903466244	0.309948474039
0.0971903466244	0.309948474039
0.0971903466244	0.309948474039
0.0971903466244	0.309948474039
0.0971903466244	0.309948474039
0.132049382151	0.361331220285
0.0971903466244	0.309948474039
0.0971903466244	0.309948474039
0.0971903466244	0.309948474039
