0.100275630252	0.3168
0.100275630252	0.3168
0.100275630252	0.3168
0.100275630252	0.3168
0.100275630252	0.3168
0.100275630252	0.3168
0.100275630252	0.3168
0.100275630252	0.3168
0.100275630252	0.3168
0.100275630252	0.3168
0.100275630252	0.3168
0.100275630252	0.3168
0.100275630252	0.3168
0.100275630252	0.3168
0.100275630252	0.3168
0.100275630252	0.3168
0.100275630252	0.3168
0.100275630252	0.3168
0.100275630252	0.3168
0.100275630252	0.3168
0.100275630252	0.3168
0.100275630252	0.3168
3.03804939868e-05	0.00454407755226
0.100275630252	0.3168
0.100275630252	0.3168
0.100275630252	0.3168
0.100275630252	0.3168
0.100275630252	0.3168
0.100275630252	0.3168
0.100275630252	0.3168
