0.118551419789	0.342313787639
0.118551419789	0.342313787639
0.118551419789	0.342313787639
0.118551419789	0.342313787639
0.118551419789	0.342313787639
0.118551419789	0.342313787639
0.118551419789	0.342313787639
0.118551419789	0.342313787639
0.118551419789	0.342313787639
0.118551419789	0.342313787639
0.118551419789	0.342313787639
0.118551419789	0.342313787639
0.118551419789	0.342313787639
0.118551419789	0.342313787639
0.118551419789	0.342313787639
0.118551419789	0.342313787639
0.118551419789	0.342313787639
0.118551419789	0.342313787639
0.118551419789	0.342313787639
0.118551419789	0.342313787639
0.118551419789	0.342313787639
0.118551419789	0.342313787639
0.106639300971	0.324871082904
0.118551419789	0.342313787639
0.118551419789	0.342313787639
0.118551419789	0.342313787639
0.118551419789	0.342313787639
0.118551419789	0.342313787639
0.118551419789	0.342313787639
0.118551419789	0.342313787639
