0.0615327429775	0.309033280507
0.058467080777	0.295217476875
0.0651212859312	0.303638151426
0.0584674484242	0.29539188657
0.0622968230979	0.299706170421
0.0584663036139	0.294869274622
0.0584672048768	0.295275590551
0.058467080777	0.295217476875
0.0584680917721	0.297515772871
0.0584683605816	0.295857988166
0.0654691667057	0.307707509881
0.0584672048768	0.295275590551
0.0584663036139	0.294869274622
0.0584681418473	0.295741324921
0.0634031319031	0.301202444313
0.0584672048768	0.295275590551
0.0584666991734	0.295043273013
0.09422314985	0.316543898069
0.0559445593798	0.298589341693
0.0584654706297	0.294521892794
0.0589699131699	0.338120885697
0.0584650332062	0.294348508634
0.0584681418473	0.295741324921
0.0584683445212	0.297771642674
0.0584674484242	0.29539188657
0.0584892020157	0.304716794948
0.0584681418473	0.295741324921
0.0586424370753	0.301883091408
0.0584678671064	0.297260003942
0.0584658940992	0.294695481336
