0.0584684940751	0.298186834844
0.0584678696747	0.296924290221
0.0584656229313	0.296128905482
0.0608641510267	0.296448891505
0.0584789154097	0.302730510487
0.778065891986	0.82
0.0584972912629	0.306899286281
0.0688237130505	0.303137951451
0.0584681418473	0.295741324921
0.0571024023199	0.295874263261
0.0584681418473	0.295741324921
0.0584683605816	0.295857988166
0.780858521486	0.83
0.0629955766526	0.305359937402
0.0584655548768	0.295284872299
0.0584658940992	0.294695481336
0.0602771720813	0.305230288837
0.0584654706297	0.294521892794
0.058467747552	0.297755021662
0.0438691554825	0.331577920811
0.0585425148522	0.31349522293
0.0584859383341	0.303902246748
0.0563731385276	0.297185593387
0.1244000383	0.401080872418
0.0603207885095	0.297142857143
0.0584671204182	0.296573454116
0.0584674484242	0.29539188657
0.0612839921063	0.33950260266
0.0587779551209	0.329088738559
0.0584683605816	0.295857988166
