0.0214662043699	0.0806375996249
0.0362744627461	0.102376599634
0.0321784469837	0.0924528301887
0.0229302710753	0.0886516853933
0.0179324387021	0.0792045259729
0.0319053872085	0.127041149575
0.0246653682074	0.0865092748735
0.0447188104288	0.170733333333
0.0190017615972	0.0825225225225
0.0167497934632	0.0680384998341
0.313800720288	0.5568
1.04586990755e-05	0.00177449693012
0.313800720288	0.5568
0.0270710680383	0.0939404197698
0.0229214796809	0.0853185595568
0.00977686838665	0.0819299552906
0.362330852341	0.600533333333
0.0154471900606	0.111613998222
0.0805236423141	0.149888274727
0.198805747523	0.319508448541
0.0179957513361	0.144823498419
0.0776588165308	0.221684210526
0.313800720288	0.5568
0.0407606002589	0.169853213272
0.0298172837926	0.0923203575209
0.0475560189419	0.178217821782
0.362330852341	0.600533333333
0.0361079811659	0.142596491228
0.000143920031931	0.0056415865523
0.243287181539	0.471466666667
