0.266391463252	0.408266666667
0.00441681166459	0.047532384113
0.131165598339	0.289409368635
0.240139253792	0.375376128385
0.491068854208	0.593333333333
0.0365772779218	0.123139772396
0.00268345073973	0.031439688716
0.231422377243	0.346501128668
0.329527117514	0.5656
0.576794664532	0.732533333333
0.0779414359695	0.17972256222
0.0949063542449	0.221204188482
0.00816508305792	0.101546601547
0.00369144892172	0.0420262664165
0.286630598906	0.5192
0.0950342444859	0.221378708551
0.000245583043373	0.00709421112372
0.187199110592	0.373930753564
0.320228037882	0.5592
0.0271797901403	0.117100166021
0.183522846814	0.370061099796
0.00202818456633	0.0218899089925
0.0950342444859	0.221378708551
0.0294444710947	0.136937487273
0.576794664532	0.732533333333
0.00724205181815	0.105144452798
0.0841969515138	0.178818921362
0.0897416454436	0.216404886562
0.320228037882	0.5592
0.128610505583	0.254343434343
