0.241300040016	0.386133333333
0.00770706766269	0.0859612614055
0.00208439815443	0.052250012946
0.0161010140273	0.156779327188
0.530580872349	0.693866666667
0.530580872349	0.693866666667
0.326436281179	0.564266666667
0.00537499652616	0.0486052238505
0.00789896234719	0.0579916139578
0.120478713991	0.262706579358
0.0104422946749	0.0615574022776
0.0511360529483	0.181065174744
0.264326939796	0.369384073533
0.117531592219	0.245567375887
0.0526435510034	0.183461486578
0.104462443747	0.243610914524
0.00323013641021	0.042331028644
0.101656672599	0.23878826228
0.0169175971335	0.11953125
0.182707863326	0.30299015897
0.0226259651637	0.101015528451
0.385723996265	0.6112
0.105977232044	0.275769983977
0.429418594104	0.6196
0.508307963185	0.6872
0.185970508312	0.30376264859
0.484212991863	0.650533333333
0.105977232044	0.275769983977
0.0191376360321	0.121688040224
0.267363905562	0.502933333333
