0.115510204082	0.34
0.115510204082	0.34
0.115510204082	0.34
0.115510204082	0.34
0.115510204082	0.34
0.115510204082	0.34
0.115510204082	0.34
0.115510204082	0.34
0.115510204082	0.34
0.115510204082	0.34
0.115510204082	0.34
0.115510204082	0.34
0.115510204082	0.34
0.115510204082	0.34
0.115510204082	0.34
0.115510204082	0.34
0.115510204082	0.34
0.115510204082	0.34
0.115510204082	0.34
0.115510204082	0.34
0.115510204082	0.34
0.115510204082	0.34
0.115510204082	0.34
0.115510204082	0.34
0.115510204082	0.34
0.115510204082	0.34
0.115510204082	0.34
0.115510204082	0.34
0.115510204082	0.34
0.115510204082	0.34
