0.10881152461	0.33
0.10881152461	0.33
0.10881152461	0.33
0.10881152461	0.33
0.10881152461	0.33
0.10881152461	0.33
0.10881152461	0.33
0.10881152461	0.33
0.10881152461	0.33
0.10881152461	0.33
0.10881152461	0.33
0.10881152461	0.33
0.10881152461	0.33
0.10881152461	0.33
0.10881152461	0.33
0.10881152461	0.33
0.10881152461	0.33
0.10881152461	0.33
0.10881152461	0.33
0.10881152461	0.33
0.10881152461	0.33
0.10881152461	0.33
0.10881152461	0.33
0.10881152461	0.33
1.72606040521e-06	0.00119904076739
0.10881152461	0.33
0.10881152461	0.33
0.10881152461	0.33
0.10881152461	0.33
0.10881152461	0.33
