0.109604801921	0.3312
0.109604801921	0.3312
0.109604801921	0.3312
0.109604801921	0.3312
0.109604801921	0.3312
0.109604801921	0.3312
0.109604801921	0.3312
0.109604801921	0.3312
0.109604801921	0.3312
0.109604801921	0.3312
0.109604801921	0.3312
0.109604801921	0.3312
0.109604801921	0.3312
0.109604801921	0.3312
0.109604801921	0.3312
0.109604801921	0.3312
0.109604801921	0.3312
0.109604801921	0.3312
0.109604801921	0.3312
0.109604801921	0.3312
0.109604801921	0.3312
0.109604801921	0.3312
0.109604801921	0.3312
0.109604801921	0.3312
0.109604801921	0.3312
0.109604801921	0.3312
0.109604801921	0.3312
0.109604801921	0.3312
0.109604801921	0.3312
0.109604801921	0.3312
