1.0	1.0
1.0	1.0
1.0	1.0
1.0	1.0
1.0	1.0
1.0	1.0
1.0	1.0
1.0	1.0
1.0	1.0
1.0	1.0
1.0	1.0
1.0	1.0
1.0	1.0
0.954079174694	0.99
1.0	1.0
1.0	1.0
1.0	1.0
1.0	1.0
1.0	1.0
1.0	1.0
0.954079174694	0.99
1.0	1.0
1.0	1.0
1.0	1.0
1.0	1.0
1.0	1.0
0.954079174694	0.99
1.0	1.0
0.954079174694	0.99
1.0	1.0
