0.997324697116	0.99
1.0	1.0
1.0	1.0
1.0	1.0
0.997324697116	0.99
1.0	1.0
1.0	1.0
1.0	1.0
0.997324697116	0.99
1.0	1.0
1.0	1.0
1.0	1.0
1.0	1.0
0.997324697116	0.99
1.0	1.0
1.0	1.0
1.0	1.0
1.0	1.0
0.997324697116	0.99
1.0	1.0
0.997324697116	0.99
0.997324697116	0.99
1.0	1.0
0.997324697116	0.99
0.997324697116	0.99
1.0	1.0
0.997324697116	0.99
1.0	1.0
0.997324697116	0.99
1.0	1.0
