0.954079174694	0.99
0.997324697116	0.99
0.997324697116	0.99
0.951457929254	0.98
1.0	1.0
1.0	1.0
1.0	1.0
0.948890741257	0.97
1.0	1.0
1.0	1.0
0.948890741257	0.97
1.0	1.0
1.0	1.0
0.946377610704	0.96
1.0	1.0
1.0	1.0
0.994703451676	0.98
1.0	1.0
0.994703451676	0.98
1.0	1.0
0.997324697116	0.99
0.951457929254	0.98
0.948890741257	0.97
0.997324697116	0.99
0.948890741257	0.97
1.0	1.0
1.0	1.0
0.951457929254	0.98
0.948890741257	0.97
1.0	1.0
