0.00454453781513	0.0676
0.00454453781513	0.0676
0.00454453781513	0.0676
0.00454453781513	0.0676
0.00454453781513	0.0676
0.00454453781513	0.0676
0.00454453781513	0.0676
0.00454453781513	0.0676
0.00454453781513	0.0676
0.00454453781513	0.0676
0.00454453781513	0.0676
0.00454453781513	0.0676
0.00454453781513	0.0676
0.00454453781513	0.0676
0.00454453781513	0.0676
0.00454453781513	0.0676
0.00454453781513	0.0676
0.00454453781513	0.0676
0.00454453781513	0.0676
0.00454453781513	0.0676
0.00454453781513	0.0676
0.00454453781513	0.0676
0.00454453781513	0.0676
0.00454453781513	0.0676
0.00454453781513	0.0676
0.00454453781513	0.0676
0.00454453781513	0.0676
0.00454453781513	0.0676
0.00454453781513	0.0676
0.00454453781513	0.0676
