0.00228422254854	0.0476947535771
0.00228422254854	0.0476947535771
0.00228422254854	0.0476947535771
0.00228422254854	0.0476947535771
0.00228422254854	0.0476947535771
0.00228422254854	0.0476947535771
0.00228422254854	0.0476947535771
0.00228422254854	0.0476947535771
0.00228422254854	0.0476947535771
0.00228422254854	0.0476947535771
0.00228422254854	0.0476947535771
0.00228422254854	0.0476947535771
0.00228422254854	0.0476947535771
0.00228422254854	0.0476947535771
0.00228422254854	0.0476947535771
0.00228422254854	0.0476947535771
0.00228422254854	0.0476947535771
0.00228422254854	0.0476947535771
0.00228422254854	0.0476947535771
0.00228422254854	0.0476947535771
0.00228422254854	0.0476947535771
0.00228422254854	0.0476947535771
0.00228422254854	0.0476947535771
0.00228422254854	0.0476947535771
0.00228422254854	0.0476947535771
0.00228422254854	0.0476947535771
0.00228422254854	0.0476947535771
0.00228422254854	0.0476947535771
0.00228422254854	0.0476947535771
0.00228422254854	0.0476947535771
