0.0641237552248	0.8
0.0472277269914	0.519792083167
0.0641237552248	0.8
0.0641237552248	0.8
0.0453604311217	0.50969418349
0.0641237552248	0.8
0.0641237552248	0.8
0.0641237552248	0.8
0.0641237552248	0.8
0.0641237552248	0.8
0.0641237552248	0.8
0.0641237552248	0.8
0.0641237552248	0.8
0.0641237552248	0.8
0.0641237552248	0.8
0.0641237552248	0.8
0.0641237552248	0.8
0.0641237552248	0.8
0.0472277269914	0.519792083167
0.0641237552248	0.8
0.0641237552248	0.8
0.0641237552248	0.8
0.0472277269914	0.519792083167
0.0641237552248	0.8
0.0641237552248	0.8
0.0641237552248	0.8
0.0641237552248	0.8
