0.0641237552248	0.8
0.0641237552248	0.8
0.0342416778797	0.599880023995
0.0641237552248	0.8
0.0641237552248	0.8
0.0641237552248	0.8
0.0641237552248	0.8
0.0641237552248	0.8
0.0641237552248	0.8
0.0641237552248	0.8
0.0641237552248	0.8
0.0334435422102	0.589764094362
0.0641237552248	0.8
0.0641237552248	0.8
0.0641237552248	0.8
0.0641237552248	0.8
0.0334435422102	0.589764094362
0.0641237552248	0.8
0.0641237552248	0.8
0.0641237552248	0.8
0.0641237552248	0.8
