2.83712088972e-06	0.0014744913005
2.83712088972e-06	0.0014744913005
0.0	0.0
3.02050378379e-06	0.0016092693917
0.0	0.0
4.5155289039e-06	0.00192061459667
2.87677065234e-06	0.00149925037481
1.70915629209e-06	0.00118483412322
1.36493056598e-05	0.00324780772978
1.36493056598e-05	0.00324780772978
0.0	0.0
1.36493056598e-05	0.00324780772978
0.0	0.0
9.20616186826e-07	0.000994365263507
6.4783143056e-06	0.00234978180598
2.80055170869e-06	0.0014530659692
0.0	0.0
4.6294324501e-06	0.00201545179711
4.6294324501e-06	0.00201545179711
1.36493056598e-05	0.00324780772978
0.0	0.0
4.6294324501e-06	0.00201545179711
1.09213625492e-05	0.0029230269568
1.09213625492e-05	0.0029230269568
1.36493056598e-05	0.00324780772978
3.08765004821e-07	0.000671591672263
9.28724137355e-07	0.00101385603244
2.87677065234e-06	0.00149925037481
6.51212464579e-06	0.00237852531431
2.86418630043e-06	0.00149120190874
