5.88226006339e-05	0.00679809653297
8.45264010251e-05	0.00797607178465
8.45264010251e-05	0.00797607178465
0.0	0.0
0.0	0.0
9.31413503819e-05	0.00857044909153
0.0	0.0
0.0	0.0
0.0	0.0
0.0	0.000331235508446
3.14659943852e-07	0.000707213578501
1.77754656505e-06	0.00124766063631
0.0	0.0
0.0	0.0
0.0	0.0
0.0	0.0
8.52263779345e-05	0.00811907983762
5.8527809951e-05	0.00672043010753
2.89055853974e-07	0.000602772754671
8.71809178407e-06	0.00274725274725
2.0495214057e-05	0.00409836065574
0.0	0.000345901072293
0.0	0.0
8.45264010251e-05	0.00797607178465
3.08948062741e-06	0.00168293503871
8.45264010251e-05	0.00797607178465
0.0	0.0
0.0	0.0
4.76399985428e-05	0.00620261888353
8.45264010251e-05	0.00797607178465
