0.0	0.0
0.0	0.0
2.89738001515e-07	0.000604594921403
0.0	0.0
0.0	0.0
0.0	0.0
1.36807015464e-05	0.00326157860404
0.0	0.0
8.36026033851e-06	0.00252844500632
0.0	0.0
8.62734875718e-06	0.00267916945747
8.36026033851e-06	0.00252844500632
0.0	0.0
0.0	0.0
1.35696871282e-05	0.0032144005143
1.35696871282e-05	0.0032144005143
8.43380352792e-06	0.00256492465534
0.0	0.0
8.43380352792e-06	0.00256492465534
8.36026033851e-06	0.00252844500632
0.0	0.0
8.43380352792e-06	0.00256492465534
8.36026033851e-06	0.00252844500632
1.35696871282e-05	0.0032144005143
0.0	0.0
0.0	0.0
8.43380352792e-06	0.00256492465534
8.43380352792e-06	0.00256492465534
0.0	0.0
8.43380352792e-06	0.00256492465534
