3.07644504469e-07	0.000666222518321
9.34559932861e-07	0.0010298661174
0.0	0.0
0.0	0.0
0.0	0.0
0.0	0.0
9.34559932861e-07	0.0010298661174
0.0	0.0
1.87659510584e-06	0.00138888888889
0.0	0.0
3.0652750318e-07	0.000661157024793
0.0	0.0
0.0	0.0
0.0	0.0
3.10654035474e-07	0.000681431005111
3.10654035474e-07	0.000681431005111
3.10654035474e-07	0.000681431005111
0.0	0.0
3.0652750318e-07	0.000661157024793
0.0	0.0
1.80620666797e-06	0.00127959053103
9.4049400388e-07	0.00104858441105
1.84586986617e-06	0.00133333333333
0.0	0.0
9.34559932861e-07	0.0010298661174
3.09662811261e-07	0.000676132521974
0.0	0.0
1.80620666797e-06	0.00127959053103
0.0	0.0
0.0	0.0
