0.0	0.0
0.0	0.0
0.0	0.0
0.0	0.0
0.0	0.0
0.0	0.0
0.0	0.0
0.0	0.0
1.78126430578e-06	0.00125156445557
0.0	0.0
4.47509386509e-06	0.0018927444795
2.73948354413e-05	0.00449293966624
0.0	0.0
0.0	0.0
0.0	0.0
4.62036750403e-06	0.00200668896321
9.1091273456e-07	0.000974025974026
0.0	0.0
0.0	0.0
0.0	0.0
0.0	0.0
0.0	0.0
2.73948354413e-05	0.00449293966624
0.0	0.0
2.91086579628e-07	0.000608272506083
2.73948354413e-05	0.00449293966624
0.0	0.0
0.0	0.0
0.0	0.0
0.0	0.0
