0.0	0.0
3.67787007188e-05	0.00531208499336
1.72347717474e-05	0.00385019250963
0.0	0.0
0.0	0.00029594554602
0.0	0.000312989045383
8.72036438665e-06	0.00274914089347
0.0	0.0
1.89788193213e-06	0.00144352219415
0.0	0.0
0.0	0.0
0.0	0.0
5.79155286773e-05	0.00657678395265
2.83564183662e-05	0.0048275862069
0.0	0.0
0.0	0.00031113876789
0.0	0.0
8.7315818196e-06	0.00275862068966
0.0	0.0
0.0	0.0
2.03788993171e-05	0.00404312668464
0.0	0.0
0.0	0.0
0.0	0.0
0.000465972258177	0.0196078431373
2.83564183662e-05	0.0048275862069
8.7315818196e-06	0.00275862068966
0.0	0.0
0.0	0.0
2.03423055229e-05	0.00402684563758
