0.0309244108681	0.414473684211
0.0309244108681	0.414473684211
0.0584009562104	0.233333333333
0.0309244108681	0.414473684211
0.0309244108681	0.414473684211
0.0309244108681	0.414473684211
0.0537298919883	0.22380952381
0.0309244108681	0.414473684211
0.0309244108681	0.414473684211
0.0309244108681	0.414473684211
0.0537298919883	0.22380952381
0.0309244108681	0.414473684211
0.0584009562104	0.233333333333
0.0309244108681	0.414473684211
0.0309244108681	0.414473684211
0.0584009562104	0.233333333333
0.0537298919883	0.22380952381
0.0309244108681	0.414473684211
0.0309244108681	0.414473684211
0.0309244108681	0.414473684211
0.0309244108681	0.414473684211
0.0309244108681	0.414473684211
0.0537298919883	0.22380952381
0.0309244108681	0.414473684211
0.0309244108681	0.414473684211
0.0309244108681	0.414473684211
0.0309244108681	0.414473684211
0.0309244108681	0.414473684211
0.0309244108681	0.414473684211
0.0309244108681	0.414473684211
