0.0052861754438	0.0633914421553
0.0052861754438	0.0633914421553
0.0052861754438	0.0633914421553
0.0470882985899	0.209523809524
0.0052861754438	0.0633914421553
0.0052861754438	0.0633914421553
0.0052861754438	0.0633914421553
0.0052861754438	0.0633914421553
0.0052861754438	0.0633914421553
0.0470882985899	0.209523809524
0.0052861754438	0.0633914421553
0.0052861754438	0.0633914421553
0.0052861754438	0.0633914421553
0.0052861754438	0.0633914421553
0.0052861754438	0.0633914421553
0.0052861754438	0.0633914421553
0.0052861754438	0.0633914421553
0.0052861754438	0.0633914421553
0.0052861754438	0.0633914421553
0.0052861754438	0.0633914421553
0.0470882985899	0.209523809524
0.0470882985899	0.209523809524
0.0470882985899	0.209523809524
0.0052861754438	0.0633914421553
0.0052861754438	0.0633914421553
0.0052861754438	0.0633914421553
0.0470882985899	0.209523809524
0.0052861754438	0.0633914421553
0.0470882985899	0.209523809524
0.0052861754438	0.0633914421553
