0.0315317862836	0.423387096774
0.0315317862836	0.423387096774
0.0107208661958	0.1
0.0315317862836	0.423387096774
0.0315317862836	0.423387096774
0.0315317862836	0.423387096774
0.0315317862836	0.423387096774
0.0315317862836	0.423387096774
0.0315317862836	0.423387096774
0.0315317862836	0.423387096774
0.0315317862836	0.423387096774
0.0315317862836	0.423387096774
0.0315317862836	0.423387096774
0.0315317862836	0.423387096774
0.0315317862836	0.423387096774
0.0315317862836	0.423387096774
0.00972367817837	0.0952380952381
0.0315317862836	0.423387096774
0.0315317862836	0.423387096774
0.0315317862836	0.423387096774
0.0315317862836	0.423387096774
0.0514673604642	0.219047619048
0.0315317862836	0.423387096774
0.0315317862836	0.423387096774
0.0315317862836	0.423387096774
0.0315317862836	0.423387096774
0.0315317862836	0.423387096774
0.0315317862836	0.423387096774
0.0315317862836	0.423387096774
0.0315317862836	0.423387096774
