0.0320909583428	0.437158469945
0.0320909583428	0.437158469945
0.0320909583428	0.437158469945
0.0408847087131	0.195238095238
0.0320909583428	0.437158469945
0.0320909583428	0.437158469945
0.0320909583428	0.437158469945
0.0320909583428	0.437158469945
0.0320909583428	0.437158469945
0.0320909583428	0.437158469945
0.0320909583428	0.437158469945
0.0320909583428	0.437158469945
0.0408847087131	0.195238095238
0.0320909583428	0.437158469945
0.0320909583428	0.437158469945
0.0320909583428	0.437158469945
0.0514673604642	0.219047619048
0.0320909583428	0.437158469945
0.0320909583428	0.437158469945
0.0320909583428	0.437158469945
0.0320909583428	0.437158469945
0.0408847087131	0.195238095238
0.0320909583428	0.437158469945
0.0320909583428	0.437158469945
0.0320909583428	0.437158469945
0.0320909583428	0.437158469945
0.0320909583428	0.437158469945
0.0408847087131	0.195238095238
0.0320909583428	0.437158469945
0.0320909583428	0.437158469945
