0.0408847087131	0.195238095238
0.0301092246037	0.389030612245
0.0301092246037	0.389030612245
0.0301092246037	0.389030612245
0.0408847087131	0.195238095238
0.0408847087131	0.195238095238
0.0301092246037	0.389030612245
0.0429039049474	0.2
0.0408847087131	0.195238095238
0.0301092246037	0.389030612245
0.0301092246037	0.389030612245
0.0429039049474	0.2
0.0301092246037	0.389030612245
0.0429039049474	0.2
0.0301092246037	0.389030612245
0.0301092246037	0.389030612245
0.0301092246037	0.389030612245
0.0301092246037	0.389030612245
0.0301092246037	0.389030612245
0.0301092246037	0.389030612245
0.0301092246037	0.389030612245
0.0301092246037	0.389030612245
0.0301092246037	0.389030612245
0.0301092246037	0.389030612245
0.0301092246037	0.389030612245
0.0301092246037	0.389030612245
0.0301092246037	0.389030612245
0.0301092246037	0.389030612245
0.0301092246037	0.389030612245
0.0301092246037	0.389030612245
