0.0717259440871	0.5
0.0717259440871	0.5
0.0717259440871	0.5
0.0863151540161	0.519792083167
0.0717259440871	0.5
0.0717259440871	0.5
0.0717259440871	0.5
0.0717259440871	0.5
0.0717259440871	0.5
0.0717259440871	0.5
0.0999594451433	0.7
0.0717259440871	0.5
0.0999594451433	0.7
0.0717259440871	0.5
0.0717259440871	0.5
0.0717259440871	0.5
0.0999594451433	0.7
0.0717259440871	0.5
0.0717259440871	0.5
0.0717259440871	0.5
0.0717259440871	0.5
0.0717259440871	0.5
0.0717259440871	0.5
0.0717259440871	0.5
0.0717259440871	0.5
0.0717259440871	0.5
0.0717259440871	0.5
0.0717259440871	0.5
0.0717259440871	0.5
0.0717259440871	0.5
