0.0717259440871	0.5
0.0999594451433	0.7
0.0717259440871	0.5
0.0717259440871	0.5
0.0717259440871	0.5
0.0586031390172	0.31987205118
0.0717259440871	0.5
0.0717259440871	0.5
0.0717259440871	0.5
0.0999594451433	0.7
0.0717259440871	0.5
0.0717259440871	0.5
0.0717259440871	0.5
0.0999594451433	0.7
0.0717259440871	0.5
0.0717259440871	0.5
0.0717259440871	0.5
0.0717259440871	0.5
0.0717259440871	0.5
0.0717259440871	0.5
0.0717259440871	0.5
0.0717259440871	0.5
0.0717259440871	0.5
0.0999594451433	0.7
0.0717259440871	0.5
0.0717259440871	0.5
0.0999594451433	0.7
0.0999594451433	0.7
0.0717259440871	0.5
