0.0	0.0
0.0	0.0
0.000407533130046	0.019921875
0.0	0.0
0.0	0.0
0.000771791114655	0.027397260274
0.000663739405698	0.0250868390583
0.00157626846622	0.0383435582822
0.0	0.0
0.000168839678092	0.0129057489245
1.91831249886e-06	0.0015467904099
0.00074797821107	0.0264875239923
8.82825964295e-05	0.00940438871473
0.0	0.0
9.59414526879e-07	0.0011641443539
0.00242190268944	0.0471124620061
3.19880850781e-07	0.000778816199377
0.000236880466472	0.0152165431135
0.0	0.0
0.00246447969269	0.0478011472275
0.0	0.0
0.000424101502906	0.0204724409449
6.07552646835e-05	0.00779119594858
0.000492019067336	0.0217983651226
0.0	0.0
0.00378950242738	0.0591603053435
3.19804637743e-07	0.00077579519007
0.000360663159793	0.0188087774295
1.15065088485e-05	0.00347356233115
0.0	0.0
