0.0	0.0
0.00259595748609	0.0502354788069
0.0	0.0
2.10954685016e-05	0.00463678516229
8.82422903095e-05	0.00934215648112
0.0	0.0
0.00045588173453	0.0205401293267
0.000360740669673	0.0188605108055
0.000360096689792	0.0185113767836
0.0	0.0
4.79801784287e-06	0.00233826968044
0.0	0.0
0.000158498913036	0.0124079100427
0.000407444441355	0.0198752922837
0.0	0.0
0.00174145459301	0.0406976744186
0.0	0.0
0.0	0.0
0.0	0.0
0.0	0.0
0.0	0.0
9.59414526879e-07	0.0011641443539
0.000424196473987	0.0205371248025
3.19805558221e-06	0.00194174757282
0.0	0.0
0.0	0.0
1.43914112058e-05	0.00389105058366
9.59414526879e-07	0.0011641443539
2.11070048393e-05	0.00467107824056
0.00739652745459	0.0842762387827
