1.0	1.0
1.0	1.0
1.0	1.0
1.0	1.0
1.0	1.0
1.0	1.0
0.992384935436	0.99
1.0	1.0
0.992384935436	0.99
1.0	1.0
1.0	1.0
1.0	1.0
1.0	1.0
1.0	1.0
1.0	1.0
0.930837241651	0.99
0.992384935436	0.99
1.0	1.0
1.0	1.0
1.0	1.0
1.0	1.0
1.0	1.0
1.0	1.0
0.992384935436	0.99
0.992384935436	0.99
1.0	1.0
0.992384935436	0.99
0.992384935436	0.99
0.992384935436	0.99
1.0	1.0
