0.0913613445378	0.3024
0.0913613445378	0.3024
0.0847148459384	0.2912
0.0847148459384	0.2912
0.0847148459384	0.2912
0.0913613445378	0.3024
0.0847148459384	0.2912
0.0847148459384	0.2912
0.0913613445378	0.3024
0.0913613445378	0.3024
0.0847148459384	0.2912
0.0913613445378	0.3024
4.41159472973e-06	0.00185299567634
0.0847148459384	0.2912
1.3019985678e-05	0.00302480338778
0.0913613445378	0.3024
0.0847148459384	0.2912
0.0847148459384	0.2912
0.0847148459384	0.2912
0.0847148459384	0.2912
0.0913613445378	0.3024
0.0913613445378	0.3024
0.0847148459384	0.2912
8.83853672721e-07	0.000927930714507
0.0913613445378	0.3024
0.0847148459384	0.2912
0.0913613445378	0.3024
0.0913613445378	0.3024
8.21328252049e-06	0.00246305418719
0.0847148459384	0.2912
