0.0728211284514	0.27
6.2348026685e-05	0.00660585089651
8.2169196353e-06	0.00246457178065
0.0	0.0
3.08141449251e-05	0.00463105896882
0.0728211284514	0.27
0.0728211284514	0.27
0.0728211284514	0.27
0.0728211284514	0.27
4.3053415782e-05	0.00527859237537
0.0728211284514	0.27
0.0728211284514	0.27
0.0728211284514	0.27
0.0728211284514	0.27
8.2169196353e-06	0.00246457178065
0.0728211284514	0.27
0.0728211284514	0.27
0.0728211284514	0.27
0.0728211284514	0.27
0.0728211284514	0.27
6.16811823049e-06	0.00215849522047
2.97977241094e-06	0.00157381177211
0.0728211284514	0.27
0.0728211284514	0.27
0.0728211284514	0.27
0.0728211284514	0.27
0.0728211284514	0.27
0.0728211284514	0.27
0.0728211284514	0.27
0.00035054302871	0.0156399616981
