0.0606386554622	0.2464
0.0486837935174	0.2208
0.0486837935174	0.2208
0.0606386554622	0.2464
0.0606386554622	0.2464
1.74249218202e-06	0.00121359223301
0.0606386554622	0.2464
1.29922436306e-05	0.00301659125189
0.000126051881216	0.00914634146341
0.000338510015755	0.0154838709677
0.0486837935174	0.2208
0.0486837935174	0.2208
0.0486837935174	0.2208
0.0606386554622	0.2464
0.0606386554622	0.2464
0.0486837935174	0.2208
0.0486837935174	0.2208
0.0528291316527	0.23
1.94912546284e-05	0.00373482726424
0.0486837935174	0.2208
0.0486837935174	0.2208
0.0606386554622	0.2464
0.0486837935174	0.2208
1.92032401103e-05	0.00365853658537
0.0486837935174	0.2208
0.0486837935174	0.2208
1.93686694164e-05	0.00370141887724
0.0606386554622	0.2464
0.0528291316527	0.23
0.0606386554622	0.2464
