0.0522788315326	0.2288
8.75258967247e-07	0.000915471467806
0.000130767366958	0.00965250965251
0.0	0.0
0.0522788315326	0.2288
0.0522788315326	0.2288
0.0522788315326	0.2288
0.0592672268908	0.2436
4.57302310901e-05	0.00571610034932
1.91677479987e-05	0.0036496350365
8.4433175966e-06	0.00256986829425
0.0592672268908	0.2436
4.50170614663e-06	0.00191082802548
0.0522788315326	0.2288
0.0592672268908	0.2436
0.0592672268908	0.2436
0.0592672268908	0.2436
0.0592672268908	0.2436
0.0592672268908	0.2436
0.0522788315326	0.2288
0.000420116258587	0.016875
0.0	0.0
0.0522788315326	0.2288
0.000420116258587	0.016875
0.0522788315326	0.2288
0.0592672268908	0.2436
5.51048078945e-05	0.00608642726719
3.01545420279e-06	0.00160462130937
0.0522788315326	0.2288
0.0522788315326	0.2288
