0.0980081632653	0.3132
0.000249409426865	0.0128440366972
0.0980081632653	0.3132
0.0980081632653	0.3132
0.0980081632653	0.3132
0.0980081632653	0.3132
0.0980081632653	0.3132
0.0980081632653	0.3132
0.0980081632653	0.3132
0.0980081632653	0.3132
0.0980081632653	0.3132
0.0980081632653	0.3132
0.0980081632653	0.3132
0.0980081632653	0.3132
8.12032700557e-06	0.00242571255306
0.0980081632653	0.3132
0.0980081632653	0.3132
0.0980081632653	0.3132
0.000249409426865	0.0128440366972
0.0980081632653	0.3132
0.0980081632653	0.3132
0.0980081632653	0.3132
0.0980081632653	0.3132
0.0980081632653	0.3132
0.0980081632653	0.3132
0.0980081632653	0.3132
0.0980081632653	0.3132
0.0980081632653	0.3132
0.0980081632653	0.3132
0.0980081632653	0.3132
