0.0179307441497	0.42791898332
0.616995059391	0.5162
0.0140416511537	0.370216962525
0.0140416511537	0.370216962525
0.0179307441497	0.42791898332
0.0140416511537	0.370216962525
0.0179307441497	0.42791898332
0.0179307441497	0.42791898332
0.0140416511537	0.370216962525
0.0140416511537	0.370216962525
0.0160168390543	0.402615415098
0.0179307441497	0.42791898332
0.0179307441497	0.42791898332
0.0140416511537	0.370216962525
0.0378824048193	0.502938871473
0.0140416511537	0.370216962525
0.0140416511537	0.370216962525
0.0322441211821	0.390869905956
0.0140416511537	0.370216962525
0.0160168390543	0.402615415098
0.0140416511537	0.370216962525
0.616995059391	0.5162
0.0179307441497	0.42791898332
0.0179307441497	0.42791898332
0.0140416511537	0.370216962525
0.0140416511537	0.370216962525
0.0179307441497	0.42791898332
0.0160168390543	0.402615415098
0.0140416511537	0.370216962525
0.0140416511537	0.370216962525
