0.215656778994	0.395783243943
0.0122338961035	0.272116903633
0.0128700423708	0.285714285714
0.215656778994	0.395783243943
0.0128700423708	0.285714285714
0.215656778994	0.395783243943
0.00939891662634	0.247679241556
0.215656778994	0.395783243943
0.0119220642323	0.267772511848
0.00855146389283	0.202889944576
0.00939891662634	0.247679241556
0.215656778994	0.395783243943
0.00939891662634	0.247679241556
0.0128700423708	0.285714285714
0.00851621515565	0.200118764846
0.257113620828	0.356208530806
0.215656778994	0.395783243943
0.00939891662634	0.247679241556
0.215656778994	0.395783243943
0.215656778994	0.395783243943
0.215656778994	0.395783243943
0.215656778994	0.395783243943
0.0128700423708	0.285714285714
0.0128700423708	0.285714285714
0.215656778994	0.395783243943
0.215656778994	0.395783243943
0.0126775572327	0.285714285714
0.215656778994	0.395783243943
0.215656778994	0.395783243943
0.215656778994	0.395783243943
