0.0159057929259	0.31865745311
0.0159057929259	0.31865745311
0.0161382767511	0.323627125269
0.0159057929259	0.31865745311
0.0132422256191	0.303339882122
0.0132422256191	0.303339882122
0.0132422256191	0.303339882122
0.0159057929259	0.31865745311
0.0334174508946	0.340909090909
0.0132422256191	0.303339882122
0.0132422256191	0.303339882122
0.0159057929259	0.31865745311
0.0132422256191	0.303339882122
0.0132422256191	0.303339882122
0.0132422256191	0.303339882122
0.0159057929259	0.31865745311
0.0132422256191	0.303339882122
0.0161382767511	0.323627125269
0.0330430007012	0.316205533597
0.0132422256191	0.303339882122
0.0161382767511	0.323627125269
0.0132422256191	0.303339882122
0.0132422256191	0.303339882122
0.0161382767511	0.323627125269
0.0132422256191	0.303339882122
0.0132422256191	0.303339882122
0.0331382484548	0.318405997238
0.0132422256191	0.303339882122
0.0132422256191	0.303339882122
0.0161382767511	0.323627125269
