0.0250777290685	0.427365528072
0.0312035930207	0.349572479618
0.0270022673095	0.345
0.0318188401752	0.373235235633
0.0210040141459	0.380980507974
0.0266104170774	0.3252
0.0309733949597	0.337641678266
0.0270022673095	0.345
0.0308963344825	0.332869357725
0.0266104170774	0.3252
0.0270022673095	0.345
0.0268470058968	0.338
0.0312035930207	0.349572479618
0.0307246022591	0.319347782859
0.0210040141459	0.380980507974
0.0307327970121	0.320143169616
0.0270022673095	0.345
0.0270022673095	0.345
0.0270022673095	0.345
0.0307327970121	0.320143169616
0.0268470058968	0.338
0.0210040141459	0.380980507974
0.0250777290685	0.427365528072
0.0250777290685	0.427365528072
0.0267359704622	0.3324
0.0268470058968	0.338
0.0270022673095	0.345
0.0307327970121	0.320143169616
0.0309533252646	0.336448598131
0.026572867564	0.3228
