0.0222104128646	0.4796
0.0220020257552	0.4776
0.0222104128646	0.4796
0.0222104128646	0.4796
0.0222104128646	0.4796
0.0157387741917	0.4084
0.0157387741917	0.4084
0.0222104128646	0.4796
0.037933031962	0.469076149981
0.0222104128646	0.4796
0.0355125514065	0.396758008491
0.0157387741917	0.4084
0.0222104128646	0.4796
0.0222104128646	0.4796
0.0157387741917	0.4084
0.0222104128646	0.4796
0.0222104128646	0.4796
0.0222104128646	0.4796
0.0157387741917	0.4084
0.0157387741917	0.4084
0.0157387741917	0.4084
0.0157387741917	0.4084
0.0222104128646	0.4796
0.0157387741917	0.4084
0.0222104128646	0.4796
0.0222104128646	0.4796
0.0222104128646	0.4796
0.0198296524064	0.4468
0.0157387741917	0.4084
0.0222104128646	0.4796
