0.248212192967	0.543693159352
0.0334976228502	0.585562549174
0.0179664463924	0.323218480814
0.0126977861605	0.356289808917
0.0131170753948	0.319881889764
0.248212192967	0.543693159352
0.248212192967	0.543693159352
0.0131170753948	0.319881889764
0.0126977861605	0.356289808917
0.00870977774835	0.229697452229
0.0147467687751	0.294929966463
0.0247295628303	0.484131677508
0.0147467687751	0.294929966463
0.0131170753948	0.319881889764
0.0147467687751	0.294929966463
0.248212192967	0.543693159352
0.0126977861605	0.356289808917
0.248212192967	0.543693159352
0.248212192967	0.543693159352
0.248212192967	0.543693159352
0.0131170753948	0.319881889764
0.0131170753948	0.319881889764
0.0126977861605	0.356289808917
0.0131170753948	0.319881889764
0.0147467687751	0.294929966463
0.248212192967	0.543693159352
0.248212192967	0.543693159352
0.0131170753948	0.319881889764
0.0127397760037	0.311071710008
0.248212192967	0.543693159352
