0.0121470552949	0.277473601877
0.0121470552949	0.277473601877
0.0122899775747	0.273375594295
0.0121470552949	0.277473601877
0.0121470552949	0.277473601877
0.0122899775747	0.273375594295
0.00723351876141	0.220031545741
0.0308514112642	0.3
0.0317622049334	0.37
0.0200086984904	0.319683481701
0.0121470552949	0.277473601877
0.0200086984904	0.319683481701
0.0319139864801	0.3756
0.0121470552949	0.277473601877
0.0122899775747	0.273375594295
0.0317518107756	0.3696
0.0122899775747	0.273375594295
0.0122899775747	0.273375594295
0.0121470552949	0.277473601877
0.0335312249746	0.42
0.00828806282914	0.223921568627
0.0121470552949	0.277473601877
0.0121470552949	0.277473601877
0.0121470552949	0.277473601877
0.0319139864801	0.3756
0.0122899775747	0.273375594295
0.0318366342614	0.3728
0.0319139864801	0.3756
0.00888218322538	0.232941176471
0.0317622049334	0.37
