0.255353131747	0.289687137891
0.208074044182	0.291939838025
0.241640031943	0.291320317031
0.20433154197	0.297396335583
0.212053692657	0.297156123041
0.216076327872	0.293096799074
0.236521303373	0.291192908075
0.231538411717	0.289977046672
0.255278856814	0.288129081829
0.961161239702	0.980392156863
0.218130248408	0.291778716865
0.212030110912	0.296953335904
0.255307987614	0.288683602771
0.244253243463	0.291039011201
0.25533912579	0.289351851852
0.24425527089	0.291537867079
0.961161239702	0.980392156863
0.255174127829	0.286478227655
0.216115846716	0.295665634675
0.200655594827	0.295782784518
0.255263207189	0.287852619459
0.22248318844	0.29292734631
0.208154989612	0.298877274487
0.212005218012	0.292414591778
0.187249457244	0.296111855966
0.255290856159	0.288350634371
0.231666377667	0.291835552982
0.208111990467	0.295823665893
0.255366095151	0.290023201856
0.23653108735	0.291859567901
