0.239055273817	0.291505791506
0.208124744175	0.297041191259
0.200709890441	0.298628549353
0.224713358635	0.291144125024
0.212011592843	0.292390884511
0.961161239702	0.980392156863
0.961161239702	0.980392156863
0.239084250954	0.292352371733
0.255240084033	0.287466462246
0.220354621305	0.295780100658
0.255299552042	0.288517022504
0.21202613011	0.295480880649
0.255278856814	0.288129081829
0.197179304415	0.298495950636
0.197137132876	0.296324802771
0.212031407828	0.295652173913
0.961161239702	0.980392156863
0.236520002689	0.290944123314
0.20436188698	0.298743961353
0.255243474008	0.287521564117
0.961161239702	0.980392156863
0.255240084033	0.287466462246
0.220324396434	0.294866846777
0.255346259067	0.2895193978
0.244266528078	0.291626377877
0.200768149913	0.301507537688
0.224739377665	0.293890177881
0.255197152143	0.286806883365
0.25533173196	0.289184499711
0.216090719271	0.292697063369
