0.961161239702	0.980392156863
0.208119411803	0.296382278971
0.208117131976	0.297025878718
0.229238768083	0.291666666667
0.255307987614	0.288683602771
0.255346259067	0.2895193978
0.255313466687	0.288794763188
0.255334225517	0.289240262245
0.19378903463	0.299673014041
0.20063155928	0.291570438799
0.255316162825	0.288850375505
0.216092628671	0.294923759892
0.224724344117	0.291924265842
0.255316162825	0.288850375505
0.204333277546	0.296754250386
0.255366095151	0.290023201856
0.255219137724	0.287136294028
0.204300669833	0.292551138557
0.961161239702	0.980392156863
0.255296682335	0.288709367186
0.25533173196	0.289184499711
0.216114185151	0.2956084349
0.204330961768	0.296911196911
0.216076444731	0.292108817287
0.25533912579	0.289351851852
0.208136429867	0.297872340426
0.224706049647	0.293120061669
0.255348578917	0.289575289575
0.255290856159	0.288350634371
0.216074747067	0.294740897708
