0.255290856159	0.288350634371
0.255307987614	0.288683602771
0.216099289697	0.295423826994
0.255357568737	0.289799072643
0.208130816263	0.296999031946
0.961161239702	0.980392156863
0.208111945293	0.296367851623
0.25533912579	0.289351851852
0.236534144092	0.291337063477
0.239059607443	0.290733590734
0.208058400319	0.294829905824
0.22033048392	0.295037652056
0.178364734637	0.298718684261
0.184166160697	0.295928120818
0.236460352434	0.290099769762
0.216078314476	0.292824074074
0.197200084403	0.299498263219
0.249654331178	0.289402697495
0.25533912579	0.289351851852
0.220372122229	0.296899224806
0.200760953814	0.301102301296
0.255346259067	0.2895193978
0.212006095719	0.295183044316
0.229292120298	0.291690765375
0.255307987614	0.288683602771
0.197111169894	0.295314900154
0.222459223188	0.292884615385
0.22473264532	0.292810204871
0.255348578917	0.289575289575
0.255353131747	0.289687137891
