0.22035439835	0.296052631579
0.25533173196	0.289184499711
0.216076078454	0.295397650684
0.208119659504	0.296868960186
0.212029433793	0.296138996139
0.244205792676	0.290608160123
0.184253127565	0.29980806142
0.961161239702	0.980392156863
0.208118810543	0.296324951644
0.492863615448	0.532293106854
0.255324077623	0.28901734104
0.255116368123	0.285714285714
0.255204596112	0.286916602907
0.208082075932	0.294253760123
0.255353131747	0.289687137891
0.255313466687	0.288794763188
0.25533173196	0.289184499711
0.239077726808	0.291932675566
0.224739377665	0.293890177881
0.204330961768	0.296911196911
0.255343910261	0.289463527596
0.204291234086	0.295170290552
0.239061526184	0.291674715086
0.255189592759	0.286697247706
0.204349691492	0.297757153906
0.216079166734	0.291337063477
0.216127976344	0.296611810261
0.211788227689	0.2902980824
0.184253127565	0.29980806142
0.212029433793	0.296138996139
