0.0	0.0
0.0	0.0
5.02502462262e-06	0.00280504908836
0.0	0.0
0.0	0.0
0.0	0.0
0.0	0.0
0.924499229584	0.961538461538
0.0	0.0
0.0	0.0
0.924499229584	0.961538461538
0.924499229584	0.961538461538
0.0	0.0
0.00116661363877	0.0321637426901
0.0	0.0
0.0	0.0
0.0	0.0
0.924499229584	0.961538461538
0.924499229584	0.961538461538
0.0	0.0
0.0140808622054	0.115562403698
0.0	0.0
0.924499229584	0.961538461538
1.5095251034e-05	0.00423131170663
0.0	0.0
0.924499229584	0.961538461538
0.0	0.0
0.924499229584	0.961538461538
0.0	0.0
1.50332987567e-05	0.0041782729805
