0.0	0.0
0.0	0.0
0.0	0.0
0.0	0.0
0.0	0.0
0.924499229584	0.961538461538
0.0	0.0
0.0	0.0
0.924499229584	0.961538461538
0.0	0.0
0.924499229584	0.961538461538
0.0	0.0
0.0	0.0
0.000141319928129	0.0114777618364
0.0	0.0
0.0	0.0
0.0	0.0
0.0	0.0
0.924499229584	0.961538461538
0.924499229584	0.961538461538
0.0	0.0
0.924499229584	0.961538461538
0.0	0.0
0.0	0.0
0.0	0.0
0.0	0.0
0.0	0.0
0.0	0.0
0.0	0.0
0.0	0.0
