0.0	0.0
0.924499229584	0.961538461538
0.924499229584	0.961538461538
0.0	0.0
0.000139250138007	0.010989010989
0.0	0.0
0.0	0.0
0.000226176115802	0.0141843971631
0.0	0.0
0.0	0.0
0.924499229584	0.961538461538
0.0	0.0
0.924499229584	0.961538461538
0.0	0.0
0.0	0.0
0.924499229584	0.961538461538
0.00615806882962	0.0738552437223
0.00163355164285	0.0375722543353
0.0	0.0
0.0	0.0
0.0	0.0
0.0	0.0
0.924499229584	0.961538461538
0.0	0.0
0.0	0.0
0.924499229584	0.961538461538
0.0	0.0
0.0	0.0
0.0	0.0
0.0	0.0
