0.0	0.00142045454545
0.0	0.0
0.0	0.0
0.0	0.0
0.0	0.0
0.924499229584	0.961538461538
0.000457891585362	0.0200286123033
0.000179896559478	0.0125348189415
0.0	0.0
0.924499229584	0.961538461538
0.924499229584	0.961538461538
0.000104604073581	0.00964187327824
0.0	0.0
0.0	0.0
0.0	0.0
0.0	0.0
0.0	0.0
0.924499229584	0.961538461538
0.0	0.0
0.924499229584	0.961538461538
0.0	0.0
0.0	0.0
0.924499229584	0.961538461538
0.0	0.0
0.0	0.0
0.924499229584	0.961538461538
0.0	0.0
0.0	0.0
0.0	0.0
0.0	0.0
