0.924499229584	0.961538461538
0.924499229584	0.961538461538
0.0	0.0
0.0	0.0014409221902
0.0	0.0
0.924499229584	0.961538461538
0.0	0.0
0.0	0.0
0.924499229584	0.961538461538
0.0	0.0
3.02297460701e-05	0.00567375886525
0.0	0.0
0.0140374838759	0.114503816794
0.0	0.0
0.0	0.0
0.0	0.0
0.0	0.00142045454545
0.0	0.0
0.0	0.0
0.924499229584	0.961538461538
0.0	0.0
0.0140808622054	0.115562403698
0.0252208737122	0.156985871272
0.0	0.0
3.01509052809e-05	0.0056258790436
0.0	0.0
0.924499229584	0.961538461538
0.924499229584	0.961538461538
1.51857982415e-05	0.00432276657061
0.0	0.0
