0.0	0.0
0.0	0.0
0.0	0.0
5.05068361003e-05	0.00716332378223
0.924499229584	0.961538461538
0.924499229584	0.961538461538
0.0	0.0
0.924499229584	0.961538461538
0.924499229584	0.961538461538
0.924499229584	0.961538461538
1.50332987567e-05	0.0041782729805
0.924499229584	0.961538461538
0.0	0.0
0.924499229584	0.961538461538
0.0	0.0
1.50752253746e-05	0.00421348314607
0.924499229584	0.961538461538
0.0	0.0
0.924499229584	0.961538461538
0.0	0.0
0.0	0.0
0.0	0.0
0.924499229584	0.961538461538
0.0	0.0
0.0	0.0
0.924499229584	0.961538461538
0.0	0.0
5.0319275805e-05	0.00707213578501
0.000956932979436	0.028901734104
0.00138882598916	0.0347322720695
