0.0	0.0
0.0	0.0
0.0	0.0
0.0	0.0
0.0	0.0
0.0	0.0
0.0	0.0
0.0	0.0
3.0267259905e-05	0.00569800569801
0.000140719781683	0.011315417256
0.0	0.0
0.0	0.0
0.924499229584	0.961538461538
0.0	0.0
5.038164093e-06	0.002828854314
0.0	0.0
0.924499229584	0.961538461538
0.924499229584	0.961538461538
0.0	0.00140056022409
0.0	0.0
5.0319275805e-05	0.00707213578501
0.0	0.0
0.0	0.0
0.924499229584	0.961538461538
0.0	0.0
0.0	0.0
0.0	0.0
0.0	0.0
0.0	0.0
0.924499229584	0.961538461538
