0.0189686553104	0.395256916996
0.0189686553104	0.395256916996
0.0189686553104	0.395256916996
0.0189686553104	0.395256916996
0.0189686553104	0.395256916996
0.0189686553104	0.395256916996
0.0189686553104	0.395256916996
0.0189686553104	0.395256916996
0.0189686553104	0.395256916996
0.0189686553104	0.395256916996
0.0189686553104	0.395256916996
0.0189686553104	0.395256916996
0.0189686553104	0.395256916996
0.0189686553104	0.395256916996
0.0189686553104	0.395256916996
0.0189686553104	0.395256916996
0.0189686553104	0.395256916996
0.0189686553104	0.395256916996
0.0189686553104	0.395256916996
0.0189686553104	0.395256916996
0.0189686553104	0.395256916996
0.0189686553104	0.395256916996
0.0189686553104	0.395256916996
0.0189686553104	0.395256916996
0.0189686553104	0.395256916996
0.0189686553104	0.395256916996
0.0189686553104	0.395256916996
0.0189686553104	0.395256916996
0.0189686553104	0.395256916996
0.0189686553104	0.395256916996
