0.0189898234608	0.4
0.0189898234608	0.4
0.0189898234608	0.4
0.0189898234608	0.4
0.0189898234608	0.4
0.0189898234608	0.4
0.0189898234608	0.4
0.0189898234608	0.4
0.0189898234608	0.4
0.0189898234608	0.4
0.0189898234608	0.4
0.0189898234608	0.4
0.0189898234608	0.4
0.0189898234608	0.4
0.0189898234608	0.4
0.0189898234608	0.4
0.0189898234608	0.4
0.0189898234608	0.4
0.0189898234608	0.4
0.0189898234608	0.4
0.0189898234608	0.4
0.0189898234608	0.4
0.0189898234608	0.4
0.0189898234608	0.4
0.0189898234608	0.4
0.0189898234608	0.4
0.0189898234608	0.4
0.0189898234608	0.4
0.0189898234608	0.4
0.0189898234608	0.4
