0.0899159663866	0.3
0.0226893957583	0.1508
0.0211495798319	0.1456
0.0226893957583	0.1508
0.0197762304922	0.1408
0.0464156862745	0.2156
0.0193286914766	0.1392
0.0226893957583	0.1508
0.0226893957583	0.1508
0.0226893957583	0.1508
0.0186669867947	0.1368
0.0197762304922	0.1408
0.0312	0.1768
0.0575270108043	0.24
0.0184489795918	0.136
0.0226893957583	0.1508
0.0197762304922	0.1408
0.0226893957583	0.1508
0.0220907563025	0.1488
0.0226893957583	0.1508
0.0226893957583	0.1508
0.0226893957583	0.1508
0.015531332533	0.1248
0.0226893957583	0.1508
0.0242833133253	0.156
0.0332100840336	0.1824
0.0226893957583	0.1508
0.016237214886	0.1276
0.016237214886	0.1276
0.0220907563025	0.1488
