0.117696038415	0.3432
0.117696038415	0.3432
0.117696038415	0.3432
0.0972581032413	0.312
0.027900120048	0.1672
0.0409011604642	0.2024
0.107233613445	0.3276
0.163766626651	0.4048
0.117696038415	0.3432
0.027900120048	0.1672
0.0409011604642	0.2024
0.025037214886	0.1584
0.117696038415	0.3432
0.025037214886	0.1584
0.194911884754	0.4416
0.117696038415	0.3432
0.025037214886	0.1584
0.027900120048	0.1672
0.0309179671869	0.176
0.117696038415	0.3432
0.025037214886	0.1584
0.025037214886	0.1584
0.194911884754	0.4416
0.027900120048	0.1672
0.027900120048	0.1672
0.0675230092037	0.26
0.103596638655	0.322
0.025037214886	0.1584
0.163766626651	0.4048
0.08424969988	0.2904
