0.115510204082	0.34
0.0476302521008	0.2184
0.0309179671869	0.176
0.0425354141657	0.2064
0.0206866746699	0.144
0.0261896758703	0.162
0.0863529411765	0.294
0.0427006002401	0.2068
0.181037535014	0.4256
0.10231292517	0.32
0.0783193277311	0.28
0.0261896758703	0.162
0.0899159663866	0.3
0.0206866746699	0.144
0.0899159663866	0.3
0.0899159663866	0.3
0.057143817527	0.2392
0.0427006002401	0.2068
0.025037214886	0.1584
0.0206866746699	0.144
0.0425354141657	0.2064
0.106448979592	0.3264
0.129507803121	0.36
0.0675230092037	0.26
0.0899159663866	0.3
0.0206866746699	0.144
0.10231292517	0.32
0.115510204082	0.34
0.0476302521008	0.2184
0.0206866746699	0.144
