0.0186669867947	0.1368
0.0143577430972	0.12
0.0675230092037	0.26
0.0675230092037	0.26
0.0143577430972	0.12
0.0675230092037	0.26
0.0675230092037	0.26
0.0186669867947	0.1368
0.0787678271309	0.2808
0.0186669867947	0.1368
0.0180168067227	0.1344
0.0787678271309	0.2808
0.0186669867947	0.1368
0.0675230092037	0.26
0.0847148459384	0.2912
0.0208019207683	0.1444
0.014743817527	0.1216
0.0186669867947	0.1368
0.0332100840336	0.1824
0.0186669867947	0.1368
0.025418487395	0.1596
0.014743817527	0.1216
0.0476302521008	0.2184
0.0186669867947	0.1368
0.014743817527	0.1216
0.0186669867947	0.1368
0.0186669867947	0.1368
0.014743817527	0.1216
0.0787678271309	0.2808
0.062424969988	0.25
