0.0528291316527	0.23
0.0747774309724	0.2736
0.100275630252	0.3168
0.0913613445378	0.3024
0.0168547418968	0.13
0.105927490996	0.3256
0.0211495798319	0.1456
0.0168547418968	0.13
0.0747774309724	0.2736
0.0913613445378	0.3024
0.0828619447779	0.288
0.212237214886	0.4608
0.22419719888	0.4736
0.0828619447779	0.288
0.0195518207283	0.14
0.0828619447779	0.288
0.100275630252	0.3168
0.105927490996	0.3256
0.0211495798319	0.1456
0.100275630252	0.3168
0.0828619447779	0.288
0.0465882352941	0.216
0.0828619447779	0.288
0.0211495798319	0.1456
0.105927490996	0.3256
0.29150060024	0.54
0.197037214886	0.444
0.0195518207283	0.14
0.0747774309724	0.2736
0.0913613445378	0.3024
