0.129507803121	0.36
0.444	0.6664
0.444	0.6664
0.444	0.6664
0.19350140056	0.44
0.444	0.6664
0.444	0.6664
0.444	0.6664
0.129507803121	0.36
0.19350140056	0.44
0.444	0.6664
0.444	0.6664
0.444	0.6664
0.444	0.6664
0.444	0.6664
0.444	0.6664
0.444	0.6664
0.444	0.6664
0.444	0.6664
0.444	0.6664
0.444	0.6664
0.444	0.6664
0.444	0.6664
0.444	0.6664
0.444	0.6664
0.0255462184874	0.16
0.444	0.6664
0.444	0.6664
0.444	0.6664
0.19350140056	0.44
