0.322980392157	0.5684
0.10231292517	0.32
0.322980392157	0.5684
0.322980392157	0.5684
0.10231292517	0.32
0.322980392157	0.5684
0.322980392157	0.5684
0.322980392157	0.5684
0.322980392157	0.5684
0.322980392157	0.5684
0.322980392157	0.5684
0.10231292517	0.32
0.322980392157	0.5684
0.322980392157	0.5684
0.10231292517	0.32
0.10231292517	0.32
0.322980392157	0.5684
0.322980392157	0.5684
0.322980392157	0.5684
0.10231292517	0.32
0.322980392157	0.5684
0.10231292517	0.32
0.322980392157	0.5684
0.322980392157	0.5684
0.10231292517	0.32
0.322980392157	0.5684
0.322980392157	0.5684
0.10231292517	0.32
0.322980392157	0.5684
0.10231292517	0.32
