0.345647058824	0.588
0.345647058824	0.588
0.345647058824	0.588
0.345647058824	0.588
0.345647058824	0.588
0.345647058824	0.588
0.345647058824	0.588
0.345647058824	0.588
0.345647058824	0.588
0.345647058824	0.588
0.345647058824	0.588
0.345647058824	0.588
0.345647058824	0.588
0.345647058824	0.588
0.345647058824	0.588
0.345647058824	0.588
0.345647058824	0.588
0.345647058824	0.588
0.345647058824	0.588
0.345647058824	0.588
0.345647058824	0.588
0.345647058824	0.588
0.345647058824	0.588
0.345647058824	0.588
0.345647058824	0.588
0.345647058824	0.588
0.345647058824	0.588
0.345647058824	0.588
0.345647058824	0.588
0.345647058824	0.588
