0.383314285714	0.6192
0.383314285714	0.6192
0.383314285714	0.6192
0.383314285714	0.6192
0.383314285714	0.6192
0.383314285714	0.6192
0.383314285714	0.6192
0.383314285714	0.6192
0.383314285714	0.6192
0.00611764705882	0.0784
0.383314285714	0.6192
0.383314285714	0.6192
0.383314285714	0.6192
0.383314285714	0.6192
0.383314285714	0.6192
0.383314285714	0.6192
0.383314285714	0.6192
0.383314285714	0.6192
0.383314285714	0.6192
0.383314285714	0.6192
0.383314285714	0.6192
0.383314285714	0.6192
0.383314285714	0.6192
0.383314285714	0.6192
0.383314285714	0.6192
0.383314285714	0.6192
0.383314285714	0.6192
0.0783193277311	0.28
0.383314285714	0.6192
0.383314285714	0.6192
