0.739551820728	0.86
0.809963985594	0.9
0.809963985594	0.9
0.809963985594	0.9
0.809963985594	0.9
0.809963985594	0.9
0.809963985594	0.9
0.739551820728	0.86
0.809963985594	0.9
0.739551820728	0.86
0.809963985594	0.9
0.21150060024	0.46
0.809963985594	0.9
0.739551820728	0.86
0.809963985594	0.9
0.739551820728	0.86
0.809963985594	0.9
0.739551820728	0.86
0.809963985594	0.9
0.739551820728	0.86
0.739551820728	0.86
0.249899959984	0.5
0.739551820728	0.86
0.809963985594	0.9
0.809963985594	0.9
0.739551820728	0.86
0.809963985594	0.9
0.809963985594	0.9
0.21150060024	0.46
0.809963985594	0.9
