0.420221198789	0.514050719671
0.436272022572	0.583113046183
0.336361945805	0.384319754035
0.686947988224	0.854700854701
0.182998596996	0.171715090322
0.298178754238	0.365016790772
0.48049699425	0.72202166065
0.591337229044	0.80971659919
0.0	0.0
0.358590914205	0.52374301676
0.950108830994	0.975609756098
0.640966451216	0.833333333333
0.640966451216	0.833333333333
0.161682556545	0.197831763868
0.357679386446	0.504846526656
0.207763118674	0.457931371352
0.0989721220364	0.131343910896
1.0	1.0
0.135829881113	0.152709058701
0.345206484036	0.495245641838
0.0	0.0
0.0	0.0
0.0	0.0
0.0	0.0
0.338924203854	0.59880239521
0.743469959649	0.716400802369
0.217798291625	0.193318898856
0.353289950816	0.671140939597
0.640966451216	0.833333333333
