0.439631473771	0.430885901413
0.729619130444	0.692137320044
0.571363246642	0.8
0.212411264111	0.193498452012
0.679062247373	0.851063829787
1.0	1.0
0.0	0.0
0.280129565809	0.317722564657
0.605081083044	0.816326530612
0.166871747303	0.171373731834
0.0	0.0
0.474682281985	0.429922613929
0.441584907784	0.420556817226
0.501080360537	0.613747954173
0.0	0.0
0.0757717309868	0.111597178823
0.209034310669	0.206765362666
0.308516710585	0.485971619257
0.184632936423	0.175858187957
0.188194007764	0.27397260274
0.142044117505	0.169526005289
0.337635394631	0.384024577573
0.0	0.0
0.579949617022	0.796812749004
0.0	0.0
0.0901834632615	0.122989127761
0.0	0.0
0.356837173499	0.472649357197
0.555330865196	0.607287449393
0.128330022874	0.155511321224
