0.183835039927	0.170846716326
0.214701803509	0.305548765583
0.350895402504	0.373412994772
0.254281990689	0.405055087492
0.144627014396	0.160709694009
0.191076502536	0.191248470012
0.187695993599	0.270474954019
0.454482011024	0.57304400978
0.449879159109	0.701754385965
0.415956021958	0.549450549451
0.343473994112	0.42735042735
0.313134601917	0.491738788356
0.0	0.0
0.325074946751	0.360594259339
0.0	0.0
0.130172038784	0.154789177141
0.722324981148	0.683122324438
0.163010763798	0.197378809411
0.314260721459	0.372578241431
0.135688366467	0.164907651715
0.0	0.0
0.294886087593	0.348723671363
0.0	0.0
0.726428147855	0.688010274287
0.489106220719	0.453638178189
0.32672427264	0.390381011868
0.285943184108	0.353806962921
0.24652514959	0.235982631678
0.162910405144	0.180831826401
