0.0	0.0
0.131699699137	0.148871553624
0.390431561394	0.517812758906
0.477036189237	0.577278325123
0.478588021702	0.719424460432
0.292372003889	0.368785956631
0.164265537035	0.183661475169
0.238632929201	0.353697749196
0.129036087722	0.142996053309
0.476707488394	0.432750562576
0.244163110989	0.594388968141
0.182758492178	0.276487502765
0.20822289632	0.32041012496
0.451341698537	0.701754385965
0.456785847133	0.706713780919
0.223026103853	0.315477317181
0.311938551176	0.368514150943
0.436198673956	0.561461296601
0.215819852552	0.293083235639
0.626348755198	0.826446280992
0.137834857625	0.150276508776
0.412590748501	0.530185211367
0.132190481586	0.461481663795
0.605081083044	0.816326530612
0.0	0.0
0.0	0.0
0.24769250495	0.238481350758
0.0	0.0
0.156765919212	0.17984317675
