0.655760796935	0.656857593274
0.0	0.0
0.523520504658	0.649350649351
0.427323389244	0.680272108844
0.431990308482	0.405186385737
0.287574370599	0.327439423707
0.101220101186	0.150647785478
0.218440175958	0.190258751903
0.321661446372	0.386817267523
0.335996952122	0.463306152706
0.482469129891	0.443026758816
0.197106977521	0.202922077922
0.186169935381	0.18029712967
0.512267610075	0.602796977978
0.91064625274	0.956937799043
0.444402871209	0.431183166609
0.0	0.0
0.203427838032	0.273388375526
0.162020719824	0.255584521801
0.239242071926	0.332889480692
0.433012798742	0.592417061611
0.225941767601	0.203152933528
0.459304500136	0.706713780919
0.201948467341	0.178699070765
0.0	0.0
0.432835950152	0.689655172414
0.181508751293	0.180375180375
0.460328319641	0.415075543749
0.157773414699	0.161676259458
