0.153936608129	0.182029998544
0.328574512021	0.370260663507
0.234753197829	0.231310140637
0.23947130256	0.319142145912
0.341961977769	0.353957241965
0.139642527646	0.159520163349
0.251373511303	0.320266461696
0.0	0.0
0.309995618299	0.486633791851
0.240262790383	0.322414237813
0.200266624678	0.191997542431
0.462170964419	0.709219858156
0.402105429823	0.445990545
0.0	0.0
0.370022837472	0.391297542651
0.171564189228	0.180167195157
0.48972611187	0.593730208993
0.343554399798	0.365951840738
0.17876113938	0.266212330955
0.0782466949022	0.130310138129
0.0	0.0
0.397907379773	0.527055516514
0.330521663969	0.389286826534
0.275343817274	0.341064120055
0.143849466524	0.19053425806
0.416245479764	0.414731254147
0.142112383952	0.166333998669
0.584594222834	0.806451612903
0.151492762029	0.166822367543
