0.0	0.0
0.174904953611	0.186067281929
0.0816122179819	0.141219002429
0.464511524031	0.711743772242
0.189569723608	0.170520428347
0.25422765638	0.327439423707
0.173571655992	0.170998632011
0.347766791681	0.606060606061
0.206609903042	0.179262871074
0.207159251299	0.199203187251
0.206630205159	0.275664351086
0.346825622628	0.606060606061
0.490204251772	0.727272727273
0.115838169581	0.135596897543
0.550386282045	0.575683143998
0.0	0.0
0.0	0.0
0.13228599387	0.163164077797
0.324829774813	0.531990353242
0.287037088086	0.366568914956
0.508557875168	0.738007380074
0.153899669831	0.308090455358
0.0	0.0
0.424196335514	0.52352366327
0.16418922925	0.156828304372
0.432073244766	0.584932147871
0.228946873698	0.219645053593
0.0834616284512	0.128879265904
0.388539988927	0.384941104011
0.14656494008	0.149227004119
