0.980196078431	0.99
0.980196078431	0.99
0.980196078431	0.99
0.980196078431	0.99
0.980196078431	0.99
0.980196078431	0.99
0.980196078431	0.99
0.980196078431	0.99
0.980196078431	0.99
0.980196078431	0.99
0.980196078431	0.99
0.980196078431	0.99
0.00216617951465	0.025
0.980196078431	0.99
0.980196078431	0.99
0.980196078431	0.99
0.980196078431	0.99
0.980196078431	0.99
0.980196078431	0.99
0.980196078431	0.99
0.980196078431	0.99
0.980196078431	0.99
0.00214839115678	0.025
0.980196078431	0.99
0.980196078431	0.99
0.980196078431	0.99
0.980196078431	0.99
0.468311485044	0.422297297297
0.980196078431	0.99
0.980196078431	0.99
