0.0024018567162	0.049
1.0	1.0
1.0	1.0
1.0	1.0
0.0427810813457	0.103219407995
1.0	1.0
1.0	1.0
0.283700252326	0.309138122913
1.0	1.0
1.0	1.0
1.0	1.0
1.0	1.0
1.0	1.0
1.0	1.0
0.00211823461801	0.025
1.0	1.0
0.283700252326	0.309138122913
1.0	1.0
1.0	1.0
1.0	1.0
1.0	1.0
0.0507602118813	0.118596375072
1.0	1.0
1.0	1.0
1.0	1.0
1.0	1.0
0.0538739827996	0.121075470093
1.0	1.0
1.0	1.0
1.0	1.0
