0.110729752938	0.193783427641
0.980196078431	0.99
0.980196078431	0.99
0.110729752938	0.193783427641
0.980196078431	0.99
0.108917022227	0.188821752266
0.980196078431	0.99
0.00188223063368	0.0275
0.00188223063368	0.0275
0.980196078431	0.99
0.980196078431	0.99
0.980196078431	0.99
0.980196078431	0.99
0.980196078431	0.99
0.980196078431	0.99
0.10919443347	0.189537528431
0.980196078431	0.99
0.980196078431	0.99
0.110775625128	0.193918709277
0.980196078431	0.99
0.980196078431	0.99
0.109304455379	0.189825360668
0.980196078431	0.99
0.980196078431	0.99
0.109304455379	0.189825360668
0.980196078431	0.99
0.980196078431	0.99
0.112177662268	0.198349730244
0.980196078431	0.99
0.980196078431	0.99
