1.0	1.0
1.0	1.0
1.0	1.0
1.0	1.0
0.0939507096756	0.168395527415
0.00124797850372	0.0255
1.0	1.0
1.0	1.0
0.0906433435794	0.163773337701
1.0	1.0
0.089309231158	0.162866449511
1.0	1.0
1.0	1.0
0.0959968196818	0.172663858001
1.0	1.0
1.0	1.0
0.0782299607821	0.189058339385
1.0	1.0
0.0782299607821	0.189058339385
1.0	1.0
1.0	1.0
0.0927512194057	0.167897918066
1.0	1.0
0.0782299607821	0.189058339385
1.0	1.0
0.0906433435794	0.163773337701
1.0	1.0
1.0	1.0
0.0782299607821	0.189058339385
1.0	1.0
