1.0	1.0
1.0	1.0
1.0	1.0
0.992078431373	0.996
0.799801717526	0.797995067229
1.0	1.0
1.0	1.0
0.976715486194	0.988
1.0	1.0
0.824446395057	0.86990182776
1.0	1.0
1.0	1.0
0.992078431373	0.996
1.0	1.0
1.0	1.0
1.0	1.0
1.0	1.0
0.632653166623	0.792769938164
1.0	1.0
1.0	1.0
1.0	1.0
1.0	1.0
1.0	1.0
0.804518802424	0.830181150746
0.799741593219	0.796852646638
1.0	1.0
1.0	1.0
1.0	1.0
1.0	1.0
1.0	1.0
