0.804656495993	0.830605891275
1.0	1.0
1.0	1.0
1.0	1.0
1.0	1.0
1.0	1.0
1.0	1.0
0.719233763539	0.795564740482
1.0	1.0
1.0	1.0
1.0	1.0
1.0	1.0
1.0	1.0
0.803005211245	0.824586628325
1.0	1.0
0.984316926771	0.992
1.0	1.0
1.0	1.0
1.0	1.0
0.992078431373	0.996
0.805411649358	0.832960715426
0.799736250249	0.793524837327
1.0	1.0
0.992078431373	0.996
1.0	1.0
0.806818151261	0.83696
1.0	1.0
1.0	1.0
0.799684553186	0.796664019063
1.0	1.0
