1.0	1.0
1.0	1.0
1.0	1.0
1.0	1.0
1.0	1.0
0.803559312437	0.826815642458
1.0	1.0
1.0	1.0
1.0	1.0
1.0	1.0
0.961992797119	0.98
0.804030393399	0.828461907044
1.0	1.0
1.0	1.0
0.694177515954	0.793448084398
0.803042483601	0.824732385365
1.0	1.0
1.0	1.0
1.0	1.0
1.0	1.0
1.0	1.0
1.0	1.0
1.0	1.0
1.0	1.0
1.0	1.0
1.0	1.0
1.0	1.0
1.0	1.0
1.0	1.0
1.0	1.0
