1.0	1.0
1.0	1.0
1.0	1.0
1.0	1.0
0.689443782107	0.796216817676
1.0	1.0
0.801433518946	0.817004954451
1.0	1.0
1.0	1.0
1.0	1.0
1.0	1.0
1.0	1.0
1.0	1.0
1.0	1.0
0.799783400781	0.797137176938
1.0	1.0
1.0	1.0
1.0	1.0
1.0	1.0
0.803350204082	0.82592
0.800783604292	0.81262485018
0.800208006622	0.806554756195
1.0	1.0
0.809667961648	0.844004470701
1.0	1.0
0.799774105813	0.795613477432
1.0	1.0
0.799761259564	0.799872733058
1.0	1.0
1.0	1.0
