1.0	1.0
1.0	1.0
1.0	1.0
1.0	1.0
1.0	1.0
1.0	1.0
1.0	1.0
1.0	1.0
1.0	1.0
0.799808430038	0.794470485421
1.0	1.0
1.0	1.0
1.0	1.0
0.80017081327	0.80667039017
1.0	1.0
1.0	1.0
0.992078431373	0.996
1.0	1.0
1.0	1.0
1.0	1.0
0.804142511201	0.828847536139
1.0	1.0
0.805672347746	0.83373263057
1.0	1.0
1.0	1.0
0.729533476916	0.791640278657
1.0	1.0
0.799736250249	0.793524837327
0.80952605042	0.84368
1.0	1.0
