1.0	1.0
1.0	1.0
0.803320685043	0.825822946628
1.0	1.0
1.0	1.0
0.804405440083	0.829753254013
1.0	1.0
1.0	1.0
1.0	1.0
0.806161887725	0.835182376886
1.0	1.0
0.806062967491	0.834877036091
1.0	1.0
1.0	1.0
1.0	1.0
0.799489208494	0.804185825274
1.0	1.0
0.56780898855	0.591478301961
1.0	1.0
1.0	1.0
1.0	1.0
1.0	1.0
0.803005211245	0.824586628325
1.0	1.0
1.0	1.0
0.699148683662	0.795038956909
1.0	1.0
0.80066697129	0.812061263561
1.0	1.0
1.0	1.0
