1.0	1.0
1.0	1.0
1.0	1.0
1.0	1.0
1.0	1.0
1.0	1.0
1.0	1.0
1.0	1.0
1.0	1.0
1.0	1.0
1.0	1.0
1.0	1.0
0.806062967491	0.834877036091
1.0	1.0
1.0	1.0
1.0	1.0
1.0	1.0
1.0	1.0
1.0	1.0
0.804641212429	0.830524718473
1.0	1.0
1.0	1.0
1.0	1.0
0.803005211245	0.824586628325
1.0	1.0
1.0	1.0
1.0	1.0
1.0	1.0
1.0	1.0
0.802304174718	0.821551242112
