1.0	1.0
1.0	1.0
1.0	1.0
0.644654343579	0.791511894412
1.0	1.0
0.804405440083	0.829753254013
1.0	1.0
0.803229690793	0.825493171472
1.0	1.0
0.527860204845	0.592148825477
1.0	1.0
1.0	1.0
1.0	1.0
0.799736250249	0.793524837327
1.0	1.0
0.799688434823	0.797330579169
1.0	1.0
0.961992797119	0.98
1.0	1.0
1.0	1.0
1.0	1.0
1.0	1.0
1.0	1.0
0.809804953169	0.844311377246
0.811212265553	0.847381864623
1.0	1.0
1.0	1.0
1.0	1.0
1.0	1.0
1.0	1.0
