1.0	1.0
1.0	1.0
0.799779793584	0.797518689359
1.0	1.0
0.799831052374	0.798376184032
1.0	1.0
1.0	1.0
1.0	1.0
1.0	1.0
0.807325569121	0.838323353293
1.0	1.0
1.0	1.0
1.0	1.0
1.0	1.0
1.0	1.0
1.0	1.0
1.0	1.0
1.0	1.0
0.799614510875	0.79619047619
1.0	1.0
1.0	1.0
1.0	1.0
1.0	1.0
1.0	1.0
1.0	1.0
1.0	1.0
1.0	1.0
1.0	1.0
1.0	1.0
1.0	1.0
