1.0	1.0
0.803330274278	0.825878594249
1.0	1.0
1.0	1.0
1.0	1.0
1.0	1.0
0.799851029744	0.800430039022
0.802111707138	0.820615261686
1.0	1.0
1.0	1.0
1.0	1.0
1.0	1.0
1.0	1.0
1.0	1.0
1.0	1.0
1.0	1.0
0.807452773109	0.83864
1.0	1.0
1.0	1.0
1.0	1.0
1.0	1.0
1.0	1.0
1.0	1.0
0.684456622787	0.790326404805
1.0	1.0
1.0	1.0
1.0	1.0
1.0	1.0
1.0	1.0
0.604542679566	0.641431411531
