1.0	1.0
1.0	1.0
1.0	1.0
1.0	1.0
1.0	1.0
1.0	1.0
1.0	1.0
1.0	1.0
1.0	1.0
0.750384087459	0.759848030394
1.0	1.0
1.0	1.0
1.0	1.0
1.0	1.0
1.0	1.0
0.750384087459	0.759848030394
1.0	1.0
1.0	1.0
1.0	1.0
0.750867135429	0.764770568829
1.0	1.0
1.0	1.0
1.0	1.0
1.0	1.0
1.0	1.0
1.0	1.0
1.0	1.0
1.0	1.0
1.0	1.0
1.0	1.0
