4.19937910945e-05	0.00573742828215
0.0	0.0
1.86199407717e-05	0.00352319436289
3.70967353018e-05	0.00541271989175
0.0	0.0
2.05870490617e-05	0.00414651002073
0.0	0.0
0.0	0.0
0.0	0.0
0.0	0.0
2.05870490617e-05	0.00414651002073
0.0	0.0
0.0	0.0
