0.0	0.0
0.0	0.0
1.15068729593e-05	0.0034749034749
1.91883089471e-06	0.00155279503106
0.0	0.0
0.0	0.0
3.19804637743e-07	0.00077579519007
0.0	0.0
1.15128012756e-05	0.00349922239502
0.0	0.0
0.0	0.0
2.11075448599e-05	0.00467289719626
0.0	0.0
2.91045210515e-05	0.00546021840874
0.0	0.0
0.0	0.0
0.0	0.0
0.0	0.0
0.000316593530363	0.0176609105181
0.000376016299155	0.0192081536652
4.79696831602e-06	0.00233009708738
1.9192881744e-06	0.00155884645362
0.0	0.0
9.59414526879e-07	0.0011641443539
0.0	0.0
0.0	0.0
0.0	0.0
0.0	0.0
0.0	0.0
4.79696831602e-06	0.00233009708738
