0.0	0.0
0.0	0.0
0.0	0.0
0.0	0.0
1.15130958267e-05	0.00350058343057
0.0	0.0
0.0	0.0
0.0	0.0
6.07782948553e-05	0.00783699059561
0.0	0.0
0.0	0.0
0.0	0.0
4.7957950469e-06	0.00232198142415
8.8161619414e-05	0.00924499229584
0.0	0.0
0.0	0.0
0.0	0.0
6.71576852857e-06	0.0027195027195
4.79709104399e-06	0.002331002331
3.35743653006e-05	0.00583203732504
0.0	0.0
1.43849705827e-05	0.00386697602475
0.0	0.0
2.49386365664e-05	0.00504462553357
0.0	0.0
0.0	0.0
0.0	0.0
1.91883089471e-06	0.00155279503106
0.0	0.0
0.0	0.0
