0.0	0.0
0.0	0.0
0.0	0.0
0.0	0.0
1.15099853919e-05	0.00348702053468
0.0	0.0
9.59643166285e-07	0.00116867939229
2.11075448599e-05	0.00467289719626
0.0	0.0
0.0	0.000386249517188
6.07552646835e-05	0.00779119594858
8.95570985675e-06	0.00311647837943
9.59414526879e-07	0.0011641443539
0.0	0.0
4.79709104399e-06	0.002331002331
9.59414526879e-07	0.0011641443539
0.0	0.0
0.0	0.0
0.0	0.0
0.0	0.0
0.0	0.0
0.0	0.0
0.0	0.0
0.0	0.0
0.0	0.0
0.0	0.0
0.0	0.0
9.59643166285e-07	0.00116867939229
0.00012084661687	0.0109034267913
0.0	0.0
