0.0	0.0
0.0	0.0
0.0	0.000386249517188
0.0	0.0
0.0	0.0
1.15099853919e-05	0.00348702053468
0.0	0.0
0.0	0.0
0.0	0.0
0.0	0.0
0.0	0.0
0.0	0.0
0.0	0.0
4.79709104399e-06	0.002331002331
1.91883089471e-06	0.00155279503106
0.0	0.0
0.0	0.0
0.0	0.0
9.59532669209e-07	0.00116640746501
0.0	0.0
3.83740161862e-05	0.00623052959502
0.0	0.0
1.91831249886e-06	0.0015467904099
0.0	0.0
0.000103936440788	0.010164190774
0.0	0.0
0.0	0.0
0.00015854724692	0.0124513618677
0.0	0.0
0.0	0.0
