0.0	0.0
4.79696831602e-06	0.00233009708738
0.0	0.0
4.79709104399e-06	0.002331002331
4.89233974709e-05	0.00700661736084
1.43849705827e-05	0.00386697602475
3.19804637743e-07	0.00077579519007
0.0	0.0
0.0	0.0
3.35743653006e-05	0.00583203732504
0.0	0.0
0.0	0.0
0.00012084661687	0.0109034267913
0.0	0.0
3.19844939173e-06	0.00194552529183
0.0	0.0
0.0	0.0
0.0	0.0
1.43822534498e-05	0.00385802469136
9.59155329451e-07	0.00115964437572
6.71412594549e-06	0.00271002710027
1.15130958267e-05	0.00350058343057
0.0	0.0
0.0	0.0
0.0	0.0
0.0	0.0
0.0	0.0
8.95633721633e-06	0.00312012480499
1.43875231399e-05	0.00387596899225
0.000685071946927	0.0256609642302
