0.0	0.0
0.0	0.0
0.0	0.0
0.0	0.0
4.89324881978e-05	0.00702576112412
3.19804637743e-07	0.00077579519007
1.91883089471e-06	0.00155279503106
0.0	0.0
0.0	0.0
0.0	0.0
0.0	0.0
0.0	0.0
0.0	0.0
4.79768176017e-06	0.00233553912028
4.8910588567e-05	0.00698215671063
0.0	0.0
1.43831774357e-05	0.003861003861
0.0	0.0
0.0	0.0
0.0	0.0
0.0	0.0
0.0	0.0
0.0	0.0
0.0	0.0
1.75698361054e-05	0.0042226487524
8.9521879627e-06	0.00309837335399
0.0	0.0
0.0	0.0
0.0	0.0
4.79709104399e-06	0.002331002331
