8.94948399832e-06	0.00308641975309
1.15145135646e-05	0.00350740452065
0.0	0.0
0.0	0.0
2.11018422867e-05	0.00465477114042
3.83740161862e-05	0.00623052959502
0.0	0.0
1.15109569922e-05	0.00349107835531
0.0	0.0
0.0	0.0
2.10898870157e-05	0.00462249614792
0.0	0.0
0.0	0.0
0.0	0.0
1.91883089471e-06	0.00155279503106
0.0	0.0
0.0	0.0
4.7982342498e-06	0.00234009360374
0.0	0.0
0.0	0.0
1.15109569922e-05	0.00349107835531
0.0	0.0
9.59643166285e-07	0.00116867939229
0.0	0.0
0.0	0.0
0.0	0.0
9.59155329451e-07	0.00115964437572
4.88965205811e-05	0.00695786625435
0.0	0.0
1.43914112058e-05	0.00389105058366
