9.59462700888e-07	0.00116504854369
0.0	0.0
0.000492490637081	0.0220298977183
0.0	0.0
1.43836325768e-05	0.00386249517188
0.0	0.0
0.0	0.0
0.0	0.0
2.9103059691e-05	0.00545596258769
1.43921338353e-05	0.00389408099688
4.79709104399e-06	0.002331002331
2.11000005755e-05	0.0046493607129
8.95059972215e-06	0.00309119010819
0.000316745773124	0.0177865612648
6.07665540886e-05	0.0078125
0.0	0.0
0.0	0.0
1.15118956255e-05	0.00349514563107
0.0	0.0
2.49386365664e-05	0.00504462553357
1.91883089471e-06	0.00155279503106
0.0	0.0
0.0	0.0
0.0	0.0
2.11006211895e-05	0.0046511627907
0.0	0.0
0.0	0.0
0.0	0.0
0.0	0.0
0.0	0.0
