0.212578280995	0.213068181818
0.0	0.0
0.02968761144	0.104166666667
0.206804070044	0.208913649025
1.0	1.0
0.206804070044	0.208913649025
0.675624526874	0.833333333333
0.675624526874	0.833333333333
0.02968761144	0.104166666667
0.02968761144	0.104166666667
1.0	1.0
0.675624526874	0.833333333333
0.323389232127	0.5
1.0	1.0
1.0	1.0
0.675624526874	0.833333333333
1.0	1.0
1.0	1.0
0.675624526874	0.833333333333
0.02968761144	0.104166666667
1.0	1.0
0.0	0.0
0.274882464739	0.416666666667
1.0	1.0
0.675624526874	0.833333333333
1.0	1.0
0.02968761144	0.104166666667
0.675624526874	0.833333333333
0.02968761144	0.104166666667
0.675624526874	0.833333333333
