0.0	0.0
0.675624526874	0.833333333333
0.0288892808911	0.103092783505
1.0	1.0
0.0	0.0
0.675624526874	0.833333333333
0.675624526874	0.833333333333
1.0	1.0
0.274882464739	0.416666666667
1.0	1.0
1.0	1.0
0.675624526874	0.833333333333
0.0288892808911	0.103092783505
0.675624526874	0.833333333333
0.675624526874	0.833333333333
0.0288892808911	0.103092783505
1.0	1.0
1.0	1.0
0.323389232127	0.5
1.0	1.0
0.675624526874	0.833333333333
0.0288892808911	0.103092783505
0.0	0.0
0.211757659204	0.212464589235
0.0	0.0
0.0288892808911	0.103092783505
1.0	1.0
0.0288892808911	0.103092783505
0.0	0.0
0.0288892808911	0.103092783505
