0.0305126677968	0.105263157895
0.161269505285	0.238095238095
0.323389232127	0.5
0.0	0.0
0.0	0.0
0.675624526874	0.833333333333
1.0	1.0
1.0	1.0
0.0305126677968	0.105263157895
0.0305126677968	0.105263157895
0.0	0.0
0.0	0.0
0.0	0.0
1.0	1.0
0.274882464739	0.416666666667
1.0	1.0
0.675624526874	0.833333333333
0.0	0.0
1.0	1.0
0.675624526874	0.833333333333
0.0	0.0
0.323389232127	0.5
0.675624526874	0.833333333333
0.274882464739	0.416666666667
0.675624526874	0.833333333333
0.0	0.0
0.675624526874	0.833333333333
1.0	1.0
0.323389232127	0.5
1.0	1.0
