0.675624526874	0.833333333333
1.0	1.0
0.279261481427	0.422297297297
1.0	1.0
0.675624526874	0.833333333333
0.675624526874	0.833333333333
0.0	0.0
0.274882464739	0.416666666667
0.274882464739	0.416666666667
0.143657016717	0.227272727273
0.0	0.0
0.210935433213	0.21186440678
0.675624526874	0.833333333333
0.675624526874	0.833333333333
0.206804070044	0.208913649025
0.279261481427	0.422297297297
1.0	1.0
0.0266471058949	0.1
0.0266471058949	0.1
0.0	0.0
1.0	1.0
1.0	1.0
0.143657016717	0.227272727273
0.0	0.0
1.0	1.0
1.0	1.0
0.675624526874	0.833333333333
1.0	1.0
0.0	0.0
0.0266471058949	0.1
