1.0	1.0
1.0	1.0
0.209286610497	0.210674157303
0.0	0.0
0.205974497087	0.208333333333
0.0259481193458	0.0990099009901
0.0259481193458	0.0990099009901
0.323389232127	0.5
0.0	0.0
0.0259481193458	0.0990099009901
0.0259481193458	0.0990099009901
0.274882464739	0.416666666667
0.0	0.0
0.0	0.0
0.675624526874	0.833333333333
1.0	1.0
1.0	1.0
0.0	0.0
0.675624526874	0.833333333333
0.0	0.0
0.0	0.0
1.0	1.0
0.0	0.0
0.0	0.0
0.675624526874	0.833333333333
1.0	1.0
0.675624526874	0.833333333333
0.675624526874	0.833333333333
0.675624526874	0.833333333333
0.675624526874	0.833333333333
