0.323389232127	0.5
0.0	0.0
0.323389232127	0.5
0.0340945158681	0.10989010989
0.212578280995	0.213068181818
1.0	1.0
1.0	1.0
0.675624526874	0.833333333333
0.212578280995	0.213068181818
1.0	1.0
1.0	1.0
0.675624526874	0.833333333333
0.0	0.0
0.0340945158681	0.10989010989
0.675624526874	0.833333333333
0.0340945158681	0.10989010989
1.0	1.0
0.675624526874	0.833333333333
0.0340945158681	0.10989010989
0.675624526874	0.833333333333
0.212578280995	0.213068181818
0.675624526874	0.833333333333
0.0340945158681	0.10989010989
0.675624526874	0.833333333333
1.0	1.0
0.323389232127	0.5
0.0	0.0
0.675624526874	0.833333333333
1.0	1.0
1.0	1.0
