0.961161239702	0.980392156863
0.774533271643	0.779301745636
0.703730097331	0.781047537273
0.961161239702	0.980392156863
0.961161239702	0.980392156863
0.961161239702	0.980392156863
0.961161239702	0.980392156863
0.734907963585	0.782227784731
0.961161239702	0.980392156863
0.961161239702	0.980392156863
0.961161239702	0.980392156863
0.961161239702	0.980392156863
0.961161239702	0.980392156863
0.961161239702	0.980392156863
0.961161239702	0.980392156863
0.961161239702	0.980392156863
0.961161239702	0.980392156863
0.961161239702	0.980392156863
0.961161239702	0.980392156863
0.55103254623	0.588529067499
0.734869711923	0.781616382679
0.961161239702	0.980392156863
0.586163162492	0.599702380952
0.961161239702	0.980392156863
0.961161239702	0.980392156863
0.961161239702	0.980392156863
0.961161239702	0.980392156863
0.351822116727	0.393174380552
0.576410875079	0.588125292193
0.547073263723	0.586572989852
