0.774762838351	0.785870927318
0.961161239702	0.980392156863
0.774664566214	0.783458411507
0.718967035117	0.780944943381
0.961161239702	0.980392156863
0.961161239702	0.980392156863
0.648744926819	0.779490773184
0.961161239702	0.980392156863
0.961161239702	0.980392156863
0.774700310212	0.785881984661
0.961161239702	0.980392156863
0.961161239702	0.980392156863
0.961161239702	0.980392156863
0.961161239702	0.980392156863
0.585809066534	0.595704655902
0.774543281591	0.781245124044
0.729486242602	0.781311039925
0.724258521862	0.782227784731
0.729490684941	0.784942870559
0.961161239702	0.980392156863
0.774708369875	0.782799061767
0.961161239702	0.980392156863
0.961161239702	0.980392156863
0.961161239702	0.980392156863
0.774611460147	0.786082877248
0.734822648393	0.780944943381
0.961161239702	0.980392156863
0.774794782811	0.785630337695
0.961161239702	0.980392156863
0.961161239702	0.980392156863
