0.961161239702	0.980392156863
0.774784076652	0.785960513945
0.961161239702	0.980392156863
0.774522593685	0.781418207348
0.801077482172	0.859632595384
0.591331492058	0.780274656679
0.961161239702	0.980392156863
0.961161239702	0.980392156863
0.961161239702	0.980392156863
0.774467741699	0.778694907335
0.961161239702	0.980392156863
0.961161239702	0.980392156863
0.961161239702	0.980392156863
0.719027232977	0.781860828772
0.961161239702	0.980392156863
0.961161239702	0.980392156863
0.961161239702	0.980392156863
0.961161239702	0.980392156863
0.762954543914	0.784494909945
0.775884045399	0.801288599041
0.77464916305	0.78234375
0.961161239702	0.980392156863
0.581251882015	0.594766120818
0.679867558872	0.781528363807
0.961161239702	0.980392156863
0.586055423515	0.597843075961
0.961161239702	0.980392156863
0.961161239702	0.980392156863
0.961161239702	0.980392156863
0.577391164192	0.776156473145
