0.961161239702	0.980392156863
0.734794776141	0.780579189759
0.795873005516	0.852049630909
0.961161239702	0.980392156863
0.729554860015	0.78241139191
0.961161239702	0.980392156863
0.961161239702	0.980392156863
0.774800328848	0.788401253918
0.774494528424	0.77893752921
0.961161239702	0.980392156863
0.774743042008	0.781677479872
0.774828962229	0.786419946683
0.961161239702	0.980392156863
0.961161239702	0.980392156863
0.670701971875	0.780579189759
0.961161239702	0.980392156863
0.961161239702	0.980392156863
0.961161239702	0.980392156863
0.698720734324	0.779119594858
0.961161239702	0.980392156863
0.775126957002	0.793775542282
0.703809677931	0.782703886152
0.961161239702	0.980392156863
0.961161239702	0.980392156863
0.961161239702	0.980392156863
0.774454061021	0.778573653068
0.585610253783	0.593287960573
0.961161239702	0.980392156863
0.961161239702	0.980392156863
0.961161239702	0.980392156863
