0.713832799963	0.780944943381
0.679773039042	0.77984870935
0.496234710644	0.584123775463
0.961161239702	0.980392156863
0.961161239702	0.980392156863
0.774594010761	0.779909530494
0.961161239702	0.980392156863
0.774784842959	0.786335501058
0.961161239702	0.980392156863
0.774532098522	0.781262188938
0.774686266012	0.780944943381
0.801077482172	0.859632595384
0.774557245213	0.785061332917
0.961161239702	0.980392156863
0.961161239702	0.980392156863
0.798403508642	0.855841708543
0.584931287622	0.582023689711
0.961161239702	0.980392156863
0.961161239702	0.980392156863
0.961161239702	0.980392156863
0.961161239702	0.980392156863
0.961161239702	0.980392156863
0.961161239702	0.980392156863
0.961161239702	0.980392156863
0.961161239702	0.980392156863
0.774749174484	0.789712675174
0.961161239702	0.980392156863
0.585643529621	0.594732303833
0.644784285985	0.78125
0.961161239702	0.980392156863
