0.585457447405	0.585118815738
0.961161239702	0.980392156863
0.774670992673	0.780762023735
0.961161239702	0.980392156863
0.774686266012	0.780944943381
0.670796273562	0.782227784731
0.524095883607	0.588547355282
0.961161239702	0.980392156863
0.961161239702	0.980392156863
0.961161239702	0.980392156863
0.961161239702	0.980392156863
0.694008779669	0.780944943381
0.961161239702	0.980392156863
0.961161239702	0.980392156863
0.961161239702	0.980392156863
0.961161239702	0.980392156863
0.774568674736	0.783566351636
0.542751271484	0.58112710946
0.740264412139	0.780944943381
0.961161239702	0.980392156863
0.774720224935	0.781372089389
0.961161239702	0.980392156863
0.961161239702	0.980392156863
0.961161239702	0.980392156863
0.961161239702	0.980392156863
0.774672121482	0.783084499336
0.364827850829	0.398715840576
0.961161239702	0.980392156863
0.740339809751	0.782044263705
0.961161239702	0.980392156863
