0.605659609121	0.780213778575
0.961161239702	0.980392156863
0.961161239702	0.980392156863
0.961161239702	0.980392156863
0.713892239018	0.782139505787
0.585644889386	0.594643276686
0.53981318776	0.598778960551
0.961161239702	0.980392156863
0.774837792886	0.787546074818
0.961161239702	0.980392156863
0.961161239702	0.980392156863
0.679871129734	0.781311039925
0.961161239702	0.980392156863
0.961161239702	0.980392156863
0.58588930126	0.599105110291
0.774779403107	0.787275718875
0.961161239702	0.980392156863
0.961161239702	0.980392156863
0.586683257671	0.610735085786
0.961161239702	0.980392156863
0.961161239702	0.980392156863
0.644756737076	0.780762023735
0.961161239702	0.980392156863
0.961161239702	0.980392156863
0.961161239702	0.980392156863
0.774743042008	0.781677479872
0.499540931412	0.582614775111
0.774533271643	0.779301745636
0.77472949571	0.781494216943
0.961161239702	0.980392156863
