0.0497488595438	0.2232
0.0497488595438	0.2232
0.0497488595438	0.2232
0.0497488595438	0.2232
0.0497488595438	0.2232
0.0497488595438	0.2232
0.0497488595438	0.2232
0.0497488595438	0.2232
0.0497488595438	0.2232
0.0497488595438	0.2232
0.0497488595438	0.2232
0.0497488595438	0.2232
0.0497488595438	0.2232
0.0497488595438	0.2232
0.0497488595438	0.2232
0.0935510204082	0.306
0.0497488595438	0.2232
0.0935510204082	0.306
0.0497488595438	0.2232
0.0320537815126	0.1792
0.0860463558414	0.292246520875
0.0497488595438	0.2232
0.0497488595438	0.2232
0.0497488595438	0.2232
0.0860463558414	0.292246520875
0.0497488595438	0.2232
0.0497488595438	0.2232
0.0497488595438	0.2232
0.0497488595438	0.2232
0.0497488595438	0.2232
