0.0472816326531	0.2176
0.0472816326531	0.2176
0.0472816326531	0.2176
0.0472816326531	0.2176
0.0472816326531	0.2176
0.0472816326531	0.2176
0.0519135654262	0.228
0.0336489795918	0.1836
0.0336489795918	0.1836
0.0472816326531	0.2176
0.0472816326531	0.2176
0.0472816326531	0.2176
0.0472816326531	0.2176
0.0418778711485	0.2048
0.0519135654262	0.228
0.0472816326531	0.2176
0.0519135654262	0.228
0.0472816326531	0.2176
0.0519135654262	0.228
0.0472816326531	0.2176
0.0519135654262	0.228
0.0472816326531	0.2176
0.0336489795918	0.1836
0.0472816326531	0.2176
0.0472816326531	0.2176
0.0336489795918	0.1836
0.0472816326531	0.2176
0.0472816326531	0.2176
0.0472816326531	0.2176
0.0336489795918	0.1836
