0.0377286914766	0.1944
0.0420417767107	0.2052
0.0377286914766	0.1944
0.0377286914766	0.1944
0.0377286914766	0.1944
0.0377286914766	0.1944
0.0377286914766	0.1944
0.0377286914766	0.1944
0.0377286914766	0.1944
0.0377286914766	0.1944
0.0377286914766	0.1944
0.0377286914766	0.1944
0.0377286914766	0.1944
0.0377286914766	0.1944
0.0377286914766	0.1944
0.0377286914766	0.1944
0.0377286914766	0.1944
0.0420417767107	0.2052
0.0420417767107	0.2052
0.0377286914766	0.1944
0.0377286914766	0.1944
0.0377286914766	0.1944
0.0377286914766	0.1944
0.0377286914766	0.1944
0.0377286914766	0.1944
0.0377286914766	0.1944
0.0377286914766	0.1944
0.0377286914766	0.1944
0.0377286914766	0.1944
0.0377286914766	0.1944
