0.195172455834	0.9
0.195172455834	0.9
0.195172455834	0.9
0.119199919261	0.519792083167
0.195172455834	0.9
0.195172455834	0.9
0.195172455834	0.9
0.195172455834	0.9
0.0831686729236	0.569544364508
0.195172455834	0.9
0.195172455834	0.9
0.195172455834	0.9
0.114486092222	0.50969418349
0.195172455834	0.9
0.195172455834	0.9
0.195172455834	0.9
0.195172455834	0.9
0.195172455834	0.9
0.195172455834	0.9
0.120192307692	0.549450549451
0.195172455834	0.9
0.195172455834	0.9
0.195172455834	0.9
0.195172455834	0.9
0.195172455834	0.9
0.195172455834	0.9
0.195172455834	0.9
0.195172455834	0.9
0.195172455834	0.9
