0.176656424585	0.655913978495
0.125004519308	0.644364794902
0.176656424585	0.655913978495
0.176656424585	0.655913978495
0.176656424585	0.655913978495
0.092043162055	0.461201750895
0.176656424585	0.655913978495
0.213970077119	0.527402700556
0.176656424585	0.655913978495
0.176656424585	0.655913978495
0.176656424585	0.655913978495
0.0635027476447	0.452229299363
0.033906004723	0.408328513592
0.176656424585	0.655913978495
0.176656424585	0.655913978495
0.092043162055	0.461201750895
0.092043162055	0.461201750895
0.176656424585	0.655913978495
0.092043162055	0.461201750895
0.176656424585	0.655913978495
0.169490160233	0.646754281163
0.033906004723	0.408328513592
0.125004519308	0.644364794902
0.176656424585	0.655913978495
0.176656424585	0.655913978495
0.176656424585	0.655913978495
0.176656424585	0.655913978495
0.092043162055	0.461201750895
0.176656424585	0.655913978495
0.176656424585	0.655913978495
