0.342643959991	0.70750145377
0.325178252711	0.63488372093
0.0463350448417	0.267613745441
0.342643959991	0.70750145377
0.0470309158907	0.317637977615
0.0792439727981	0.536925395629
0.0484578456183	0.315779539449
0.342643959991	0.70750145377
0.074198221058	0.449321778448
0.325178252711	0.63488372093
0.325178252711	0.63488372093
0.0463350448417	0.267613745441
0.187902080747	0.400973418195
0.0793278854292	0.345461436422
0.0491000950383	0.327667610954
0.342643959991	0.70750145377
0.342643959991	0.70750145377
0.0489241590015	0.321630804077
0.0484578456183	0.315779539449
0.0484578456183	0.315779539449
0.325178252711	0.63488372093
0.325178252711	0.63488372093
0.0795142696227	0.349061967027
0.342643959991	0.70750145377
0.0776707094633	0.343258107339
0.325178252711	0.63488372093
0.0484578456183	0.315779539449
0.0470008951724	0.290266845844
0.047091920143	0.31937475878
0.0871656150767	0.650637880275
