0.0547475827846	0.545382165605
0.0668409594531	0.617038216561
0.0458134751309	0.449810417082
0.0668409594531	0.617038216561
0.057126481261	0.561305732484
0.0547475827846	0.545382165605
0.0949299216616	0.736464968153
0.0949299216616	0.736464968153
0.43650558002	0.778287766913
0.0949299216616	0.736464968153
0.0668409594531	0.617038216561
0.0949299216616	0.736464968153
0.43650558002	0.778287766913
0.044520028629	0.429056076631
0.0668409594531	0.617038216561
0.0668409594531	0.617038216561
0.0668409594531	0.617038216561
0.0949299216616	0.736464968153
0.0668409594531	0.617038216561
0.0668409594531	0.617038216561
0.0949299216616	0.736464968153
0.0949299216616	0.736464968153
0.0949299216616	0.736464968153
0.0949299216616	0.736464968153
0.0547475827846	0.545382165605
0.0949299216616	0.736464968153
0.0949299216616	0.736464968153
0.0949299216616	0.736464968153
0.0453320274361	0.442626222311
0.0547475827846	0.545382165605
