0.124563549252	0.824337585868
0.0483842256491	0.419173297108
0.0452678937755	0.328684873136
0.125698500962	0.843253968254
0.103313152741	0.745238095238
0.105756159535	0.735034347399
0.122219212245	0.391938579655
0.105756159535	0.735034347399
0.103313152741	0.745238095238
0.0483842256491	0.419173297108
0.103313152741	0.745238095238
0.0478645143869	0.41102270522
0.0483842256491	0.419173297108
0.0483842256491	0.419173297108
0.0913301147491	0.674603174603
0.0325975046176	0.326431888545
0.105756159535	0.735034347399
0.0325975046176	0.326431888545
0.134925148305	0.538081671415
0.103313152741	0.745238095238
0.0483842256491	0.419173297108
0.236555142066	0.548828900357
0.0478645143869	0.41102270522
0.14944849291	0.573455292141
0.122219212245	0.391938579655
0.054244631735	0.484378032214
0.0483842256491	0.419173297108
0.103313152741	0.745238095238
0.0883821845398	0.604514229637
0.124563549252	0.824337585868
