0.330986134421	0.713095238095
0.159137550651	0.219739654167
0.159137550651	0.219739654167
0.49046313085	0.87003968254
0.0201495778976	0.275552898984
0.0160385479963	0.192103712434
0.0156967335178	0.17925837795
0.0333791440875	0.385534967125
0.0145013158823	0.274084394904
0.49046313085	0.87003968254
0.464508333658	0.809126984127
0.0172034692945	0.219231519407
0.159137550651	0.219739654167
0.49046313085	0.87003968254
0.0156967335178	0.17925837795
0.0156967335178	0.17925837795
0.0292060895254	0.349218904489
0.464508333658	0.809126984127
0.330986134421	0.713095238095
0.464508333658	0.809126984127
0.288762953918	0.687301587302
0.159137550651	0.219739654167
0.159137550651	0.219739654167
0.0402873812773	0.44695481336
0.0156967335178	0.17925837795
0.0156967335178	0.17925837795
0.159137550651	0.219739654167
0.0353273900763	0.426479203281
0.0160385479963	0.192103712434
0.159137550651	0.219739654167
