0.0428445783398	0.4848
0.012723024345	0.225357710652
0.422413455384	0.814
0.027011563888	0.330815109344
0.0113483008624	0.202852614897
0.0439515328081	0.4992
0.012723024345	0.225357710652
0.0597656094816	0.5888
0.0597656094816	0.5888
0.0536023859287	0.395946999221
0.0597656094816	0.5888
0.0597656094816	0.5888
0.285947768247	0.489730544564
0.027011563888	0.330815109344
0.0597656094816	0.5888
0.012723024345	0.225357710652
0.012723024345	0.225357710652
0.012723024345	0.225357710652
0.027011563888	0.330815109344
0.313544108235	0.4984
0.012723024345	0.225357710652
0.027011563888	0.330815109344
0.0597656094816	0.5888
0.027011563888	0.330815109344
0.027011563888	0.330815109344
0.027011563888	0.330815109344
0.027011563888	0.330815109344
0.012723024345	0.225357710652
0.305858383544	0.484
0.027011563888	0.330815109344
