0.973767885533	0.986842105263
0.973767885533	0.986842105263
0.973767885533	0.986842105263
0.973767885533	0.986842105263
0.973767885533	0.986842105263
0.973767885533	0.986842105263
0.973767885533	0.986842105263
0.986709625453	0.993377483444
0.973767885533	0.986842105263
0.986709625453	0.993377483444
0.973767885533	0.986842105263
0.973767885533	0.986842105263
0.973767885533	0.986842105263
0.973767885533	0.986842105263
0.973767885533	0.986842105263
0.986709625453	0.993377483444
0.973767885533	0.986842105263
0.973767885533	0.986842105263
0.973767885533	0.986842105263
0.973767885533	0.986842105263
0.973767885533	0.986842105263
0.973767885533	0.986842105263
0.973767885533	0.986842105263
0.973767885533	0.986842105263
0.973767885533	0.986842105263
0.973767885533	0.986842105263
0.973767885533	0.986842105263
0.973767885533	0.986842105263
0.973767885533	0.986842105263
0.973767885533	0.986842105263
