0.986709625453	0.993377483444
0.986709625453	0.993377483444
0.986709625453	0.993377483444
0.986709625453	0.993377483444
0.986709625453	0.993377483444
0.986709625453	0.993377483444
0.986709625453	0.993377483444
0.986709625453	0.993377483444
0.986709625453	0.993377483444
0.986709625453	0.993377483444
0.986709625453	0.993377483444
0.986709625453	0.993377483444
0.986709625453	0.993377483444
0.986709625453	0.993377483444
0.986709625453	0.993377483444
0.986709625453	0.993377483444
0.986709625453	0.993377483444
0.986709625453	0.993377483444
0.986709625453	0.993377483444
0.986709625453	0.993377483444
0.986709625453	0.993377483444
0.986709625453	0.993377483444
0.986709625453	0.993377483444
0.986709625453	0.993377483444
0.986709625453	0.993377483444
0.986709625453	0.993377483444
0.986709625453	0.993377483444
0.986709625453	0.993377483444
0.986709625453	0.993377483444
0.986709625453	0.993377483444
