0.961161239702	0.980392156863
0.961161239702	0.980392156863
0.961161239702	0.980392156863
0.961161239702	0.980392156863
0.961161239702	0.980392156863
0.961161239702	0.980392156863
0.961161239702	0.980392156863
0.961161239702	0.980392156863
0.961161239702	0.980392156863
0.961161239702	0.980392156863
0.961161239702	0.980392156863
0.961161239702	0.980392156863
0.961161239702	0.980392156863
0.961161239702	0.980392156863
0.961161239702	0.980392156863
0.661768829566	0.787401574803
0.661768829566	0.787401574803
0.661768829566	0.787401574803
0.961161239702	0.980392156863
0.961161239702	0.980392156863
0.961161239702	0.980392156863
0.961161239702	0.980392156863
0.661768829566	0.787401574803
0.661768829566	0.787401574803
0.961161239702	0.980392156863
0.961161239702	0.980392156863
0.489731633164	0.498051441933
0.961161239702	0.980392156863
0.661768829566	0.787401574803
0.961161239702	0.980392156863
