0.961161239702	0.980392156863
0.961161239702	0.980392156863
0.961161239702	0.980392156863
0.661768829566	0.787401574803
0.961161239702	0.980392156863
0.961161239702	0.980392156863
0.661768829566	0.787401574803
0.961161239702	0.980392156863
0.961161239702	0.980392156863
0.961161239702	0.980392156863
0.441421266469	0.496284708643
0.661768829566	0.787401574803
0.961161239702	0.980392156863
0.961161239702	0.980392156863
0.961161239702	0.980392156863
0.961161239702	0.980392156863
0.49053228069	0.510067114094
0.961161239702	0.980392156863
0.661768829566	0.787401574803
0.961161239702	0.980392156863
0.961161239702	0.980392156863
0.961161239702	0.980392156863
0.961161239702	0.980392156863
0.961161239702	0.980392156863
0.961161239702	0.980392156863
0.961161239702	0.980392156863
0.661768829566	0.787401574803
0.961161239702	0.980392156863
0.961161239702	0.980392156863
0.961161239702	0.980392156863
