0.961161239702	0.980392156863
0.661768829566	0.787401574803
0.961161239702	0.980392156863
0.961161239702	0.980392156863
0.961161239702	0.980392156863
0.510432031555	0.792253521127
0.489790488119	0.486959906578
0.961161239702	0.980392156863
0.501802911237	0.782778864971
0.961161239702	0.980392156863
0.961161239702	0.980392156863
0.661768829566	0.787401574803
0.128165660152	0.669558657111
0.961161239702	0.980392156863
0.961161239702	0.980392156863
0.961161239702	0.980392156863
0.961161239702	0.980392156863
0.489714547557	0.489684702219
0.961161239702	0.980392156863
0.424322455196	0.67606737172
0.961161239702	0.980392156863
0.961161239702	0.980392156863
0.961161239702	0.980392156863
0.961161239702	0.980392156863
0.961161239702	0.980392156863
0.661768829566	0.787401574803
0.661768829566	0.787401574803
0.961161239702	0.980392156863
0.961161239702	0.980392156863
0.489620515299	0.484308407594
