0.0514312551742	0.44
0.0514312551742	0.44
0.0514312551742	0.44
0.0514312551742	0.44
0.0514312551742	0.44
0.0514312551742	0.44
0.0514312551742	0.44
0.0514312551742	0.44
0.0514312551742	0.44
0.0514312551742	0.44
0.0514312551742	0.44
0.0514312551742	0.44
0.0514312551742	0.44
0.0514312551742	0.44
0.0514312551742	0.44
0.0514312551742	0.44
0.0514312551742	0.44
0.0514312551742	0.44
0.0514312551742	0.44
0.0514312551742	0.44
0.0514312551742	0.44
0.0514312551742	0.44
0.0514312551742	0.44
0.0514312551742	0.44
0.0514312551742	0.44
0.0514312551742	0.44
0.0514312551742	0.44
0.0514312551742	0.44
0.0514312551742	0.44
0.0514312551742	0.44
