0.0514312551742	0.44
0.0514312551742	0.44
0.0514312551742	0.44
0.0514312551742	0.44
0.0514312551742	0.44
0.0514312551742	0.44
0.0514312551742	0.44
0.0514312551742	0.44
0.0514312551742	0.44
0.0514312551742	0.44
0.0514312551742	0.44
0.0514312551742	0.44
0.0514312551742	0.44
0.0514312551742	0.44
0.0514312551742	0.44
0.0067668936893	0.243243243243
0.0514312551742	0.44
0.0514312551742	0.44
0.0514312551742	0.44
0.0514312551742	0.44
0.0514312551742	0.44
0.0514312551742	0.44
0.0514312551742	0.44
0.0514312551742	0.44
0.0514312551742	0.44
0.0514312551742	0.44
0.0514312551742	0.44
0.0514312551742	0.44
0.0514312551742	0.44
0.0514312551742	0.44
