0.215992788843	0.426572187777
0.215992788843	0.426572187777
0.215992788843	0.426572187777
0.215992788843	0.426572187777
0.215992788843	0.426572187777
0.215992788843	0.426572187777
0.215992788843	0.426572187777
0.215992788843	0.426572187777
0.215992788843	0.426572187777
0.215992788843	0.426572187777
0.215992788843	0.426572187777
0.215992788843	0.426572187777
0.215992788843	0.426572187777
0.215992788843	0.426572187777
0.215992788843	0.426572187777
0.215992788843	0.426572187777
0.215992788843	0.426572187777
0.215992788843	0.426572187777
0.215992788843	0.426572187777
0.215992788843	0.426572187777
0.215992788843	0.426572187777
0.215992788843	0.426572187777
0.215992788843	0.426572187777
0.215992788843	0.426572187777
0.215992788843	0.426572187777
0.215992788843	0.426572187777
0.215992788843	0.426572187777
0.215992788843	0.426572187777
0.215992788843	0.426572187777
0.215992788843	0.426572187777
