0.403814953898	0.632603825607
0.403814953898	0.632603825607
0.403814953898	0.632603825607
0.403814953898	0.632603825607
0.403814953898	0.632603825607
0.403814953898	0.632603825607
0.403814953898	0.632603825607
0.403814953898	0.632603825607
0.403814953898	0.632603825607
0.403814953898	0.632603825607
0.403814953898	0.632603825607
0.403814953898	0.632603825607
0.403814953898	0.632603825607
0.403814953898	0.632603825607
0.403814953898	0.632603825607
0.403814953898	0.632603825607
0.403814953898	0.632603825607
0.403814953898	0.632603825607
0.403814953898	0.632603825607
0.403814953898	0.632603825607
0.403814953898	0.632603825607
0.403814953898	0.632603825607
0.403814953898	0.632603825607
0.403814953898	0.632603825607
0.403814953898	0.632603825607
0.403814953898	0.632603825607
0.403814953898	0.632603825607
0.403814953898	0.632603825607
0.403814953898	0.632603825607
0.403814953898	0.632603825607
