0.293965790651	0.533635413036
0.293965790651	0.533635413036
0.293965790651	0.533635413036
0.293965790651	0.533635413036
0.293965790651	0.533635413036
0.293965790651	0.533635413036
0.293965790651	0.533635413036
0.293965790651	0.533635413036
0.293965790651	0.533635413036
0.293965790651	0.533635413036
0.293965790651	0.533635413036
0.293965790651	0.533635413036
0.293965790651	0.533635413036
0.293965790651	0.533635413036
0.293965790651	0.533635413036
0.293965790651	0.533635413036
0.293965790651	0.533635413036
0.293965790651	0.533635413036
0.293965790651	0.533635413036
0.293965790651	0.533635413036
0.293965790651	0.533635413036
0.293965790651	0.533635413036
0.293965790651	0.533635413036
0.293965790651	0.533635413036
0.293965790651	0.533635413036
0.293965790651	0.533635413036
0.293965790651	0.533635413036
0.293965790651	0.533635413036
0.293965790651	0.533635413036
0.293965790651	0.533635413036
