0.381787185527	0.612304519677
0.381787185527	0.612304519677
0.381787185527	0.612304519677
0.381787185527	0.612304519677
0.381787185527	0.612304519677
0.381787185527	0.612304519677
0.381787185527	0.612304519677
0.381787185527	0.612304519677
0.381787185527	0.612304519677
0.381787185527	0.612304519677
0.381787185527	0.612304519677
0.381787185527	0.612304519677
0.381787185527	0.612304519677
0.381787185527	0.612304519677
0.381787185527	0.612304519677
0.381787185527	0.612304519677
0.381787185527	0.612304519677
0.381787185527	0.612304519677
0.381787185527	0.612304519677
0.381787185527	0.612304519677
0.381787185527	0.612304519677
0.381787185527	0.612304519677
0.381787185527	0.612304519677
0.381787185527	0.612304519677
0.381787185527	0.612304519677
0.381787185527	0.612304519677
0.381787185527	0.612304519677
0.381787185527	0.612304519677
0.381787185527	0.612304519677
0.381787185527	0.612304519677
