0.114973348934	0.337703615415
0.114973348934	0.337703615415
0.114973348934	0.337703615415
0.114973348934	0.337703615415
0.114973348934	0.337703615415
0.114973348934	0.337703615415
0.114973348934	0.337703615415
0.114973348934	0.337703615415
0.114973348934	0.337703615415
0.114973348934	0.337703615415
0.114973348934	0.337703615415
0.114973348934	0.337703615415
0.114973348934	0.337703615415
0.114973348934	0.337703615415
0.114973348934	0.337703615415
0.114973348934	0.337703615415
0.114973348934	0.337703615415
0.114973348934	0.337703615415
0.114973348934	0.337703615415
0.114973348934	0.337703615415
0.114973348934	0.337703615415
0.114973348934	0.337703615415
0.114973348934	0.337703615415
0.114973348934	0.337703615415
0.114973348934	0.337703615415
0.114973348934	0.337703615415
0.114973348934	0.337703615415
0.114973348934	0.337703615415
0.114973348934	0.337703615415
0.114973348934	0.337703615415
