0.0405781512605	0.2016
0.0405781512605	0.2016
0.0405781512605	0.2016
0.0405781512605	0.2016
0.0405781512605	0.2016
0.0405781512605	0.2016
0.0405781512605	0.2016
0.0405781512605	0.2016
0.0405781512605	0.2016
0.0405781512605	0.2016
0.0405781512605	0.2016
0.0405781512605	0.2016
0.0405781512605	0.2016
0.0405781512605	0.2016
0.0405781512605	0.2016
0.0405781512605	0.2016
0.0405781512605	0.2016
0.0405781512605	0.2016
0.0405781512605	0.2016
0.0405781512605	0.2016
0.0405781512605	0.2016
0.0405781512605	0.2016
0.0405781512605	0.2016
0.0405781512605	0.2016
0.0405781512605	0.2016
0.0405781512605	0.2016
0.0405781512605	0.2016
0.0405781512605	0.2016
0.0405781512605	0.2016
0.0405781512605	0.2016
