0.0273015994673	0.164416203336
0.0273015994673	0.164416203336
0.0273015994673	0.164416203336
0.0273015994673	0.164416203336
0.0273015994673	0.164416203336
0.0273015994673	0.164416203336
0.0273015994673	0.164416203336
0.0273015994673	0.164416203336
0.0273015994673	0.164416203336
0.0273015994673	0.164416203336
0.0273015994673	0.164416203336
0.0273015994673	0.164416203336
0.0273015994673	0.164416203336
0.0273015994673	0.164416203336
0.0273015994673	0.164416203336
0.0273015994673	0.164416203336
0.0273015994673	0.164416203336
0.0273015994673	0.164416203336
0.0273015994673	0.164416203336
0.0273015994673	0.164416203336
0.0273015994673	0.164416203336
0.0273015994673	0.164416203336
0.0273015994673	0.164416203336
0.0273015994673	0.164416203336
0.0273015994673	0.164416203336
0.0273015994673	0.164416203336
0.0273015994673	0.164416203336
0.0273015994673	0.164416203336
0.0273015994673	0.164416203336
0.0273015994673	0.164416203336
