0.0130468187275	0.1144
0.0130468187275	0.1144
0.0130468187275	0.1144
0.0130468187275	0.1144
0.0130468187275	0.1144
0.0130468187275	0.1144
0.0130468187275	0.1144
0.0130468187275	0.1144
0.0130468187275	0.1144
0.0130468187275	0.1144
0.0130468187275	0.1144
0.0130468187275	0.1144
0.0130468187275	0.1144
0.0130468187275	0.1144
0.0130468187275	0.1144
0.0130468187275	0.1144
0.0130468187275	0.1144
0.0130468187275	0.1144
0.0130468187275	0.1144
0.0130468187275	0.1144
0.0130468187275	0.1144
0.0130468187275	0.1144
0.0130468187275	0.1144
0.0130468187275	0.1144
0.0130468187275	0.1144
0.0130468187275	0.1144
0.0130468187275	0.1144
0.0130468187275	0.1144
0.0130468187275	0.1144
0.0130468187275	0.1144
