0.0180168067227	0.1344
0.0180168067227	0.1344
0.0180168067227	0.1344
0.0180168067227	0.1344
0.0180168067227	0.1344
0.0180168067227	0.1344
0.0180168067227	0.1344
0.0180168067227	0.1344
0.0180168067227	0.1344
0.0180168067227	0.1344
0.0180168067227	0.1344
0.0180168067227	0.1344
0.0180168067227	0.1344
0.0180168067227	0.1344
0.0180168067227	0.1344
0.0180168067227	0.1344
0.0180168067227	0.1344
0.0180168067227	0.1344
0.0180168067227	0.1344
0.0180168067227	0.1344
0.0180168067227	0.1344
0.0180168067227	0.1344
0.0180168067227	0.1344
0.0180168067227	0.1344
0.0180168067227	0.1344
0.0180168067227	0.1344
0.0180168067227	0.1344
0.0180168067227	0.1344
0.0180168067227	0.1344
0.0180168067227	0.1344
