0.062225210084	0.2496
0.062225210084	0.2496
0.062225210084	0.2496
0.062225210084	0.2496
0.062225210084	0.2496
0.062225210084	0.2496
0.062225210084	0.2496
0.062225210084	0.2496
0.062225210084	0.2496
0.062225210084	0.2496
0.062225210084	0.2496
0.062225210084	0.2496
0.062225210084	0.2496
0.062225210084	0.2496
0.062225210084	0.2496
0.062225210084	0.2496
0.062225210084	0.2496
0.062225210084	0.2496
0.062225210084	0.2496
0.062225210084	0.2496
0.062225210084	0.2496
0.062225210084	0.2496
0.062225210084	0.2496
0.062225210084	0.2496
0.062225210084	0.2496
0.062225210084	0.2496
0.062225210084	0.2496
0.062225210084	0.2496
0.062225210084	0.2496
0.062225210084	0.2496
