0.0310190536023	0.175767237943
0.0310190536023	0.175767237943
0.0310190536023	0.175767237943
0.0310190536023	0.175767237943
0.0310190536023	0.175767237943
0.0310190536023	0.175767237943
0.0310190536023	0.175767237943
0.0310190536023	0.175767237943
0.0310190536023	0.175767237943
0.0310190536023	0.175767237943
0.0310190536023	0.175767237943
0.0310190536023	0.175767237943
0.0310190536023	0.175767237943
0.0310190536023	0.175767237943
0.0310190536023	0.175767237943
0.0310190536023	0.175767237943
0.0310190536023	0.175767237943
0.0310190536023	0.175767237943
0.0310190536023	0.175767237943
0.0310190536023	0.175767237943
0.0310190536023	0.175767237943
0.0310190536023	0.175767237943
0.0310190536023	0.175767237943
0.0310190536023	0.175767237943
0.0310190536023	0.175767237943
0.0310190536023	0.175767237943
0.0310190536023	0.175767237943
0.0310190536023	0.175767237943
0.0310190536023	0.175767237943
0.0310190536023	0.175767237943
