0.0	0.0
0.0	0.0
0.0	0.0
0.000722345609682	0.0268817204301
0.000722345609682	0.0268817204301
0.000722345609682	0.0268817204301
0.000722345609682	0.0268817204301
0.0	0.0
0.000722345609682	0.0268817204301
0.000722345609682	0.0268817204301
0.0	0.0
0.000722345609682	0.0268817204301
0.000722345609682	0.0268817204301
0.0	0.0
0.000722345609682	0.0268817204301
0.000722345609682	0.0268817204301
0.000722345609682	0.0268817204301
0.0	0.0
0.0	0.0
0.0	0.0
0.000722345609682	0.0268817204301
0.0	0.0
0.000722345609682	0.0268817204301
0.000722345609682	0.0268817204301
0.000722345609682	0.0268817204301
0.0	0.0
0.000722345609682	0.0268817204301
0.0	0.0
0.0	0.0
0.000722345609682	0.0268817204301
