0.000716171710911	0.0267665952891
0.000716171710911	0.0267665952891
0.000716171710911	0.0267665952891
0.000716171710911	0.0267665952891
0.0	0.0
0.000716171710911	0.0267665952891
0.000716171710911	0.0267665952891
0.000716171710911	0.0267665952891
0.0	0.0
0.0	0.0
0.0	0.0
0.0	0.0
0.000716171710911	0.0267665952891
0.000716171710911	0.0267665952891
0.000716171710911	0.0267665952891
0.000716171710911	0.0267665952891
0.000716171710911	0.0267665952891
0.0	0.0
0.000716171710911	0.0267665952891
0.0	0.0
0.0	0.0
0.000716171710911	0.0267665952891
0.000716171710911	0.0267665952891
0.0	0.0
0.0	0.0
0.0	0.0
0.000716171710911	0.0267665952891
0.000716171710911	0.0267665952891
0.0	0.0
0.0	0.0
