0.0	0.0
0.0	0.0
0.000747857106587	0.027352297593
0.000747857106587	0.027352297593
0.0	0.0
0.0	0.0
0.0	0.0
0.000747857106587	0.027352297593
0.000747857106587	0.027352297593
0.0	0.0
0.000747857106587	0.027352297593
0.0	0.0
0.0	0.0
0.0	0.0
0.000747857106587	0.027352297593
0.000747857106587	0.027352297593
0.000747857106587	0.027352297593
0.000747857106587	0.027352297593
0.0	0.0
0.000747857106587	0.027352297593
0.000747857106587	0.027352297593
0.0	0.0
0.0	0.0
0.000747857106587	0.027352297593
0.0	0.0
0.0	0.0
0.0	0.0
0.0	0.0
0.0	0.0
0.000747857106587	0.027352297593
