0.973855062292	0.986842105263
0.973855062292	0.986842105263
0.973855062292	0.986842105263
0.973855062292	0.986842105263
0.973855062292	0.986842105263
0.973855062292	0.986842105263
0.973855062292	0.986842105263
0.973855062292	0.986842105263
0.973855062292	0.986842105263
0.973855062292	0.986842105263
0.973855062292	0.986842105263
0.973855062292	0.986842105263
0.973855062292	0.986842105263
0.973855062292	0.986842105263
0.973855062292	0.986842105263
0.973855062292	0.986842105263
0.973855062292	0.986842105263
0.973855062292	0.986842105263
0.973855062292	0.986842105263
0.973855062292	0.986842105263
0.973855062292	0.986842105263
0.973855062292	0.986842105263
0.973855062292	0.986842105263
0.973855062292	0.986842105263
0.973855062292	0.986842105263
0.973855062292	0.986842105263
0.973855062292	0.986842105263
0.973855062292	0.986842105263
0.973855062292	0.986842105263
0.973855062292	0.986842105263
