1.0	1.0
1.0	1.0
1.0	1.0
0.00627879918606	0.0797448165869
1.0	1.0
0.00627879918606	0.0797448165869
0.0142141496097	0.119426751592
1.0	1.0
1.0	1.0
0.0142141496097	0.119426751592
1.0	1.0
1.0	1.0
0.00627879918606	0.0797448165869
1.0	1.0
1.0	1.0
1.0	1.0
0.0142141496097	0.119426751592
1.0	1.0
1.0	1.0
1.0	1.0
1.0	1.0
1.0	1.0
1.0	1.0
1.0	1.0
1.0	1.0
1.0	1.0
1.0	1.0
