1.0	1.0
1.0	1.0
1.0	1.0
1.0	1.0
1.0	1.0
1.0	1.0
1.0	1.0
1.0	1.0
1.0	1.0
1.0	1.0
1.0	1.0
0.00627879918606	0.0797448165869
0.00627879918606	0.0797448165869
1.0	1.0
1.0	1.0
1.0	1.0
1.0	1.0
1.0	1.0
1.0	1.0
1.0	1.0
0.00627879918606	0.0797448165869
0.00627879918606	0.0797448165869
0.00627879918606	0.0797448165869
1.0	1.0
0.00627879918606	0.0797448165869
1.0	1.0
