0.924513771442	0.961161239702
0.000624756247562	0.025
0.924513771442	0.961161239702
0.924513771442	0.961161239702
0.000624756247562	0.025
0.000624756247562	0.025
0.924513771442	0.961161239702
0.000624756247562	0.025
0.924513771442	0.961161239702
0.000624756247562	0.025
0.000624756247562	0.025
0.924513771442	0.961161239702
0.924513771442	0.961161239702
0.000624756247562	0.025
0.924513771442	0.961161239702
0.000624756247562	0.025
0.000624756247562	0.025
0.000624756247562	0.025
0.924513771442	0.961161239702
0.000624756247562	0.025
0.924513771442	0.961161239702
0.000624756247562	0.025
0.000624756247562	0.025
0.924513771442	0.961161239702
0.924513771442	0.961161239702
0.000624756247562	0.025
0.000624756247562	0.025
0.924513771442	0.961161239702
0.924513771442	0.961161239702
0.924513771442	0.961161239702
