0.000624756247562	0.025
0.889976281544	0.943396226415
0.889976281544	0.943396226415
0.889976281544	0.943396226415
0.889976281544	0.943396226415
0.000624756247562	0.025
0.000624756247562	0.025
0.000624756247562	0.025
0.000624756247562	0.025
0.000624756247562	0.025
0.000624756247562	0.025
0.000624756247562	0.025
0.000624756247562	0.025
0.889976281544	0.943396226415
0.889976281544	0.943396226415
0.000624756247562	0.025
0.000624756247562	0.025
0.000624756247562	0.025
0.000624756247562	0.025
0.000624756247562	0.025
0.889976281544	0.943396226415
0.889976281544	0.943396226415
0.889976281544	0.943396226415
0.889976281544	0.943396226415
0.000624756247562	0.025
0.889976281544	0.943396226415
0.889976281544	0.943396226415
0.000624756247562	0.025
0.889976281544	0.943396226415
0.000624756247562	0.025
