0.000624756247562	0.025
0.0510731460334	0.200326457931
0.0533014124852	0.204421562689
0.000624756247562	0.025
0.924541983603	0.961538461538
0.924541983603	0.961538461538
0.924541983603	0.961538461538
0.0537636598931	0.205260757184
0.050643503274	0.199527047
0.000624756247562	0.025
0.000624756247562	0.025
0.0515080169401	0.201132300358
0.924541983603	0.961538461538
0.924541983603	0.961538461538
0.000624756247562	0.025
0.0542316402603	0.206106870229
0.0515080169401	0.201132300358
0.924541983603	0.961538461538
0.000624756247562	0.025
0.000624756247562	0.025
0.0537636598931	0.205260757184
0.0528448101008	0.203589202232
0.000624756247562	0.025
0.000624756247562	0.025
0.0528448101008	0.203589202232
0.0547054431127	0.206959987736
0.000624756247562	0.025
0.0523937663631	0.20276359267
0.924541983603	0.961538461538
0.000624756247562	0.025
