0.889976281544	0.943396226415
0.000624756247562	0.025
0.889976281544	0.943396226415
0.308382701975	0.536828963795
0.857313408258	0.925925925926
0.000624756247562	0.025
0.000624756247562	0.025
0.000624756247562	0.025
0.889976281544	0.943396226415
0.193387421618	0.421856167135
0.000624756247562	0.025
0.889976281544	0.943396226415
0.889976281544	0.943396226415
0.889976281544	0.943396226415
0.857313408258	0.925925925926
0.000624756247562	0.025
0.000624756247562	0.025
0.178026794771	0.404780262143
0.889976281544	0.943396226415
0.889976281544	0.943396226415
0.857313408258	0.925925925926
0.889976281544	0.943396226415
0.000624756247562	0.025
0.18095295568	0.408083948698
0.000624756247562	0.025
0.889976281544	0.943396226415
0.889976281544	0.943396226415
0.000624756247562	0.025
0.23475071018	0.465013286094
0.000624756247562	0.025
