0.857313408258	0.925925925926
0.857313408258	0.925925925926
0.000624756247562	0.025
0.857313408258	0.925925925926
0.857313408258	0.925925925926
0.857313408258	0.925925925926
0.000624756247562	0.025
0.000624756247562	0.025
0.857313408258	0.925925925926
0.000624756247562	0.025
0.857313408258	0.925925925926
0.857313408258	0.925925925926
0.857313408258	0.925925925926
0.857313408258	0.925925925926
0.000624756247562	0.025
0.857313408258	0.925925925926
0.857313408258	0.925925925926
0.000624756247562	0.025
0.000624756247562	0.025
0.857313408258	0.925925925926
0.857313408258	0.925925925926
0.857313408258	0.925925925926
0.000624756247562	0.025
0.000624756247562	0.025
0.000624756247562	0.025
0.000624756247562	0.025
0.857313408258	0.925925925926
0.857313408258	0.925925925926
0.000624756247562	0.025
0.000624756247562	0.025
