0.0740867738018	0.579352580927
0.0740867738018	0.579352580927
0.0740867738018	0.579352580927
0.0740867738018	0.579352580927
0.0740867738018	0.579352580927
0.0740867738018	0.579352580927
0.0740867738018	0.579352580927
0.0740867738018	0.579352580927
0.0740867738018	0.579352580927
0.0740867738018	0.579352580927
0.0740867738018	0.579352580927
0.0740867738018	0.579352580927
0.0740867738018	0.579352580927
0.0740867738018	0.579352580927
0.0740867738018	0.579352580927
0.0740867738018	0.579352580927
0.0740867738018	0.579352580927
0.0740867738018	0.579352580927
0.0740867738018	0.579352580927
0.0740867738018	0.579352580927
0.0740867738018	0.579352580927
0.0740867738018	0.579352580927
0.0740867738018	0.579352580927
0.0740867738018	0.579352580927
0.0740867738018	0.579352580927
0.0740867738018	0.579352580927
0.0740867738018	0.579352580927
0.0740867738018	0.579352580927
0.0740867738018	0.579352580927
0.0740867738018	0.579352580927
