0.0657598561043	0.530345308685
0.0657598561043	0.530345308685
0.0657598561043	0.530345308685
0.0657598561043	0.530345308685
0.0657598561043	0.530345308685
0.0657598561043	0.530345308685
0.0657598561043	0.530345308685
0.0657598561043	0.530345308685
0.0657598561043	0.530345308685
0.0657598561043	0.530345308685
0.0657598561043	0.530345308685
0.0657598561043	0.530345308685
0.0657598561043	0.530345308685
0.0657598561043	0.530345308685
0.0657598561043	0.530345308685
0.0657598561043	0.530345308685
0.0657598561043	0.530345308685
0.0657598561043	0.530345308685
0.0657598561043	0.530345308685
0.0657598561043	0.530345308685
0.0657598561043	0.530345308685
0.0657598561043	0.530345308685
0.0657598561043	0.530345308685
0.0657598561043	0.530345308685
0.0657598561043	0.530345308685
0.0657598561043	0.530345308685
0.0657598561043	0.530345308685
0.0657598561043	0.530345308685
0.0657598561043	0.530345308685
0.0657598561043	0.530345308685
