0.0658197289617	0.552755905512
0.0658197289617	0.552755905512
0.0658197289617	0.552755905512
0.0658197289617	0.552755905512
0.0658197289617	0.552755905512
0.0658197289617	0.552755905512
0.0658197289617	0.552755905512
0.0658197289617	0.552755905512
0.0658197289617	0.552755905512
0.0658197289617	0.552755905512
0.0658197289617	0.552755905512
0.0658197289617	0.552755905512
0.0658197289617	0.552755905512
0.0658197289617	0.552755905512
0.0658197289617	0.552755905512
0.0658197289617	0.552755905512
0.0658197289617	0.552755905512
0.0658197289617	0.552755905512
0.0658197289617	0.552755905512
0.0658197289617	0.552755905512
0.0658197289617	0.552755905512
0.0658197289617	0.552755905512
0.0658197289617	0.552755905512
0.0658197289617	0.552755905512
0.0658197289617	0.552755905512
0.0658197289617	0.552755905512
0.0658197289617	0.552755905512
0.0658197289617	0.552755905512
0.0658197289617	0.552755905512
0.0658197289617	0.552755905512
