0.0648570837383	0.535390516039
0.0648570837383	0.535390516039
0.0648570837383	0.535390516039
0.0648570837383	0.535390516039
0.0648570837383	0.535390516039
0.0648570837383	0.535390516039
0.0648570837383	0.535390516039
0.0648570837383	0.535390516039
0.0648570837383	0.535390516039
0.0648570837383	0.535390516039
0.0648570837383	0.535390516039
0.0648570837383	0.535390516039
0.0648570837383	0.535390516039
0.0648570837383	0.535390516039
0.0648570837383	0.535390516039
0.0648570837383	0.535390516039
0.0648570837383	0.535390516039
0.0648570837383	0.535390516039
0.0648570837383	0.535390516039
0.0648570837383	0.535390516039
0.0648570837383	0.535390516039
0.0648570837383	0.535390516039
0.0648570837383	0.535390516039
0.0648570837383	0.535390516039
0.0648570837383	0.535390516039
0.0648570837383	0.535390516039
0.0648570837383	0.535390516039
0.0648570837383	0.535390516039
0.0648570837383	0.535390516039
0.0648570837383	0.535390516039
