0.0512632436033	0.476622470342
0.0512632436033	0.476622470342
0.0512632436033	0.476622470342
0.0512632436033	0.476622470342
0.0512632436033	0.476622470342
0.0512632436033	0.476622470342
0.0512632436033	0.476622470342
0.0512632436033	0.476622470342
0.0512632436033	0.476622470342
0.0512632436033	0.476622470342
0.0512632436033	0.476622470342
0.0512632436033	0.476622470342
0.0512632436033	0.476622470342
0.0512632436033	0.476622470342
0.0512632436033	0.476622470342
0.0512632436033	0.476622470342
0.0512632436033	0.476622470342
0.0512632436033	0.476622470342
0.0512632436033	0.476622470342
0.0512632436033	0.476622470342
0.0512632436033	0.476622470342
0.0512632436033	0.476622470342
0.0512632436033	0.476622470342
0.0512632436033	0.476622470342
0.0512632436033	0.476622470342
0.0512632436033	0.476622470342
0.0512632436033	0.476622470342
0.0512632436033	0.476622470342
0.0512632436033	0.476622470342
0.0512632436033	0.476622470342
