0.0679243219571	0.561711079944
0.0679243219571	0.561711079944
0.0679243219571	0.561711079944
0.0679243219571	0.561711079944
0.0679243219571	0.561711079944
0.0679243219571	0.561711079944
0.0679243219571	0.561711079944
0.0679243219571	0.561711079944
0.0679243219571	0.561711079944
0.0679243219571	0.561711079944
0.0679243219571	0.561711079944
0.0679243219571	0.561711079944
0.0679243219571	0.561711079944
0.0679243219571	0.561711079944
0.0679243219571	0.561711079944
0.0679243219571	0.561711079944
0.0679243219571	0.561711079944
0.0679243219571	0.561711079944
0.0679243219571	0.561711079944
0.0679243219571	0.561711079944
0.0679243219571	0.561711079944
0.0679243219571	0.561711079944
0.0679243219571	0.561711079944
0.0679243219571	0.561711079944
0.0679243219571	0.561711079944
0.0679243219571	0.561711079944
0.0679243219571	0.561711079944
0.0679243219571	0.561711079944
0.0679243219571	0.561711079944
0.0679243219571	0.561711079944
