0.0797448534312	0.623183391003
0.0797448534312	0.623183391003
0.0797448534312	0.623183391003
0.0797448534312	0.623183391003
0.0797448534312	0.623183391003
0.0797448534312	0.623183391003
0.0797448534312	0.623183391003
0.0797448534312	0.623183391003
0.0797448534312	0.623183391003
0.0797448534312	0.623183391003
0.0797448534312	0.623183391003
0.0797448534312	0.623183391003
0.0797448534312	0.623183391003
0.0797448534312	0.623183391003
0.0797448534312	0.623183391003
0.0797448534312	0.623183391003
0.0797448534312	0.623183391003
0.0797448534312	0.623183391003
0.0797448534312	0.623183391003
0.0797448534312	0.623183391003
0.0797448534312	0.623183391003
0.0797448534312	0.623183391003
0.0797448534312	0.623183391003
0.0797448534312	0.623183391003
0.0797448534312	0.623183391003
0.0797448534312	0.623183391003
0.0797448534312	0.623183391003
0.0797448534312	0.623183391003
0.0797448534312	0.623183391003
0.0797448534312	0.623183391003
