0.996203722292	0.980392156863
0.0586709526669	0.488715953307
0.0470546833641	0.480030721966
0.996203722292	0.980392156863
0.996203722292	0.980392156863
0.996203722292	0.980392156863
0.996203722292	0.980392156863
0.996203722292	0.980392156863
0.996203722292	0.980392156863
0.996203722292	0.980392156863
0.996203722292	0.980392156863
0.996203722292	0.980392156863
0.996203722292	0.980392156863
0.996203722292	0.980392156863
0.996203722292	0.980392156863
0.996203722292	0.980392156863
0.996203722292	0.980392156863
0.996203722292	0.980392156863
0.996203722292	0.980392156863
0.996203722292	0.980392156863
0.996203722292	0.980392156863
0.996203722292	0.980392156863
0.996203722292	0.980392156863
0.996203722292	0.980392156863
0.996203722292	0.980392156863
0.996203722292	0.980392156863
0.996203722292	0.980392156863
0.996203722292	0.980392156863
0.996203722292	0.980392156863
0.996203722292	0.980392156863
