0.0639580261903	0.787401574803
0.996203722292	0.980392156863
0.996203722292	0.980392156863
0.996203722292	0.980392156863
0.996203722292	0.980392156863
0.996203722292	0.980392156863
0.996203722292	0.980392156863
0.0301378554352	0.296684118674
0.996203722292	0.980392156863
0.996203722292	0.980392156863
0.996203722292	0.980392156863
0.996203722292	0.980392156863
0.996203722292	0.980392156863
0.996203722292	0.980392156863
0.996203722292	0.980392156863
0.996203722292	0.980392156863
0.996203722292	0.980392156863
0.996203722292	0.980392156863
0.996203722292	0.980392156863
0.996203722292	0.980392156863
0.996203722292	0.980392156863
0.0470963867559	0.504814305365
0.996203722292	0.980392156863
0.0470710982078	0.493980582524
0.0639580261903	0.787401574803
0.996203722292	0.980392156863
0.996203722292	0.980392156863
0.996203722292	0.980392156863
0.996203722292	0.980392156863
0.967117488594	0.980392156863
