0.996203722292	0.980392156863
0.996203722292	0.980392156863
0.996203722292	0.980392156863
0.996203722292	0.980392156863
0.996203722292	0.980392156863
0.996203722292	0.980392156863
0.996203722292	0.980392156863
0.996203722292	0.980392156863
0.996203722292	0.980392156863
0.996203722292	0.980392156863
0.996203722292	0.980392156863
0.996203722292	0.980392156863
0.996203722292	0.980392156863
0.996203722292	0.980392156863
0.996203722292	0.980392156863
0.996203722292	0.980392156863
0.996203722292	0.980392156863
0.996203722292	0.980392156863
0.996203722292	0.980392156863
0.996203722292	0.980392156863
0.0471368332386	0.513225424398
0.996203722292	0.980392156863
0.996203722292	0.980392156863
0.996203722292	0.980392156863
0.996203722292	0.980392156863
0.996203722292	0.980392156863
0.996203722292	0.980392156863
0.996203722292	0.980392156863
0.996203722292	0.980392156863
0.996203722292	0.980392156863
