1.0	1.0
0.0697846065198	0.434027777778
1.0	1.0
0.0717259440871	0.5
0.0554081333374	0.242165242165
0.0548400462683	0.236111111111
1.0	1.0
0.0548400462683	0.236111111111
1.0	1.0
1.0	1.0
0.0695244441721	0.431034482759
0.0717259440871	0.5
0.0695244441721	0.431034482759
1.0	1.0
1.0	1.0
1.0	1.0
1.0	1.0
0.0548400462683	0.236111111111
1.0	1.0
0.0717259440871	0.5
0.0548400462683	0.236111111111
0.0548400462683	0.236111111111
1.0	1.0
0.0717259440871	0.5
0.0548400462683	0.236111111111
0.0697846065198	0.434027777778
1.0	1.0
0.0548400462683	0.236111111111
0.0695244441721	0.431034482759
0.0695244441721	0.431034482759
