0.0550965450151	0.238764044944
0.0695244441721	0.431034482759
1.0	1.0
0.0550965450151	0.238764044944
0.0698477001537	0.435540069686
0.0550965450151	0.238764044944
0.0695244441721	0.431034482759
1.0	1.0
1.0	1.0
0.0717259440871	0.5
0.0550965450151	0.238764044944
0.0717259440871	0.5
0.0695244441721	0.431034482759
0.0695244441721	0.431034482759
1.0	1.0
0.0717259440871	0.5
1.0	1.0
0.0550965450151	0.238764044944
0.0698477001537	0.435540069686
0.0695244441721	0.431034482759
0.0584721072407	0.3
0.0717259440871	0.5
1.0	1.0
1.0	1.0
1.0	1.0
0.0695244441721	0.431034482759
1.0	1.0
0.0695244441721	0.431034482759
0.0550965450151	0.238764044944
0.0550965450151	0.238764044944
