1.0	1.0
1.0	1.0
0.0717259440871	0.5
0.0550330128777	0.238095238095
1.0	1.0
1.0	1.0
0.0552847254734	0.240793201133
1.0	1.0
1.0	1.0
0.0717259440871	0.5
0.0552847254734	0.240793201133
1.0	1.0
0.0550330128777	0.238095238095
1.0	1.0
0.0695244441721	0.431034482759
1.0	1.0
0.0695244441721	0.431034482759
0.0717259440871	0.5
0.0695244441721	0.431034482759
1.0	1.0
0.0698477001537	0.435540069686
0.0717259440871	0.5
0.0695244441721	0.431034482759
0.0695244441721	0.431034482759
0.0717259440871	0.5
1.0	1.0
1.0	1.0
1.0	1.0
0.0695244441721	0.431034482759
0.0695244441721	0.431034482759
