0.195172455834	0.9
0.195172455834	0.9
0.195172455834	0.9
0.195172455834	0.9
0.195172455834	0.9
0.119435938002	0.529682190686
0.195172455834	0.9
0.195172455834	0.9
0.195172455834	0.9
0.195172455834	0.9
0.195172455834	0.9
0.195172455834	0.9
0.195172455834	0.9
0.195172455834	0.9
0.195172455834	0.9
0.195172455834	0.9
0.195172455834	0.9
0.195172455834	0.9
0.195172455834	0.9
0.195172455834	0.9
0.195172455834	0.9
0.195172455834	0.9
0.195172455834	0.9
0.195172455834	0.9
0.195172455834	0.9
0.195172455834	0.9
0.195172455834	0.9
