0.119199919261	0.519792083167
0.195172455834	0.9
0.195172455834	0.9
0.195172455834	0.9
0.195172455834	0.9
0.195172455834	0.9
0.195172455834	0.9
0.195172455834	0.9
0.195172455834	0.9
0.195172455834	0.9
0.195172455834	0.9
0.195172455834	0.9
0.195172455834	0.9
0.195172455834	0.9
0.195172455834	0.9
0.195172455834	0.9
0.086489686781	0.579652208675
0.119199919261	0.519792083167
0.195172455834	0.9
0.195172455834	0.9
0.195172455834	0.9
0.195172455834	0.9
0.195172455834	0.9
0.195172455834	0.9
0.119199919261	0.519792083167
0.195172455834	0.9
0.195172455834	0.9
0.195172455834	0.9
0.195172455834	0.9
