0.195172455834	0.9
0.195172455834	0.9
0.195172455834	0.9
0.195172455834	0.9
0.195172455834	0.9
0.195172455834	0.9
0.195172455834	0.9
0.195172455834	0.9
0.195172455834	0.9
0.0831686729236	0.569544364508
0.195172455834	0.9
0.195172455834	0.9
0.195172455834	0.9
0.195172455834	0.9
0.195172455834	0.9
0.195172455834	0.9
0.195172455834	0.9
0.195172455834	0.9
0.195172455834	0.9
0.195172455834	0.9
0.0899254935067	0.589764094362
0.195172455834	0.9
0.195172455834	0.9
0.195172455834	0.9
0.195172455834	0.9
0.195172455834	0.9
0.195172455834	0.9
0.195172455834	0.9
