0.990473495033	0.980392156863
0.990473495033	0.980392156863
0.990473495033	0.980392156863
0.990473495033	0.980392156863
0.0701457356519	0.431876102725
0.990473495033	0.980392156863
0.990473495033	0.980392156863
0.990473495033	0.980392156863
0.990473495033	0.980392156863
0.990473495033	0.980392156863
0.990473495033	0.980392156863
0.990473495033	0.980392156863
0.990473495033	0.980392156863
0.990473495033	0.980392156863
0.990473495033	0.980392156863
0.990473495033	0.980392156863
0.990473495033	0.980392156863
0.990473495033	0.980392156863
0.990473495033	0.980392156863
0.990473495033	0.980392156863
0.990473495033	0.980392156863
0.10861343929	0.501563721658
0.990473495033	0.980392156863
0.990473495033	0.980392156863
0.990473495033	0.980392156863
0.193645230899	0.884086444008
0.990473495033	0.980392156863
0.990473495033	0.980392156863
0.990473495033	0.980392156863
0.990473495033	0.980392156863
