0.990473495033	0.980392156863
0.990473495033	0.980392156863
0.990473495033	0.980392156863
0.990473495033	0.980392156863
0.990473495033	0.980392156863
0.954456296678	0.980392156863
0.990473495033	0.980392156863
0.990473495033	0.980392156863
0.990473495033	0.980392156863
0.990473495033	0.980392156863
0.990473495033	0.980392156863
0.990473495033	0.980392156863
0.990473495033	0.980392156863
0.990473495033	0.980392156863
0.990473495033	0.980392156863
0.118422167492	0.48581422464
0.990473495033	0.980392156863
0.990473495033	0.980392156863
0.990473495033	0.980392156863
0.990473495033	0.980392156863
0.990473495033	0.980392156863
0.990473495033	0.980392156863
0.118425549585	0.488408338204
0.990473495033	0.980392156863
0.990473495033	0.980392156863
0.990473495033	0.980392156863
0.990473495033	0.980392156863
0.990473495033	0.980392156863
0.990473495033	0.980392156863
0.990473495033	0.980392156863
