0.189332525191	0.3
0.192245557351	0.24
0.308556611927	0.36
0.357051007287	0.48
0.347131546048	0.42
0.274645565447	0.4
0.32458760878	0.4
0.357051007287	0.48
0.277697521947	0.36
0.174767466256	0.24
0.252449742398	0.3
0.396729639625	0.48
0.206545995537	0.36
0.297535420883	0.4
0.32458760878	0.4
0.0999639985599	0.1
0.446329701732	0.56
0.277697521947	0.36
0.347131546048	0.42
0.277697521947	0.36
0.284009546539	0.42
0.308556611927	0.36
0.32458760878	0.4
0.274645565447	0.32
0.206545995537	0.3
0.32458760878	0.4
0.213608000684	0.24
0.0999639985599	0.1
0.357051007287	0.48
0.0999639985599	0.1
