0.213608000684	0.24
0.357051007287	0.48
0.297535420883	0.4
0.210017648542	0.32
0.128160418483	0.16
0.297535420883	0.4
0.252449742398	0.36
0.308556611927	0.36
0.252449742398	0.3
0.23141031577	0.3
0.297535420883	0.4
0.252449742398	0.36
0.213608000684	0.24
0.277697521947	0.36
0.274645565447	0.4
0.32458760878	0.4
0.23141031577	0.3
0.347131546048	0.42
0.297535420883	0.4
0.32458760878	0.48
0.32458760878	0.4
0.23141031577	0.3
0.238022668826	0.32
0.147878572697	0.2
0.252449742398	0.3
0.32458760878	0.48
0.174767466256	0.2
0.255026023064	0.32
0.23141031577	0.3
0.189332525191	0.3
