0.32458760878	0.4
0.357051007287	0.48
0.32458760878	0.4
0.357051007287	0.48
0.308556611927	0.36
0.277697521947	0.36
0.32458760878	0.4
0.297535420883	0.4
0.308556611927	0.42
0.297535420883	0.48
0.198349075323	0.3
0.357051007287	0.48
0.396729639625	0.48
0.396729639625	0.48
0.198349075323	0.3
0.510104102878	0.64
0.32458760878	0.48
0.128160418483	0.16
0.24031156842	0.28
0.396729639625	0.48
0.297535420883	0.4
0.147878572697	0.2
0.24031156842	0.28
0.206545995537	0.3
0.255026023064	0.4
0.274645565447	0.32
0.357051007287	0.48
0.227202472952	0.36
0.32458760878	0.48
0.23141031577	0.3
