0.227202472952	0.3
0.185124824061	0.24
0.227202472952	0.36
0.396729639625	0.48
0.238022668826	0.32
0.347131546048	0.48
0.277697521947	0.36
0.357051007287	0.48
0.277697521947	0.36
0.297535420883	0.4
0.32458760878	0.4
0.0999639985599	0.1
0.213608000684	0.24
0.274645565447	0.4
0.198349075323	0.24
0.357051007287	0.48
0.297535420883	0.48
0.32458760878	0.48
0.277697521947	0.36
0.347131546048	0.42
0.297535420883	0.4
0.396729639625	0.56
0.238022668826	0.32
0.32458760878	0.4
0.185124824061	0.24
0.255026023064	0.32
0.308556611927	0.36
0.227202472952	0.36
0.277697521947	0.36
0.446329701732	0.56
