0.315296601302	0.9
0.315296601302	0.9
7.53966788532e-05	0.01
0.315296601302	0.9
0.315296601302	0.9
0.315296601302	0.9
0.315296601302	0.9
0.315296601302	0.9
0.315296601302	0.9
0.315296601302	0.9
0.315296601302	0.9
0.315296601302	0.9
0.315296601302	0.9
0.315296601302	0.9
0.315296601302	0.9
0.315296601302	0.9
0.315296601302	0.9
0.315296601302	0.9
0.315296601302	0.9
0.315296601302	0.9
0.315296601302	0.9
0.315296601302	0.9
0.315296601302	0.9
0.315296601302	0.9
0.315296601302	0.9
0.315296601302	0.9
0.315296601302	0.9
0.315296601302	0.9
0.315296601302	0.9
0.315296601302	0.9
