0.192943953887	0.529682190686
0.315296601302	0.9
0.315296601302	0.9
0.315296601302	0.9
0.192563812959	0.519792083167
0.192563812959	0.519792083167
0.315296601302	0.9
0.315296601302	0.9
0.315296601302	0.9
0.192563812959	0.519792083167
0.315296601302	0.9
0.315296601302	0.9
0.315296601302	0.9
0.315296601302	0.9
0.315296601302	0.9
0.315296601302	0.9
0.315296601302	0.9
0.315296601302	0.9
0.315296601302	0.9
0.315296601302	0.9
0.315296601302	0.9
0.315296601302	0.9
0.315296601302	0.9
0.315296601302	0.9
0.315296601302	0.9
0.315296601302	0.9
0.315296601302	0.9
0.315296601302	0.9
0.315296601302	0.9
0.315296601302	0.9
