0.770218311853	0.85
0.820292477566	0.92
0.826830446718	0.93
0.820292477566	0.92
0.820292477566	0.92
1.0	1.0
0.770218311853	0.85
0.820292477566	0.92
0.847367578813	0.96
0.770218311853	0.85
0.826830446718	0.93
0.770218311853	0.85
0.770218311853	0.85
0.698817103044	0.89
0.770218311853	0.85
0.820292477566	0.92
0.770218311853	0.85
0.820292477566	0.92
0.770218311853	0.85
0.820292477566	0.92
1.0	1.0
1.0	1.0
1.0	1.0
0.776756281005	0.86
0.820292477566	0.92
0.783755862476	0.87
0.833522286643	0.94
0.776910151778	0.86
0.770218311853	0.85
0.820292477566	0.92
