0.0	0.0
6.71293477041e-06	0.00270374662032
0.0	0.0
0.0	0.0
0.0	0.0
0.0	0.0
6.71723787179e-06	0.00272904483431
0.0	0.0
0.0	0.0
0.0	0.0
1.15128012756e-05	0.00349922239502
9.59414526879e-07	0.0011641443539
0.0	0.0
0.0	0.0
3.83572730664e-05	0.00619434765776
0.0	0.0
0.0	0.0
0.0	0.0
1.15068729593e-05	0.0034749034749
0.0	0.0
0.0	0.0
4.7957950469e-06	0.00232198142415
0.0	0.0
2.91023151052e-05	0.005453837164
0.0	0.0
0.0	0.0
0.0	0.0
0.0	0.0
0.0	0.0
0.0	0.0
