3.19621670221e-07	0.000769822940724
0.0	0.0
0.000139054715633	0.011673151751
0.0	0.0
0.0	0.0
0.0	0.0
0.000302241829247	0.0170807453416
3.19804637743e-07	0.00077579519007
0.0	0.0
0.0	0.0
0.000316574598886	0.0176470588235
0.0	0.0
9.59414526879e-07	0.0011641443539
0.0	0.0
2.11053444488e-05	0.00466562986003
0.0	0.0
1.91883089471e-06	0.00155279503106
1.9192881744e-06	0.00155884645362
0.0	0.0
0.000360604357558	0.0187719984357
6.71576852857e-06	0.0027195027195
1.15079433579e-05	0.00347893312717
3.19804637743e-07	0.00077579519007
0.000491619170083	0.0216383307573
6.71166679451e-06	0.00269749518304
0.0	0.0
0.000138924817721	0.0115562403698
0.0	0.0
3.19805558221e-06	0.00194174757282
0.0	0.0
