1.43910430148e-05	0.00388953714508
0.0	0.0
0.0	0.0
8.94832279668e-06	0.00308166409861
0.0	0.0
6.71723787179e-06	0.00272904483431
0.0	0.0
3.19719158691e-06	0.00193423597679
0.0	0.0
0.0	0.0
0.0	0.000389256520047
6.71231037723e-06	0.00270061728395
1.43931833883e-05	0.00389863547758
0.0	0.0
0.0	0.0
0.0	0.0
0.0	0.0
2.10980984859e-05	0.0046439628483
0.000201348845504	0.0139968895801
1.9192881744e-06	0.00155884645362
0.0	0.0
1.43910430148e-05	0.00388953714508
8.95437808326e-06	0.0031092110377
0.0	0.0
0.0	0.0
0.0	0.0
3.19804637743e-07	0.00077579519007
0.0	0.0
0.0	0.0
0.0	0.0
