0.0	0.0
0.000158470301515	0.0123839009288
0.0	0.0
0.00030245345382	0.0172143974961
0.0	0.0
0.000360237450132	0.0185758513932
2.91000257423e-05	0.00544747081712
0.0	0.0
0.0	0.0
0.0	0.0
0.0	0.0
0.0	0.0
0.0	0.000387747188833
0.0	0.0
1.91892724291e-06	0.001554001554
0.0	0.0
4.79619987492e-06	0.00232468035645
8.95633721633e-06	0.00312012480499
0.0	0.0
0.0	0.0
9.58865623613e-07	0.00115517905275
2.91000257423e-05	0.00544747081712
0.0	0.0
4.89273869609e-05	0.00701480904131
0.0	0.0
0.0	0.0
1.91883089471e-06	0.00155279503106
0.0	0.0
1.91883089471e-06	0.00155279503106
1.91831249886e-06	0.0015467904099
