9.59414526879e-07	0.0011641443539
0.000815121459795	0.027702962678
0.0	0.0
0.0	0.0
0.0	0.0
1.43875231399e-05	0.00387596899225
0.0	0.0
1.43875231399e-05	0.00387596899225
0.0	0.0
0.00127716364436	0.034749034749
0.0	0.0
0.0	0.0
7.38259988322e-05	0.00851722802942
0.000201480014622	0.0141121128969
4.79709104399e-06	0.002331002331
0.0	0.0
2.91086825442e-05	0.00547302580141
0.0	0.0
0.0	0.0
0.0	0.0
0.0	0.0
0.0	0.0
0.0	0.0
0.0	0.0
8.95294364793e-06	0.00310197751066
0.0	0.0
1.15118956255e-05	0.00349514563107
3.19745227003e-07	0.000773694390716
0.0	0.0
0.0	0.0
