0.0	0.0
0.0	0.0
0.000407351105982	0.0198289269051
0.0	0.0
3.19881771697e-06	0.00194931773879
1.9192881744e-06	0.00155884645362
0.0	0.0
1.91831249886e-06	0.0015467904099
0.0	0.0
1.43778695831e-05	0.00384467512495
0.0	0.0
1.15118956255e-05	0.00349514563107
1.15089808414e-05	0.00348297213622
0.0	0.0
4.79801784287e-06	0.00233826968044
9.59155329451e-07	0.00115964437572
6.71676735421e-06	0.00272585669782
0.0	0.0
6.71469270688e-06	0.00271317829457
0.0	0.0
0.0	0.0
0.0	0.0
0.0	0.0
0.0	0.0
0.0	0.0
0.0	0.0
3.19621670221e-07	0.000769822940724
0.0	0.0
0.0	0.0
0.0	0.0
