0.0	0.0
0.0	0.0
0.0	0.0
3.83459107921e-05	0.00617283950617
0.0	0.0
1.43914112058e-05	0.00389105058366
0.0	0.0
3.19718238711e-07	0.000772797527048
0.0	0.0
3.19797376382e-06	0.00194099378882
6.71469270688e-06	0.00271317829457
0.0	0.0
0.0	0.0
3.19804637743e-07	0.00077579519007
0.000201517458449	0.0141509433962
0.0	0.0
0.0	0.0
0.0	0.0
1.15099853919e-05	0.00348702053468
0.0	0.0
4.8910588567e-05	0.00698215671063
0.000509434594631	0.0220077220077
0.0	0.0
0.0	0.0
0.0	0.0
1.43931833883e-05	0.00389863547758
0.00110955785743	0.032012195122
3.19737252715e-06	0.00193573364305
6.07782948553e-05	0.00783699059561
9.59155329451e-07	0.00115964437572
