2.90900349368e-05	0.00542215336948
2.1111622908e-05	0.0046875
2.49245075013e-05	0.00500963391137
2.10967968989e-05	0.0046403712297
0.0	0.0
0.0	0.0
0.0	0.0
0.0	0.0
1.91863086501e-06	0.0015503875969
0.0	0.0
0.0	0.0
9.59155329451e-07	0.00115964437572
0.0	0.0
0.0	0.0
0.000237077136454	0.0153967627319
6.71271589773e-05	0.00814584949573
6.71524023772e-06	0.00271633682577
3.19718238711e-07	0.000772797527048
4.7957950469e-06	0.00232198142415
1.91878180381e-06	0.00155219247187
0.0	0.0
4.89324881978e-05	0.00702576112412
2.11075448599e-05	0.00467289719626
0.0	0.0
0.0	0.0
3.19867344615e-06	0.00194779898714
0.0	0.0
0.0	0.0
0.0	0.0
4.79801784287e-06	0.00233826968044
