0.371072589036	0.602
0.0741976615819	0.224082530019
0.371072589036	0.602
0.0917185737213	0.258802816901
0.371072589036	0.602
0.299839135654	0.547
0.371072589036	0.602
0.371072589036	0.602
0.371072589036	0.602
0.321086194478	0.5578
0.321086194478	0.5578
0.321086194478	0.5578
0.299839135654	0.547
0.191441415045	0.376137158852
0.408589835934	0.639
0.333553421369	0.575
0.408589835934	0.639
0.299839135654	0.547
0.299839135654	0.547
0.299839135654	0.547
0.299839135654	0.547
0.168344937975	0.3942
0.371072589036	0.602
0.371072589036	0.602
0.321086194478	0.5578
0.371072589036	0.602
0.299839135654	0.547
0.371072589036	0.602
0.371072589036	0.602
0.0813215648472	0.257107757108
