0.325702280912	0.57
0.204534613846	0.2322
0.150188324817	0.3024
0.241089796469	0.488339645206
0.12942306468	0.2834
0.168903561425	0.22
0.148412645058	0.2322
1.0	1.0
0.112781592637	0.3326
0.288903561425	0.53
0.220580712285	0.4426
0.276702681072	0.52
0.668151260504	0.79
0.148412645058	0.2322
0.129833693477	0.3584
0.25350140056	0.28
0.153486354542	0.2376
0.0799097741597	0.196023856859
0.189637134854	0.4156
0.0895076430572	0.1564
0.205010804322	0.27
0.540628731493	0.6426
0.0679941524008	0.178625093914
0.218126610644	0.2464
0.155074829932	0.388
1.0	1.0
0.299951980792	0.545
0.184713085234	0.252
0.151925570228	0.383
0.0642104356663	0.167168108311
