0.836170468187	0.91
0.904981992797	0.95
0.635150060024	0.76
1.0	1.0
0.635150060024	0.76
0.647918367347	0.772
1.0	1.0
0.635150060024	0.76
1.0	1.0
0.731156462585	0.84
0.55225210084	0.742
0.635150060024	0.76
0.635150060024	0.76
0.635150060024	0.76
0.635150060024	0.76
0.731156462585	0.84
0.731156462585	0.84
0.613238095238	0.738
1.0	1.0
0.635150060024	0.76
1.0	1.0
0.635150060024	0.76
0.731156462585	0.84
0.668151260504	0.79
0.731156462585	0.84
0.731156462585	0.84
0.635150060024	0.76
0.635150060024	0.76
0.635150060024	0.76
1.0	1.0
