0.303301320528	0.55
0.106552220888	0.306
0.133336854742	0.2378
0.11398324247	0.280474040632
0.148293120987	0.3088
0.333990396158	0.578
0.303301320528	0.55
0.20456182473	0.425
0.232905162065	0.47
0.385906362545	0.62
0.14463977591	0.2494
0.20456182473	0.425
0.14463977591	0.2494
0.20456182473	0.425
0.385906362545	0.62
0.232254501801	0.476
0.20456182473	0.425
0.668151260504	0.79
0.20456182473	0.425
0.413109243697	0.64
0.324901960784	0.57
0.232905162065	0.47
0.20456182473	0.425
0.20456182473	0.425
0.668151260504	0.79
0.385906362545	0.62
0.668151260504	0.79
0.089136020169	0.255140746656
0.20456182473	0.425
