0.59675070028	0.72
0.185912765106	0.22
0.59675070028	0.72
0.149200679716	0.360313315927
0.588151260504	0.71
0.679951980792	0.8
0.588151260504	0.71
0.588151260504	0.71
0.149200679716	0.360313315927
0.679951980792	0.8
0.59675070028	0.72
0.59675070028	0.72
0.59675070028	0.72
0.588151260504	0.71
0.59675070028	0.72
0.586957696928	0.708084428515
0.588151260504	0.71
0.588151260504	0.71
0.0969666057279	0.219385719984
0.588151260504	0.71
0.185912765106	0.22
0.59675070028	0.72
0.59675070028	0.72
0.59675070028	0.72
0.588151260504	0.71
0.588151260504	0.71
0.185912765106	0.22
0.59675070028	0.72
0.887178871549	0.94
0.59675070028	0.72
