1.0	1.0
0.158011204482	0.28
0.158011204482	0.28
1.0	1.0
0.65675070028	0.78
0.65675070028	0.78
1.0	1.0
0.65675070028	0.78
0.65675070028	0.78
1.0	1.0
1.0	1.0
0.196828761687	0.413026211279
0.274798719488	0.523
0.687224489796	0.806
0.269798479392	0.5178
1.0	1.0
0.65675070028	0.78
0.65675070028	0.78
0.65675070028	0.78
1.0	1.0
1.0	1.0
0.65675070028	0.78
0.873916126451	0.9324
1.0	1.0
1.0	1.0
0.3025010004	0.55
0.158011204482	0.28
0.269798479392	0.5178
1.0	1.0
0.65675070028	0.78
