1.0	1.0
0.998132365439	0.99
1.0	1.0
1.0	1.0
0.998132365439	0.99
1.0	1.0
1.0	1.0
1.0	1.0
0.998132365439	0.99
0.998132365439	0.99
1.0	1.0
0.996264730878	0.98
1.0	1.0
1.0	1.0
1.0	1.0
0.998132365439	0.99
1.0	1.0
1.0	1.0
1.0	1.0
1.0	1.0
0.998132365439	0.99
0.998132365439	0.99
0.998132365439	0.99
0.996264730878	0.98
0.0520870135031	0.492337917485
0.998132365439	0.99
1.0	1.0
0.998132365439	0.99
0.998132365439	0.99
1.0	1.0
