0.951017783474	0.98
1.0	1.0
0.0471509006935	0.492125984252
1.0	1.0
0.0449143698253	0.462516862594
0.951017783474	0.98
1.0	1.0
0.951017783474	0.98
0.951017783474	0.98
1.0	1.0
0.951017783474	0.98
0.951017783474	0.98
0.95284768042	0.99
1.0	1.0
1.0	1.0
0.951017783474	0.98
1.0	1.0
0.951017783474	0.98
1.0	1.0
1.0	1.0
0.951017783474	0.98
0.998132365439	0.99
0.998132365439	0.99
0.951017783474	0.98
1.0	1.0
1.0	1.0
0.951017783474	0.98
0.95284768042	0.99
1.0	1.0
1.0	1.0
