0.95284768042	0.99
1.0	1.0
0.95284768042	0.99
0.951017783474	0.98
0.95284768042	0.99
1.0	1.0
1.0	1.0
1.0	1.0
0.95284768042	0.99
0.996302468493	0.98
1.0	1.0
1.0	1.0
1.0	1.0
0.951017783474	0.98
0.95284768042	0.99
1.0	1.0
0.949225624142	0.97
1.0	1.0
0.951017783474	0.98
0.95284768042	0.99
0.951017783474	0.98
1.0	1.0
1.0	1.0
0.95284768042	0.99
0.95284768042	0.99
0.949225624142	0.97
0.95284768042	0.99
1.0	1.0
1.0	1.0
0.95284768042	0.99
