0.996302468493	0.98
0.998132365439	0.99
1.0	1.0
0.996302468493	0.98
0.996302468493	0.98
1.0	1.0
0.998132365439	0.99
0.996302468493	0.98
0.998132365439	0.99
0.0471510124324	0.492319810949
0.998132365439	0.99
0.998132365439	0.99
0.998132365439	0.99
0.998132365439	0.99
1.0	1.0
0.998132365439	0.99
0.998132365439	0.99
0.998132365439	0.99
1.0	1.0
0.996302468493	0.98
0.998132365439	0.99
1.0	1.0
1.0	1.0
1.0	1.0
0.996302468493	0.98
1.0	1.0
0.996302468493	0.98
0.037423540743	0.414587332054
0.998132365439	0.99
0.996302468493	0.98
