1.0	1.0
1.0	1.0
0.998132365439	0.99
0.949225624142	0.97
0.947471202426	0.96
0.998132365439	0.99
0.949225624142	0.97
0.0658327307518	0.493180470449
0.949225624142	0.97
0.998132365439	0.99
0.998132365439	0.99
1.0	1.0
0.0471510124324	0.492319810949
0.996302468493	0.98
0.996302468493	0.98
0.998132365439	0.99
0.998132365439	0.99
0.998132365439	0.99
0.996302468493	0.98
0.949225624142	0.97
1.0	1.0
0.998132365439	0.99
0.998132365439	0.99
0.949225624142	0.97
0.998132365439	0.99
0.949225624142	0.97
1.0	1.0
0.047150487193	0.491448791036
1.0	1.0
1.0	1.0
