0.764464827788	0.95
0.996302468493	0.98
1.0	1.0
1.0	1.0
1.0	1.0
0.95284768042	0.99
0.811617147368	0.96
0.95284768042	0.99
0.95284768042	0.99
0.95284768042	0.99
1.0	1.0
0.95284768042	0.99
0.811617147368	0.96
1.0	1.0
0.764464827788	0.95
0.764464827788	0.95
0.858580778874	0.97
0.95284768042	0.99
0.905733098454	0.98
1.0	1.0
0.95284768042	0.99
0.764464827788	0.95
0.95284768042	0.99
0.811617147368	0.96
0.858580778874	0.97
1.0	1.0
1.0	1.0
0.811617147368	0.96
1.0	1.0
0.95284768042	0.99
