1.0	1.0
1.0	1.0
1.0	1.0
1.0	1.0
0.95284768042	0.99
0.903940939123	0.97
0.951017783474	0.98
0.951017783474	0.98
0.903940939123	0.97
1.0	1.0
0.903940939123	0.97
1.0	1.0
0.902186517407	0.96
0.903940939123	0.97
0.95284768042	0.99
1.0	1.0
1.0	1.0
0.95284768042	0.99
0.95284768042	0.99
0.903940939123	0.97
0.903940939123	0.97
0.951017783474	0.98
1.0	1.0
1.0	1.0
1.0	1.0
1.0	1.0
0.903940939123	0.97
1.0	1.0
0.95284768042	0.99
0.95284768042	0.99
