0.0266995166522	0.35
0.0266995166522	0.35
0.0266995166522	0.35
0.0266995166522	0.35
0.0266995166522	0.35
0.0266995166522	0.35
0.0266995166522	0.35
0.0266995166522	0.35
0.0266995166522	0.35
0.0266995166522	0.35
0.0266995166522	0.35
0.0266995166522	0.35
0.0266995166522	0.35
0.0266995166522	0.35
0.0266995166522	0.35
0.0266995166522	0.35
0.0266995166522	0.35
0.0266995166522	0.35
0.0266995166522	0.35
0.0266995166522	0.35
0.0266995166522	0.35
0.0266995166522	0.35
0.0266995166522	0.35
0.0266995166522	0.35
0.0266995166522	0.35
0.0266995166522	0.35
0.0266995166522	0.35
0.0266995166522	0.35
0.0266995166522	0.35
0.0266995166522	0.35
