0.209858918374	0.340112917489
0.138795272585	0.476009139375
0.320448705126	0.28682882056
0.348501540993	0.612244897959
0.328946398507	0.46711509716
0.176514339759	0.332225913621
0.0	0.0
0.0	0.0
0.633949494697	0.589344648751
0.657203359074	0.623441396509
0.571501596088	0.557537912578
0.228020136286	0.383670963781
1.0	1.0
0.317014957727	0.281278127813
0.0	0.0
0.0	0.0
1.0	1.0
0.534694139547	0.769230769231
0.220373845048	0.347149899327
0.316666752834	0.281944287809
1.0	1.0
0.64816186586	0.607385811467
1.0	1.0
0.0	0.0
0.0	0.0
0.520442122421	0.761421319797
0.0	0.0
0.506656069938	0.753768844221
