0.317726466882	0.295508274232
0.0	0.0
0.513491743858	0.757575757576
0.580388040151	0.793650793651
1.0	1.0
0.378785444405	0.500150045014
0.312003497436	0.274755467634
0.1802194792	0.226777939042
0.0	0.0
0.0	0.0
0.351458338803	0.614754098361
0.321196138017	0.288118013138
0.239386884496	0.397014451326
0.11701122375	0.168622689869
1.0	1.0
0.305601944113	0.267665952891
0.183522507659	0.239394809921
0.389407209721	0.643776824034
0.0	0.0
0.30824205964	0.270357953931
0.0	0.0
0.117058895942	0.17677839061
0.0	0.0
0.312782461713	0.277223331116
0.169367693943	0.215053763441
0.0	0.0
1.0	1.0
1.0	1.0
1.0	1.0
0.0	0.0
