0.333333333333	0.333333333333
0.0	0.0
0.30276857693	0.26525198939
0.520442122421	0.761421319797
1.0	1.0
0.165829269775	0.210668239656
1.0	1.0
0.0	0.0
0.0	0.0
0.302948837797	0.266212330955
0.170884526207	0.212440516655
0.370398806424	0.4860976084
0.746893175447	0.877192982456
0.506656069938	0.753768844221
0.314072593777	0.277716063097
0.0	0.0
1.0	1.0
0.615706199489	0.57168991539
0.337578163731	0.460787024237
0.274064653201	0.241592578276
1.0	1.0
0.301697007639	0.266240681576
0.0	0.0
0.351458338803	0.614754098361
0.520442122421	0.761421319797
0.541999346449	0.773195876289
0.300901215395	0.263379688158
0.113452315742	0.170998632011
0.1722237531	0.220984707858
0.0	0.0
