1.0	1.0
0.846370548219	0.92
0.846370548219	0.92
1.0	1.0
1.0	1.0
1.0	1.0
0.883577430972	0.94
1.0	1.0
1.0	1.0
1.0	1.0
1.0	1.0
1.0	1.0
1.0	1.0
1.0	1.0
1.0	1.0
1.0	1.0
0.846370548219	0.92
0.921584633854	0.96
1.0	1.0
1.0	1.0
1.0	1.0
1.0	1.0
1.0	1.0
0.921584633854	0.96
1.0	1.0
0.960392156863	0.98
1.0	1.0
0.921584633854	0.96
0.921584633854	0.96
1.0	1.0
