1.0	1.0
1.0	1.0
0.960392156863	0.98
1.0	1.0
1.0	1.0
1.0	1.0
1.0	1.0
1.0	1.0
0.960392156863	0.98
1.0	1.0
1.0	1.0
1.0	1.0
0.960392156863	0.98
1.0	1.0
1.0	1.0
1.0	1.0
1.0	1.0
1.0	1.0
1.0	1.0
1.0	1.0
1.0	1.0
1.0	1.0
1.0	1.0
1.0	1.0
1.0	1.0
1.0	1.0
1.0	1.0
1.0	1.0
0.960392156863	0.98
0.960392156863	0.98
