0.275226594735	0.91
0.275226594735	0.91
0.275226594735	0.91
0.275226594735	0.91
0.275226594735	0.91
0.134404925056	0.414534088689
0.264491077869	0.555748792271
0.275226594735	0.91
0.275226594735	0.91
0.275226594735	0.91
0.148102946428	0.432981927711
0.0487144585834	0.367063879664
0.261905443267	0.546473429952
0.261905443267	0.546473429952
0.148102946428	0.432981927711
0.275226594735	0.91
0.148102946428	0.432981927711
0.275226594735	0.91
0.275226594735	0.91
0.275226594735	0.91
0.275226594735	0.91
0.275226594735	0.91
0.275226594735	0.91
0.253870660241	0.600266362253
0.275226594735	0.91
0.543035436026	0.7728
0.261905443267	0.546473429952
0.148102946428	0.432981927711
0.148102946428	0.432981927711
0.148102946428	0.432981927711
