0.140730314289	0.2284843869
0.0142980908919	0.209452833889
0.140730314289	0.2284843869
0.140730314289	0.2284843869
0.140730314289	0.2284843869
0.0142980908919	0.209452833889
0.140730314289	0.2284843869
0.0163656185509	0.227597145123
0.0142980908919	0.209452833889
0.140730314289	0.2284843869
0.217824829381	0.497463909481
0.0142980908919	0.209452833889
0.0142980908919	0.209452833889
0.00885121820124	0.118882504458
0.0152654230466	0.2396432111
0.139735700906	0.219172860682
0.0142980908919	0.209452833889
0.0163656185509	0.227597145123
0.012910440574	0.197802197802
0.140730314289	0.2284843869
0.0138124767274	0.206043956044
0.0138124767274	0.206043956044
0.0136048223704	0.204353794862
0.140730314289	0.2284843869
0.0142980908919	0.209452833889
0.017522323841	0.1982160555
0.0142980908919	0.209452833889
0.0142980908919	0.209452833889
0.0570786640319	0.387323943662
0.00724176066263	0.117739403454
