0.049767781983	0.37
0.607316219192	0.7644
0.607316219192	0.7644
0.049767781983	0.37
0.770386349732	0.869650185656
0.0183766113211	0.246561690253
0.603509884826	0.5182
0.0277749928895	0.315737640339
0.543100852278	0.5948
0.0164219929173	0.2178514377
0.668107386284	0.6972
0.662787410515	0.6682
0.0221265509289	0.287971558365
0.0251330693809	0.28802072952
0.682065621988	0.7588
0.114483495235	0.326259420865
0.682065621988	0.7588
0.607316219192	0.7644
0.124748659102	0.33855612852
0.662787410515	0.6682
0.682065621988	0.7588
0.124748659102	0.33855612852
0.0395362367175	0.373251920425
0.0395362367175	0.373251920425
0.607316219192	0.7644
0.0949624369511	0.312574612018
0.607316219192	0.7644
0.0192101274108	0.25
0.0267918564107	0.313067508883
0.607316219192	0.7644
