0.0918696283181	0.577450785444
0.0198144166607	0.168496705929
0.028787075242	0.1974
0.0198144166607	0.168496705929
0.0918696283181	0.577450785444
0.267895212079	0.488
0.0257129762829	0.208025554003
0.0246664000662	0.272727272727
0.0226298245909	0.251831320531
0.0230953890957	0.249208860759
0.0355741733435	0.234
0.0246664000662	0.272727272727
0.277464767805	0.518
0.277464767805	0.518
0.0198144166607	0.168496705929
0.024126481581	0.196
0.028787075242	0.1974
0.0198144166607	0.168496705929
0.0918696283181	0.577450785444
0.0918696283181	0.577450785444
0.0198144166607	0.168496705929
0.0918696283181	0.577450785444
0.0832672480949	0.539828309044
0.0918696283181	0.577450785444
0.0246664000662	0.272727272727
0.0355741733435	0.234
0.0918696283181	0.577450785444
0.0230953890957	0.249208860759
0.0246664000662	0.272727272727
0.028787075242	0.1974
