0.0146363057947	0.20095030687
0.0111085901409	0.204232381713
0.11164462082	0.359952793076
0.11164462082	0.359952793076
0.11164462082	0.359952793076
0.0162757791844	0.1864
0.0160713291669	0.1832
0.125955921395	0.428796223446
0.0235652658262	0.2776
0.130690713613	0.44846577498
0.0146363057947	0.20095030687
0.0160713291669	0.1832
0.0164212405278	0.247354761429
0.0146363057947	0.20095030687
0.109325298356	0.416502171338
0.0160713291669	0.1832
0.11164462082	0.359952793076
0.130690713613	0.44846577498
0.0153984860427	0.1864
0.130690713613	0.44846577498
0.0162757791844	0.1864
0.109325298356	0.416502171338
0.0162757791844	0.1864
0.130690713613	0.44846577498
0.11164462082	0.359952793076
0.0162757791844	0.1864
0.0134238048655	0.1752
0.130690713613	0.44846577498
0.0194019771414	0.238
0.0158764646496	0.1832
