0.921584633854	0.96
1.0	1.0
0.960792316927	0.98
0.960792316927	0.98
0.940988395358	0.97
0.940988395358	0.97
0.960792316927	0.98
0.960792316927	0.98
0.940988395358	0.97
0.940988395358	0.97
0.484190188328	0.492038529585
0.960792316927	0.98
0.980196078431	0.99
1.0	1.0
0.921584633854	0.96
0.980196078431	0.99
0.960792316927	0.98
0.940988395358	0.97
0.921584633854	0.96
0.960792316927	0.98
0.940988395358	0.97
0.960792316927	0.98
0.764957983193	0.87
0.960792316927	0.98
0.960792316927	0.98
0.960792316927	0.98
1.0	1.0
0.960792316927	0.98
0.980196078431	0.99
0.960792316927	0.98
