0.941788715486	0.97
1.0	1.0
0.941788715486	0.97
1.0	1.0
0.819967987195	0.9
0.941788715486	0.97
1.0	1.0
0.777959183673	0.88
0.941788715486	0.97
0.941788715486	0.97
0.81156462585	0.9
0.836170468187	0.91
0.941788715486	0.97
0.761756702681	0.87
1.0	1.0
0.941788715486	0.97
0.941788715486	0.97
1.0	1.0
0.941788715486	0.97
0.941788715486	0.97
0.819967987195	0.9
1.0	1.0
0.819967987195	0.9
0.941788715486	0.97
0.941788715486	0.97
0.941788715486	0.97
0.960792316927	0.98
1.0	1.0
1.0	1.0
1.0	1.0
