0.887178871549	0.94
0.707146858743	0.84
0.608331332533	0.78
0.804165666267	0.89
1.0	1.0
0.804165666267	0.89
1.0	1.0
1.0	1.0
1.0	1.0
0.887178871549	0.94
0.869775910364	0.93
0.887178871549	0.94
0.887178871549	0.94
0.624133653461	0.79
0.887178871549	0.94
0.887178871549	0.94
0.941788715486	0.97
0.773761504602	0.87
0.887178871549	0.94
0.887178871549	0.94
0.521920768307	0.72
0.887178871549	0.94
0.887178871549	0.94
1.0	1.0
0.608331332533	0.78
0.819967987195	0.9
0.904981992797	0.95
1.0	1.0
1.0	1.0
1.0	1.0
