0.852773109244	0.92
1.0	1.0
1.0	1.0
0.869775910364	0.93
1.0	1.0
0.887178871549	0.94
0.869775910364	0.93
0.92318527411	0.96
1.0	1.0
0.739551820728	0.86
0.887178871549	0.94
0.852773109244	0.92
0.887178871549	0.94
0.869775910364	0.93
0.739551820728	0.86
0.869775910364	0.93
1.0	1.0
0.887178871549	0.94
0.869775910364	0.93
1.0	1.0
0.869775910364	0.93
0.904981992797	0.95
1.0	1.0
0.869775910364	0.93
0.852773109244	0.92
0.869775910364	0.93
0.869775910364	0.93
0.722549019608	0.85
0.887178871549	0.94
0.869775910364	0.93
