0.591651522252	0.75
0.710271532691	0.86
0.977383388006	0.95
0.98171621462	0.96
0.681941952125	0.79
1.0	1.0
0.98171621462	0.96
1.0	1.0
0.634503548936	0.85
0.98171621462	0.96
0.634503548936	0.85
0.70284410206	0.84
0.968050999531	0.93
0.98171621462	0.96
0.96343242924	0.92
1.0	1.0
0.710271532691	0.86
0.714128119845	0.87
0.804752869819	0.9
0.710271532691	0.86
0.705938706076	0.85
0.76999500901	0.82
0.693797457262	0.82
0.616219763557	0.81
0.611886936942	0.8
0.977383388006	0.95
1.0	1.0
1.0	1.0
0.977383388006	0.95
0.820750705787	0.94
