0.794277506639	0.88
0.812561292019	0.92
0.786469084439	0.86
0.697939788092	0.83
0.811894556773	0.92
0.905518662872	0.96
0.896948257535	0.94
0.695797662998	0.82
0.695797662998	0.82
0.706510193429	0.85
0.152727506415	0.515969053759
0.878664472155	0.9
0.706510193429	0.85
0.804752869819	0.9
0.710938267936	0.86
0.878664472155	0.9
0.709367630194	0.85
0.766328917641	0.81
0.798324589577	0.89
0.807275986482	0.91
0.798324589577	0.89
0.76999500901	0.82
0.807847473835	0.91
0.706510193429	0.85
0.706510193429	0.85
0.714081448378	0.86
0.681941952125	0.79
0.29238950292	0.71
0.798324589577	0.89
0.905518662872	0.96
