0.789040777528	0.86
0.973145809283	0.94
0.969003478453	0.93
0.888758843767	0.92
0.888758843767	0.92
1.0	1.0
0.766328917641	0.81
0.884807008721	0.91
0.884807008721	0.91
0.862666636187	0.86
0.964956395515	0.92
0.464319685076	0.704225352113
0.797325439188	0.88
0.888758843767	0.92
0.888758843767	0.92
0.964956395515	0.92
0.762281834703	0.8
1.0	1.0
0.765947926072	0.81
0.85776232222	0.85
1.0	1.0
0.758710991226	0.79
0.888758843767	0.92
0.964956395515	0.92
0.797325439188	0.88
0.72112788744	0.88
0.797325439188	0.88
0.973145809283	0.94
0.792611621005	0.87
0.973145809283	0.94
