0.761900843134	0.8
0.804752869819	0.9
0.804752869819	0.9
0.800991530557	0.89
0.785707101302	0.86
0.777898679102	0.84
0.802466920407	0.9
0.785707101302	0.86
0.781755266256	0.85
1.0	1.0
0.804752869819	0.9
0.773756348272	0.83
0.800991530557	0.89
0.781755266256	0.85
0.781755266256	0.85
0.777898679102	0.84
0.804752869819	0.9
0.774137339841	0.83
0.777898679102	0.84
0.789944680024	0.87
0.905518662872	0.96
0.777898679102	0.84
0.793991762962	0.88
0.808609456973	0.91
0.820750705787	0.94
0.808609456973	0.91
0.78975418424	0.87
0.786469084439	0.86
0.781755266256	0.85
0.905518662872	0.96
