0.841954982036	0.81
0.995286181817	0.99
1.0	1.0
0.973145809283	0.94
0.953386634054	0.89
0.922866351968	0.82
0.930293782599	0.84
0.977383388006	0.95
0.0761351352566	0.389711613406
1.0	1.0
0.110089525524	0.481904012589
0.930293782599	0.84
0.838193642775	0.8
0.671705661154	0.76
0.683846909968	0.79
0.930293782599	0.84
1.0	1.0
1.0	1.0
0.838193642775	0.8
0.926532443337	0.83
0.957147973315	0.9
0.930293782599	0.84
1.0	1.0
0.884807008721	0.91
0.949720542684	0.88
0.973145809283	0.94
0.939530923181	0.86
0.751283560595	0.77
1.0	1.0
0.973145809283	0.94
