0.789944680024	0.87
0.798134093793	0.89
0.816608374957	0.93
0.771137983716	0.82
0.824988284509	0.95
0.793991762962	0.88
0.0966294900146	0.47173956461
0.793991762962	0.88
0.793991762962	0.88
0.824988284509	0.95
0.816608374957	0.93
0.824988284509	0.95
0.808609456973	0.91
0.793991762962	0.88
0.789944680024	0.87
0.784422207237	0.85
0.824988284509	0.95
0.782136257825	0.85
0.778374918563	0.84
0.783469728315	0.85
0.793991762962	0.88
0.793754595711	0.87
0.793991762962	0.88
0.698511275445	0.83
0.771137983716	0.82
0.782136257825	0.85
0.808609456973	0.91
0.816608374957	0.93
0.816608374957	0.93
0.771137983716	0.82
