0.350352999935	0.586632390746
0.350352999935	0.586632390746
0.350352999935	0.586632390746
0.350352999935	0.586632390746
0.350352999935	0.586632390746
0.350352999935	0.586632390746
0.350352999935	0.586632390746
0.350352999935	0.586632390746
0.350352999935	0.586632390746
0.350352999935	0.586632390746
0.350352999935	0.586632390746
0.350352999935	0.586632390746
0.350352999935	0.586632390746
0.350352999935	0.586632390746
0.350352999935	0.586632390746
0.350352999935	0.586632390746
0.350352999935	0.586632390746
0.350352999935	0.586632390746
0.350352999935	0.586632390746
0.350352999935	0.586632390746
0.350352999935	0.586632390746
0.350352999935	0.586632390746
0.350352999935	0.586632390746
0.350352999935	0.586632390746
0.350352999935	0.586632390746
0.350352999935	0.586632390746
0.350352999935	0.586632390746
0.350352999935	0.586632390746
0.350352999935	0.586632390746
0.350352999935	0.586632390746
