0.422148779785	0.655717761557
0.422148779785	0.655717761557
0.422148779785	0.655717761557
0.422148779785	0.655717761557
0.422148779785	0.655717761557
0.422148779785	0.655717761557
0.422148779785	0.655717761557
0.422148779785	0.655717761557
0.422148779785	0.655717761557
0.422148779785	0.655717761557
0.422148779785	0.655717761557
0.422148779785	0.655717761557
0.422148779785	0.655717761557
0.422148779785	0.655717761557
0.422148779785	0.655717761557
0.422148779785	0.655717761557
0.422148779785	0.655717761557
0.422148779785	0.655717761557
0.422148779785	0.655717761557
0.422148779785	0.655717761557
0.422148779785	0.655717761557
0.422148779785	0.655717761557
0.422148779785	0.655717761557
0.422148779785	0.655717761557
0.422148779785	0.655717761557
0.422148779785	0.655717761557
0.422148779785	0.655717761557
0.422148779785	0.655717761557
0.422148779785	0.655717761557
0.422148779785	0.655717761557
