0.152105390419	0.241988346686
0.152105390419	0.241988346686
0.152105390419	0.241988346686
0.152105390419	0.241988346686
0.152105390419	0.241988346686
0.152105390419	0.241988346686
0.152105390419	0.241988346686
0.152105390419	0.241988346686
0.152105390419	0.241988346686
0.152105390419	0.241988346686
0.152105390419	0.241988346686
0.152105390419	0.241988346686
0.152105390419	0.241988346686
0.152105390419	0.241988346686
0.152105390419	0.241988346686
0.152105390419	0.241988346686
0.152105390419	0.241988346686
0.152105390419	0.241988346686
0.152105390419	0.241988346686
0.152105390419	0.241988346686
0.152105390419	0.241988346686
0.152105390419	0.241988346686
0.152105390419	0.241988346686
0.152105390419	0.241988346686
0.152105390419	0.241988346686
0.152105390419	0.241988346686
0.152105390419	0.241988346686
0.152105390419	0.241988346686
0.152105390419	0.241988346686
0.152105390419	0.241988346686
