0.43320986565	0.664480497066
0.43320986565	0.664480497066
0.43320986565	0.664480497066
0.43320986565	0.664480497066
0.43320986565	0.664480497066
0.43320986565	0.664480497066
0.43320986565	0.664480497066
0.43320986565	0.664480497066
0.43320986565	0.664480497066
0.43320986565	0.664480497066
0.43320986565	0.664480497066
0.43320986565	0.664480497066
0.43320986565	0.664480497066
0.43320986565	0.664480497066
0.43320986565	0.664480497066
0.43320986565	0.664480497066
0.43320986565	0.664480497066
0.43320986565	0.664480497066
0.43320986565	0.664480497066
0.43320986565	0.664480497066
0.43320986565	0.664480497066
0.43320986565	0.664480497066
0.43320986565	0.664480497066
0.43320986565	0.664480497066
0.43320986565	0.664480497066
0.43320986565	0.664480497066
0.43320986565	0.664480497066
0.43320986565	0.664480497066
0.43320986565	0.664480497066
0.43320986565	0.664480497066
