0.360630375316	0.596865851558
0.360630375316	0.596865851558
0.360630375316	0.596865851558
0.360630375316	0.596865851558
0.360630375316	0.596865851558
0.360630375316	0.596865851558
0.360630375316	0.596865851558
0.360630375316	0.596865851558
0.360630375316	0.596865851558
0.360630375316	0.596865851558
0.360630375316	0.596865851558
0.360630375316	0.596865851558
0.360630375316	0.596865851558
0.360630375316	0.596865851558
0.360630375316	0.596865851558
0.360630375316	0.596865851558
0.360630375316	0.596865851558
0.360630375316	0.596865851558
0.360630375316	0.596865851558
0.360630375316	0.596865851558
0.360630375316	0.596865851558
0.360630375316	0.596865851558
0.360630375316	0.596865851558
0.360630375316	0.596865851558
0.360630375316	0.596865851558
0.360630375316	0.596865851558
0.360630375316	0.596865851558
0.360630375316	0.596865851558
0.360630375316	0.596865851558
0.360630375316	0.596865851558
