0.181286399212	0.367481706229
0.181286399212	0.367481706229
0.181286399212	0.367481706229
0.181286399212	0.367481706229
0.181286399212	0.367481706229
0.181286399212	0.367481706229
0.181286399212	0.367481706229
0.181286399212	0.367481706229
0.181286399212	0.367481706229
0.181286399212	0.367481706229
0.181286399212	0.367481706229
0.181286399212	0.367481706229
0.181286399212	0.367481706229
0.181286399212	0.367481706229
0.181286399212	0.367481706229
0.181286399212	0.367481706229
0.181286399212	0.367481706229
0.181286399212	0.367481706229
0.181286399212	0.367481706229
0.181286399212	0.367481706229
0.181286399212	0.367481706229
0.181286399212	0.367481706229
0.181286399212	0.367481706229
0.181286399212	0.367481706229
0.181286399212	0.367481706229
0.181286399212	0.367481706229
0.181286399212	0.367481706229
0.181286399212	0.367481706229
0.181286399212	0.367481706229
0.181286399212	0.367481706229
