0.168331332533	0.4104
0.168331332533	0.4104
0.168331332533	0.4104
0.168331332533	0.4104
0.168331332533	0.4104
0.168331332533	0.4104
0.168331332533	0.4104
0.168331332533	0.4104
0.168331332533	0.4104
0.168331332533	0.4104
0.168331332533	0.4104
0.168331332533	0.4104
0.159584153661	0.3996
0.168331332533	0.4104
0.159584153661	0.3996
0.168331332533	0.4104
0.168331332533	0.4104
0.168331332533	0.4104
0.159584153661	0.3996
0.159584153661	0.3996
0.159584153661	0.3996
0.159584153661	0.3996
0.168331332533	0.4104
0.159584153661	0.3996
0.168331332533	0.4104
0.159584153661	0.3996
0.168331332533	0.4104
0.159584153661	0.3996
0.159584153661	0.3996
0.159584153661	0.3996
