0.0894367346939	0.2992
0.0894367346939	0.2992
0.0894367346939	0.2992
0.0894367346939	0.2992
0.0894367346939	0.2992
0.0894367346939	0.2992
0.0894367346939	0.2992
0.0894367346939	0.2992
0.0894367346939	0.2992
0.0894367346939	0.2992
0.0894367346939	0.2992
0.0894367346939	0.2992
0.0894367346939	0.2992
0.0894367346939	0.2992
0.0894367346939	0.2992
0.0894367346939	0.2992
0.0894367346939	0.2992
0.0894367346939	0.2992
0.0894367346939	0.2992
0.0894367346939	0.2992
0.0894367346939	0.2992
0.0894367346939	0.2992
0.0894367346939	0.2992
0.0894367346939	0.2992
0.0894367346939	0.2992
0.0894367346939	0.2992
0.0894367346939	0.2992
0.0894367346939	0.2992
0.0894367346939	0.2992
0.0894367346939	0.2992
