1.0	1.0
1.0	1.0
1.0	1.0
1.0	1.0
0.566376960461	0.699860027994
1.0	1.0
1.0	1.0
1.0	1.0
0.500776205519	0.519792083167
1.0	1.0
0.500776205519	0.519792083167
1.0	1.0
1.0	1.0
1.0	1.0
1.0	1.0
1.0	1.0
1.0	1.0
1.0	1.0
0.501752333924	0.529682190686
0.545212797661	0.689724110356
1.0	1.0
0.501752333924	0.529682190686
1.0	1.0
1.0	1.0
1.0	1.0
1.0	1.0
1.0	1.0
