1.0	1.0
1.0	1.0
1.0	1.0
1.0	1.0
1.0	1.0
1.0	1.0
1.0	1.0
1.0	1.0
1.0	1.0
1.0	1.0
1.0	1.0
1.0	1.0
1.0	1.0
1.0	1.0
1.0	1.0
1.0	1.0
1.0	1.0
1.0	1.0
1.0	1.0
0.000196078431373	0.01
1.0	1.0
0.574747107701	0.709716113555
0.0894259403884	0.23976023976
1.0	1.0
0.545212797661	0.689724110356
1.0	1.0
1.0	1.0
1.0	1.0
