0.0	0.0
1.0	1.0
0.399935984636	0.666666666667
0.399935984636	0.666666666667
1.0	1.0
1.0	1.0
1.0	1.0
0.399935984636	0.666666666667
0.399935984636	0.666666666667
0.0	0.0
1.0	1.0
0.0	0.0
0.180666448816	0.257731958763
0.180666448816	0.257731958763
0.166644438517	0.25
1.0	1.0
0.163324153021	0.24154589372
1.0	1.0
1.0	1.0
1.0	1.0
0.166644438517	0.25
0.251086332705	0.293427230047
0.166644438517	0.25
1.0	1.0
1.0	1.0
0.111091353634	0.2
1.0	1.0
1.0	1.0
1.0	1.0
