0.0	0.0
0.115102519082	0.20325203252
1.0	1.0
0.175836330783	0.255102040816
1.0	1.0
0.399935984636	0.666666666667
1.0	1.0
0.399935984636	0.666666666667
0.126140259489	0.21186440678
0.0	0.0
1.0	1.0
0.200987439467	0.268470790378
0.0	0.0
0.0	0.0
1.0	1.0
0.399935984636	0.666666666667
1.0	1.0
1.0	1.0
0.125372424833	0.211649170335
0.32258044529	0.327997900813
0.0	0.0
0.175836330783	0.255102040816
1.0	1.0
1.0	1.0
0.125372424833	0.211649170335
1.0	1.0
0.0	0.0
0.0	0.0
1.0	1.0
0.169573413277	0.248756218905
