1.0	1.0
0.399935984636	0.666666666667
0.180666448816	0.257731958763
0.119106333597	0.206509169007
1.0	1.0
0.406406885011	0.671140939597
0.149125191882	0.229231615624
1.0	1.0
1.0	1.0
0.119368564654	0.206611570248
0.119106333597	0.206509169007
1.0	1.0
1.0	1.0
1.0	1.0
1.0	1.0
1.0	1.0
0.183976832612	0.258906379453
0.176719425559	0.253807106599
0.399935984636	0.666666666667
0.119106333597	0.206509169007
1.0	1.0
0.406406885011	0.671140939597
0.0	0.0
1.0	1.0
0.406406885011	0.671140939597
0.183976832612	0.258906379453
0.185354790876	0.260254007912
0.176719425559	0.253807106599
0.180666448816	0.257731958763
0.399935984636	0.666666666667
