0.115134337215	0.20325203252
1.0	1.0
0.0	0.0
1.0	1.0
1.0	1.0
0.171163914619	0.252525252525
1.0	1.0
1.0	1.0
1.0	1.0
1.0	1.0
1.0	1.0
0.114088438399	0.202429149798
1.0	1.0
0.399935984636	0.666666666667
0.0	0.0
1.0	1.0
0.129581792318	0.243735985181
1.0	1.0
0.171163914619	0.252525252525
0.114088438399	0.202429149798
0.129581792318	0.243735985181
0.0	0.0
1.0	1.0
1.0	1.0
1.0	1.0
1.0	1.0
0.399935984636	0.666666666667
0.171163914619	0.252525252525
0.399935984636	0.666666666667
0.115134337215	0.20325203252
