1.0	1.0
0.0	0.0
0.188217678754	0.261780104712
1.0	1.0
0.399935984636	0.666666666667
1.0	1.0
0.0	0.0
0.158295032143	0.245242299392
1.0	1.0
1.0	1.0
1.0	1.0
1.0	1.0
0.158295032143	0.245242299392
0.158295032143	0.245242299392
0.158295032143	0.245242299392
0.158295032143	0.245242299392
0.150082727473	0.235982631678
0.188217678754	0.261780104712
0.188217678754	0.261780104712
1.0	1.0
0.12261889224	0.209205020921
0.0	0.0
1.0	1.0
1.0	1.0
1.0	1.0
1.0	1.0
0.188217678754	0.261780104712
1.0	1.0
1.0	1.0
0.0	0.0
