0.490858601326	0.680553965892
0.490858601326	0.680553965892
0.490858601326	0.680553965892
0.490858601326	0.680553965892
0.490858601326	0.680553965892
0.490858601326	0.680553965892
0.490858601326	0.680553965892
0.490858601326	0.680553965892
0.490858601326	0.680553965892
0.490858601326	0.680553965892
0.490858601326	0.680553965892
0.490858601326	0.680553965892
0.490858601326	0.680553965892
0.490858601326	0.680553965892
0.490858601326	0.680553965892
0.490858601326	0.680553965892
0.490858601326	0.680553965892
0.490858601326	0.680553965892
0.490858601326	0.680553965892
0.490858601326	0.680553965892
0.490858601326	0.680553965892
0.490858601326	0.680553965892
0.490858601326	0.680553965892
0.490858601326	0.680553965892
0.490858601326	0.680553965892
0.490858601326	0.680553965892
0.490858601326	0.680553965892
0.490858601326	0.680553965892
0.490858601326	0.680553965892
0.490858601326	0.680553965892
