0.515583916761	0.70363179534
0.515583916761	0.70363179534
0.515583916761	0.70363179534
0.515583916761	0.70363179534
0.515583916761	0.70363179534
0.515583916761	0.70363179534
0.515583916761	0.70363179534
0.515583916761	0.70363179534
0.515583916761	0.70363179534
0.515583916761	0.70363179534
0.515583916761	0.70363179534
0.515583916761	0.70363179534
0.515583916761	0.70363179534
0.515583916761	0.70363179534
0.515583916761	0.70363179534
0.515583916761	0.70363179534
0.515583916761	0.70363179534
0.515583916761	0.70363179534
0.515583916761	0.70363179534
0.515583916761	0.70363179534
0.515583916761	0.70363179534
0.515583916761	0.70363179534
0.515583916761	0.70363179534
0.515583916761	0.70363179534
0.515583916761	0.70363179534
0.515583916761	0.70363179534
0.515583916761	0.70363179534
0.515583916761	0.70363179534
0.515583916761	0.70363179534
0.515583916761	0.70363179534
