0.506036083946	0.690440584378
0.506036083946	0.690440584378
0.506036083946	0.690440584378
0.506036083946	0.690440584378
0.506036083946	0.690440584378
0.506036083946	0.690440584378
0.506036083946	0.690440584378
0.506036083946	0.690440584378
0.506036083946	0.690440584378
0.506036083946	0.690440584378
0.506036083946	0.690440584378
0.506036083946	0.690440584378
0.506036083946	0.690440584378
0.506036083946	0.690440584378
0.506036083946	0.690440584378
0.506036083946	0.690440584378
0.506036083946	0.690440584378
0.506036083946	0.690440584378
0.506036083946	0.690440584378
0.506036083946	0.690440584378
0.506036083946	0.690440584378
0.506036083946	0.690440584378
0.506036083946	0.690440584378
0.506036083946	0.690440584378
0.506036083946	0.690440584378
0.506036083946	0.690440584378
0.506036083946	0.690440584378
0.506036083946	0.690440584378
0.506036083946	0.690440584378
0.506036083946	0.690440584378
