0.469750319012	0.666204345816
0.469750319012	0.666204345816
0.469750319012	0.666204345816
0.469750319012	0.666204345816
0.469750319012	0.666204345816
0.469750319012	0.666204345816
0.469750319012	0.666204345816
0.469750319012	0.666204345816
0.469750319012	0.666204345816
0.469750319012	0.666204345816
0.469750319012	0.666204345816
0.469750319012	0.666204345816
0.469750319012	0.666204345816
0.469750319012	0.666204345816
0.469750319012	0.666204345816
0.469750319012	0.666204345816
0.469750319012	0.666204345816
0.469750319012	0.666204345816
0.469750319012	0.666204345816
0.469750319012	0.666204345816
0.469750319012	0.666204345816
0.469750319012	0.666204345816
0.469750319012	0.666204345816
0.469750319012	0.666204345816
0.469750319012	0.666204345816
0.469750319012	0.666204345816
0.469750319012	0.666204345816
0.469750319012	0.666204345816
0.469750319012	0.666204345816
0.469750319012	0.666204345816
