0.63993597439	0.8
0.63993597439	0.8
0.63993597439	0.8
0.63993597439	0.8
0.63993597439	0.8
0.63993597439	0.8
0.63993597439	0.8
0.63993597439	0.8
0.63993597439	0.8
0.63993597439	0.8
0.63993597439	0.8
0.63993597439	0.8
0.63993597439	0.8
0.63993597439	0.8
0.63993597439	0.8
0.63993597439	0.8
0.63993597439	0.8
0.63993597439	0.8
0.63993597439	0.8
0.63993597439	0.8
0.63993597439	0.8
0.63993597439	0.8
0.63993597439	0.8
0.63993597439	0.8
0.63993597439	0.8
0.63993597439	0.8
0.63993597439	0.8
0.63993597439	0.8
0.63993597439	0.8
0.63993597439	0.8
