0.961161239702	0.980392156863
0.961161239702	0.980392156863
0.961161239702	0.980392156863
0.961161239702	0.980392156863
0.961161239702	0.980392156863
0.961161239702	0.980392156863
0.961161239702	0.980392156863
0.961161239702	0.980392156863
0.961161239702	0.980392156863
0.961161239702	0.980392156863
0.961161239702	0.980392156863
0.961161239702	0.980392156863
0.961161239702	0.980392156863
0.961161239702	0.980392156863
0.961161239702	0.980392156863
0.961161239702	0.980392156863
0.961161239702	0.980392156863
0.961161239702	0.980392156863
0.961161239702	0.980392156863
0.961161239702	0.980392156863
0.961161239702	0.980392156863
0.961161239702	0.980392156863
0.961161239702	0.980392156863
0.961161239702	0.980392156863
0.961161239702	0.980392156863
0.961161239702	0.980392156863
0.961161239702	0.980392156863
0.961161239702	0.980392156863
0.961161239702	0.980392156863
0.961161239702	0.980392156863
