0.961161239702	0.980392156863
0.961161239702	0.980392156863
0.961161239702	0.980392156863
0.961161239702	0.980392156863
0.961161239702	0.980392156863
0.961161239702	0.980392156863
0.961161239702	0.980392156863
0.961161239702	0.980392156863
0.961161239702	0.980392156863
0.961161239702	0.980392156863
0.961161239702	0.980392156863
0.961161239702	0.980392156863
0.961161239702	0.980392156863
0.961161239702	0.980392156863
0.961161239702	0.980392156863
0.961161239702	0.980392156863
0.00103542297028	0.031752254018
0.961161239702	0.980392156863
0.961161239702	0.980392156863
0.961161239702	0.980392156863
0.961161239702	0.980392156863
0.961161239702	0.980392156863
0.961161239702	0.980392156863
0.961161239702	0.980392156863
0.961161239702	0.980392156863
0.961161239702	0.980392156863
0.961161239702	0.980392156863
0.961161239702	0.980392156863
0.961161239702	0.980392156863
0.961161239702	0.980392156863
