0.683882669464	0.77844
0.792664221407	0.858
0.509427241775	0.648768
0.504755486387	0.649112
0.833277759253	0.9
1.0	1.0
0.524570393318	0.653904
0.52317518011	0.643616
0.793997999333	0.862
0.806602200734	0.88
1.0	1.0
0.528866866809	0.63312
0.791863954652	0.854
0.703686767648	0.792
1.0	1.0
0.535020779874	0.663456
0.802867622541	0.876
0.833277759253	0.9
0.821007002334	0.892
0.642655394133	0.722552
0.654186910546	0.74
1.0	1.0
0.792664221407	0.858
1.0	1.0
1.0	1.0
0.795865288429	0.866
1.0	1.0
1.0	1.0
0.638577227429	0.6986
1.0	1.0
