1.0	1.0
0.542460097907	0.684384
0.52250782931	0.628096
0.52261845253	0.64288
0.823874624875	0.894
0.793997999333	0.862
0.52266515709	0.634944
0.802867622541	0.876
0.660778959351	0.754488
1.0	1.0
0.793997999333	0.862
0.434916110448	0.56256
1.0	1.0
0.833277759253	0.9
1.0	1.0
0.791663887963	0.852
0.792664221407	0.858
1.0	1.0
0.792197399133	0.856
1.0	1.0
0.545508068099	0.670544
0.833277759253	0.9
0.81567189063	0.888
0.796998999667	0.868
0.826875625208	0.896
0.792664221407	0.858
0.833277759253	0.9
0.826875625208	0.896
0.833277759253	0.9
0.818272757586	0.89
