0.528445286152	0.662032
0.649671334667	0.722
0.833277759253	0.9
1.0	1.0
0.792664221407	0.858
0.685338668191	0.774
0.792197399133	0.856
0.673106601886	0.758
1.0	1.0
0.804668222741	0.878
0.826875625208	0.896
0.793997999333	0.862
0.666990568734	0.756
0.795865288429	0.866
1.0	1.0
0.792197399133	0.856
0.801200400133	0.874
0.791863954652	0.854
0.833277759253	0.9
0.522094827098	0.625064
1.0	1.0
0.799666555519	0.872
0.663618176622	0.742
0.801200400133	0.874
0.818272757586	0.89
1.0	1.0
1.0	1.0
0.792664221407	0.858
0.833277759253	0.9
1.0	1.0
