0.522089313398	0.64576
0.791863954652	0.854
0.793997999333	0.862
0.527352147526	0.650432
0.565083951287	0.703296
0.826252759751	0.898
0.635478306816	0.709152
0.668476707631	0.748
0.833277759253	0.9
0.547039366706	0.678448
0.792664221407	0.858
0.792197399133	0.856
1.0	1.0
0.543126449722	0.66864
0.833277759253	0.9
0.802867622541	0.876
1.0	1.0
0.796998999667	0.868
0.826875625208	0.896
1.0	1.0
0.452103162624	0.58104
0.666313028602	0.767368
0.826875625208	0.896
0.433825346363	0.559264
1.0	1.0
1.0	1.0
0.830010003334	0.898
0.795865288429	0.866
0.802867622541	0.876
0.534080310032	0.643456
