0.821007002334	0.892
0.577644411103	0.742
0.436663343234	0.57352
0.799666555519	0.872
0.528682303216	0.65068
0.793264421474	0.86
0.426486221788	0.546112
0.833277759253	0.9
0.647327807945	0.724
0.826875625208	0.896
0.792664221407	0.858
1.0	1.0
1.0	1.0
0.70201758924	0.792
0.57264316079	0.734
0.804668222741	0.878
1.0	1.0
0.656016004573	0.74
0.823874624875	0.894
1.0	1.0
0.517728868668	0.627632
1.0	1.0
0.449338122216	0.591944
0.645613032295	0.72
0.525459957437	0.64664
1.0	1.0
0.793264421474	0.86
0.657720793225	0.750496
0.519617615381	0.6384
0.660778959351	0.754488
