1.0	1.0
1.0	1.0
0.995286181817	0.99
1.0	1.0
0.98171621462	0.96
1.0	1.0
1.0	1.0
0.995286181817	0.99
1.0	1.0
1.0	1.0
0.990667611526	0.98
0.995286181817	0.99
0.995286181817	0.99
1.0	1.0
0.986144289127	0.97
0.995286181817	0.99
1.0	1.0
0.995286181817	0.99
1.0	1.0
0.990572363634	0.98
1.0	1.0
0.995286181817	0.99
1.0	1.0
1.0	1.0
1.0	1.0
0.990667611526	0.98
1.0	1.0
1.0	1.0
1.0	1.0
0.990667611526	0.98
