0.977002396437	0.95
0.995286181817	0.99
0.977002396437	0.95
0.98171621462	0.96
0.98171621462	0.96
0.98171621462	0.96
1.0	1.0
0.977002396437	0.95
0.977002396437	0.95
0.995286181817	0.99
1.0	1.0
0.98171621462	0.96
1.0	1.0
0.98171621462	0.96
0.98171621462	0.96
0.995286181817	0.99
1.0	1.0
1.0	1.0
0.990667611526	0.98
0.995286181817	0.99
0.985953793343	0.97
0.98171621462	0.96
1.0	1.0
0.98171621462	0.96
1.0	1.0
0.990667611526	0.98
0.977002396437	0.95
0.98171621462	0.96
0.995286181817	0.99
0.98171621462	0.96
