1.0	1.0
1.0	1.0
0.995286181817	0.99
1.0	1.0
0.995286181817	0.99
1.0	1.0
1.0	1.0
1.0	1.0
0.990572363634	0.98
0.995286181817	0.99
0.14003590515	0.504063429138
1.0	1.0
1.0	1.0
1.0	1.0
1.0	1.0
1.0	1.0
1.0	1.0
0.995286181817	0.99
1.0	1.0
1.0	1.0
1.0	1.0
1.0	1.0
1.0	1.0
1.0	1.0
0.990667611526	0.98
0.909946737379	0.97
0.995286181817	0.99
1.0	1.0
0.985953793343	0.97
0.990667611526	0.98
