1.0	1.0
0.919088630069	0.99
0.914470059778	0.98
0.995286181817	0.99
0.914470059778	0.98
0.995286181817	0.99
1.0	1.0
0.914470059778	0.98
1.0	1.0
0.919088630069	0.99
1.0	1.0
0.919088630069	0.99
0.919088630069	0.99
0.919088630069	0.99
0.995286181817	0.99
0.919088630069	0.99
1.0	1.0
1.0	1.0
1.0	1.0
1.0	1.0
1.0	1.0
1.0	1.0
0.995286181817	0.99
1.0	1.0
0.919088630069	0.99
0.919088630069	0.99
0.995286181817	0.99
1.0	1.0
0.995286181817	0.99
1.0	1.0
