0.0587675070028	0.14
0.433694117647	0.516266666667
0.107357182873	0.1892
0.255178231293	0.387733333333
0.234617549451	0.452848844395
0.143387053695	0.307268047555
0.099654498303	0.214854761613
0.295928077898	0.541866666667
0.34563537786	0.464814814815
0.553662104842	0.716266666667
0.046693877551	0.1248
0.0990479391757	0.181733333333
0.548245004669	0.711733333333
0.241499218681	0.325753891051
0.250049566493	0.498
0.552494704548	0.7152
0.24610260104	0.489466666667
0.531151447246	0.6964
0.12302745098	0.202533333333
0.560190049353	0.736266666667
0.330321035081	0.574266666667
