0.490816486595	0.668933333333
0.55307755102	0.715733333333
0.884482859811	0.936133333333
0.742158730159	0.825333333333
0.159224009604	0.2304
0.159224009604	0.2304
0.0671074829932	0.1496
0.662211871415	0.7384
0.416804481793	0.644
0.159224009604	0.2304
0.333333333333	0.333333333333
0.422662690266	0.542952770547
0.825890676271	0.897066666667
0.612525330132	0.763733333333
0.825890676271	0.897066666667
0.307194877951	0.32
0.825890676271	0.897066666667
