0.468260904362	0.669333333333
0.109122689076	0.2496
0.61456102441	0.758666666667
0.410100040016	0.493333333333
0.30985620915	0.522666666667
0.609085234094	0.749333333333
0.072974789916	0.156
0.263975990396	0.396
0.286286781379	0.422666666667
0.518356782713	0.684533333333
0.516099239696	0.681333333333
0.755385354142	0.838666666667
0.177041696679	0.3332
0.42397705749	0.526666666667
0.431597278912	0.6512
0.528051220488	0.693333333333
0.743433373349	0.826666666667
0.489597438976	0.682666666667
0.254912660885	0.417170953101
0.072974789916	0.156
0.510400426837	0.696
0.541443777511	0.705333333333
0.488180872349	0.689333333333
