0.333333333333	0.333333333333
0.464701939296	0.548507462687
0.778767507003	0.86
0.452815686275	0.615333333333
0.778767507003	0.86
0.441826970788	0.600933333333
0.809732212885	0.885066666667
0.035124769908	0.147333333333
0.452718687475	0.615466666667
0.112100840336	0.193333333333
0.165177537682	0.234666666667
0.604042897159	0.750133333333
0.498510871015	0.568
0.809732212885	0.885066666667
0.478308229959	0.6892
0.487159237028	0.648266666667
0.0711148459384	0.154
0.778767507003	0.86
0.579755528878	0.7376
0.581766146459	0.739866666667
0.333333333333	0.333333333333
0.763833533413	0.846666666667
0.288772789116	0.437733333333
0.0491204481793	0.128
0.0174262771775	0.0762666666667
0.809732212885	0.885066666667
0.703254741897	0.829866666667
