0.333333333333	0.333333333333
0.579015926371	0.741733333333
0.394247323713	0.507790455159
0.0928947579032	0.176
0.390074530463	0.503496503497
0.393679178338	0.4752
0.423879418434	0.578133333333
0.478674456449	0.649066666667
0.32099778801	0.357502146976
0.626210484194	0.766666666667
0.163149846605	0.329066666667
0.136331972789	0.2132
0.454948165933	0.612533333333
0.591881552621	0.744666666667
0.83943977591	0.906666666667
1.0	1.0
0.766442897159	0.849066666667
0.497499266373	0.6608
0.747772175537	0.837333333333
0.33442795785	0.5112
0.564442843804	0.724
0.760974789916	0.844
0.869443777511	0.926666666667
0.597481979458	0.7364
0.973861544618	0.986666666667
0.333333333333	0.333333333333
