0.454610750967	0.5192
0.890780312125	0.94
0.0591039615846	0.1404
1.0	1.0
0.904544857943	0.948266666667
0.661947445645	0.793333333333
0.0591039615846	0.1404
0.765278911565	0.848
0.333333333333	0.333333333333
0.761258743497	0.844266666667
0.875732693077	0.930666666667
0.795430812325	0.873866666667
0.526889155662	0.690666666667
0.913183940243	0.953333333333
0.333333333333	0.333333333333
0.0712380952381	0.154133333333
1.0	1.0
0.334446418734	0.352651212363
0.817728798186	0.9016
0.56095611578	0.720666666667
0.430932693077	0.513733333333
0.904544857943	0.948266666667
