1.0	1.0
0.0749054151902	0.402985074627
1.0	1.0
1.0	1.0
1.0	1.0
1.0	1.0
1.0	1.0
1.0	1.0
0.0749054151902	0.402985074627
1.0	1.0
1.0	1.0
1.0	1.0
1.0	1.0
1.0	1.0
1.0	1.0
1.0	1.0
1.0	1.0
1.0	1.0
1.0	1.0
0.0749054151902	0.402985074627
1.0	1.0
1.0	1.0
0.0749054151902	0.402985074627
0.0749054151902	0.402985074627
1.0	1.0
1.0	1.0
1.0	1.0
1.0	1.0
1.0	1.0
1.0	1.0
