1.0	1.0
1.0	1.0
0.0743919428433	0.382352941176
1.0	1.0
1.0	1.0
1.0	1.0
1.0	1.0
1.0	1.0
1.0	1.0
1.0	1.0
1.0	1.0
1.0	1.0
0.0743919428433	0.382352941176
1.0	1.0
1.0	1.0
1.0	1.0
1.0	1.0
0.0743919428433	0.382352941176
1.0	1.0
1.0	1.0
0.0743919428433	0.382352941176
1.0	1.0
1.0	1.0
0.0743919428433	0.382352941176
1.0	1.0
1.0	1.0
1.0	1.0
1.0	1.0
1.0	1.0
0.0743919428433	0.382352941176
