1.0	1.0
0.0417015659359	0.432624113475
1.0	1.0
1.0	1.0
1.0	1.0
0.0417015659359	0.432624113475
1.0	1.0
0.0417015659359	0.432624113475
1.0	1.0
1.0	1.0
1.0	1.0
1.0	1.0
1.0	1.0
1.0	1.0
1.0	1.0
1.0	1.0
1.0	1.0
1.0	1.0
1.0	1.0
0.0417015659359	0.432624113475
1.0	1.0
1.0	1.0
1.0	1.0
0.0417015659359	0.432624113475
0.0417015659359	0.432624113475
0.0417015659359	0.432624113475
1.0	1.0
0.0417015659359	0.432624113475
1.0	1.0
1.0	1.0
