1.0	1.0
1.0	1.0
1.0	1.0
1.0	1.0
1.0	1.0
1.0	1.0
1.0	1.0
0.137751043472	0.378787878788
1.0	1.0
1.0	1.0
1.0	1.0
0.137751043472	0.378787878788
1.0	1.0
0.137751043472	0.378787878788
1.0	1.0
1.0	1.0
1.0	1.0
1.0	1.0
1.0	1.0
1.0	1.0
1.0	1.0
1.0	1.0
1.0	1.0
1.0	1.0
0.137751043472	0.378787878788
1.0	1.0
1.0	1.0
1.0	1.0
1.0	1.0
1.0	1.0
