0.06593628844	0.407407407407
1.0	1.0
1.0	1.0
0.06593628844	0.407407407407
1.0	1.0
1.0	1.0
1.0	1.0
1.0	1.0
1.0	1.0
0.06593628844	0.407407407407
0.06593628844	0.407407407407
0.06593628844	0.407407407407
1.0	1.0
0.06593628844	0.407407407407
1.0	1.0
1.0	1.0
0.06593628844	0.407407407407
0.06593628844	0.407407407407
1.0	1.0
0.06593628844	0.407407407407
1.0	1.0
1.0	1.0
1.0	1.0
1.0	1.0
1.0	1.0
1.0	1.0
1.0	1.0
1.0	1.0
1.0	1.0
0.06593628844	0.407407407407
