0.0950683680459	0.174418604651
0.0950683680459	0.174418604651
1.0	1.0
1.0	1.0
1.0	1.0
1.0	1.0
1.0	1.0
1.0	1.0
1.0	1.0
1.0	1.0
0.0950683680459	0.174418604651
1.0	1.0
0.0950683680459	0.174418604651
0.0950683680459	0.174418604651
0.0950683680459	0.174418604651
1.0	1.0
1.0	1.0
1.0	1.0
1.0	1.0
1.0	1.0
0.0950683680459	0.174418604651
1.0	1.0
1.0	1.0
1.0	1.0
0.0950683680459	0.174418604651
1.0	1.0
1.0	1.0
1.0	1.0
0.0950683680459	0.174418604651
1.0	1.0
