1.0	1.0
1.0	1.0
1.0	1.0
0.0899360428141	0.168539325843
1.0	1.0
1.0	1.0
1.0	1.0
1.0	1.0
1.0	1.0
1.0	1.0
1.0	1.0
0.0899360428141	0.168539325843
1.0	1.0
0.0899360428141	0.168539325843
1.0	1.0
1.0	1.0
1.0	1.0
1.0	1.0
1.0	1.0
1.0	1.0
1.0	1.0
1.0	1.0
0.0899360428141	0.168539325843
1.0	1.0
0.0899360428141	0.168539325843
1.0	1.0
1.0	1.0
1.0	1.0
1.0	1.0
1.0	1.0
