1.0	1.0
1.0	1.0
0.0656082639847	0.397058823529
0.0656082639847	0.397058823529
1.0	1.0
1.0	1.0
1.0	1.0
1.0	1.0
1.0	1.0
0.0656082639847	0.397058823529
0.0656082639847	0.397058823529
1.0	1.0
1.0	1.0
1.0	1.0
1.0	1.0
1.0	1.0
1.0	1.0
1.0	1.0
1.0	1.0
1.0	1.0
1.0	1.0
0.0656082639847	0.397058823529
0.0589002526396	0.401459854015
0.0656082639847	0.397058823529
1.0	1.0
1.0	1.0
0.0656082639847	0.397058823529
1.0	1.0
1.0	1.0
0.0656082639847	0.397058823529
