0.0341172053654	0.421052631579
0.0341172053654	0.421052631579
0.0341172053654	0.421052631579
0.0341172053654	0.421052631579
0.0341172053654	0.421052631579
0.0341172053654	0.421052631579
0.0341172053654	0.421052631579
0.0341172053654	0.421052631579
0.0341172053654	0.421052631579
0.0341172053654	0.421052631579
0.0341172053654	0.421052631579
0.0341172053654	0.421052631579
0.0341172053654	0.421052631579
0.0341172053654	0.421052631579
0.0341172053654	0.421052631579
0.0341172053654	0.421052631579
0.0341172053654	0.421052631579
0.0341172053654	0.421052631579
0.0341172053654	0.421052631579
0.0341172053654	0.421052631579
0.0341172053654	0.421052631579
0.0341172053654	0.421052631579
0.0341172053654	0.421052631579
0.0341172053654	0.421052631579
0.0341172053654	0.421052631579
0.0341172053654	0.421052631579
0.0341172053654	0.421052631579
0.0341172053654	0.421052631579
0.0341172053654	0.421052631579
0.0341172053654	0.421052631579
