0.819967987195	0.9
0.819967987195	0.9
0.941788715486	0.97
0.761756702681	0.87
1.0	1.0
0.788763505402	0.88
0.828967587035	0.91
0.819967987195	0.9
0.904981992797	0.95
0.92318527411	0.96
0.788763505402	0.88
0.941788715486	0.97
0.761756702681	0.87
0.761756702681	0.87
0.672741096439	0.82
0.819967987195	0.9
0.730552220888	0.85
0.852773109244	0.92
0.819967987195	0.9
0.788763505402	0.88
0.836170468187	0.91
0.819967987195	0.9
0.730552220888	0.85
0.941788715486	0.97
1.0	1.0
0.63993597439	0.8
0.761756702681	0.87
0.819967987195	0.9
0.499806797372	0.493096646943
0.941788715486	0.97
