0.852773109244	0.92
1.0	1.0
1.0	1.0
0.739951980792	0.86
1.0	1.0
0.583929571829	0.76
0.852773109244	0.92
0.774757903161	0.88
1.0	1.0
0.583929571829	0.76
0.506889400358	0.558677027296
0.852773109244	0.92
0.583929571829	0.76
0.739951980792	0.86
0.852773109244	0.92
0.887178871549	0.94
0.887178871549	0.94
0.904981992797	0.95
0.739951980792	0.86
0.788763505402	0.88
1.0	1.0
0.887178871549	0.94
0.757755102041	0.87
0.646338535414	0.8
0.672741096439	0.82
1.0	1.0
0.852773109244	0.92
0.792160864346	0.89
0.852773109244	0.92
0.904981992797	0.95
