4.66714671604e-05	0.01
0.161845218365	0.8
0.161845218365	0.8
0.161845218365	0.8
0.161845218365	0.8
0.161845218365	0.8
0.161845218365	0.8
0.161845218365	0.8
0.161845218365	0.8
0.161845218365	0.8
0.161845218365	0.8
0.161845218365	0.8
0.119199919261	0.519792083167
0.161845218365	0.8
0.161845218365	0.8
0.161845218365	0.8
0.161845218365	0.8
0.161845218365	0.8
0.161845218365	0.8
0.161845218365	0.8
0.161845218365	0.8
0.161845218365	0.8
0.161845218365	0.8
0.161845218365	0.8
0.161845218365	0.8
0.161845218365	0.8
0.161845218365	0.8
0.161845218365	0.8
0.161845218365	0.8
0.161845218365	0.8
