0.464561721572	0.674841365117
0.464561721572	0.674841365117
0.464561721572	0.674841365117
0.464561721572	0.674841365117
0.464561721572	0.674841365117
0.464561721572	0.674841365117
0.464561721572	0.674841365117
0.464561721572	0.674841365117
0.464561721572	0.674841365117
0.464561721572	0.674841365117
0.464561721572	0.674841365117
0.464561721572	0.674841365117
0.464561721572	0.674841365117
0.464561721572	0.674841365117
0.464561721572	0.674841365117
0.464561721572	0.674841365117
0.464561721572	0.674841365117
0.464561721572	0.674841365117
0.464561721572	0.674841365117
0.464561721572	0.674841365117
0.464561721572	0.674841365117
0.464561721572	0.674841365117
0.464561721572	0.674841365117
0.464561721572	0.674841365117
0.464561721572	0.674841365117
0.464561721572	0.674841365117
0.464561721572	0.674841365117
0.464561721572	0.674841365117
0.464561721572	0.674841365117
0.464561721572	0.674841365117
