0.46867688089	0.676435097397
0.46867688089	0.676435097397
0.46867688089	0.676435097397
0.46867688089	0.676435097397
0.46867688089	0.676435097397
0.46867688089	0.676435097397
0.46867688089	0.676435097397
0.46867688089	0.676435097397
0.46867688089	0.676435097397
0.46867688089	0.676435097397
0.46867688089	0.676435097397
0.46867688089	0.676435097397
0.46867688089	0.676435097397
0.46867688089	0.676435097397
0.46867688089	0.676435097397
0.46867688089	0.676435097397
0.46867688089	0.676435097397
0.46867688089	0.676435097397
0.46867688089	0.676435097397
0.46867688089	0.676435097397
0.46867688089	0.676435097397
0.46867688089	0.676435097397
0.46867688089	0.676435097397
0.46867688089	0.676435097397
0.46867688089	0.676435097397
0.46867688089	0.676435097397
0.46867688089	0.676435097397
0.46867688089	0.676435097397
0.46867688089	0.676435097397
0.46867688089	0.676435097397
