0.501057757228	0.699124162803
0.501057757228	0.699124162803
0.501057757228	0.699124162803
0.501057757228	0.699124162803
0.501057757228	0.699124162803
0.501057757228	0.699124162803
0.501057757228	0.699124162803
0.501057757228	0.699124162803
0.501057757228	0.699124162803
0.501057757228	0.699124162803
0.501057757228	0.699124162803
0.501057757228	0.699124162803
0.501057757228	0.699124162803
0.501057757228	0.699124162803
0.501057757228	0.699124162803
0.501057757228	0.699124162803
0.501057757228	0.699124162803
0.501057757228	0.699124162803
0.501057757228	0.699124162803
0.501057757228	0.699124162803
0.501057757228	0.699124162803
0.501057757228	0.699124162803
0.501057757228	0.699124162803
0.501057757228	0.699124162803
0.501057757228	0.699124162803
0.501057757228	0.699124162803
0.501057757228	0.699124162803
0.501057757228	0.699124162803
0.501057757228	0.699124162803
0.501057757228	0.699124162803
