0.378648075084	0.598755832037
0.378648075084	0.598755832037
0.378648075084	0.598755832037
0.378648075084	0.598755832037
0.378648075084	0.598755832037
0.378648075084	0.598755832037
0.378648075084	0.598755832037
0.378648075084	0.598755832037
0.378648075084	0.598755832037
0.378648075084	0.598755832037
0.378648075084	0.598755832037
0.378648075084	0.598755832037
0.378648075084	0.598755832037
0.378648075084	0.598755832037
0.378648075084	0.598755832037
0.378648075084	0.598755832037
0.378648075084	0.598755832037
0.378648075084	0.598755832037
0.378648075084	0.598755832037
0.378648075084	0.598755832037
0.378648075084	0.598755832037
0.378648075084	0.598755832037
0.378648075084	0.598755832037
0.378648075084	0.598755832037
0.378648075084	0.598755832037
0.378648075084	0.598755832037
0.378648075084	0.598755832037
0.378648075084	0.598755832037
0.378648075084	0.598755832037
0.378648075084	0.598755832037
