0.499972823919	0.701515673441
0.499972823919	0.701515673441
0.499972823919	0.701515673441
0.499972823919	0.701515673441
0.499972823919	0.701515673441
0.499972823919	0.701515673441
0.499972823919	0.701515673441
0.499972823919	0.701515673441
0.499972823919	0.701515673441
0.499972823919	0.701515673441
0.499972823919	0.701515673441
0.499972823919	0.701515673441
0.499972823919	0.701515673441
0.499972823919	0.701515673441
0.499972823919	0.701515673441
0.499972823919	0.701515673441
0.499972823919	0.701515673441
0.499972823919	0.701515673441
0.499972823919	0.701515673441
0.499972823919	0.701515673441
0.499972823919	0.701515673441
0.499972823919	0.701515673441
0.499972823919	0.701515673441
0.499972823919	0.701515673441
0.499972823919	0.701515673441
0.499972823919	0.701515673441
0.499972823919	0.701515673441
0.499972823919	0.701515673441
0.499972823919	0.701515673441
0.499972823919	0.701515673441
