0.53033486116	0.724078539442
0.53033486116	0.724078539442
0.53033486116	0.724078539442
0.53033486116	0.724078539442
0.53033486116	0.724078539442
0.53033486116	0.724078539442
0.53033486116	0.724078539442
0.53033486116	0.724078539442
0.53033486116	0.724078539442
0.53033486116	0.724078539442
0.53033486116	0.724078539442
0.53033486116	0.724078539442
0.53033486116	0.724078539442
0.53033486116	0.724078539442
0.53033486116	0.724078539442
0.53033486116	0.724078539442
0.53033486116	0.724078539442
0.53033486116	0.724078539442
0.53033486116	0.724078539442
0.53033486116	0.724078539442
0.53033486116	0.724078539442
0.53033486116	0.724078539442
0.53033486116	0.724078539442
0.53033486116	0.724078539442
0.53033486116	0.724078539442
0.53033486116	0.724078539442
0.53033486116	0.724078539442
0.53033486116	0.724078539442
0.53033486116	0.724078539442
0.53033486116	0.724078539442
