0.0544432925304	0.32380571657
0.141328157761	0.9
0.141328157761	0.9
0.141328157761	0.9
0.141328157761	0.9
0.141328157761	0.9
0.141328157761	0.9
0.141328157761	0.9
0.141328157761	0.9
0.141328157761	0.9
0.141328157761	0.9
