1.0	1.0
1.0	1.0
1.0	1.0
1.0	1.0
1.0	1.0
0.751544158096	0.769692123151
1.0	1.0
1.0	1.0
1.0	1.0
1.0	1.0
1.0	1.0
0.750867135429	0.764770568829
1.0	1.0
1.0	1.0
1.0	1.0
1.0	1.0
1.0	1.0
1.0	1.0
1.0	1.0
1.0	1.0
1.0	1.0
1.0	1.0
0.750867135429	0.764770568829
1.0	1.0
1.0	1.0
1.0	1.0
1.0	1.0
1.0	1.0
1.0	1.0
1.0	1.0
