0.0292967226049	0.287930426607
0.0282620163484	0.298734177215
0.0296055911864	0.299145299145
0.0279794342572	0.287601626016
0.0296334413364	0.300245098039
0.0297066708546	0.303217821782
0.00177171103313	0.0247770069376
0.0296610799994	0.30135301353
0.0278993998337	0.285858585859
0.0281945131219	0.298343643983
0.0282276331842	0.29797979798
0.0331523399268	0.68
0.0296518906926	0.300982800983
0.00177421797516	0.0248262164846
0.0282030333398	0.298013245033
0.0296610799994	0.30135301353
0.0283305529615	0.300254452926
0.0297247402996	0.303970223325
0.0331523399268	0.68
0.0296885058444	0.302469135802
0.0279269281684	0.292821467045
0.0281184546178	0.296744739976
0.0283305529615	0.300254452926
0.0279794342572	0.287601626016
0.0281668075113	0.297237790232
0.0277201774003	0.289311803153
0.0296976002708	0.302843016069
0.0296793876244	0.302096177559
0.0284666831558	0.303341902314
0.0282030333398	0.298013245033
