0.0296143793983	0.268875026888
0.0294671579857	0.303530869296
0.0294671579857	0.303530869296
0.0308747738939	0.307125307125
0.0295805247223	0.268067767532
0.0296143793983	0.268875026888
0.0296143793983	0.268875026888
0.0295278302503	0.304915992533
0.0318215710723	0.378548895899
0.0295278302503	0.304915992533
0.0295974698619	0.268470790378
0.0294671579857	0.303530869296
0.0295278302503	0.304915992533
0.0302925605312	0.287092328893
0.0295635441349	0.267665952891
0.0296312531762	0.269280482551
0.0296183196839	0.30701754386
0.0295805247223	0.268067767532
0.0296143793983	0.268875026888
0.0318270983079	0.7
0.0295805247223	0.268067767532
0.0296143793983	0.268875026888
0.0296312531762	0.269280482551
0.0318270983079	0.7
0.0295974698619	0.268470790378
0.0295465282553	0.267265341031
0.0302925605312	0.287092328893
0.00173732190533	0.0247770069376
0.0296480910402	0.269687162891
0.0296483419745	0.307724513293
