0.0275801180473	0.30454777721
0.0274631489145	0.301863857374
0.0261674055132	0.234192037471
0.0271470736964	0.294932699921
0.0263261760909	0.237154150198
0.0262072848022	0.234925606891
0.00171432285875	0.0247770069376
0.0243666908858	0.25
0.0261873604669	0.234558248632
0.0261873604669	0.234558248632
0.0271868987187	0.295781637717
0.0261474201503	0.233826968044
0.0273846840689	0.300100704935
0.0261274045871	0.233463035019
0.0273846840689	0.300100704935
0.0261274045871	0.233463035019
0.0261674055132	0.234192037471
0.0273058430261	0.298358029636
0.0271470736964	0.294932699921
0.0262072848022	0.234925606891
0.0260872836943	0.232738557021
0.0261073590322	0.2331002331
0.0261674055132	0.234192037471
0.0274239641652	0.30097969902
0.0261873604669	0.234558248632
0.0261873604669	0.234558248632
0.0273453099241	0.299226830003
0.0273058430261	0.298358029636
0.0273453099241	0.299226830003
0.0262271783098	0.235294117647
