0.0309599977997	0.310559006211
0.0309412330523	0.309789343247
0.0306520775043	0.29882859192
0.0300205347666	0.27926720286
0.0312335208494	0.322788896062
0.0301670141511	0.283382452959
0.0300648424663	0.280489173118
0.0309786624328	0.311332503113
0.030950627915	0.31017369727
0.0303316289167	0.288284132841
0.0309693426558	0.310945273632
0.0310248833718	0.31328320802
0.0303704155256	0.289485873089
0.0300501075623	0.280080663231
0.0306963898717	0.300408555636
0.031722637475	0.6938
0.031722637475	0.6938
0.0303575181221	0.289084181314
0.00172007610497	0.0247770069376
0.031722637475	0.6938
0.0303704155256	0.289485873089
0.031722637475	0.6938
0.0309318132623	0.309405940594
0.0309786624328	0.311332503113
0.00173732190533	0.0247770069376
0.0303704155256	0.289485873089
0.0216318750348	0.414
0.031722637475	0.6938
0.0306520775043	0.29882859192
0.031722637475	0.6938
