0.174362988996	0.338409475465
0.173480948335	0.337837837838
1.0	1.0
1.0	1.0
1.0	1.0
1.0	1.0
1.0	1.0
1.0	1.0
1.0	1.0
1.0	1.0
1.0	1.0
0.1644527081	0.33187309173
1.0	1.0
0.00252197922085	0.039751552795
0.161195899567	0.328554360812
1.0	1.0
1.0	1.0
0.0972857062317	0.223852783601
0.170285495797	0.335750738652
0.157435582469	0.325979585117
0.163202718923	0.32991202346
0.162033435574	0.329122340426
1.0	1.0
1.0	1.0
0.102003255764	0.226225387516
1.0	1.0
0.103834834775	0.228825259619
0.174362988996	0.338409475465
1.0	1.0
1.0	1.0
