0.239743740425	0.372338384807
0.135767191938	0.276690888765
0.133588500282	0.273541114058
0.136493806467	0.277762190674
0.394177715946	0.45045045045
0.138411339668	0.280644063953
0.986797385621	0.993333333333
0.135888341074	0.279955207167
0.421712364829	0.462962962963
0.135888341074	0.279955207167
0.986797385621	0.993333333333
0.417592812551	0.461084470675
0.986797385621	0.993333333333
0.986797385621	0.993333333333
0.986797385621	0.993333333333
0.446552060572	0.474383301708
0.986797385621	0.993333333333
0.13548566671	0.280096353145
0.133933967076	0.279236010276
0.986797385621	0.993333333333
0.138411339668	0.280644063953
0.986797385621	0.993333333333
0.292420077544	0.40207944115
0.136763631552	0.281341435967
0.135524601822	0.276335622174
0.986797385621	0.993333333333
0.293564437053	0.402635431918
0.132634302607	0.277192593414
0.986797385621	0.993333333333
0.138032122656	0.284123195818
