0.986797385621	0.993333333333
0.986797385621	0.993333333333
0.986797385621	0.993333333333
0.411338598312	0.457401589355
0.986797385621	0.993333333333
0.986797385621	0.993333333333
0.986797385621	0.993333333333
0.149132616658	0.305436774588
0.986797385621	0.993333333333
0.986797385621	0.993333333333
0.986797385621	0.993333333333
0.986797385621	0.993333333333
0.148094610294	0.30284675954
0.148994709677	0.305157155935
0.129642101534	0.260148580525
0.986797385621	0.993333333333
0.382177528359	0.44402583423
0.986797385621	0.993333333333
0.986797385621	0.993333333333
0.986797385621	0.993333333333
0.986797385621	0.993333333333
0.400334308427	0.452343964178
0.148994709677	0.305157155935
0.148994709677	0.305157155935
0.986797385621	0.993333333333
0.986797385621	0.993333333333
0.986797385621	0.993333333333
0.986797385621	0.993333333333
0.986797385621	0.993333333333
0.148777601344	0.304228780043
