0.960392156863	0.98
0.135661740705	0.276536312849
0.960392156863	0.98
0.960392156863	0.98
0.960392156863	0.98
0.129419856332	0.271381578947
0.123623288873	0.262710964866
0.13132195085	0.272877618523
0.132481582086	0.273926654741
0.960392156863	0.98
0.00292889542475	0.0430493273543
0.126327625278	0.266458523981
0.13263309654	0.272187396899
0.960392156863	0.98
0.960392156863	0.98
0.138045779813	0.280088270243
0.130225390494	0.270847012475
0.132168900007	0.275704578367
0.13132195085	0.272877618523
0.00305364967479	0.0406607369759
0.13132195085	0.272877618523
0.130385057511	0.272877618523
0.960392156863	0.98
0.960392156863	0.98
0.960392156863	0.98
0.960392156863	0.98
0.296397271894	0.4016563147
0.135085239907	0.278731910581
0.960392156863	0.98
0.960392156863	0.98
