0.208236631208	0.359092214881
1.0	1.0
0.134680531958	0.279688985848
0.133125484504	0.280819994384
1.0	1.0
0.206286646216	0.357961053837
1.0	1.0
1.0	1.0
1.0	1.0
0.134010618746	0.282406099972
1.0	1.0
0.134882689303	0.280017921147
1.0	1.0
1.0	1.0
1.0	1.0
1.0	1.0
0.132216295574	0.27742329246
0.204359900306	0.35683699686
1.0	1.0
1.0	1.0
1.0	1.0
0.133462594862	0.277731489196
1.0	1.0
0.134275484305	0.279033428205
1.0	1.0
1.0	1.0
1.0	1.0
0.337576339667	0.424628450106
1.0	1.0
1.0	1.0
