0.973594771242	0.986666666667
0.973594771242	0.986666666667
0.973594771242	0.986666666667
0.973594771242	0.986666666667
0.973594771242	0.986666666667
0.973594771242	0.986666666667
0.973594771242	0.986666666667
0.973594771242	0.986666666667
0.973594771242	0.986666666667
0.986797385621	0.993333333333
0.973594771242	0.986666666667
0.973594771242	0.986666666667
0.973594771242	0.986666666667
0.973594771242	0.986666666667
0.973594771242	0.986666666667
0.973594771242	0.986666666667
0.973594771242	0.986666666667
0.402500709693	0.453338217786
0.973594771242	0.986666666667
0.973594771242	0.986666666667
0.973594771242	0.986666666667
0.973594771242	0.986666666667
0.973594771242	0.986666666667
0.973594771242	0.986666666667
0.973594771242	0.986666666667
0.973594771242	0.986666666667
0.973594771242	0.986666666667
0.973594771242	0.986666666667
0.973594771242	0.986666666667
0.973594771242	0.986666666667
