0.121383360143	0.5561741897
0.0462767725615	0.513839462238
0.136875147574	0.550327575938
0.0327059861082	0.489811912226
0.0411502019074	0.491867528905
0.0327054209275	0.488090589613
0.0327063496672	0.49115913556
0.0327058995478	0.489524182495
0.0324546263804	0.492419767671
0.0346377776193	0.490407204385
0.178859333531	0.576526566217
0.0361078778248	0.490403446925
0.0327129027376	0.500987751877
0.125342533495	0.558236108365
0.0578139451972	0.535558204211
0.0318144534925	0.489811912226
0.036666950094	0.490414710485
0.0327059861082	0.489811912226
0.0327058099327	0.489236790607
0.0381813120666	0.493720565149
0.135918227807	0.555555555556
0.0327054209275	0.488090589613
0.0388548104916	0.495384011
0.0336394038556	0.491951315273
0.126453397225	0.547259729944
0.0327060696141	0.490099980396
0.141310622127	0.569123505976
0.0323036434229	0.490987460815
0.0909245624199	0.521018354056
0.0387329504466	0.493223335298
