0.0411505329521	0.492736552807
0.0489102224677	0.497443963822
0.0346383941313	0.492431688618
0.112958056058	0.546952551122
0.133164631766	0.575396825397
0.0324370196475	0.49115913556
0.0512922375388	0.50306384661
0.0316541425465	0.490264797508
0.0513930418655	0.498621504529
0.173431993781	0.572852302173
0.0327060967705	0.490196078431
0.0402573654934	0.49244357213
0.132937679122	0.563827675203
0.0451227358895	0.501281798462
0.0327050971031	0.487234457221
0.065958594067	0.506478209658
0.0327052080988	0.48751950078
0.0344247434668	0.491951315273
0.0356720628283	0.492742251863
0.0327063018033	0.490966221524
0.0327060967705	0.490196078431
0.158054905533	0.574375247917
0.0451654710629	0.499013806706
0.149941444322	0.583101943673
0.032503402368	0.489236790607
0.0327235519092	0.503540519276
0.153783180241	0.586418530984
0.124706431955	0.56768558952
0.0379786415195	0.495260663507
0.0367057189787	0.493018682399
