0.00407202881152	0.064
0.00407202881152	0.064
0.00407202881152	0.064
0.00407202881152	0.064
0.00407202881152	0.064
0.00407202881152	0.064
0.00407202881152	0.064
0.00407202881152	0.064
0.00407202881152	0.064
0.00407202881152	0.064
0.00329603841537	0.0576
0.00329603841537	0.0576
0.00407202881152	0.064
0.00407202881152	0.064
0.00407202881152	0.064
0.00329603841537	0.0576
0.00329603841537	0.0576
0.00407202881152	0.064
0.00407202881152	0.064
0.00407202881152	0.064
0.00407202881152	0.064
0.00407202881152	0.064
0.00407202881152	0.064
0.00407202881152	0.064
0.00407202881152	0.064
0.00407202881152	0.064
0.00407202881152	0.064
0.00407202881152	0.064
0.00407202881152	0.064
0.00407202881152	0.064
