0.0228100840336	0.1512
0.0228100840336	0.1512
0.0228100840336	0.1512
0.0228100840336	0.1512
0.0228100840336	0.1512
0.0228100840336	0.1512
0.0228100840336	0.1512
0.0228100840336	0.1512
0.0228100840336	0.1512
0.0228100840336	0.1512
0.0228100840336	0.1512
0.0228100840336	0.1512
0.0228100840336	0.1512
0.0228100840336	0.1512
0.0228100840336	0.1512
0.0228100840336	0.1512
0.0228100840336	0.1512
0.0228100840336	0.1512
0.0228100840336	0.1512
0.0228100840336	0.1512
0.0228100840336	0.1512
0.0228100840336	0.1512
0.0228100840336	0.1512
0.0228100840336	0.1512
0.0228100840336	0.1512
0.0228100840336	0.1512
0.0228100840336	0.1512
0.0228100840336	0.1512
0.0228100840336	0.1512
0.0228100840336	0.1512
