0.0182322529012	0.1352
0.0182322529012	0.1352
0.0182322529012	0.1352
0.0182322529012	0.1352
0.0182322529012	0.1352
0.0182322529012	0.1352
0.0182322529012	0.1352
0.0182322529012	0.1352
0.0182322529012	0.1352
0.0182322529012	0.1352
0.0182322529012	0.1352
0.0182322529012	0.1352
0.0182322529012	0.1352
0.0182322529012	0.1352
0.0182322529012	0.1352
0.0182322529012	0.1352
0.0182322529012	0.1352
0.0182322529012	0.1352
0.0182322529012	0.1352
0.0182322529012	0.1352
0.0182322529012	0.1352
0.0182322529012	0.1352
0.0182322529012	0.1352
0.0182322529012	0.1352
0.0182322529012	0.1352
0.0182322529012	0.1352
0.0182322529012	0.1352
0.0182322529012	0.1352
0.0182322529012	0.1352
0.0182322529012	0.1352
