0.0586838196254	0.349563046192
0.0586838196254	0.349563046192
0.0586838196254	0.349563046192
0.0586838196254	0.349563046192
0.0586838196254	0.349563046192
0.0586838196254	0.349563046192
0.0586838196254	0.349563046192
0.0586838196254	0.349563046192
0.0586838196254	0.349563046192
0.0586838196254	0.349563046192
0.0586838196254	0.349563046192
0.0586838196254	0.349563046192
0.0586838196254	0.349563046192
0.0586838196254	0.349563046192
0.0586838196254	0.349563046192
0.0586838196254	0.349563046192
0.0586838196254	0.349563046192
0.0586838196254	0.349563046192
0.0586838196254	0.349563046192
0.0586838196254	0.349563046192
0.0586838196254	0.349563046192
0.0586838196254	0.349563046192
0.0586838196254	0.349563046192
0.0586838196254	0.349563046192
0.0586838196254	0.349563046192
0.0586838196254	0.349563046192
0.0586838196254	0.349563046192
0.0586838196254	0.349563046192
0.0586838196254	0.349563046192
0.0586838196254	0.349563046192
