0.0586871626308	0.35
0.0586871626308	0.35
0.0586871626308	0.35
0.0586871626308	0.35
0.0586871626308	0.35
0.0586871626308	0.35
0.0586871626308	0.35
0.0586871626308	0.35
0.0586871626308	0.35
0.0586871626308	0.35
0.0586871626308	0.35
0.0586871626308	0.35
1.0	1.0
0.0586871626308	0.35
0.0586871626308	0.35
0.0586871626308	0.35
0.0586871626308	0.35
0.0586871626308	0.35
0.0586871626308	0.35
0.0586871626308	0.35
0.0586871626308	0.35
0.0586871626308	0.35
1.0	1.0
0.0586871626308	0.35
0.0586871626308	0.35
0.0586871626308	0.35
0.0586871626308	0.35
0.0586871626308	0.35
0.0586871626308	0.35
0.0586871626308	0.35
