1.0	1.0
1.0	1.0
1.0	1.0
0.992078431373	0.996
1.0	1.0
1.0	1.0
1.0	1.0
1.0	1.0
0.992078431373	0.996
1.0	1.0
1.0	1.0
1.0	1.0
0.992078431373	0.996
1.0	1.0
1.0	1.0
1.0	1.0
1.0	1.0
1.0	1.0
1.0	1.0
0.992078431373	0.996
0.992078431373	0.996
0.984316926771	0.992
0.992078431373	0.996
0.984316926771	0.992
1.0	1.0
1.0	1.0
1.0	1.0
0.984316926771	0.992
1.0	1.0
0.992078431373	0.996
