1.0	1.0
0.984316926771	0.992
0.984316926771	0.992
1.0	1.0
1.0	1.0
0.984316926771	0.992
1.0	1.0
1.0	1.0
0.984316926771	0.992
1.0	1.0
0.984316926771	0.992
0.976395358143	0.988
1.0	1.0
0.968633853541	0.984
0.992078431373	0.996
0.968633853541	0.984
0.984316926771	0.992
1.0	1.0
1.0	1.0
1.0	1.0
1.0	1.0
1.0	1.0
0.984316926771	0.992
1.0	1.0
1.0	1.0
1.0	1.0
0.984316926771	0.992
0.984316926771	0.992
0.984316926771	0.992
1.0	1.0
