1.0	1.0
1.0	1.0
1.0	1.0
1.0	1.0
0.992078431373	0.996
1.0	1.0
1.0	1.0
1.0	1.0
1.0	1.0
1.0	1.0
1.0	1.0
1.0	1.0
0.992078431373	0.996
1.0	1.0
0.976715486194	0.988
1.0	1.0
1.0	1.0
1.0	1.0
1.0	1.0
1.0	1.0
1.0	1.0
1.0	1.0
1.0	1.0
1.0	1.0
1.0	1.0
1.0	1.0
1.0	1.0
1.0	1.0
0.992078431373	0.996
1.0	1.0
