2.94572336458e-05	0.00531914893617
2.94572336458e-05	0.00531914893617
2.94572336458e-05	0.00531914893617
2.94572336458e-05	0.00531914893617
2.94572336458e-05	0.00531914893617
2.94572336458e-05	0.00531914893617
2.94572336458e-05	0.00531914893617
2.94572336458e-05	0.00531914893617
2.94572336458e-05	0.00531914893617
2.94572336458e-05	0.00531914893617
2.94572336458e-05	0.00531914893617
2.94572336458e-05	0.00531914893617
2.94572336458e-05	0.00531914893617
2.94572336458e-05	0.00531914893617
2.94572336458e-05	0.00531914893617
2.94572336458e-05	0.00531914893617
2.94572336458e-05	0.00531914893617
2.94572336458e-05	0.00531914893617
2.94572336458e-05	0.00531914893617
2.94572336458e-05	0.00531914893617
2.94572336458e-05	0.00531914893617
2.94572336458e-05	0.00531914893617
2.94572336458e-05	0.00531914893617
2.94572336458e-05	0.00531914893617
2.94572336458e-05	0.00531914893617
2.94572336458e-05	0.00531914893617
2.94572336458e-05	0.00531914893617
2.94572336458e-05	0.00531914893617
2.94572336458e-05	0.00531914893617
2.94572336458e-05	0.00531914893617
