0.234097007777	0.301380517208
0.252599818435	0.296106960283
0.220785202293	0.307032924216
1.0	1.0
0.253945032598	0.301850048685
1.0	1.0
0.264456266273	0.294175328496
1.0	1.0
0.258428730333	0.295669291339
0.218268287406	0.297111416781
0.193333592048	0.304541925466
0.193412283575	0.3401465484
0.26448258279	0.294695481336
0.26448258279	0.294695481336
0.264313203564	0.291942390035
0.168621796305	0.320324574961
0.26448258279	0.294695481336
0.266307843608	0.302085363477
0.236647203277	0.298349056604
1.0	1.0
0.200809702939	0.305893909627
0.262750428979	0.302321045446
0.227127487276	0.300532439361
0.212104657426	0.302412237694
1.0	1.0
1.0	1.0
0.255504464922	0.296668637887
0.264540460219	0.296091590999
0.26450638415	0.295217476875
0.233730970373	0.333905743179
