0.226379815364	0.33352391843
1.0	1.0
0.628680881645	0.960966911036
0.261408212357	0.295400943396
0.628680881645	0.960966911036
0.191754519622	0.324551355479
0.259024814573	0.30551842658
0.222621576831	0.300571203467
0.210118530822	0.30086410055
0.264474090008	0.294521892794
0.264513758774	0.29539188657
0.188430725224	0.291373071796
0.118247961202	0.821167883212
0.960792316927	0.98
0.235463896325	0.342160015131
0.222603529947	0.300373501081
0.264490796108	0.294869274622
0.227127487276	0.300532439361
0.264474090008	0.294521892794
0.215613145968	0.322890640015
0.264520853737	0.295566502463
0.0759536855455	0.768961901433
0.264498729912	0.295043273013
0.214139066194	0.301121826412
0.242495332552	0.324303700878
0.941788715486	0.97
0.208819559475	0.302924656208
1.0	1.0
0.218280142236	0.301256873527
0.214050065913	0.304133485021
