0.24980152686	0.296616837136
0.941788715486	0.97
0.21827321451	0.301079489696
0.264490796108	0.294869274622
0.252627551966	0.296690307329
0.264508873429	0.295275590551
0.22712447361	0.30169358015
0.214136636864	0.301337529504
0.247092960965	0.299249901303
0.206220173453	0.297180892717
1.0	1.0
1.0	1.0
0.26450638415	0.295217476875
0.941788715486	0.97
0.228132014104	0.333651096282
1.0	1.0
1.0	1.0
1.0	1.0
1.0	1.0
0.218283768277	0.297382405038
1.0	1.0
0.204482795595	0.307163886163
0.241756909089	0.299330445057
0.255491678242	0.296573454116
0.264446935432	0.294002352019
0.212120103086	0.301593547118
0.249802637645	0.296871926028
0.264498729912	0.295043273013
0.941788715486	0.97
1.0	1.0
