0.193151105737	0.302852676827
1.0	1.0
1.0	1.0
0.264498729912	0.295043273013
0.258405659077	0.296106960283
0.231767735688	0.299410609037
1.0	1.0
0.179698472758	0.336948102246
1.0	1.0
0.241778874016	0.299921073402
0.255512392848	0.297355958958
0.26451155101	0.296982843621
0.26448258279	0.294695481336
0.247073444366	0.297142857143
0.218271786557	0.300078554595
0.258447394951	0.296646942801
0.264446935432	0.294002352019
1.0	1.0
1.0	1.0
0.264513758774	0.29539188657
0.261456249616	0.29631090945
0.25838917845	0.295758051846
1.0	1.0
0.220834273473	0.32837550705
0.252599114845	0.295990566038
0.231801801272	0.299960583366
0.26450638415	0.295217476875
1.0	1.0
0.25257244197	0.295133437991
0.264396093923	0.293140512019
