0.259246070922	0.30238002341
1.0	1.0
0.261416675793	0.295830055075
0.210778740131	0.315301391036
1.0	1.0
0.212106626735	0.300766660114
0.252643538859	0.296566692976
0.241748857252	0.29706866024
0.206303228968	0.303423848878
0.264465317817	0.294348508634
0.206279542244	0.301946137213
0.222610199231	0.299547333202
1.0	1.0
1.0	1.0
0.231772974554	0.298407705917
0.198704238555	0.302793514358
1.0	1.0
0.0783474138502	0.767737380868
1.0	1.0
0.21410819674	0.297583971715
0.214104818512	0.299450549451
0.262653184312	0.300329393528
0.214060864736	0.299726455647
0.259271856405	0.303089558076
0.222616054592	0.297536945813
0.259259503977	0.302734375
0.264490796108	0.294869274622
0.251180143299	0.302557095452
0.222632091164	0.302087435998
0.228281979528	0.336992104756
