0.0569860629185	0.196006588457
0.121645326473	0.20181249425
0.0824732804445	0.195893280225
0.220523077681	0.394291874716
0.00584343497353	0.0870860433941
0.0415600978371	0.130085087883
0.135104638633	0.398684622612
0.0691708311385	0.213162307936
0.102125895823	0.250798271976
0.0151844280766	0.153680829456
0.0792053456332	0.18041525329
0.271463120621	0.446951835635
0.00923887212529	0.0752039218917
0.0558232994095	0.192817051249
0.0919088751704	0.403912963979
0.042521063914	0.200110031175
0.083282727868	0.235917100338
0.0954699870731	0.204700563044
0.00845563172328	0.046808395102
0.0381666731255	0.335065956146
0.117992960719	0.261752136752
0.129680359887	0.240876246227
0.485887154862	0.66896
0.070908734647	0.194188655885
0.01091205735	0.0817865074676
0.286312689286	0.445602901179
0.00917662192464	0.115520552139
0.115827900974	0.329517009315
0.0212858532356	0.0967923466517
0.0148260194335	0.217791318512
