0.0	0.0
3.59868108338e-05	0.00510529674537
4.48939828595e-06	0.00190234622701
3.12181964624e-05	0.00471994965387
0.0	0.0
3.50512844105e-05	0.00490948143602
5.58830761339e-05	0.00620347394541
1.95942563891e-05	0.00376411543287
1.79326360527e-06	0.00126462219412
6.28516888698e-06	0.00222010783381
6.31005823282e-05	0.00673292722026
0.0	0.0
1.94912546284e-05	0.00373482726424
8.81155088583e-07	0.000923929781337
0.0	0.0
1.32058295814e-05	0.00308261405672
