6.23186083364e-06	0.00219092331768
3.1972171422e-05	0.00491480996068
6.27018214879e-06	0.00221169036335
6.13379739892e-06	0.00214198286414
8.00489806951e-05	0.0073126142596
1.57532276931e-05	0.00328652524649
2.95127329735e-06	0.00155134967422
6.20168041914e-06	0.00217526413922
0.000170195919817	0.0105136677681
1.9753653977e-05	0.00381194409149
2.88230538314e-07	0.000600600600601
1.94113079692e-05	0.00371287128713
7.94624194579e-05	0.00724418955629
