1.94912546284e-05	0.00373482726424
0.0	0.0
1.98001267208e-05	0.00382653061224
0.0	0.0
8.24967830738e-05	0.0076360165447
1.06832375551e-05	0.00281866583151
4.4623732686e-06	0.00188442211055
1.33872392835e-05	0.00314465408805
1.33872392835e-05	0.00314465408805
8.70103672853e-05	0.00761962816215
3.45223402694e-05	0.00481347773767
0.0	0.0
8.16542450146e-06	0.0024434941967
0.000109635543031	0.00854179377669
