2.71549869387e-05	0.00442897817146
2.60262121136e-05	0.00417910447761
3.11470940799e-05	0.00470366886171
1.06246653968e-05	0.00279589934762
8.30570204243e-06	0.00250312891114
2.98579121676e-06	0.00157878118093
1.77076188801e-06	0.00124069478908
4.45962301915e-06	0.00188264825855
3.16631761784e-05	0.00482936252415
0.000124851469803	0.00903614457831
0.0	0.0
2.95632327986e-06	0.00155520995334
9.09127274182e-07	0.000970559689421
2.98579121676e-06	0.00157878118093
4.40164017196e-05	0.00541842263697
1.36807015464e-05	0.00326157860404
