0.0	0.0
0.000168824940048	0.012890625
0.000566253589472	0.0237341772152
0.0	0.0
0.0	0.0
0.0	0.0
0.0	0.0
0.0	0.0
9.59414526879e-07	0.0011641443539
0.0	0.0
0.0	0.0
0.0	0.0
0.0	0.0
0.0	0.0
0.0	0.0
4.89060390328e-05	0.00697404106935
0.0	0.0
0.000509434594631	0.0220077220077
0.0	0.0
1.15145135646e-05	0.00350740452065
6.07696054741e-05	0.00781860828772
0.0	0.0
0.0	0.0
0.0	0.0
4.79709104399e-06	0.002331002331
0.0	0.0
0.0	0.0
0.0	0.0
6.71676735421e-06	0.00272585669782
0.0	0.0
