1.0	1.0
0.861427087648	0.915520628684
1.0	1.0
0.804886252327	0.91
0.941513521929	0.94
1.0	1.0
1.0	1.0
0.804886252327	0.91
1.0	1.0
0.895917041285	0.93
0.943918537595	0.95
0.205711507393	0.525896414343
0.895917041285	0.93
0.895917041285	0.93
0.789645296678	0.85
0.880676085636	0.87
1.0	1.0
0.804886252327	0.91
0.744048816034	0.84
0.880676085636	0.87
0.789645296678	0.85
0.832782704213	0.85
0.789861526452	0.85
0.895917041285	0.93
0.941513521929	0.94
0.943918537595	0.95
0.804886252327	0.91
0.928677581946	0.89
0.744048816034	0.84
0.946377610704	0.96
