0.852671518863	0.93
0.850374618084	0.92
0.830539860878	0.84
0.830539860878	0.84
0.841727589406	0.88
0.852671518863	0.93
0.830539860878	0.84
0.852671518863	0.93
0.835079604991	0.86
0.852671518863	0.93
0.852671518863	0.93
1.0	1.0
1.0	1.0
0.753209931001	0.87
0.852671518863	0.93
0.848131774749	0.91
0.841727589406	0.88
0.845942988858	0.9
0.830539860878	0.84
0.830539860878	0.84
0.828242960099	0.83
0.824135675534	0.81
0.852671518863	0.93
0.852671518863	0.93
1.0	1.0
1.0	1.0
0.726754758677	0.76
0.830539860878	0.84
0.848131774749	0.91
1.0	1.0
