0.8328908191	0.85
1.0	1.0
1.0	1.0
1.0	1.0
0.802697466436	0.9
0.778377022559	0.8
0.855022477085	0.94
0.908212406832	0.98
0.855022477085	0.94
0.787456510787	0.84
0.787456510787	0.84
0.850374618084	0.92
1.0	1.0
0.780565808451	0.81
1.0	1.0
0.852671518863	0.93
0.787456510787	0.84
0.855022477085	0.94
0.809425996441	0.93
0.855022477085	0.94
0.726916931008	0.76
0.787456510787	0.84
0.776242294111	0.79
1.0	1.0
0.855022477085	0.94
0.852671518863	0.93
1.0	1.0
0.731726962339	0.78
0.787456510787	0.84
0.850374618084	0.92
