0.748642617591	0.86
0.850374618084	0.92
0.850374618084	0.92
0.850374618084	0.92
0.748642617591	0.86
0.739563129364	0.82
0.794293155679	0.87
0.850374618084	0.92
0.850374618084	0.92
0.739563129364	0.82
1.0	1.0
0.746399774256	0.85
0.848131774749	0.91
0.850374618084	0.92
0.768531432241	0.94
0.768531432241	0.94
0.739563129364	0.82
0.842510881763	0.89
0.748642617591	0.86
1.0	1.0
0.759451944014	0.9
0.848131774749	0.91
0.792699001667	0.86
0.748642617591	0.86
1.0	1.0
0.748642617591	0.86
1.0	1.0
0.850374618084	0.92
0.759451944014	0.9
1.0	1.0
