0.946377610704	0.96
0.791888140013	0.86
0.997324697116	0.99
0.948890741257	0.97
0.905645218835	0.97
0.753776993584	0.88
0.855022477085	0.94
0.855022477085	0.94
0.807129095662	0.92
0.892755221408	0.92
0.855022477085	0.94
0.761640729905	0.91
0.753776993584	0.88
0.796752228788	0.88
0.946377610704	0.96
0.905645218835	0.97
0.604341353296	0.79
0.761640729905	0.91
0.844645610211	0.9
0.0709570759079	0.456785217564
0.753776993584	0.88
0.842186537102	0.89
0.761640729905	0.91
0.753776993584	0.88
1.0	1.0
0.905645218835	0.97
0.617717867715	0.84
0.855022477085	0.94
0.895268351962	0.93
0.761640729905	0.91
