0.837754907875	0.87
0.895917041285	0.93
0.761640729905	0.91
0.898267999507	0.94
0.848131774749	0.91
0.800562737988	0.89
0.650937356072	0.81
0.898267999507	0.94
0.716206421592	0.9
0.646505726846	0.79
0.707991852462	0.86
0.848131774749	0.91
0.848131774749	0.91
0.670826170722	0.89
0.700965465943	0.84
0.648694512737	0.8
0.683671408586	0.76
0.845942988858	0.9
0.670826170722	0.89
1.0	1.0
0.655585215073	0.83
0.648694512737	0.8
0.848131774749	0.91
1.0	1.0
0.648694512737	0.8
0.655585215073	0.83
0.648694512737	0.8
0.648694512737	0.8
0.625499977296	0.88
0.564986885664	0.81
