0.839781521436	0.88
0.804886252327	0.91
1.0	1.0
0.852671518863	0.93
0.941513521929	0.94
0.852671518863	0.93
0.941513521929	0.94
0.941513521929	0.94
0.939162563707	0.93
1.0	1.0
0.0784261592852	0.463589335456
0.951457929254	0.98
0.789537181791	0.85
0.852671518863	0.93
1.0	1.0
0.791888140013	0.86
0.789537181791	0.85
0.804886252327	0.91
0.939162563707	0.93
0.855022477085	0.94
0.941513521929	0.94
0.880676085636	0.87
0.941513521929	0.94
0.852671518863	0.93
0.941513521929	0.94
0.941513521929	0.94
0.939162563707	0.93
0.895917041285	0.93
0.852671518863	0.93
0.787294338456	0.84
