0.842186537102	0.89
0.782808651786	0.82
0.780673923338	0.81
0.789645296678	0.85
0.844807782542	0.9
0.789861526452	0.85
0.804886252327	0.91
0.802697466436	0.9
0.784997437677	0.83
0.852671518863	0.93
0.732213479332	0.78
0.797022516006	0.88
0.800562737988	0.89
0.835079604991	0.86
0.802697466436	0.9
0.785321782339	0.83
0.794482897306	0.86
0.785321782339	0.83
0.850374618084	0.92
0.791888140013	0.86
1.0	1.0
0.800562737988	0.89
0.855022477085	0.94
0.802697466436	0.9
0.850374618084	0.92
0.852671518863	0.93
0.782808651786	0.82
0.747454434981	0.84
0.800562737988	0.89
0.857427492751	0.95
