0.110336309524	0.295
0.273811120918	0.3792
0.1179520621	0.291887644863
0.1179520621	0.291887644863
0.110336309524	0.295
0.1179520621	0.291887644863
0.110336309524	0.295
0.1179520621	0.291887644863
0.138544111998	0.3092
0.1179520621	0.291887644863
0.1179520621	0.291887644863
0.1179520621	0.291887644863
0.1179520621	0.291887644863
0.1179520621	0.291887644863
0.159406657019	0.318
0.283960105914	0.4148
0.114114160263	0.281
0.1179520621	0.291887644863
0.27676198882	0.391
0.110336309524	0.295
0.110336309524	0.295
0.289889967638	0.4312
