0.319583673469	0.5654
0.233600640256	0.4834
0.319583673469	0.5654
0.319583673469	0.5654
0.319583673469	0.5654
0.319583673469	0.5654
0.218790876351	0.4538
0.240134613846	0.49
0.240987755102	0.4838
0.319583673469	0.5654
0.319583673469	0.5654
0.319583673469	0.5654
0.319583673469	0.5654
0.279083793517	0.5268
0.279083793517	0.5268
0.319583673469	0.5654
0.319583673469	0.5654
0.240134613846	0.49
0.319583673469	0.5654
0.240134613846	0.49
0.319583673469	0.5654
0.279083793517	0.5268
0.240987755102	0.4838
0.319583673469	0.5654
0.249706062566	0.500299222023
0.319583673469	0.5654
0.28558607443	0.5334
0.228235294118	0.4704
0.28558607443	0.5334
