0.114229923471	0.265444400159
0.0268257744752	0.383009620621
0.128153150668	0.283154121864
0.134536247052	0.296296296296
0.131613056687	0.291401273885
0.0359686502006	0.459956709957
0.114229923471	0.265444400159
0.112310441335	0.2076
0.114229923471	0.265444400159
0.124845616346	0.270771069934
0.114229923471	0.265444400159
0.0268257744752	0.383009620621
0.0359686502006	0.459956709957
0.131613056687	0.291401273885
0.131613056687	0.291401273885
0.114229923471	0.265444400159
0.0359686502006	0.459956709957
0.0268257744752	0.383009620621
0.0268257744752	0.383009620621
0.114229923471	0.265444400159
0.0268257744752	0.383009620621
0.0268257744752	0.383009620621
0.114229923471	0.265444400159
0.0359686502006	0.459956709957
0.134536247052	0.296296296296
0.131613056687	0.291401273885
0.114229923471	0.265444400159
0.114229923471	0.265444400159
