0.118403649875	0.285769828927
0.118403649875	0.285769828927
0.118403649875	0.285769828927
0.118403649875	0.285769828927
0.118403649875	0.285769828927
0.116442268173	0.272
0.118403649875	0.285769828927
0.119344892721	0.294841269841
0.118403649875	0.285769828927
0.116442268173	0.272
0.119344892721	0.294841269841
0.118403649875	0.285769828927
0.127727992838	0.305891533359
0.127727992838	0.305891533359
0.119344892721	0.294841269841
0.118403649875	0.285769828927
0.0654015303851	0.152290076336
0.118403649875	0.285769828927
0.127727992838	0.305891533359
0.118403649875	0.285769828927
0.127727992838	0.305891533359
0.116442268173	0.272
0.118403649875	0.285769828927
0.127727992838	0.305891533359
0.127727992838	0.305891533359
0.118403649875	0.285769828927
0.127727992838	0.305891533359
0.118403649875	0.285769828927
0.127727992838	0.305891533359
0.0654015303851	0.152290076336
