0.065586726819	0.46
0.065586726819	0.46
0.065586726819	0.46
0.065586726819	0.46
0.065586726819	0.46
0.065586726819	0.46
0.065586726819	0.46
0.065586726819	0.46
0.065586726819	0.46
0.065586726819	0.46
0.065586726819	0.46
0.065586726819	0.46
0.065586726819	0.46
0.065586726819	0.46
0.065586726819	0.46
0.065586726819	0.46
0.065586726819	0.46
0.065586726819	0.46
0.065586726819	0.46
0.0839692082614	0.594
0.065586726819	0.46
0.065586726819	0.46
0.0562136660346	0.27027027027
0.065586726819	0.46
0.065586726819	0.46
0.065586726819	0.46
0.065586726819	0.46
0.0114560986932	0.310465116279
0.065586726819	0.46
0.065586726819	0.46
