0.065586726819	0.46
0.065586726819	0.46
0.065586726819	0.46
0.065586726819	0.46
0.065586726819	0.46
0.065586726819	0.46
0.065586726819	0.46
0.065586726819	0.46
0.065586726819	0.46
0.065586726819	0.46
0.065586726819	0.46
0.065586726819	0.46
0.065586726819	0.46
0.0856659542124	0.6
0.065586726819	0.46
0.065586726819	0.46
0.065586726819	0.46
0.065586726819	0.46
0.065586726819	0.46
0.065586726819	0.46
0.065586726819	0.46
0.065586726819	0.46
0.065586726819	0.46
0.065586726819	0.46
0.065586726819	0.46
0.065586726819	0.46
0.065586726819	0.46
0.065586726819	0.46
0.065586726819	0.46
0.0562136660346	0.27027027027
