0.065586726819	0.46
0.065586726819	0.46
0.065586726819	0.46
0.065586726819	0.46
0.065586726819	0.46
0.065586726819	0.46
0.065586726819	0.46
0.065586726819	0.46
0.065586726819	0.46
0.065586726819	0.46
0.065586726819	0.46
0.065586726819	0.46
0.065586726819	0.46
0.065586726819	0.46
0.065586726819	0.46
0.065586726819	0.46
0.065586726819	0.46
0.065586726819	0.46
0.065586726819	0.46
0.065586726819	0.46
0.065586726819	0.46
0.065586726819	0.46
0.065586726819	0.46
0.065586726819	0.46
0.065586726819	0.46
0.065586726819	0.46
0.065586726819	0.46
0.065586726819	0.46
0.065586726819	0.46
0.065586726819	0.46
