0.0219120379423	0.47619047619
0.0219120379423	0.47619047619
0.0219120379423	0.47619047619
0.0219120379423	0.47619047619
0.0219120379423	0.47619047619
0.0219120379423	0.47619047619
0.0219120379423	0.47619047619
0.0219120379423	0.47619047619
0.0219120379423	0.47619047619
0.0219120379423	0.47619047619
0.0219120379423	0.47619047619
0.0219120379423	0.47619047619
0.0219120379423	0.47619047619
0.0219120379423	0.47619047619
0.0219120379423	0.47619047619
0.0219120379423	0.47619047619
0.0219120379423	0.47619047619
0.0219120379423	0.47619047619
0.0219120379423	0.47619047619
0.0219120379423	0.47619047619
0.0219120379423	0.47619047619
0.0219120379423	0.47619047619
0.0219120379423	0.47619047619
0.0219120379423	0.47619047619
0.0219120379423	0.47619047619
0.0219120379423	0.47619047619
0.0219120379423	0.47619047619
0.0219120379423	0.47619047619
0.0219120379423	0.47619047619
0.0219120379423	0.47619047619
