0.448071824473	0.647790535839
0.448071824473	0.647790535839
0.448071824473	0.647790535839
0.448071824473	0.647790535839
0.448071824473	0.647790535839
0.448071824473	0.647790535839
0.448071824473	0.647790535839
0.448071824473	0.647790535839
0.448071824473	0.647790535839
0.448071824473	0.647790535839
0.448071824473	0.647790535839
0.448071824473	0.647790535839
0.448071824473	0.647790535839
0.448071824473	0.647790535839
0.448071824473	0.647790535839
0.448071824473	0.647790535839
0.448071824473	0.647790535839
0.448071824473	0.647790535839
0.448071824473	0.647790535839
0.448071824473	0.647790535839
0.448071824473	0.647790535839
0.448071824473	0.647790535839
0.448071824473	0.647790535839
0.448071824473	0.647790535839
0.448071824473	0.647790535839
0.448071824473	0.647790535839
0.448071824473	0.647790535839
0.448071824473	0.647790535839
0.448071824473	0.647790535839
0.448071824473	0.647790535839
