0.44256052986	0.646572720946
0.44256052986	0.646572720946
0.44256052986	0.646572720946
0.44256052986	0.646572720946
0.44256052986	0.646572720946
0.44256052986	0.646572720946
0.44256052986	0.646572720946
0.44256052986	0.646572720946
0.44256052986	0.646572720946
0.44256052986	0.646572720946
0.44256052986	0.646572720946
0.44256052986	0.646572720946
0.44256052986	0.646572720946
0.44256052986	0.646572720946
0.44256052986	0.646572720946
0.44256052986	0.646572720946
0.44256052986	0.646572720946
0.44256052986	0.646572720946
0.44256052986	0.646572720946
0.44256052986	0.646572720946
0.44256052986	0.646572720946
0.44256052986	0.646572720946
0.44256052986	0.646572720946
0.44256052986	0.646572720946
0.44256052986	0.646572720946
0.44256052986	0.646572720946
0.44256052986	0.646572720946
0.44256052986	0.646572720946
0.44256052986	0.646572720946
0.44256052986	0.646572720946
