0.472633308528	0.641150828248
0.472633308528	0.641150828248
0.472633308528	0.641150828248
0.472633308528	0.641150828248
0.472633308528	0.641150828248
0.472633308528	0.641150828248
0.472633308528	0.641150828248
0.472633308528	0.641150828248
0.472633308528	0.641150828248
0.472633308528	0.641150828248
0.472633308528	0.641150828248
0.472633308528	0.641150828248
0.472633308528	0.641150828248
0.472633308528	0.641150828248
0.472633308528	0.641150828248
0.472633308528	0.641150828248
0.472633308528	0.641150828248
0.472633308528	0.641150828248
0.472633308528	0.641150828248
0.472633308528	0.641150828248
0.472633308528	0.641150828248
0.472633308528	0.641150828248
0.472633308528	0.641150828248
0.472633308528	0.641150828248
0.472633308528	0.641150828248
0.472633308528	0.641150828248
0.472633308528	0.641150828248
0.472633308528	0.641150828248
0.472633308528	0.641150828248
0.472633308528	0.641150828248
