0.451611534212	0.644000688587
0.451611534212	0.644000688587
0.451611534212	0.644000688587
0.451611534212	0.644000688587
0.451611534212	0.644000688587
0.451611534212	0.644000688587
0.451611534212	0.644000688587
0.451611534212	0.644000688587
0.451611534212	0.644000688587
0.451611534212	0.644000688587
0.451611534212	0.644000688587
0.442931774167	0.636945429387
0.451611534212	0.644000688587
0.451611534212	0.644000688587
0.451611534212	0.644000688587
0.451611534212	0.644000688587
0.451611534212	0.644000688587
0.451611534212	0.644000688587
0.451611534212	0.644000688587
0.451611534212	0.644000688587
0.451611534212	0.644000688587
0.451611534212	0.644000688587
0.451611534212	0.644000688587
0.451611534212	0.644000688587
0.451611534212	0.644000688587
0.451611534212	0.644000688587
0.451611534212	0.644000688587
0.451611534212	0.644000688587
0.451611534212	0.644000688587
0.451611534212	0.644000688587
