0.427374401758	0.605325809012
0.431351441387	0.608550022036
0.431351441387	0.608550022036
0.435406439533	0.611771962287
0.427014483107	0.605005728386
0.43366522622	0.610353024034
0.438496529031	0.614126132465
0.438496529031	0.614126132465
0.427374401758	0.605325809012
0.435048927324	0.611537443768
0.427014483107	0.605005728386
0.438496529031	0.614126132465
0.438496529031	0.614126132465
0.427014483107	0.605005728386
0.438496529031	0.614126132465
0.438496529031	0.614126132465
0.427374401758	0.605325809012
0.427014483107	0.605005728386
0.427374401758	0.605325809012
0.427014483107	0.605005728386
0.438496529031	0.614126132465
0.427014483107	0.605005728386
0.427374401758	0.605325809012
0.430611122369	0.607907017698
0.427014483107	0.605005728386
0.427014483107	0.605005728386
0.423184262856	0.60183389173
0.426519372792	0.604620403844
0.427014483107	0.605005728386
0.427374401758	0.605325809012
