0.517256344492	0.704806687565
0.517256344492	0.704806687565
0.517256344492	0.704806687565
0.517256344492	0.704806687565
0.517256344492	0.704806687565
0.517256344492	0.704806687565
0.517256344492	0.704806687565
0.517256344492	0.704806687565
0.517256344492	0.704806687565
0.517256344492	0.704806687565
0.517256344492	0.704806687565
0.517256344492	0.704806687565
0.517256344492	0.704806687565
0.517256344492	0.704806687565
0.517256344492	0.704806687565
0.517256344492	0.704806687565
0.517256344492	0.704806687565
0.517256344492	0.704806687565
0.517256344492	0.704806687565
0.517256344492	0.704806687565
0.517256344492	0.704806687565
0.517256344492	0.704806687565
0.517256344492	0.704806687565
0.517256344492	0.704806687565
0.517256344492	0.704806687565
0.517256344492	0.704806687565
0.517256344492	0.704806687565
0.517256344492	0.704806687565
0.517256344492	0.704806687565
0.517256344492	0.704806687565
