0.464189052845	0.661645722155
0.464189052845	0.661645722155
0.464189052845	0.661645722155
0.464189052845	0.661645722155
0.464189052845	0.661645722155
0.467834487937	0.664744858446
0.464189052845	0.661645722155
0.467834487937	0.664744858446
0.464189052845	0.661645722155
0.464189052845	0.661645722155
0.464189052845	0.661645722155
0.464189052845	0.661645722155
0.464189052845	0.661645722155
0.464189052845	0.661645722155
0.464189052845	0.661645722155
0.464189052845	0.661645722155
0.467834487937	0.664744858446
0.463114462193	0.660877829618
0.467834487937	0.664744858446
0.464189052845	0.661645722155
0.467834487937	0.664744858446
0.467834487937	0.664744858446
0.467834487937	0.664744858446
0.464189052845	0.661645722155
0.464189052845	0.661645722155
0.464189052845	0.661645722155
0.467834487937	0.664744858446
0.464189052845	0.661645722155
0.464189052845	0.661645722155
0.467834487937	0.664744858446
