0.478355906932	0.672822991283
0.478355906932	0.672822991283
0.478355906932	0.672822991283
0.478355906932	0.672822991283
0.478355906932	0.672822991283
0.478355906932	0.672822991283
0.478355906932	0.672822991283
0.478355906932	0.672822991283
0.478355906932	0.672822991283
0.478355906932	0.672822991283
0.478355906932	0.672822991283
0.478355906932	0.672822991283
0.478355906932	0.672822991283
0.478355906932	0.672822991283
0.478355906932	0.672822991283
0.478355906932	0.672822991283
0.487074464446	0.679199514857
0.487074464446	0.679199514857
0.478355906932	0.672822991283
0.478355906932	0.672822991283
0.478355906932	0.672822991283
0.487074464446	0.679199514857
0.478355906932	0.672822991283
0.478355906932	0.672822991283
0.478355906932	0.672822991283
0.478355906932	0.672822991283
0.478355906932	0.672822991283
0.478355906932	0.672822991283
0.478355906932	0.672822991283
0.478355906932	0.672822991283
