0.986797385621	0.993333333333
0.986797385621	0.993333333333
1.0	1.0
1.0	1.0
1.0	1.0
1.0	1.0
1.0	1.0
1.0	1.0
1.0	1.0
0.66603182218	0.657049180328
1.0	1.0
0.986797385621	0.993333333333
1.0	1.0
1.0	1.0
0.986797385621	0.993333333333
1.0	1.0
1.0	1.0
1.0	1.0
0.986797385621	0.993333333333
1.0	1.0
1.0	1.0
0.986797385621	0.993333333333
0.986797385621	0.993333333333
1.0	1.0
0.986797385621	0.993333333333
1.0	1.0
0.986797385621	0.993333333333
1.0	1.0
0.986797385621	0.993333333333
1.0	1.0
