1.0	1.0
1.0	1.0
1.0	1.0
1.0	1.0
1.0	1.0
0.64908220137	0.662090813094
1.0	1.0
1.0	1.0
1.0	1.0
0.986797385621	0.993333333333
1.0	1.0
1.0	1.0
1.0	1.0
1.0	1.0
1.0	1.0
1.0	1.0
1.0	1.0
0.986797385621	0.993333333333
1.0	1.0
1.0	1.0
0.986797385621	0.993333333333
1.0	1.0
1.0	1.0
1.0	1.0
1.0	1.0
0.986797385621	0.993333333333
1.0	1.0
0.986797385621	0.993333333333
1.0	1.0
1.0	1.0
