1.0	1.0
0.986797385621	0.993333333333
1.0	1.0
1.0	1.0
1.0	1.0
1.0	1.0
1.0	1.0
0.986797385621	0.993333333333
1.0	1.0
1.0	1.0
1.0	1.0
0.961192476991	0.98
1.0	1.0
0.986797385621	0.993333333333
0.986797385621	0.993333333333
0.961192476991	0.98
1.0	1.0
1.0	1.0
1.0	1.0
1.0	1.0
0.986797385621	0.993333333333
0.94879018274	0.973333333333
1.0	1.0
0.94879018274	0.973333333333
0.986797385621	0.993333333333
1.0	1.0
0.961192476991	0.98
1.0	1.0
0.961192476991	0.98
0.986797385621	0.993333333333
