1.0	1.0
1.0	1.0
0.986797385621	0.993333333333
1.0	1.0
1.0	1.0
0.986797385621	0.993333333333
0.973861544618	0.986666666667
1.0	1.0
1.0	1.0
1.0	1.0
1.0	1.0
1.0	1.0
0.986797385621	0.993333333333
0.986797385621	0.993333333333
1.0	1.0
0.973861544618	0.986666666667
1.0	1.0
0.973861544618	0.986666666667
1.0	1.0
1.0	1.0
0.986797385621	0.993333333333
1.0	1.0
0.973861544618	0.986666666667
1.0	1.0
1.0	1.0
1.0	1.0
1.0	1.0
1.0	1.0
0.986797385621	0.993333333333
1.0	1.0
