1.0	1.0
1.0	1.0
0.973594771242	0.986666666667
0.986797385621	0.993333333333
0.973594771242	0.986666666667
1.0	1.0
0.986797385621	0.993333333333
0.973594771242	0.986666666667
1.0	1.0
1.0	1.0
1.0	1.0
0.973594771242	0.986666666667
1.0	1.0
1.0	1.0
1.0	1.0
0.973594771242	0.986666666667
0.986797385621	0.993333333333
0.986797385621	0.993333333333
1.0	1.0
1.0	1.0
1.0	1.0
0.653255677065	0.661420447031
0.973594771242	0.986666666667
1.0	1.0
1.0	1.0
1.0	1.0
1.0	1.0
0.935587568361	0.966666666667
1.0	1.0
0.973594771242	0.986666666667
