0.0	0.0
0.0821602801361	0.278713629403
1.0	1.0
0.0	0.0
1.0	1.0
1.0	1.0
0.0	0.0
1.0	1.0
0.0077617055592	0.0837070254111
0.098	0.3136
3.02794795967e-05	0.00570613409415
1.0	1.0
1.0	1.0
0.0643464184541	0.249609984399
1.51146445791e-05	0.0042492917847
1.0	1.0
1.0	1.0
0.0	0.0
0.0833388147076	0.284820031299
0.0	0.0
0.0	0.00140056022409
0.0	0.0
0.0	0.0
0.0	0.0
0.0	0.0
0.0	0.0
0.0	0.0
0.0	0.0
0.0	0.0
0.0	0.0
