0.0	0.0
0.0	0.0
1.51334009292e-05	0.00426742532006
0.0	0.0
0.0	0.0
0.846282051282	0.92
0.0	0.0
0.0	0.0
0.0	0.0
0.0	0.0
0.0	0.0
0.0	0.0
0.0	0.00140056022409
0.0	0.0
0.000224178386215	0.0138312586445
0.0	0.0
5.04645259615e-06	0.00284495021337
0.0	0.0
0.0	0.0
0.00639088134013	0.074780058651
0.0	0.0
0.00639088134013	0.074780058651
1.0	1.0
0.0	0.0
0.921538461538	0.96
0.0684785909505	0.2578125
0.0	0.0
0.0	0.0
0.0	0.0
0.036334768404	0.188383045526
