5.0319275805e-05	0.00707213578501
0.0061642973959	0.0740740740741
0.0	0.0
1.0	1.0
0.0	0.0
0.00572263484719	0.0729483282675
0.921538461538	0.96
0.00983844398434	0.0944527736132
0.921538461538	0.96
0.0252208737122	0.156985871272
0.0	0.0
0.921538461538	0.96
0.921538461538	0.96
0.00316074653823	0.0522496371553
0.0	0.0
1.0	1.0
0.0	0.0
1.0	1.0
0.921538461538	0.96
0.0	0.0014409221902
0.0	0.0
0.00316074653823	0.0522496371553
0.0	0.0
0.0	0.0
0.0	0.0
0.0	0.0
0.00497587454765	0.0661764705882
0.921538461538	0.96
0.921538461538	0.96
0.921538461538	0.96
