0.0	0.0
0.0	0.0
0.0	0.0
0.0	0.0
0.0	0.0
0.0	0.0
0.0	0.0
1.0	1.0
0.0	0.0
0.0	0.0
0.462051282051	0.68
0.0	0.0
0.0	0.0
0.0	0.0
0.0	0.0
0.000140054621302	0.0111576011158
0.00115184969109	0.0309423347398
0.0	0.0
1.48929199059e-05	0.00407608695652
0.0	0.0
1.0	1.0
0.00701935104113	0.0755244755245
0.0360582386005	0.185185185185
0.0	0.0
0.0684785909505	0.2578125
0.00022758306782	0.0144927536232
0.0	0.0
0.0	0.0
0.0	0.00141843971631
1.0	1.0
