0.0981445975936	0.307931570762
0.0	0.0
0.0	0.0
0.0	0.0
1.0	1.0
0.0	0.00140056022409
0.0	0.0
0.036334768404	0.188383045526
0.0	0.0
0.0	0.0
1.0	1.0
0.0	0.0
0.0	0.00143061516452
0.0	0.0
0.00977577249111	0.0835443037975
1.0	1.0
0.00494987625309	0.0652173913043
0.00977577249111	0.0835443037975
0.0	0.0
0.0	0.0
0.0	0.0
0.0	0.0
0.0	0.0014409221902
1.0	1.0
0.0	0.0
0.00494987625309	0.0652173913043
0.0	0.0
0.0	0.0
1.0	1.0
0.0	0.0
