0.0	0.0
0.0	0.0
0.921538461538	0.96
0.0	0.0
0.000458680914338	0.0201438848921
0.0	0.0
0.0	0.0
0.00640108441901	0.0751104565538
5.06549687459e-06	0.002886002886
0.0	0.0
0.0	0.0
0.0	0.0
0.0	0.0
0.0516766295755	0.220858895706
5.04441608362e-06	0.00284090909091
0.0	0.0
0.0	0.0
0.0	0.0014409221902
0.0	0.0
0.0	0.00142045454545
1.0	1.0
0.0	0.0
5.05435963791e-06	0.00286123032904
1.0	1.0
1.0	1.0
0.0	0.0
0.0	0.0
0.0	0.0
0.00115888806947	0.0314735336195
0.0	0.0
