0.0379298509685	0.452898550725
0.0386716046065	0.446428571429
0.0379467699147	0.454545454545
0.0379467699147	0.454545454545
0.0379467699147	0.454545454545
0.0386716046065	0.446428571429
0.0383003091404	0.5
0.0308514112642	0.3
0.0386716046065	0.446428571429
0.0308514112642	0.3
0.0386716046065	0.446428571429
0.0379298509685	0.452898550725
0.0386716046065	0.446428571429
0.0308514112642	0.3
0.0308514112642	0.3
0.0386716046065	0.446428571429
0.0386716046065	0.446428571429
0.0379467699147	0.454545454545
0.0386716046065	0.446428571429
0.0379467699147	0.454545454545
0.0386716046065	0.446428571429
0.0383003091404	0.5
0.0383003091404	0.5
0.0386716046065	0.446428571429
0.0383003091404	0.5
0.0383003091404	0.5
0.0383003091404	0.5
0.0379467699147	0.454545454545
0.0308514112642	0.3
0.0308514112642	0.3
