0.0378953873067	0.44964028777
0.0378953873067	0.44964028777
0.0386716046065	0.446428571429
0.0378953873067	0.44964028777
0.0378953873067	0.44964028777
0.0378953873067	0.44964028777
0.0386716046065	0.446428571429
0.0386716046065	0.446428571429
0.0386716046065	0.446428571429
0.0383003091404	0.5
0.0383003091404	0.5
0.0383003091404	0.5
0.0386716046065	0.446428571429
0.0386716046065	0.446428571429
0.0383003091404	0.5
0.0386716046065	0.446428571429
0.0383003091404	0.5
0.0386716046065	0.446428571429
0.0383003091404	0.5
0.0308514112642	0.3
0.0383003091404	0.5
0.0383003091404	0.5
0.0378953873067	0.44964028777
0.0308514112642	0.3
0.0308514112642	0.3
0.0386716046065	0.446428571429
0.0378953873067	0.44964028777
0.0308514112642	0.3
0.0378953873067	0.44964028777
0.0383003091404	0.5
