0.00348235294118	0.0592
0.00174789915966	0.042
0.00348235294118	0.0592
0.00348235294118	0.0592
0.00348235294118	0.0592
0.00348235294118	0.0592
0.00348235294118	0.0592
0.00348235294118	0.0592
0.00348235294118	0.0592
0.00228571428571	0.048
0.00348235294118	0.0592
0.00348235294118	0.0592
0.00348235294118	0.0592
0.00348235294118	0.0592
0.00348235294118	0.0592
0.00158463385354	0.04
0.000158780209455	0.0127897681855
0.00348235294118	0.0592
0.00348235294118	0.0592
0.00348235294118	0.0592
0.00348235294118	0.0592
0.00348235294118	0.0592
0.00348235294118	0.0592
0.00348235294118	0.0592
0.00228571428571	0.048
0.00348235294118	0.0592
0.00228571428571	0.048
0.00348235294118	0.0592
0.00348235294118	0.0592
