0.00302617046819	0.0552
0.00302617046819	0.0552
0.00145978391357	0.0384
0.00302617046819	0.0552
0.00302617046819	0.0552
0.00302617046819	0.0552
0.00302617046819	0.0552
0.00302617046819	0.0552
0.00302617046819	0.0552
0.00302617046819	0.0552
0.00302617046819	0.0552
0.00302617046819	0.0552
0.00302617046819	0.0552
0.00302617046819	0.0552
0.00302617046819	0.0552
0.00302617046819	0.0552
0.00302617046819	0.0552
0.00302617046819	0.0552
0.00302617046819	0.0552
0.00198991596639	0.0448
0.00302617046819	0.0552
0.00302617046819	0.0552
0.00302617046819	0.0552
0.00198991596639	0.0448
0.00302617046819	0.0552
0.00302617046819	0.0552
0.00198991596639	0.0448
0.00302617046819	0.0552
