0.00119759903962	0.0348
0.00145978391357	0.0384
0.00122545018007	0.0352
0.000936694677871	0.0308
0.00119759903962	0.0348
0.00119759903962	0.0348
0.00056662665066	0.024
0.00145978391357	0.0384
0.00072925170068	0.0272
0.00119759903962	0.0348
0.00119759903962	0.0348
0.000361104441777	0.0192
0.00119759903962	0.0348
0.00119759903962	0.0348
0.00152156862745	0.0392
0.000936694677871	0.0308
0.00119759903962	0.0348
0.00152156862745	0.0392
0.00119759903962	0.0348
0.00119759903962	0.0348
0.00119759903962	0.0348
0.00119759903962	0.0348
0.00145978391357	0.0384
0.00119759903962	0.0348
0.00049299719888	0.0224
0.00119759903962	0.0348
