0.000961344537815	0.0312
0.000104041616647	0.0104
0.00145978391357	0.0384
0.00174789915966	0.042
0.00191916766707	0.044
0.00191916766707	0.044
0.00191916766707	0.044
0.000961344537815	0.0312
0.00191916766707	0.044
0.000104041616647	0.0104
0.00145978391357	0.0384
0.000961344537815	0.0312
0.00191916766707	0.044
0.00191916766707	0.044
0.00174789915966	0.042
0.00145978391357	0.0384
0.00191916766707	0.044
0.000475390156062	0.022
0.000104041616647	0.0104
0.00158463385354	0.04
0.00111596638655	0.0336
0.000961344537815	0.0312
0.00191916766707	0.044
0.00174789915966	0.042
0.000961344537815	0.0312
0.00174789915966	0.042
0.00111596638655	0.0336
