0.00164897959184	0.0408
0.00209843937575	0.046
0.00209843937575	0.046
0.00122545018007	0.0352
0.00209843937575	0.046
0.00164897959184	0.0408
0.00209843937575	0.046
0.000686674669868	0.0264
0.00164897959184	0.0408
0.00209843937575	0.046
0.00164897959184	0.0408
0.00209843937575	0.046
0.00081824729892	0.0288
0.00081824729892	0.0288
0.00164897959184	0.0408
0.00081824729892	0.0288
0.00209843937575	0.046
0.00209843937575	0.046
0.00164897959184	0.0408
0.00209843937575	0.046
0.000686674669868	0.0264
0.00164897959184	0.0408
0.00209843937575	0.046
0.00209843937575	0.046
0.00209843937575	0.046
0.000773109243697	0.028
0.00209843937575	0.046
