0.00252100840336	0.0504
0.00164897959184	0.0408
0.00252100840336	0.0504
0.00252100840336	0.0504
0.00252100840336	0.0504
0.00191916766707	0.044
0.00252100840336	0.0504
0.00191916766707	0.044
0.00056662665066	0.024
0.00244129651861	0.0496
0.00244129651861	0.0496
0.00252100840336	0.0504
0.00252100840336	0.0504
0.00252100840336	0.0504
0.00228571428571	0.048
0.00252100840336	0.0504
0.00244129651861	0.0496
0.00228571428571	0.048
0.00252100840336	0.0504
0.00244129651861	0.0496
0.00244129651861	0.0496
0.00252100840336	0.0504
0.00228571428571	0.048
0.00244129651861	0.0496
0.00252100840336	0.0504
0.00252100840336	0.0504
0.00252100840336	0.0504
