0.216445352174	0.301493710692
0.261669974636	0.292397660819
0.319233282509	0.49504950495
0.319233282509	0.49504950495
0.319233282509	0.49504950495
0.218481473281	0.298221614227
0.261800423419	0.303946593363
0.319233282509	0.49504950495
0.26233029205	0.316831683168
0.319233282509	0.49504950495
0.262384784209	0.317838696861
0.319233282509	0.49504950495
0.319233282509	0.49504950495
0.319233282509	0.49504950495
0.263517641268	0.332015810277
0.26168185143	0.292625829107
0.261580933036	0.290923196276
0.319233282509	0.49504950495
0.319233282509	0.49504950495
0.319233282509	0.49504950495
0.261712118078	0.29651390521
0.261809077166	0.301990932387
0.261627434805	0.294954217806
0.262365263396	0.31746031746
0.319233282509	0.49504950495
0.319233282509	0.49504950495
0.319233282509	0.49504950495
0.262337529896	0.316957210777
0.319233282509	0.49504950495
0.261638156234	0.291828793774
