0.319233282509	0.49504950495
0.319233282509	0.49504950495
0.319233282509	0.49504950495
0.319233282509	0.49504950495
0.319233282509	0.49504950495
0.200834528426	0.293444530644
0.319233282509	0.49504950495
0.261706796206	0.293140512019
0.319233282509	0.49504950495
0.319233282509	0.49504950495
0.319233282509	0.49504950495
0.319233282509	0.49504950495
0.319233282509	0.49504950495
0.319233282509	0.49504950495
0.319233282509	0.49504950495
0.319233282509	0.49504950495
0.261651248036	0.292056074766
0.262358512742	0.317334391115
0.319233282509	0.49504950495
0.261735408039	0.295040188198
0.261693241983	0.292854353768
0.216419494726	0.300333267987
0.319233282509	0.49504950495
0.319233282509	0.49504950495
0.319233282509	0.49504950495
0.319233282509	0.49504950495
0.319233282509	0.49504950495
0.229623961781	0.296875
0.319233282509	0.49504950495
0.319233282509	0.49504950495
