0.319233282509	0.49504950495
0.262268008121	0.315831030399
0.319233282509	0.49504950495
0.261672989412	0.292454669526
0.319233282509	0.49504950495
0.222841588627	0.298156139663
0.232041691344	0.295525902669
0.319233282509	0.49504950495
0.261617650497	0.298266121177
0.227352502409	0.300352664577
0.319233282509	0.49504950495
0.262371892204	0.317586343787
0.319233282509	0.49504950495
0.319233282509	0.49504950495
0.319233282509	0.49504950495
0.261585042524	0.292929292929
0.319233282509	0.49504950495
0.261672989412	0.292454669526
0.202820346502	0.30504497458
0.319233282509	0.49504950495
0.319233282509	0.49504950495
0.262358512742	0.317334391115
0.319233282509	0.49504950495
0.319233282509	0.49504950495
0.319233282509	0.49504950495
0.261724494957	0.293542074364
0.319233282509	0.49504950495
0.319233282509	0.49504950495
0.319233282509	0.49504950495
0.319233282509	0.49504950495
