0.319233282509	0.49504950495
0.319233282509	0.49504950495
0.319233282509	0.49504950495
0.319233282509	0.49504950495
0.200911427171	0.299648849005
0.319233282509	0.49504950495
0.319233282509	0.49504950495
0.319233282509	0.49504950495
0.319233282509	0.49504950495
0.319233282509	0.49504950495
0.319233282509	0.49504950495
0.319233282509	0.49504950495
0.319233282509	0.49504950495
0.262276219358	0.315955766193
0.319233282509	0.49504950495
0.261610515521	0.291375291375
0.261638156234	0.291828793774
0.261736224363	0.293829578844
0.319233282509	0.49504950495
0.26172927799	0.293657008614
0.261672989412	0.292454669526
0.319233282509	0.49504950495
0.319233282509	0.49504950495
0.319233282509	0.49504950495
0.261759658076	0.300196463654
0.26169875488	0.29296875
0.319233282509	0.49504950495
0.319233282509	0.49504950495
0.319233282509	0.49504950495
0.262351640261	0.317208564631
