0.208489045344	0.305621069182
0.319233282509	0.49504950495
0.319233282509	0.49504950495
0.262322932457	0.316706254949
0.319233282509	0.49504950495
0.261719850757	0.295592556317
0.319233282509	0.49504950495
0.319233282509	0.49504950495
0.319233282509	0.49504950495
0.319233282509	0.49504950495
0.261839306988	0.306818181818
0.319233282509	0.49504950495
0.319233282509	0.49504950495
0.319233282509	0.49504950495
0.319233282509	0.49504950495
0.262344645972	0.317082837891
0.319233282509	0.49504950495
0.218514976724	0.298056155508
0.261675973805	0.292511700468
0.261743337515	0.294763679153
0.319233282509	0.49504950495
0.319233282509	0.49504950495
0.319233282509	0.49504950495
0.239476270748	0.300255452938
0.319233282509	0.49504950495
0.26172927799	0.293657008614
0.261738165116	0.299391799098
0.261624578678	0.291601866252
0.319233282509	0.49504950495
0.319233282509	0.49504950495
