0.551302386927	0.729771252987
0.551302386927	0.729771252987
0.551302386927	0.729771252987
0.551302386927	0.729771252987
0.551302386927	0.729771252987
0.551302386927	0.729771252987
0.551302386927	0.729771252987
0.551302386927	0.729771252987
0.551302386927	0.729771252987
0.551302386927	0.729771252987
0.551302386927	0.729771252987
0.551302386927	0.729771252987
0.551302386927	0.729771252987
0.551302386927	0.729771252987
0.551302386927	0.729771252987
0.551302386927	0.729771252987
0.551302386927	0.729771252987
0.551302386927	0.729771252987
0.551302386927	0.729771252987
0.551302386927	0.729771252987
0.551302386927	0.729771252987
0.551302386927	0.729771252987
0.551302386927	0.729771252987
0.551302386927	0.729771252987
0.551302386927	0.729771252987
0.551302386927	0.729771252987
0.551302386927	0.729771252987
0.551302386927	0.729771252987
0.551302386927	0.729771252987
0.551302386927	0.729771252987
