0.560881878622	0.736877982277
0.560881878622	0.736877982277
0.560881878622	0.736877982277
0.560881878622	0.736877982277
0.560881878622	0.736877982277
0.560881878622	0.736877982277
0.560881878622	0.736877982277
0.560881878622	0.736877982277
0.560881878622	0.736877982277
0.560881878622	0.736877982277
0.560881878622	0.736877982277
0.560881878622	0.736877982277
0.560881878622	0.736877982277
0.560881878622	0.736877982277
0.560881878622	0.736877982277
0.560881878622	0.736877982277
0.560881878622	0.736877982277
0.560881878622	0.736877982277
0.560881878622	0.736877982277
0.560881878622	0.736877982277
0.560881878622	0.736877982277
0.560881878622	0.736877982277
0.560881878622	0.736877982277
0.560881878622	0.736877982277
0.560881878622	0.736877982277
0.560881878622	0.736877982277
0.560881878622	0.736877982277
0.560881878622	0.736877982277
0.560881878622	0.736877982277
0.560881878622	0.736877982277
