0.619560988947	0.779930795848
0.619560988947	0.779930795848
0.619560988947	0.779930795848
0.619560988947	0.779930795848
0.619560988947	0.779930795848
0.619560988947	0.779930795848
0.619560988947	0.779930795848
0.619560988947	0.779930795848
0.619560988947	0.779930795848
0.619560988947	0.779930795848
0.619560988947	0.779930795848
0.619560988947	0.779930795848
0.619560988947	0.779930795848
0.619560988947	0.779930795848
0.619560988947	0.779930795848
0.619560988947	0.779930795848
0.619560988947	0.779930795848
0.619560988947	0.779930795848
0.619560988947	0.779930795848
0.619560988947	0.779930795848
0.619560988947	0.779930795848
0.619560988947	0.779930795848
0.619560988947	0.779930795848
0.619560988947	0.779930795848
0.619560988947	0.779930795848
0.619560988947	0.779930795848
0.619560988947	0.779930795848
0.619560988947	0.779930795848
0.619560988947	0.779930795848
0.619560988947	0.779930795848
