0.609730827325	0.773908612196
0.609730827325	0.773908612196
0.609730827325	0.773908612196
0.609730827325	0.773908612196
0.609730827325	0.773908612196
0.609730827325	0.773908612196
0.609730827325	0.773908612196
0.609730827325	0.773908612196
0.609730827325	0.773908612196
0.609730827325	0.773908612196
0.609730827325	0.773908612196
0.609730827325	0.773908612196
0.609730827325	0.773908612196
0.609730827325	0.773908612196
0.609730827325	0.773908612196
0.609730827325	0.773908612196
0.609730827325	0.773908612196
0.609730827325	0.773908612196
0.609730827325	0.773908612196
0.609730827325	0.773908612196
0.609730827325	0.773908612196
0.609730827325	0.773908612196
0.609730827325	0.773908612196
0.609730827325	0.773908612196
0.609730827325	0.773908612196
0.609730827325	0.773908612196
0.609730827325	0.773908612196
0.609730827325	0.773908612196
0.609730827325	0.773908612196
0.609730827325	0.773908612196
