0.561737136692	0.769230769231
1.0	1.0
1.0	1.0
1.0	1.0
0.408403077183	0.538461538462
0.561737136692	0.769230769231
0.561737136692	0.769230769231
0.561737136692	0.769230769231
1.0	1.0
0.263585770406	0.4375
0.0	0.0
0.561737136692	0.769230769231
0.0376109268213	0.105596620908
0.408403077183	0.538461538462
1.0	1.0
0.561737136692	0.769230769231
0.408403077183	0.538461538462
1.0	1.0
0.941788715486	0.97
0.408403077183	0.538461538462
0.0554094781381	0.145631067961
1.0	1.0
0.408403077183	0.538461538462
0.0159516373182	0.0757575757576
1.0	1.0
1.0	1.0
1.0	1.0
0.263585770406	0.4375
1.0	1.0
1.0	1.0
