0.561737136692	0.769230769231
0.561737136692	0.769230769231
0.561737136692	0.769230769231
0.199896438911	0.384615384615
1.0	1.0
0.561737136692	0.769230769231
0.183024769634	0.230769230769
0.561737136692	0.769230769231
0.0705952164166	0.159574468085
1.0	1.0
0.561737136692	0.769230769231
1.0	1.0
0.561737136692	0.769230769231
0.408403077183	0.538461538462
0.263585770406	0.4375
1.0	1.0
0.561737136692	0.769230769231
0.199896438911	0.384615384615
0.561737136692	0.769230769231
0.561737136692	0.769230769231
0.0563023078874	0.153846153846
1.0	1.0
1.0	1.0
1.0	1.0
1.0	1.0
0.561737136692	0.769230769231
0.0818371162861	0.122699386503
1.0	1.0
1.0	1.0
0.561737136692	0.769230769231
