0.157465194431	0.64
0.157465194431	0.64
0.157465194431	0.64
0.157465194431	0.64
0.157465194431	0.64
0.157465194431	0.64
0.157465194431	0.64
0.157465194431	0.64
0.157465194431	0.64
0.157465194431	0.64
0.157465194431	0.64
0.157465194431	0.64
0.157465194431	0.64
0.157465194431	0.64
0.157465194431	0.64
0.157465194431	0.64
0.157465194431	0.64
0.157465194431	0.64
0.157465194431	0.64
0.157465194431	0.64
0.157465194431	0.64
0.157465194431	0.64
0.157465194431	0.64
0.157465194431	0.64
0.157465194431	0.64
0.157465194431	0.64
0.157465194431	0.64
0.157465194431	0.64
0.157465194431	0.64
0.157465194431	0.64
