1.0	1.0
0.0952061657326	0.666666666667
0.167608934844	0.310880829016
0.0952061657326	0.666666666667
0.471634016533	0.714285714286
0.0952061657326	0.666666666667
0.00463906839326	0.0369658435606
0.0952061657326	0.666666666667
0.00594861304332	0.0502512562814
0.154902360491	0.301507537688
1.0	1.0
0.154902360491	0.301507537688
0.0952061657326	0.666666666667
1.0	1.0
0.00410037116987	0.0348432055749
1.0	1.0
1.0	1.0
0.101269474555	0.201005025126
1.0	1.0
1.0	1.0
0.00392252918393	0.0342348510784
0.123140548342	0.257510729614
0.0952061657326	0.666666666667
0.109576566223	0.20725388601
1.0	1.0
1.0	1.0
1.0	1.0
0.154902360491	0.301507537688
0.00594861304332	0.0502512562814
1.0	1.0
