1.0	1.0
0.115600093079	0.21164021164
1.0	1.0
0.471634016533	0.714285714286
1.0	1.0
1.0	1.0
0.0952061657326	0.666666666667
0.0145709428072	0.103930461073
0.176822555558	0.31746031746
1.0	1.0
0.176822555558	0.31746031746
0.471634016533	0.714285714286
0.0952061657326	0.666666666667
0.0952061657326	0.666666666667
0.17446060069	0.315789473684
1.0	1.0
0.0952061657326	0.666666666667
0.0952061657326	0.666666666667
0.176822555558	0.31746031746
0.0145709428072	0.103930461073
1.0	1.0
0.176822555558	0.31746031746
0.126799184207	0.260869565217
0.0952061657326	0.666666666667
0.00420736313844	0.0352112676056
0.115600093079	0.21164021164
0.0952061657326	0.666666666667
0.17446060069	0.315789473684
0.0952061657326	0.666666666667
0.471634016533	0.714285714286
