0.091059783669	0.17825311943
0.479736461699	0.719424460432
0.120391602207	0.215053763441
1.0	1.0
0.176822555558	0.31746031746
0.0952061657326	0.666666666667
1.0	1.0
0.00469105836519	0.0369494531481
0.00471649694524	0.0371195248701
0.00488931032545	0.0376818147562
0.0989690114124	0.675675675676
0.00469105836519	0.0369494531481
0.0952061657326	0.666666666667
0.184151674995	0.322580645161
1.0	1.0
0.471634016533	0.714285714286
0.0989690114124	0.675675675676
0.471634016533	0.714285714286
1.0	1.0
0.0989690114124	0.675675675676
0.0952061657326	0.666666666667
1.0	1.0
0.0989690114124	0.675675675676
1.0	1.0
1.0	1.0
0.184151674995	0.322580645161
0.129181446546	0.263157894737
0.0877171425214	0.175284837862
