0.0803527765928	0.168776371308
1.0	1.0
1.0	1.0
1.0	1.0
1.0	1.0
0.172138107912	0.314136125654
0.0952061657326	0.666666666667
0.0952061657326	0.666666666667
0.118427324503	0.253164556962
0.0952061657326	0.666666666667
0.00420311047021	0.0352112676056
0.0952061657326	0.666666666667
1.0	1.0
1.0	1.0
0.0952061657326	0.666666666667
0.0952061657326	0.666666666667
1.0	1.0
0.471634016533	0.714285714286
0.158996051406	0.304568527919
0.0952061657326	0.666666666667
1.0	1.0
1.0	1.0
1.0	1.0
1.0	1.0
1.0	1.0
0.471634016533	0.714285714286
0.0952061657326	0.666666666667
0.0952061657326	0.666666666667
0.0952061657326	0.666666666667
0.158996051406	0.304568527919
