0.608331332533	0.78
0.608331332533	0.78
0.608331332533	0.78
0.608331332533	0.78
0.608331332533	0.78
0.608331332533	0.78
0.608331332533	0.78
0.608331332533	0.78
0.608331332533	0.78
0.608331332533	0.78
0.608331332533	0.78
0.608331332533	0.78
0.608331332533	0.78
0.218924369748	0.468
0.608331332533	0.78
0.608331332533	0.78
0.608331332533	0.78
0.608331332533	0.78
0.608331332533	0.78
0.608331332533	0.78
0.608331332533	0.78
0.608331332533	0.78
0.608331332533	0.78
0.0783193277311	0.28
0.608331332533	0.78
0.608331332533	0.78
0.608331332533	0.78
0.10231292517	0.32
0.608331332533	0.78
0.608331332533	0.78
