1.0	1.0
1.0	1.0
0.401356062425	0.6336
0.401356062425	0.6336
1.0	1.0
1.0	1.0
0.345647058824	0.588
1.0	1.0
0.401356062425	0.6336
0.401356062425	0.6336
0.401356062425	0.6336
0.345647058824	0.588
0.345647058824	0.588
0.401356062425	0.6336
1.0	1.0
0.186525810324	0.432
1.0	1.0
1.0	1.0
1.0	1.0
1.0	1.0
1.0	1.0
1.0	1.0
1.0	1.0
0.345647058824	0.588
1.0	1.0
1.0	1.0
1.0	1.0
1.0	1.0
1.0	1.0
1.0	1.0
