1.0	1.0
1.0	1.0
1.0	1.0
1.0	1.0
1.0	1.0
1.0	1.0
1.0	1.0
1.0	1.0
1.0	1.0
0.0543697443286	0.494094488189
1.0	1.0
0.0471550311388	0.498814229249
1.0	1.0
1.0	1.0
1.0	1.0
1.0	1.0
1.0	1.0
0.0471510124324	0.492319810949
0.0471559731653	0.499308437068
0.0471494837194	0.490003920031
1.0	1.0
1.0	1.0
1.0	1.0
1.0	1.0
1.0	1.0
1.0	1.0
0.0308499206831	0.295217476875
1.0	1.0
1.0	1.0
1.0	1.0
