1.0	1.0
1.0	1.0
0.0471589721195	0.500889503855
1.0	1.0
1.0	1.0
1.0	1.0
1.0	1.0
1.0	1.0
1.0	1.0
1.0	1.0
1.0	1.0
0.0519366323679	0.497333596682
1.0	1.0
0.130696788971	0.551105797968
1.0	1.0
1.0	1.0
1.0	1.0
0.0607808161247	0.497346176528
1.0	1.0
1.0	1.0
1.0	1.0
1.0	1.0
1.0	1.0
1.0	1.0
1.0	1.0
1.0	1.0
1.0	1.0
0.0471502993053	0.49115913556
1.0	1.0
1.0	1.0
