1.0	1.0
1.0	1.0
1.0	1.0
1.0	1.0
1.0	1.0
1.0	1.0
1.0	1.0
1.0	1.0
1.0	1.0
1.0	1.0
0.0471508437567	0.492029128124
0.0471492638149	0.48971596474
1.0	1.0
1.0	1.0
1.0	1.0
1.0	1.0
1.0	1.0
1.0	1.0
1.0	1.0
0.0471502993053	0.49115913556
1.0	1.0
1.0	1.0
1.0	1.0
0.0471615988531	0.502673796791
0.0471510124324	0.492319810949
1.0	1.0
0.147248808723	0.548863183087
0.0468673334213	0.49115913556
1.0	1.0
1.0	1.0
