1.0	1.0
0.045103913352	0.486286714647
1.0	1.0
1.0	1.0
1.0	1.0
1.0	1.0
1.0	1.0
1.0	1.0
1.0	1.0
1.0	1.0
1.0	1.0
1.0	1.0
1.0	1.0
1.0	1.0
1.0	1.0
1.0	1.0
1.0	1.0
1.0	1.0
1.0	1.0
1.0	1.0
1.0	1.0
1.0	1.0
0.0471508437567	0.492029128124
1.0	1.0
1.0	1.0
0.0473342641874	0.529928172386
1.0	1.0
1.0	1.0
0.949225624142	0.97
1.0	1.0
