1.0	1.0
0.144453248508	0.559298385489
1.0	1.0
1.0	1.0
1.0	1.0
1.0	1.0
1.0	1.0
1.0	1.0
1.0	1.0
1.0	1.0
1.0	1.0
1.0	1.0
0.181144355827	0.57666268419
1.0	1.0
0.0471502993053	0.49115913556
1.0	1.0
1.0	1.0
1.0	1.0
1.0	1.0
1.0	1.0
1.0	1.0
0.0498684540861	0.493506493506
1.0	1.0
1.0	1.0
1.0	1.0
1.0	1.0
0.0471509006935	0.492125984252
1.0	1.0
1.0	1.0
1.0	1.0
