1.0	1.0
1.0	1.0
1.0	1.0
1.0	1.0
1.0	1.0
0.0471517597444	0.493778392258
1.0	1.0
0.030876899195	0.310324249055
1.0	1.0
0.0586969391753	0.497041420118
1.0	1.0
1.0	1.0
1.0	1.0
0.047150487193	0.491448791036
1.0	1.0
1.0	1.0
1.0	1.0
1.0	1.0
1.0	1.0
0.0471508437567	0.492029128124
1.0	1.0
1.0	1.0
1.0	1.0
0.0472464064982	0.521669662473
1.0	1.0
1.0	1.0
1.0	1.0
1.0	1.0
1.0	1.0
1.0	1.0
