0.129632702543	0.570033871289
1.0	1.0
0.0684710576625	0.527035056447
0.052246330881	0.498519249753
1.0	1.0
1.0	1.0
1.0	1.0
1.0	1.0
1.0	1.0
1.0	1.0
1.0	1.0
1.0	1.0
0.0501697832501	0.493007681702
1.0	1.0
1.0	1.0
1.0	1.0
1.0	1.0
1.0	1.0
1.0	1.0
1.0	1.0
1.0	1.0
0.0471511686265	0.494388659185
0.175867757145	0.598409542744
1.0	1.0
0.0522532395843	0.502174772637
1.0	1.0
1.0	1.0
1.0	1.0
1.0	1.0
1.0	1.0
