0.0441009314318	0.355742703645
0.0441827482798	0.359290218507
0.0371792016318	0.119611501842
0.0441421773548	0.357507660878
0.0441216385199	0.356622998544
0.0437350904246	0.374897006317
0.0441009314318	0.355742703645
0.0437124700321	0.374177631579
0.0442027793857	0.360188179947
0.0441421773548	0.357507660878
0.0441216385199	0.356622998544
0.0440800565913	0.354866743917
0.0436446326759	0.373134328358
0.0441009314318	0.355742703645
0.0441625474394	0.35839672323
0.0441421773548	0.357507660878
0.0440378056714	0.353127702508
0.0441421773548	0.357507660878
0.0441421773548	0.357507660878
0.0441421773548	0.357507660878
0.0441625474394	0.35839672323
0.0441421773548	0.357507660878
0.0441216385199	0.356622998544
0.0441009314318	0.355742703645
0.0441421773548	0.357507660878
0.0437684752414	0.376970527759
0.0441009314318	0.355742703645
0.0440800565913	0.354866743917
0.0436696269292	0.373895309313
0.0441421773548	0.357507660878
