0.0464555203703	0.417524257571
0.0760642591557	0.296173439166
0.0463187976594	0.411866359447
0.0762119150697	0.298578765078
0.0761753705605	0.297973778308
0.0761753705605	0.297973778308
0.076248211993	0.299186213499
0.0761753705605	0.297973778308
0.0761753705605	0.297973778308
0.0761385792272	0.297371238254
0.076248211993	0.299186213499
0.0761753705605	0.297973778308
0.0761385792272	0.297371238254
0.0326310384876	0.458
0.0762842605726	0.299796138626
0.0455396554405	0.6934
0.0326310384876	0.458
0.0455022654775	0.347560127902
0.0759688662452	0.294672324375
0.0466382807254	0.426914153132
0.0369253216132	0.119611501842
0.0453763874234	0.6932
0.0463806710436	0.414417043631
0.0762119150697	0.298578765078
0.0762119150697	0.298578765078
0.0326310384876	0.458
0.0450168537048	0.332978156633
0.0761385792272	0.297371238254
0.076248211993	0.299186213499
0.0762119150697	0.298578765078
