0.0419365839927	0.37032138606
0.0419633796284	0.371345799315
0.0418042857034	0.36709190315
0.0272481810004	0.255681818182
0.0417639891394	0.366043613707
0.0415573776882	0.360313987904
0.0272895666939	0.256709451575
0.0418842539677	0.369206598586
0.0418952051744	0.369891360579
0.027544367067	0.261028452101
0.0415184206733	0.359342915811
0.0414399574221	0.357416390094
0.04147928017	0.358377063868
0.041966967794	0.37163046323
0.0420088058696	0.372752329702
0.0417871971519	0.366252452583
0.0416731353976	0.363258951738
0.041966967794	0.37163046323
0.0271226462894	0.252647696823
0.0434597392482	0.6788
0.0418042857034	0.36709190315
0.0415803048058	0.361829532425
0.0418248351138	0.367261280168
0.0425082416452	0.386904761905
0.0198074337987	0.0806425599174
0.0416347362886	0.362271962738
0.0415961499731	0.361290322581
0.0420106196907	0.372801260173
0.041924900464	0.370515329419
0.0332303858067	0.47
