0.0192497549652	0.0806425599174
0.0530232573082	0.598052851182
0.0461873327165	0.375093773443
0.0462398995274	0.7
0.0191888976488	0.0806425599174
0.0462398995274	0.7
0.0462398995274	0.7
0.0462398995274	0.7
0.0462398995274	0.7
0.0462398995274	0.7
0.0500303324527	0.284051059055
0.0498163556895	0.276450511945
0.0462398995274	0.7
0.0462398995274	0.7
0.0371792016318	0.119611501842
0.0191888976488	0.0806425599174
0.0462398995274	0.7
0.0487422953867	0.273648648649
0.0462398995274	0.7
0.0193097457418	0.0806425599174
0.0462398995274	0.7
0.0462398995274	0.7
0.049563680321	0.268852894318
0.0462398995274	0.7
0.0496446814071	0.271156936261
0.0377160292229	0.492
0.0191888976488	0.0806425599174
0.0496246707476	0.270577231427
0.0496446814071	0.271156936261
0.0371792016318	0.119611501842
