0.0263053433746	0.220777765326
0.0682209836825	0.280798183773
0.0679784469567	0.276991984913
0.0679784469567	0.276991984913
0.0451294159955	0.336111858026
0.0462398995274	0.7
0.044958681238	0.370562321845
0.0680766597392	0.278502014695
0.06792874712	0.276243093923
0.0678281699995	0.274757395066
0.06792874712	0.276243093923
0.0679784469567	0.276991984913
0.06792874712	0.276243093923
0.0680766597392	0.278502014695
0.0448380962552	0.328256302521
0.0451658252702	0.337154416723
0.06792874712	0.276243093923
0.0680766597392	0.278502014695
0.06792874712	0.276243093923
0.06792874712	0.276243093923
0.0451658252702	0.337154416723
0.06792874712	0.276243093923
0.06792874712	0.276243093923
0.0681732775362	0.280028598665
0.0679784469567	0.276991984913
0.0681732775362	0.280028598665
0.045092721028	0.335075727114
0.0680277517891	0.277744947406
0.0680766597392	0.278502014695
0.0680766597392	0.278502014695
