0.0628254501801	0.2508
0.0628254501801	0.2508
0.0628254501801	0.2508
0.0628254501801	0.2508
0.0628254501801	0.2508
0.0628254501801	0.2508
0.0628254501801	0.2508
0.0628254501801	0.2508
0.0590725890356	0.2432
0.0628254501801	0.2508
0.0628254501801	0.2508
0.0628254501801	0.2508
0.0628254501801	0.2508
0.0628254501801	0.2508
0.0628254501801	0.2508
0.0628254501801	0.2508
0.0628254501801	0.2508
0.0628254501801	0.2508
0.0628254501801	0.2508
0.0628254501801	0.2508
0.0628254501801	0.2508
0.0628254501801	0.2508
0.0628254501801	0.2508
0.0628254501801	0.2508
0.0628254501801	0.2508
0.0628254501801	0.2508
0.0628254501801	0.2508
0.0628254501801	0.2508
0.0628254501801	0.2508
0.0628254501801	0.2508
