0.132403361345	0.364
0.132403361345	0.364
0.132403361345	0.364
0.132403361345	0.364
0.132403361345	0.364
0.132403361345	0.364
0.132403361345	0.364
0.132403361345	0.364
0.132403361345	0.364
0.132403361345	0.364
0.132403361345	0.364
0.132403361345	0.364
0.132403361345	0.364
0.132403361345	0.364
0.132403361345	0.364
0.132403361345	0.364
0.132403361345	0.364
0.132403361345	0.364
0.132403361345	0.364
0.132403361345	0.364
0.132403361345	0.364
0.132403361345	0.364
0.132403361345	0.364
0.132403361345	0.364
0.132403361345	0.364
0.132403361345	0.364
0.132403361345	0.364
0.132403361345	0.364
0.132403361345	0.364
0.132403361345	0.364
