0.066693877551	0.2584
0.066693877551	0.2584
0.066693877551	0.2584
0.066693877551	0.2584
0.062225210084	0.2496
0.066693877551	0.2584
0.066693877551	0.2584
0.066693877551	0.2584
0.062225210084	0.2496
0.066693877551	0.2584
0.066693877551	0.2584
0.066693877551	0.2584
0.066693877551	0.2584
0.066693877551	0.2584
0.066693877551	0.2584
0.066693877551	0.2584
0.066693877551	0.2584
0.066693877551	0.2584
0.062225210084	0.2496
0.066693877551	0.2584
0.066693877551	0.2584
0.062225210084	0.2496
0.062225210084	0.2496
0.062225210084	0.2496
0.066693877551	0.2584
0.062225210084	0.2496
0.062225210084	0.2496
0.062225210084	0.2496
0.066693877551	0.2584
0.066693877551	0.2584
