0.186525810324	0.432
0.186525810324	0.432
0.186525810324	0.432
0.186525810324	0.432
0.186525810324	0.432
0.186525810324	0.432
0.186525810324	0.432
0.186525810324	0.432
0.186525810324	0.432
0.186525810324	0.432
0.186525810324	0.432
0.186525810324	0.432
0.186525810324	0.432
0.186525810324	0.432
0.186525810324	0.432
0.186525810324	0.432
0.186525810324	0.432
0.186525810324	0.432
0.186525810324	0.432
0.186525810324	0.432
0.186525810324	0.432
0.186525810324	0.432
0.186525810324	0.432
0.186525810324	0.432
0.186525810324	0.432
0.186525810324	0.432
0.186525810324	0.432
0.186525810324	0.432
0.186525810324	0.432
0.186525810324	0.432
