0.0787678271309	0.2808
0.0787678271309	0.2808
0.0787678271309	0.2808
0.0787678271309	0.2808
0.0787678271309	0.2808
0.0787678271309	0.2808
0.0787678271309	0.2808
0.151070348139	0.3888
0.0787678271309	0.2808
0.0787678271309	0.2808
0.0787678271309	0.2808
0.0787678271309	0.2808
0.0787678271309	0.2808
0.050106442577	0.224
0.0787678271309	0.2808
0.0787678271309	0.2808
0.0787678271309	0.2808
0.0787678271309	0.2808
0.0787678271309	0.2808
0.151070348139	0.3888
0.0787678271309	0.2808
0.0787678271309	0.2808
0.0787678271309	0.2808
0.151070348139	0.3888
0.151070348139	0.3888
0.0787678271309	0.2808
0.0787678271309	0.2808
0.0787678271309	0.2808
0.0787678271309	0.2808
0.0787678271309	0.2808
