0.0863529411765	0.294
0.0863529411765	0.294
0.0863529411765	0.294
0.0863529411765	0.294
0.0863529411765	0.294
0.0865882352941	0.2944
0.0863529411765	0.294
0.0863529411765	0.294
0.0863529411765	0.294
0.0863529411765	0.294
0.0863529411765	0.294
0.0863529411765	0.294
0.0863529411765	0.294
0.0863529411765	0.294
0.0863529411765	0.294
0.0863529411765	0.294
0.0863529411765	0.294
0.0863529411765	0.294
0.0865882352941	0.2944
0.0863529411765	0.294
0.0865882352941	0.2944
0.0863529411765	0.294
0.0865882352941	0.2944
0.0863529411765	0.294
0.0863529411765	0.294
0.0863529411765	0.294
0.0863529411765	0.294
0.0863529411765	0.294
0.0865882352941	0.2944
0.0863529411765	0.294
