0.0776730982546	0.358422939068
0.0776730982546	0.358422939068
0.0776730982546	0.358422939068
0.0776730982546	0.358422939068
0.0776730982546	0.358422939068
0.0776730982546	0.358422939068
0.0776730982546	0.358422939068
0.0776730982546	0.358422939068
0.0776730982546	0.358422939068
0.0776730982546	0.358422939068
0.0776730982546	0.358422939068
0.0776730982546	0.358422939068
0.0776730982546	0.358422939068
0.0776730982546	0.358422939068
0.0776730982546	0.358422939068
0.0776730982546	0.358422939068
0.0776730982546	0.358422939068
0.0776730982546	0.358422939068
0.0776730982546	0.358422939068
0.0776730982546	0.358422939068
0.0776730982546	0.358422939068
0.0776730982546	0.358422939068
0.0776730982546	0.358422939068
0.0776730982546	0.358422939068
0.0776730982546	0.358422939068
0.0776730982546	0.358422939068
0.0776730982546	0.358422939068
0.0776730982546	0.358422939068
0.0776730982546	0.358422939068
0.0776730982546	0.358422939068
