0.0787667447463	0.341785714286
0.0787667447463	0.341785714286
0.0787667447463	0.341785714286
0.0787667447463	0.341785714286
0.0787667447463	0.341785714286
0.0787667447463	0.341785714286
0.0787667447463	0.341785714286
0.0787667447463	0.341785714286
0.0787667447463	0.341785714286
0.0787667447463	0.341785714286
0.0787667447463	0.341785714286
0.0787667447463	0.341785714286
0.0787667447463	0.341785714286
0.0787667447463	0.341785714286
0.0787667447463	0.341785714286
0.0787667447463	0.341785714286
0.0787667447463	0.341785714286
0.0787667447463	0.341785714286
0.0787667447463	0.341785714286
0.0787667447463	0.341785714286
0.0787667447463	0.341785714286
0.0787667447463	0.341785714286
0.0787667447463	0.341785714286
0.0787667447463	0.341785714286
0.0787667447463	0.341785714286
0.0787667447463	0.341785714286
0.0787667447463	0.341785714286
0.0787667447463	0.341785714286
0.0787667447463	0.341785714286
0.0787667447463	0.341785714286
