0.0797280624444	0.356082036775
0.0797280624444	0.356082036775
0.0797280624444	0.356082036775
0.0797280624444	0.356082036775
0.0797280624444	0.356082036775
0.0797280624444	0.356082036775
0.0797280624444	0.356082036775
0.0797280624444	0.356082036775
0.0797280624444	0.356082036775
0.0797280624444	0.356082036775
0.0797280624444	0.356082036775
0.0797280624444	0.356082036775
0.0797280624444	0.356082036775
0.0797280624444	0.356082036775
0.0797280624444	0.356082036775
0.0797280624444	0.356082036775
0.0797280624444	0.356082036775
0.0797280624444	0.356082036775
0.0797280624444	0.356082036775
0.0797280624444	0.356082036775
0.0797280624444	0.356082036775
0.0797280624444	0.356082036775
0.0797280624444	0.356082036775
0.0797280624444	0.356082036775
0.0797280624444	0.356082036775
0.0797280624444	0.356082036775
0.0797280624444	0.356082036775
0.0797280624444	0.356082036775
0.0797280624444	0.356082036775
0.0797280624444	0.356082036775
