0.0802568715044	0.356864136219
0.0802568715044	0.356864136219
0.0802568715044	0.356864136219
0.0802568715044	0.356864136219
0.0802568715044	0.356864136219
0.0802568715044	0.356864136219
0.0802568715044	0.356864136219
0.0802568715044	0.356864136219
0.0802568715044	0.356864136219
0.0802568715044	0.356864136219
0.0802568715044	0.356864136219
0.0802568715044	0.356864136219
0.0802568715044	0.356864136219
0.0802568715044	0.356864136219
0.0802568715044	0.356864136219
0.0802568715044	0.356864136219
0.0802568715044	0.356864136219
0.0802568715044	0.356864136219
0.0802568715044	0.356864136219
0.0802568715044	0.356864136219
0.0802568715044	0.356864136219
0.0802568715044	0.356864136219
0.0802568715044	0.356864136219
0.0802568715044	0.356864136219
0.0802568715044	0.356864136219
0.0802568715044	0.356864136219
0.0802568715044	0.356864136219
0.0802568715044	0.356864136219
0.0802568715044	0.356864136219
0.0802568715044	0.356864136219
