0.0811945523642	0.329768270945
0.0811945523642	0.329768270945
0.0811945523642	0.329768270945
0.0811945523642	0.329768270945
0.0811945523642	0.329768270945
0.0811945523642	0.329768270945
0.0811945523642	0.329768270945
0.0811945523642	0.329768270945
0.0811945523642	0.329768270945
0.0811945523642	0.329768270945
0.0811945523642	0.329768270945
0.0811945523642	0.329768270945
0.0811945523642	0.329768270945
0.0811945523642	0.329768270945
0.0811945523642	0.329768270945
0.0811945523642	0.329768270945
0.0811945523642	0.329768270945
0.0811945523642	0.329768270945
0.0811945523642	0.329768270945
0.0811945523642	0.329768270945
0.0811945523642	0.329768270945
0.0811945523642	0.329768270945
0.0811945523642	0.329768270945
0.0811945523642	0.329768270945
0.0811945523642	0.329768270945
0.0811945523642	0.329768270945
0.0811945523642	0.329768270945
0.0811945523642	0.329768270945
0.0811945523642	0.329768270945
0.0811945523642	0.329768270945
