0.0783191293295	0.325143472023
0.0783191293295	0.325143472023
0.0783191293295	0.325143472023
0.0783191293295	0.325143472023
0.0783191293295	0.325143472023
0.0783191293295	0.325143472023
0.0783191293295	0.325143472023
0.0783191293295	0.325143472023
0.0783191293295	0.325143472023
0.0783191293295	0.325143472023
0.0783191293295	0.325143472023
0.0783191293295	0.325143472023
0.0783191293295	0.325143472023
0.0783191293295	0.325143472023
0.0783191293295	0.325143472023
0.0783191293295	0.325143472023
0.0783191293295	0.325143472023
0.0783191293295	0.325143472023
0.0783191293295	0.325143472023
0.0783191293295	0.325143472023
0.0783191293295	0.325143472023
0.0783191293295	0.325143472023
0.0783191293295	0.325143472023
0.0783191293295	0.325143472023
0.0783191293295	0.325143472023
0.0783191293295	0.325143472023
0.0783191293295	0.325143472023
0.0783191293295	0.325143472023
0.0783191293295	0.325143472023
0.0783191293295	0.325143472023
