0.994570915202	0.980392156863
0.994570915202	0.980392156863
0.994570915202	0.980392156863
0.105740773288	0.501080337851
0.994570915202	0.980392156863
0.994570915202	0.980392156863
0.0915147237884	0.787401574803
0.994570915202	0.980392156863
0.994570915202	0.980392156863
0.994570915202	0.980392156863
0.887706355445	0.392156862745
0.994570915202	0.980392156863
0.994570915202	0.980392156863
0.994570915202	0.980392156863
0.994570915202	0.980392156863
0.994570915202	0.980392156863
0.994570915202	0.980392156863
0.994570915202	0.980392156863
0.994570915202	0.980392156863
0.0675310998543	0.517832512315
0.994570915202	0.980392156863
0.994570915202	0.980392156863
0.994570915202	0.980392156863
0.994570915202	0.980392156863
0.994570915202	0.980392156863
0.994570915202	0.980392156863
0.994570915202	0.980392156863
0.994570915202	0.980392156863
0.994570915202	0.980392156863
0.994570915202	0.980392156863
