0.994570915202	0.980392156863
0.994570915202	0.980392156863
0.0673563337109	0.487329434698
0.994570915202	0.980392156863
0.994570915202	0.980392156863
0.994570915202	0.980392156863
0.994570915202	0.980392156863
0.994570915202	0.980392156863
0.994570915202	0.980392156863
0.994570915202	0.980392156863
0.994570915202	0.980392156863
0.994570915202	0.980392156863
0.994570915202	0.980392156863
0.994570915202	0.980392156863
0.994570915202	0.980392156863
0.0659305242656	0.484402247626
0.994570915202	0.980392156863
0.994570915202	0.980392156863
0.994570915202	0.980392156863
0.994570915202	0.980392156863
0.0915147237884	0.787401574803
0.994570915202	0.980392156863
0.994570915202	0.980392156863
0.0915147237884	0.787401574803
0.994570915202	0.980392156863
0.994570915202	0.980392156863
0.994570915202	0.980392156863
0.994570915202	0.980392156863
0.994570915202	0.980392156863
0.994570915202	0.980392156863
