0.994570915202	0.980392156863
0.994570915202	0.980392156863
0.95355769427	0.980392156863
0.994570915202	0.980392156863
0.994570915202	0.980392156863
0.994570915202	0.980392156863
0.994570915202	0.980392156863
0.994570915202	0.980392156863
0.994570915202	0.980392156863
0.994570915202	0.980392156863
0.994570915202	0.980392156863
0.994570915202	0.980392156863
0.994570915202	0.980392156863
0.994570915202	0.980392156863
0.994570915202	0.980392156863
0.0915147237884	0.787401574803
0.994570915202	0.980392156863
0.0915147237884	0.787401574803
0.994570915202	0.980392156863
0.994570915202	0.980392156863
0.0673723973044	0.498331042608
0.994570915202	0.980392156863
0.994570915202	0.980392156863
0.994570915202	0.980392156863
0.994570915202	0.980392156863
0.994570915202	0.980392156863
0.994570915202	0.980392156863
0.994570915202	0.980392156863
0.994570915202	0.980392156863
0.994570915202	0.980392156863
