0.994570915202	0.980392156863
0.994570915202	0.980392156863
0.994570915202	0.980392156863
0.0652453498312	0.489295445699
0.994570915202	0.980392156863
0.994570915202	0.980392156863
0.994570915202	0.980392156863
0.994570915202	0.980392156863
0.994570915202	0.980392156863
0.994570915202	0.980392156863
0.994570915202	0.980392156863
0.994570915202	0.980392156863
0.994570915202	0.980392156863
0.0673662291355	0.495981180161
0.994570915202	0.980392156863
0.994570915202	0.980392156863
0.994570915202	0.980392156863
0.994570915202	0.980392156863
0.994570915202	0.980392156863
0.994570915202	0.980392156863
0.994570915202	0.980392156863
0.994570915202	0.980392156863
0.0915147237884	0.787401574803
0.994570915202	0.980392156863
0.994570915202	0.980392156863
0.994570915202	0.980392156863
0.994570915202	0.980392156863
0.994570915202	0.980392156863
0.994570915202	0.980392156863
0.994570915202	0.980392156863
