0.994570915202	0.980392156863
0.0915147237884	0.787401574803
0.994570915202	0.980392156863
0.994570915202	0.980392156863
0.994570915202	0.980392156863
0.994570915202	0.980392156863
0.994570915202	0.980392156863
0.0915147237884	0.787401574803
0.994570915202	0.980392156863
0.994570915202	0.980392156863
0.994570915202	0.980392156863
0.994570915202	0.980392156863
0.994570915202	0.980392156863
0.994570915202	0.980392156863
0.994570915202	0.980392156863
0.994570915202	0.980392156863
0.0915147237884	0.787401574803
0.994570915202	0.980392156863
0.994570915202	0.980392156863
0.994570915202	0.980392156863
0.994570915202	0.980392156863
0.0673565617355	0.48751950078
0.994570915202	0.980392156863
0.994570915202	0.980392156863
0.994570915202	0.980392156863
0.994570915202	0.980392156863
0.994570915202	0.980392156863
0.994570915202	0.980392156863
0.994570915202	0.980392156863
0.994570915202	0.980392156863
