0.264511104746	0.296807252661
0.26448570626	0.296478457604
0.212128577832	0.302243211334
0.26448793732	0.296988781736
0.264451099384	0.296034550452
0.264492399463	0.297755021662
0.264450058394	0.295780176644
0.224849078119	0.297712933754
0.26448258279	0.294695481336
0.227072651344	0.296878067936
0.264527668994	0.295741324921
0.217201298891	0.30303030303
0.218287365001	0.297637795276
0.264513758774	0.29539188657
0.264513758774	0.29539188657
0.201797787292	0.30202650039
0.264498729912	0.295043273013
0.264532205855	0.29636937648
0.231817930176	0.299822239779
0.264501853613	0.296828835927
0.214116090477	0.300137497545
0.26448570626	0.296478457604
0.206240446787	0.297763828953
0.264513758774	0.29539188657
0.265418314824	0.323488325683
0.218386367509	0.305758955076
0.218294294969	0.300118156755
0.264490796108	0.294869274622
0.266664878577	0.337320574163
0.214100329137	0.3
