0.113305183978	0.201496947016
0.264536320831	0.295974743489
0.264430798844	0.297037473023
0.264532503395	0.296625222025
0.264491688561	0.295888254968
0.264490796108	0.294869274622
0.264490796108	0.294869274622
0.214310886415	0.309462408252
0.264518691282	0.298342541436
0.264513758774	0.29539188657
0.264498729912	0.295043273013
0.264498729912	0.295043273013
0.264498729912	0.295043273013
0.26448258279	0.294695481336
0.264350399894	0.292454669526
0.26448793732	0.296988781736
0.26450638415	0.295217476875
0.26450638415	0.295217476875
0.26448258279	0.294949891924
0.264527668994	0.295741324921
0.206281927592	0.302494598311
0.264490796108	0.294869274622
0.264584325806	0.304923867906
0.224828169185	0.296813532651
0.26450638415	0.295217476875
0.264531633231	0.299881469775
0.214167097428	0.302564102564
0.264498729912	0.295043273013
0.264532057085	0.295857988166
0.264508873429	0.295275590551
