0.264498729912	0.295043273013
0.264465317817	0.294348508634
0.264520853737	0.295566502463
0.264450857705	0.297387546651
0.264597217252	0.30412371134
0.264532205855	0.29636937648
0.264522429284	0.301164397079
0.26450638415	0.295217476875
0.214123157812	0.297797010228
0.264508873429	0.295275590551
0.26450638415	0.295217476875
0.26450289485	0.297084318361
0.264474090008	0.294521892794
0.0769861798769	0.704989154013
0.26448258279	0.294695481336
0.264393880617	0.300881488737
0.264513758774	0.29539188657
0.264526209204	0.297868140545
0.264446935432	0.294002352019
0.264537487691	0.298814229249
0.264273501742	0.291431902079
0.264490796108	0.294869274622
0.264446935432	0.294002352019
0.264515990141	0.296924290221
0.264508873429	0.295275590551
0.264507871677	0.296493301812
0.227146278846	0.301185770751
0.264508873429	0.295275590551
0.264467866416	0.297483287456
0.264524469406	0.298696167523
