0.26450638415	0.295217476875
0.264520853737	0.295566502463
0.244389561658	0.297536945813
0.264448164488	0.299017681729
0.26450638415	0.295217476875
0.222596764254	0.296441910753
0.222602383731	0.296813532651
0.0922048881375	0.783078307831
0.266118671824	0.332003988036
0.264515246351	0.296668637887
0.264511104746	0.296807252661
0.208318220321	0.308284023669
0.264498729912	0.295043273013
0.264546436106	0.296267035355
0.216186935502	0.297382405038
0.214129805421	0.29842519685
0.264532949706	0.296881168575
0.26450638415	0.295217476875
0.255440333807	0.294509803922
0.220420236548	0.297206923682
0.264457753459	0.295445622301
0.264502015578	0.301477832512
0.218269459545	0.296660117878
0.26450638415	0.295217476875
0.26448258279	0.294695481336
0.264490796108	0.294869274622
0.264498729912	0.295043273013
0.264515567403	0.297830374753
0.26448258279	0.294695481336
0.264513758774	0.29539188657
