0.264508615442	0.296748768473
0.234222306989	0.299131807419
0.26450638415	0.295217476875
0.264498729912	0.295043273013
0.264527668994	0.295741324921
0.264437325355	0.293829578844
0.26447944433	0.296813532651
0.26448258279	0.294695481336
0.264498729912	0.295043273013
0.264490796108	0.294869274622
0.22412569796	0.327048864948
0.264511104746	0.296807252661
0.204406827325	0.301671583088
0.264572277289	0.304407985768
0.264474090008	0.294521892794
0.264503863803	0.295159386068
0.264437130248	0.299234243079
0.264504601609	0.300808200276
0.264509022183	0.295785742418
0.264526724185	0.299368088468
0.264510549234	0.297260003942
0.265408598564	0.323353293413
0.252623518029	0.296631869214
0.264513758774	0.29539188657
0.264498729912	0.295043273013
0.249837498158	0.297217288336
0.227124495928	0.299467350562
0.264640259934	0.307479224377
0.264481604407	0.3
0.26448258279	0.294695481336
