0.264465317817	0.294348508634
0.247078377521	0.298107255521
0.264498729912	0.295043273013
0.264513758774	0.29539188657
0.218655640092	0.314984101749
0.264513758774	0.29539188657
0.220438288089	0.298895899054
0.26450638415	0.295217476875
0.297908185172	0.404339250493
0.247109295388	0.300118623962
0.264527668994	0.295741324921
0.26450638415	0.295217476875
0.229436085392	0.298560441727
0.264490796108	0.294869274622
0.264498729912	0.295043273013
0.255492288814	0.295669291339
0.264509319691	0.296040969076
0.264437325355	0.293829578844
0.224878410214	0.302605606001
0.264515246351	0.296668637887
0.264483028999	0.295459013171
0.21826784157	0.299685781618
0.264465317817	0.294348508634
0.221795617513	0.345933562428
0.238268535632	0.342922461421
0.264446935432	0.294002352019
0.264520962098	0.301834681397
0.264610965811	0.304977196113
0.264508873429	0.295275590551
0.264520853737	0.295566502463
