0.0603877313504	0.8
0.0603877313504	0.8
0.0603877313504	0.8
0.0603877313504	0.8
0.0603877313504	0.8
0.0603877313504	0.8
0.0603877313504	0.8
0.0603877313504	0.8
0.0603877313504	0.8
0.019857689114	0.0806425599174
0.0603877313504	0.8
0.0603877313504	0.8
0.0603877313504	0.8
0.0603877313504	0.8
0.0603877313504	0.8
0.0603877313504	0.8
0.0603877313504	0.8
0.0603877313504	0.8
0.0603877313504	0.8
0.0603877313504	0.8
0.0198074337987	0.0806425599174
0.0603877313504	0.8
0.0603877313504	0.8
0.0603877313504	0.8
0.0603877313504	0.8
0.0603877313504	0.8
0.0603877313504	0.8
0.0603877313504	0.8
0.0198074337987	0.0806425599174
0.0603877313504	0.8
