0.0305856513555	0.246710526316
0.0306113729507	0.248921340856
0.0306776777306	0.255449591281
0.030619662761	0.249667110519
0.030615535644	0.249293667941
0.0605009441951	0.8
0.0306358148847	0.251172136638
0.0605009441951	0.8
0.030615535644	0.249293667941
0.0306744918648	0.255102040816
0.0605009441951	0.8
0.0306547800564	0.253036437247
0.0305943670074	0.24744308809
0.0306071747106	0.248550124275
0.0605009441951	0.8
0.0605009441951	0.8
0.0306278101493	0.25041736227
0.0306071747106	0.248550124275
0.0305452071428	0.243506493506
0.0306397636864	0.251551232601
0.0605009441951	0.8
0.030680835138	0.255798090041
0.0239344789157	0.38
0.030615535644	0.249293667941
0.0605009441951	0.8
0.0305986717088	0.247811002809
0.0306680348294	0.254409769335
0.030619662761	0.249667110519
0.0306776777306	0.255449591281
0.0306071747106	0.248550124275
