0.0599856898964	0.7928
0.020047763885	0.0806425599174
0.0599856898964	0.7928
0.0300113791695	0.216200634189
0.0599856898964	0.7928
0.0599856898964	0.7928
0.0596669881911	0.7926
0.0590371473986	0.7856
0.0201359893088	0.0806425599174
0.0599856898964	0.7928
0.0599856898964	0.7928
0.0599856898964	0.7928
0.0599856898964	0.7928
0.0599856898964	0.7928
0.0599856898964	0.7928
0.0599856898964	0.7928
0.020092458422	0.0806425599174
0.0599856898964	0.7928
0.0599856898964	0.7928
0.0599856898964	0.7928
0.0596669881911	0.7926
0.0599856898964	0.7928
0.0599856898964	0.7928
0.0596669881911	0.7926
0.0299127143871	0.212705615428
0.0599856898964	0.7928
0.0599856898964	0.7928
0.0300398341443	0.217265353418
0.0599856898964	0.7928
0.0599856898964	0.7928
