0.058138282697	0.7844
0.0583653876634	0.7848
0.058138282697	0.7844
0.0583653876634	0.7848
0.058138282697	0.7844
0.058138282697	0.7844
0.058138282697	0.7844
0.0195960107253	0.0806425599174
0.058138282697	0.7844
0.058138282697	0.7844
0.058138282697	0.7844
0.0583653876634	0.7848
0.0583653876634	0.7848
0.058138282697	0.7844
0.058138282697	0.7844
0.058138282697	0.7844
0.058138282697	0.7844
0.0196092507602	0.0809061488673
0.0583653876634	0.7848
0.0583653876634	0.7848
0.058138282697	0.7844
0.058138282697	0.7844
0.058138282697	0.7844
0.0300273359357	0.216794334441
0.058138282697	0.7844
0.0583653876634	0.7848
0.058138282697	0.7844
0.058138282697	0.7844
0.058138282697	0.7844
0.058138282697	0.7844
