0.0281048111705	0.210541600116
0.0563024383028	0.7692
0.028164557921	0.212984723854
0.0281881014873	0.2139905549
0.0280916542935	0.210023174971
0.0280170077733	0.207202057731
0.028002350115	0.206670467503
0.0281997300724	0.21449704142
0.0281881014873	0.2139905549
0.0281048111705	0.210541600116
0.028002350115	0.206670467503
0.028002350115	0.206670467503
0.019540648113	0.0806425599174
0.0563024383028	0.7692
0.0281308070157	0.211586166642
0.0563024383028	0.7692
0.0281997300724	0.21449704142
0.0280170077733	0.207202057731
0.028164557921	0.212984723854
0.0282226996034	0.215517241379
0.0563024383028	0.7692
0.0279875765008	0.206141597953
0.0281763773534	0.213486454653
0.0281881014873	0.2139905549
0.0282112628601	0.215005931198
0.028117862182	0.211062590975
0.0288073777788	0.265957446809
0.0563024383028	0.7692
0.0281763773534	0.213486454653
0.028002350115	0.206670467503
