0.0268819694509	0.25873221216
0.025748812821	0.18756698821
0.0259772759379	0.194444444444
0.0257883965667	0.188679245283
0.0257883965667	0.188679245283
0.0258079657806	0.189240335226
0.0259772759379	0.194444444444
0.0268325625642	0.248007085917
0.0267885613996	0.241462573301
0.0268273337256	0.247131509267
0.0566580473954	0.752
0.0268233086288	0.246478873239
0.0268286557222	0.247349823322
0.0257686786636	0.188121472722
0.0268299678628	0.247568523431
0.0371792016318	0.119611501842
0.0257287997926	0.187015762757
0.0268273337256	0.247131509267
0.0268260018758	0.246913580247
0.0374048041631	0.120192307692
0.0259607387908	0.193905817175
0.0258847408829	0.191518467852
0.0268233086288	0.246478873239
0.0191888976488	0.0806425599174
0.0268273337256	0.247131509267
0.0268829499401	0.259019426457
0.0566580473954	0.752
0.0268824614912	0.258875739645
0.0257883965667	0.188679245283
0.0259772759379	0.194444444444
