0.137429235913	0.8902
0.137429235913	0.8902
0.055747058395	0.21676300578
0.137429235913	0.8902
0.137429235913	0.8902
0.137429235913	0.8902
0.055747058395	0.21676300578
0.0230264796219	0.0814305722941
0.137429235913	0.8902
0.0557035996712	0.216262975779
0.137429235913	0.8902
0.137429235913	0.8902
0.055833093142	0.217770034843
0.137429235913	0.8902
0.137429235913	0.8902
0.0557902233928	0.217265353418
0.137429235913	0.8902
0.0231831880491	0.0816993464052
0.0557902233928	0.217265353418
0.0556158071701	0.215269804822
0.137429235913	0.8902
0.0559179408373	0.218786464411
0.055747058395	0.21676300578
0.137429235913	0.8902
0.0229760139919	0.0814305722941
0.0558756661265	0.218277066356
0.0556158071701	0.215269804822
0.137429235913	0.8902
0.055833093142	0.217770034843
0.055747058395	0.21676300578
