0.0533058426752	0.225155279503
0.0532819168423	0.224736515809
0.0533531616583	0.225997506234
0.0531137161453	0.221916131007
0.0533295911149	0.225575606721
0.0532578141222	0.224319306931
0.0533295911149	0.225575606721
0.0533765538055	0.226420986883
0.0533531616583	0.225997506234
0.053233535024	0.223903644225
0.0533765538055	0.226420986883
0.134074356088	0.882
0.0533058426752	0.225155279503
0.0234094525027	0.0814305722941
0.134074356088	0.882
0.053422800927	0.227272727273
0.0531679323737	0.222802704364
0.0533295911149	0.225575606721
0.0532819168423	0.224736515809
0.134074356088	0.882
0.0533295911149	0.225575606721
0.0530308676635	0.220599421877
0.0533531616583	0.225997506234
0.0533531616583	0.225997506234
0.0533058426752	0.225155279503
0.0234094525027	0.0814305722941
0.0533058426752	0.225155279503
0.0532819168423	0.224736515809
0.0533295911149	0.225575606721
0.0530863025302	0.221475484955
