0.0504024497259	0.230263157895
0.0219793774818	0.0814305722941
0.0503736283346	0.229508196721
0.1286565583	0.864
0.0538926167734	0.237315875614
0.1286565583	0.864
0.1286565583	0.864
0.0504024497259	0.230263157895
0.1286565583	0.864
0.0539082001977	0.237704918033
0.0504024497259	0.230263157895
0.0503881010434	0.229885057471
0.0503881010434	0.229885057471
0.0503881010434	0.229885057471
0.0503736283346	0.229508196721
0.0503881010434	0.229885057471
0.0219793774818	0.0814305722941
0.0503881010434	0.229885057471
0.1286565583	0.864
0.1286565583	0.864
0.1286565583	0.864
0.1286565583	0.864
0.0503881010434	0.229885057471
0.1286565583	0.864
0.0504024497259	0.230263157895
0.0503881010434	0.229885057471
0.1286565583	0.864
0.1286565583	0.864
0.0504166741631	0.230642504119
0.1286565583	0.864
