0.13967285749	0.9
0.0543994253086	0.203362255965
0.0225199020472	0.0814305722941
0.0573552540161	0.241468126207
0.13967285749	0.9
0.0543225854164	0.202702702703
0.0545136371294	0.204359673025
0.0573334523894	0.241002570694
0.0573114526938	0.240538806928
0.0543994253086	0.203362255965
0.0543994253086	0.203362255965
0.0545136371294	0.204359673025
0.0543225854164	0.202702702703
0.13967285749	0.9
0.13967285749	0.9
0.0570886742433	0.236146095718
0.022456691241	0.0814305722941
0.0543994253086	0.203362255965
0.0573552540161	0.241468126207
0.0543225854164	0.202702702703
0.13967285749	0.9
0.084435543224	0.401670951157
0.0544376363535	0.203693644758
0.0800135429405	0.33948940793
0.13967285749	0.9
0.0543994253086	0.203362255965
0.0543610747619	0.203031943692
0.022456691241	0.0814305722941
0.0225199020472	0.0814305722941
0.0543225854164	0.202702702703
