0.212127229416	0.300532439361
0.247050094501	0.296638490269
0.264474090008	0.294521892794
0.264513758774	0.29539188657
1.0	1.0
0.241757244546	0.296062992126
0.222575396319	0.3
1.0	1.0
0.195542809285	0.305403288958
0.258419337036	0.295691520755
0.241757244546	0.296850393701
0.24981445937	0.296711951171
1.0	1.0
0.264508873429	0.295275590551
1.0	1.0
0.261400942388	0.295735900963
0.264508873429	0.295275590551
0.255476421423	0.295968534907
0.231772537195	0.299528301887
1.0	1.0
1.0	1.0
1.0	1.0
0.255498558716	0.296748768473
0.24976975418	0.295664116147
0.264396093923	0.293140512019
1.0	1.0
0.264456266273	0.294175328496
1.0	1.0
1.0	1.0
1.0	1.0
