0.255492288814	0.295866141732
0.264396093923	0.293140512019
0.264490796108	0.294869274622
1.0	1.0
0.264456266273	0.294175328496
0.264513758774	0.29539188657
1.0	1.0
0.212127562631	0.303006484575
1.0	1.0
1.0	1.0
1.0	1.0
1.0	1.0
0.25838917845	0.295758051846
0.264508873429	0.295275590551
0.264465317817	0.294348508634
0.195515405753	0.303410427283
0.255456976323	0.296012571204
1.0	1.0
0.231754636419	0.297408716137
0.231809929701	0.299131807419
0.261433601941	0.295727505414
0.239157195983	0.297387546651
0.258388455409	0.295503632437
0.206278599436	0.302435192459
1.0	1.0
1.0	1.0
0.264498729912	0.295043273013
1.0	1.0
0.264520853737	0.295566502463
0.22266118682	0.302982421489
