0.214146195195	0.302183749754
0.218245023924	0.297175362887
0.258403923645	0.295342896443
0.247077295737	0.297339901478
1.0	1.0
0.231818791934	0.300493583416
1.0	1.0
0.26448258279	0.294695481336
1.0	1.0
1.0	1.0
0.252599114845	0.295990566038
1.0	1.0
1.0	1.0
0.222593004267	0.29677672956
0.264527668994	0.295741324921
0.264509170937	0.295902285264
0.222610428409	0.300884955752
0.241758446163	0.296573454116
1.0	1.0
1.0	1.0
0.26448258279	0.294695481336
0.264456266273	0.294175328496
0.241738988337	0.297679905623
0.218278142687	0.300255452938
0.218265519277	0.299568119356
1.0	1.0
1.0	1.0
1.0	1.0
0.231814373837	0.301321238415
0.264490796108	0.294869274622
