0.247090382992	0.297041420118
0.264300247903	0.291772028788
0.206280656519	0.30153422502
0.249813626228	0.296456692913
1.0	1.0
1.0	1.0
0.200660589991	0.297639945387
0.264417267735	0.29348464097
0.264508873429	0.295530616263
0.23176997409	0.296187106918
0.264474090008	0.294521892794
0.264446935432	0.294002352019
0.264474090008	0.294521892794
0.258419770925	0.295946477765
0.26448258279	0.294949891924
0.264465317817	0.294348508634
0.255467759935	0.295284872299
0.2062187353	0.297064579256
1.0	1.0
1.0	1.0
0.218390372737	0.3061103421
0.231822786679	0.302307237231
0.264498729912	0.295043273013
0.236665842222	0.299212598425
0.0958518045822	0.389695913229
0.264513758774	0.29539188657
0.26445931449	0.294233032562
0.252633319877	0.296610169492
0.264498729912	0.295043273013
1.0	1.0
