0.672340936375	0.82
0.739551820728	0.86
0.739551820728	0.86
0.739551820728	0.86
1.0	1.0
0.739551820728	0.86
0.672340936375	0.82
1.0	1.0
0.739551820728	0.86
1.0	1.0
0.739551820728	0.86
0.739551820728	0.86
0.672340936375	0.82
1.0	1.0
0.739551820728	0.86
1.0	1.0
1.0	1.0
0.739551820728	0.86
1.0	1.0
0.672340936375	0.82
1.0	1.0
1.0	1.0
1.0	1.0
1.0	1.0
1.0	1.0
0.672340936375	0.82
0.672340936375	0.82
1.0	1.0
1.0	1.0
1.0	1.0
