0.672340936375	0.82
1.0	1.0
0.672340936375	0.82
1.0	1.0
1.0	1.0
0.672340936375	0.82
1.0	1.0
0.672340936375	0.82
1.0	1.0
0.672340936375	0.82
1.0	1.0
1.0	1.0
0.547523009204	0.74
0.672340936375	0.82
0.960392156863	0.98
0.705546218487	0.84
0.672340936375	0.82
0.672340936375	0.82
1.0	1.0
0.608331332533	0.78
0.705546218487	0.84
0.672340936375	0.82
0.705546218487	0.84
0.547523009204	0.74
1.0	1.0
1.0	1.0
0.608331332533	0.78
0.705546218487	0.84
0.672340936375	0.82
0.672340936375	0.82
