1.0	1.0
1.0	1.0
1.0	1.0
0.672340936375	0.82
0.672340936375	0.82
1.0	1.0
0.809963985594	0.9
1.0	1.0
1.0	1.0
1.0	1.0
1.0	1.0
0.809963985594	0.9
0.672340936375	0.82
1.0	1.0
0.705546218487	0.84
1.0	1.0
0.672340936375	0.82
1.0	1.0
0.672340936375	0.82
0.809963985594	0.9
0.774357743097	0.88
0.672340936375	0.82
1.0	1.0
1.0	1.0
1.0	1.0
0.883577430972	0.94
1.0	1.0
1.0	1.0
1.0	1.0
1.0	1.0
