0.577527010804	0.76
0.577527010804	0.76
0.577527010804	0.76
0.577527010804	0.76
0.577527010804	0.76
0.577527010804	0.76
0.0899159663866	0.3
0.0899159663866	0.3
0.577527010804	0.76
0.577527010804	0.76
0.577527010804	0.76
0.577527010804	0.76
0.0899159663866	0.3
0.577527010804	0.76
0.577527010804	0.76
0.577527010804	0.76
0.577527010804	0.76
0.577527010804	0.76
0.577527010804	0.76
0.577527010804	0.76
0.577527010804	0.76
0.577527010804	0.76
0.577527010804	0.76
0.577527010804	0.76
0.577527010804	0.76
0.577527010804	0.76
0.577527010804	0.76
0.577527010804	0.76
0.577527010804	0.76
0.577527010804	0.76
