0.883577430972	0.94
1.0	1.0
1.0	1.0
0.46231292517	0.68
1.0	1.0
0.883577430972	0.94
0.547523009204	0.74
1.0	1.0
0.672340936375	0.82
0.119348859544	0.3456
1.0	1.0
0.46231292517	0.68
0.249899959984	0.5
1.0	1.0
1.0	1.0
1.0	1.0
0.672340936375	0.82
1.0	1.0
1.0	1.0
0.249899959984	0.5
0.249899959984	0.5
0.46231292517	0.68
1.0	1.0
1.0	1.0
0.883577430972	0.94
1.0	1.0
1.0	1.0
1.0	1.0
1.0	1.0
0.46231292517	0.68
