0.394513805522	0.61
0.233392557023	0.4832
0.383075790316	0.6024
0.403913565426	0.62
0.233392557023	0.4832
0.400924369748	0.59
0.340092196879	0.5754
0.564753901561	0.68
0.403913565426	0.62
0.268780312125	0.5172
