1.0	1.0
1.0	1.0
0.980196078431	0.99
0.634319327731	0.7592
0.980196078431	0.99
1.0	1.0
0.134319327731	0.2592
1.0	1.0
0.134319327731	0.2592
0.236629051621	0.344
0.887178871549	0.94
0.141888115246	0.2664
1.0	1.0
0.217755102041	0.33
0.641888115246	0.7664
0.736629051621	0.844
1.0	1.0
0.66468907563	0.787
0.641888115246	0.7664
1.0	1.0
1.0	1.0
1.0	1.0
0.675657623049	0.7964
0.887178871549	0.94
