0.0808213062112	0.215354470965
0.635150060024	0.76
1.0	1.0
0.773761504602	0.87
0.773761504602	0.87
0.448911564626	0.67
0.615150060024	0.74
0.0881512605042	0.21
0.635150060024	0.76
0.773761504602	0.87
0.615150060024	0.74
0.635150060024	0.76
0.635150060024	0.76
1.0	1.0
1.0	1.0
0.635150060024	0.76
0.635150060024	0.76
1.0	1.0
0.635150060024	0.76
0.615150060024	0.74
0.597986554622	0.7214
0.635150060024	0.76
0.615150060024	0.74
