0.717755102041	0.83
0.960792316927	0.98
0.731156462585	0.84
0.098544057623	0.281
0.731156462585	0.84
0.731156462585	0.84
0.0141608954883	0.0604659434466
0.0132888464596	0.05710206995
0.663085714286	0.7856
0.717755102041	0.83
0.731156462585	0.84
0.731156462585	0.84
0.731156462585	0.84
1.0	1.0
0.960792316927	0.98
0.731156462585	0.84
0.663085714286	0.7856
0.731156462585	0.84
0.731156462585	0.84
0.717755102041	0.83
0.731156462585	0.84
