0.360108043217	0.59
0.607598239296	0.732
0.626555102041	0.7516
0.615150060024	0.74
0.615150060024	0.74
0.615150060024	0.74
0.635150060024	0.76
0.371513085234	0.6016
0.626555102041	0.7516
0.615150060024	0.74
0.615150060024	0.74
0.615150060024	0.74
0.615150060024	0.74
0.615150060024	0.74
0.116828779409	0.262390670554
0.116828779409	0.262390670554
0.615150060024	0.74
0.615150060024	0.74
0.33143737495	0.558
0.211900760304	0.46
0.360108043217	0.59
0.183230092037	0.428
0.208798719488	0.457
0.615150060024	0.74
