0.00158463385354	0.04
0.000201680672269	0.0144
0.000201680672269	0.0144
0.00158463385354	0.04
0.00158463385354	0.04
0.00158463385354	0.04
0.000888355342137	0.03
0.000361104441777	0.0192
0.000888355342137	0.03
0.00056662665066	0.024
0.00158463385354	0.04
0.00158463385354	0.04
0.00158463385354	0.04
0.00158463385354	0.04
0.000201680672269	0.0144
0.00158463385354	0.04
0.00056662665066	0.024
0.00056662665066	0.024
0.00158463385354	0.04
0.00158463385354	0.04
