0.00056662665066	0.024
0.00056662665066	0.024
0.00056662665066	0.024
0.00056662665066	0.024
0.00056662665066	0.024
0.00056662665066	0.024
0.00056662665066	0.024
0.000275630252101	0.0168
0.00056662665066	0.024
0.00056662665066	0.024
0.00056662665066	0.024
0.00056662665066	0.024
0.00056662665066	0.024
0.000275630252101	0.0168
0.00056662665066	0.024
0.000275630252101	0.0168
0.000275630252101	0.0168
0.00056662665066	0.024
0.000275630252101	0.0168
0.000275630252101	0.0168
0.00056662665066	0.024
0.000275630252101	0.0168
