0.00056662665066	0.024
0.00056662665066	0.024
0.00056662665066	0.024
0.000139255702281	0.012
0.00056662665066	0.024
0.00056662665066	0.024
0.000361104441777	0.0192
0.000179591836735	0.0136
0.00056662665066	0.024
0.000139255702281	0.012
0.00056662665066	0.024
0.00056662665066	0.024
0.00056662665066	0.024
0.000139255702281	0.012
