0.00081824729892	0.0288
0.00081824729892	0.0288
0.000773109243697	0.028
0.00081824729892	0.0288
0.000961344537815	0.0312
0.00081824729892	0.0288
0.00072925170068	0.0272
0.00081824729892	0.0288
0.000961344537815	0.0312
0.000773109243697	0.028
0.00081824729892	0.0288
0.00081824729892	0.0288
0.00081824729892	0.0288
0.00122545018007	0.0352
0.00081824729892	0.0288
0.000773109243697	0.028
0.000773109243697	0.028
0.00081824729892	0.0288
0.000773109243697	0.028
7.39485145472e-05	0.0087929656275
0.000773109243697	0.028
0.00081824729892	0.0288
0.000936694677871	0.0308
0.000961344537815	0.0312
0.000773109243697	0.028
0.000773109243697	0.028
0.000773109243697	0.028
0.00081824729892	0.0288
0.00081824729892	0.0288
