0.00056662665066	0.024
0.00056662665066	0.024
0.00228571428571	0.048
0.00184969987995	0.0432
0.00268427370948	0.052
0.00056662665066	0.024
0.00056662665066	0.024
0.000275630252101	0.0168
0.00184969987995	0.0432
0.00056662665066	0.024
0.00228571428571	0.048
0.00056662665066	0.024
0.00184969987995	0.0432
0.00228571428571	0.048
0.00056662665066	0.024
0.00056662665066	0.024
0.00268427370948	0.052
0.00184969987995	0.0432
0.00056662665066	0.024
0.00056662665066	0.024
0.00056662665066	0.024
0.00056662665066	0.024
0.00056662665066	0.024
0.000139255702281	0.012
