0.000510924369748	0.0228
0.00081824729892	0.0288
0.000275622752162	0.0167865707434
0.000275622752162	0.0167865707434
0.000510924369748	0.0228
0.000275622752162	0.0167865707434
0.000275622752162	0.0167865707434
0.000510924369748	0.0228
0.000275622752162	0.0167865707434
0.000249699879952	0.016
0.000249699879952	0.016
0.000275622752162	0.0167865707434
0.000249699879952	0.016
0.000275622752162	0.0167865707434
0.000249699879952	0.016
0.000275622752162	0.0167865707434
0.000249699879952	0.016
0.000249699879952	0.016
0.000510924369748	0.0228
0.000275622752162	0.0167865707434
0.000249699879952	0.016
0.000275622752162	0.0167865707434
0.00081824729892	0.0288
