0.154226694486	0.175800193986
0.156295144864	0.177001953125
0.156295144864	0.177001953125
0.158382382207	0.178220255654
0.156295144864	0.177001953125
0.157336459719	0.177609015189
0.157336459719	0.177609015189
0.940988395358	0.97
0.940988395358	0.97
0.158382382207	0.178220255654
0.940988395358	0.97
0.155258527747	0.176399026764
0.155258527747	0.176399026764
0.155258527747	0.176399026764
0.157336459719	0.177609015189
0.155258527747	0.176399026764
0.155258527747	0.176399026764
0.154226694486	0.175800193986
0.157336459719	0.177609015189
0.156295144864	0.177001953125
0.940988395358	0.97
0.157336459719	0.177609015189
0.153199727295	0.175205413243
0.0257641538756	0.082234137035
0.155258527747	0.176399026764
0.156295144864	0.177001953125
0.940988395358	0.97
0.159432818157	0.17883571781
0.940988395358	0.97
0.160487669249	0.179455445545
