0.0257641538756	0.082234137035
0.22312628253	0.221304219534
0.225860091501	0.223613595707
0.226941034694	0.224550898204
0.22312628253	0.221304219534
0.224771779421	0.222684085511
0.224771779421	0.222684085511
0.22312628253	0.221304219534
0.0257641538756	0.082234137035
0.225860091501	0.223613595707
0.224224972888	0.222222222222
0.224771779421	0.222684085511
0.22312628253	0.221304219534
0.224224972888	0.222222222222
0.224224972888	0.222222222222
0.225860091501	0.223613595707
0.225860091501	0.223613595707
0.0258358869887	0.082234137035
0.226941034694	0.224550898204
0.224771779421	0.222684085511
0.22146621766	0.219941348974
0.960792316927	0.98
0.224224972888	0.222222222222
0.224224972888	0.222222222222
0.225316833948	0.223147872657
0.224771779421	0.222684085511
0.225316833948	0.223147872657
0.224771779421	0.222684085511
0.0258358869887	0.082234137035
0.225316833948	0.223147872657
