0.167212408664	0.183451417004
0.960392156863	0.98
0.960392156863	0.98
0.162572153701	0.180685358255
0.173723538591	0.187411141269
0.172820384588	0.186855670103
0.174628503531	0.187969924812
0.960392156863	0.98
0.178423226296	0.190338671567
0.164442583432	0.181795386158
0.165363102286	0.182344064386
0.16162264971	0.180124223602
0.960392156863	0.98
0.167212408664	0.183451417004
0.960392156863	0.98
0.960392156863	0.98
0.960392156863	0.98
0.960392156863	0.98
0.173723538591	0.187411141269
0.168141033439	0.184010152284
0.166286404063	0.182896064581
0.1758114623	0.188703800104
0.156926817154	0.177370030581
0.960392156863	0.98
0.960392156863	0.98
0.172820384588	0.186855670103
0.016189377556	0.0906694129763
0.170122668399	0.185208838932
0.167212408664	0.183451417004
0.165363102286	0.182344064386
