0.990098039216	0.995
1.0	1.0
1.0	1.0
1.0	1.0
0.961592637055	0.98
0.980396158463	0.99
0.961592637055	0.98
0.961592637055	0.98
0.961592637055	0.98
0.961592637055	0.98
1.0	1.0
0.970494197679	0.985
0.980396158463	0.99
0.961592637055	0.98
0.960992396959	0.98
1.0	1.0
0.990098039216	0.995
0.970494197679	0.985
1.0	1.0
0.980396158463	0.99
1.0	1.0
1.0	1.0
1.0	1.0
1.0	1.0
0.990098039216	0.995
0.990098039216	0.995
0.961592637055	0.98
0.961592637055	0.98
0.961592637055	0.98
0.980396158463	0.99
