0.980396158463	0.99
0.960992396959	0.98
0.970894357743	0.985
1.0	1.0
0.951690676271	0.975
1.0	1.0
0.990098039216	0.995
0.970894357743	0.985
0.990098039216	0.995
1.0	1.0
0.990098039216	0.995
1.0	1.0
0.980396158463	0.99
0.970894357743	0.985
1.0	1.0
0.970894357743	0.985
1.0	1.0
0.970894357743	0.985
0.990098039216	0.995
1.0	1.0
1.0	1.0
0.990098039216	0.995
0.970894357743	0.985
1.0	1.0
0.990098039216	0.995
1.0	1.0
0.970894357743	0.985
0.990098039216	0.995
0.990098039216	0.995
1.0	1.0
