1.0	1.0
1.0	1.0
0.961592637055	0.98
1.0	1.0
1.0	1.0
1.0	1.0
1.0	1.0
1.0	1.0
1.0	1.0
0.749733300533	0.747394540943
1.0	1.0
1.0	1.0
0.990098039216	0.995
1.0	1.0
1.0	1.0
1.0	1.0
1.0	1.0
0.990098039216	0.995
1.0	1.0
1.0	1.0
1.0	1.0
1.0	1.0
0.990098039216	0.995
1.0	1.0
1.0	1.0
1.0	1.0
0.990098039216	0.995
0.951690676271	0.975
0.990098039216	0.995
1.0	1.0
