0.990098039216	0.995
1.0	1.0
1.0	1.0
0.980396158463	0.99
1.0	1.0
1.0	1.0
1.0	1.0
0.990098039216	0.995
0.980396158463	0.99
1.0	1.0
1.0	1.0
0.990098039216	0.995
0.990098039216	0.995
0.980396158463	0.99
0.990098039216	0.995
0.990098039216	0.995
0.990098039216	0.995
0.980396158463	0.99
0.980396158463	0.99
1.0	1.0
0.980396158463	0.99
0.980196078431	0.99
0.980396158463	0.99
1.0	1.0
0.990098039216	0.995
0.990098039216	0.995
0.970494197679	0.985
1.0	1.0
1.0	1.0
1.0	1.0
