0.0568245487759	0.471698113208
0.0568245487759	0.471698113208
0.0568245487759	0.471698113208
0.0568245487759	0.471698113208
0.0568245487759	0.471698113208
0.0568245487759	0.471698113208
0.0568245487759	0.471698113208
0.0568245487759	0.471698113208
0.0568245487759	0.471698113208
0.0568245487759	0.471698113208
0.0568245487759	0.471698113208
0.0568245487759	0.471698113208
0.0568245487759	0.471698113208
0.0568245487759	0.471698113208
0.0568245487759	0.471698113208
0.0568245487759	0.471698113208
0.0568245487759	0.471698113208
0.0568245487759	0.471698113208
0.0568245487759	0.471698113208
0.0568245487759	0.471698113208
0.0568245487759	0.471698113208
0.0568245487759	0.471698113208
0.0568245487759	0.471698113208
0.0568245487759	0.471698113208
0.0568245487759	0.471698113208
0.0568245487759	0.471698113208
0.0568245487759	0.471698113208
0.0568245487759	0.471698113208
0.0568245487759	0.471698113208
0.0568245487759	0.471698113208
