0.0255003210748	0.441176470588
0.0255003210748	0.441176470588
0.0255003210748	0.441176470588
0.0255003210748	0.441176470588
0.0255003210748	0.441176470588
0.0255003210748	0.441176470588
0.0255003210748	0.441176470588
0.0255003210748	0.441176470588
0.0255003210748	0.441176470588
0.0255003210748	0.441176470588
0.0255003210748	0.441176470588
0.0255003210748	0.441176470588
0.0255003210748	0.441176470588
0.0255003210748	0.441176470588
0.0255003210748	0.441176470588
0.0255003210748	0.441176470588
0.0255003210748	0.441176470588
0.0255003210748	0.441176470588
0.0255003210748	0.441176470588
0.0255003210748	0.441176470588
0.0255003210748	0.441176470588
0.0255003210748	0.441176470588
0.0255003210748	0.441176470588
0.0255003210748	0.441176470588
0.0255003210748	0.441176470588
0.0255003210748	0.441176470588
0.0255003210748	0.441176470588
0.0255003210748	0.441176470588
0.0255003210748	0.441176470588
0.0255003210748	0.441176470588
