0.0913613445378	0.3024
0.0913613445378	0.3024
0.0913613445378	0.3024
0.0913613445378	0.3024
0.0913613445378	0.3024
0.0913613445378	0.3024
0.0913613445378	0.3024
0.0913613445378	0.3024
0.0913613445378	0.3024
0.0913613445378	0.3024
0.0913613445378	0.3024
0.0913613445378	0.3024
0.0913613445378	0.3024
0.0913613445378	0.3024
0.0913613445378	0.3024
0.0913613445378	0.3024
0.0913613445378	0.3024
0.0913613445378	0.3024
0.0913613445378	0.3024
0.0913613445378	0.3024
0.0913613445378	0.3024
0.0913613445378	0.3024
0.0913613445378	0.3024
0.0913613445378	0.3024
0.0913613445378	0.3024
0.0913613445378	0.3024
0.0913613445378	0.3024
0.0913613445378	0.3024
0.0913613445378	0.3024
0.0913613445378	0.3024
