0.0774214985878	0.274509803922
0.0774214985878	0.274509803922
0.0774214985878	0.274509803922
0.0774214985878	0.274509803922
0.0774214985878	0.274509803922
0.0774214985878	0.274509803922
0.0774214985878	0.274509803922
0.0774214985878	0.274509803922
0.0774214985878	0.274509803922
0.0774214985878	0.274509803922
0.122129171669	0.3496
0.0774214985878	0.274509803922
0.0774214985878	0.274509803922
0.0774214985878	0.274509803922
0.0774214985878	0.274509803922
0.122129171669	0.3496
0.0774214985878	0.274509803922
0.0774214985878	0.274509803922
0.0774214985878	0.274509803922
0.0774214985878	0.274509803922
0.122129171669	0.3496
0.122129171669	0.3496
0.0774214985878	0.274509803922
0.0774214985878	0.274509803922
0.0774214985878	0.274509803922
0.122129171669	0.3496
0.0774214985878	0.274509803922
0.0774214985878	0.274509803922
0.0774214985878	0.274509803922
0.0774214985878	0.274509803922
