0.112806722689	0.336
0.112806722689	0.336
0.112806722689	0.336
0.112806722689	0.336
0.112806722689	0.336
0.112806722689	0.336
0.112806722689	0.336
0.112806722689	0.336
0.112806722689	0.336
0.112806722689	0.336
0.112806722689	0.336
0.112806722689	0.336
0.112806722689	0.336
0.112806722689	0.336
0.112806722689	0.336
0.112806722689	0.336
0.112806722689	0.336
0.112806722689	0.336
0.112806722689	0.336
0.112806722689	0.336
0.112806722689	0.336
0.112806722689	0.336
0.112806722689	0.336
0.112806722689	0.336
0.112806722689	0.336
0.112806722689	0.336
0.112806722689	0.336
0.112806722689	0.336
0.112806722689	0.336
0.112806722689	0.336
