0.0774261704682	0.2784
0.0774261704682	0.2784
0.0774261704682	0.2784
0.0774261704682	0.2784
0.0774261704682	0.2784
0.0774261704682	0.2784
0.0774261704682	0.2784
0.0774261704682	0.2784
0.0774261704682	0.2784
0.0774261704682	0.2784
0.0774261704682	0.2784
0.0774261704682	0.2784
0.0774261704682	0.2784
0.0774261704682	0.2784
0.0774261704682	0.2784
0.0774261704682	0.2784
0.0774261704682	0.2784
0.0774261704682	0.2784
0.0774261704682	0.2784
0.0774261704682	0.2784
0.0774261704682	0.2784
0.0774261704682	0.2784
0.0774261704682	0.2784
0.0774261704682	0.2784
0.0774261704682	0.2784
0.0774261704682	0.2784
0.0774261704682	0.2784
0.0774261704682	0.2784
0.0774261704682	0.2784
0.0774261704682	0.2784
