0.0330248573287	0.174374526156
0.0330248573287	0.174374526156
0.0330248573287	0.174374526156
0.0330248573287	0.174374526156
0.0330248573287	0.174374526156
0.0330248573287	0.174374526156
0.0330248573287	0.174374526156
0.0330248573287	0.174374526156
0.0330248573287	0.174374526156
0.0330248573287	0.174374526156
0.0330248573287	0.174374526156
0.0330248573287	0.174374526156
0.0330248573287	0.174374526156
0.0330248573287	0.174374526156
0.0330248573287	0.174374526156
0.0330248573287	0.174374526156
0.0330248573287	0.174374526156
0.0330248573287	0.174374526156
0.0330248573287	0.174374526156
0.0330248573287	0.174374526156
0.0330248573287	0.174374526156
0.0330248573287	0.174374526156
0.0330248573287	0.174374526156
0.0330248573287	0.174374526156
0.0330248573287	0.174374526156
0.0330248573287	0.174374526156
0.0330248573287	0.174374526156
0.0330248573287	0.174374526156
0.0330248573287	0.174374526156
0.0330248573287	0.174374526156
