0.0884821128451	0.2976
0.0884821128451	0.2976
0.0884821128451	0.2976
0.0884821128451	0.2976
0.0884821128451	0.2976
0.0884821128451	0.2976
0.0884821128451	0.2976
0.0884821128451	0.2976
0.0884821128451	0.2976
0.0884821128451	0.2976
0.0884821128451	0.2976
0.0884821128451	0.2976
0.0884821128451	0.2976
0.0884821128451	0.2976
0.0884821128451	0.2976
0.0884821128451	0.2976
0.0884821128451	0.2976
0.0884821128451	0.2976
0.0884821128451	0.2976
0.0884821128451	0.2976
0.0884821128451	0.2976
0.0884821128451	0.2976
0.0884821128451	0.2976
0.0884821128451	0.2976
0.0884821128451	0.2976
0.0884821128451	0.2976
0.0884821128451	0.2976
0.0884821128451	0.2976
0.0884821128451	0.2976
0.0884821128451	0.2976
