0.147976310524	0.3848
0.147976310524	0.3848
0.147976310524	0.3848
0.147976310524	0.3848
0.147976310524	0.3848
0.147976310524	0.3848
0.147976310524	0.3848
0.147976310524	0.3848
0.147976310524	0.3848
0.147976310524	0.3848
0.147976310524	0.3848
0.147976310524	0.3848
0.147976310524	0.3848
0.147976310524	0.3848
0.147976310524	0.3848
0.147976310524	0.3848
0.147976310524	0.3848
0.147976310524	0.3848
0.147976310524	0.3848
0.147976310524	0.3848
0.147976310524	0.3848
0.147976310524	0.3848
0.147976310524	0.3848
0.147976310524	0.3848
0.147976310524	0.3848
0.147976310524	0.3848
0.147976310524	0.3848
0.147976310524	0.3848
0.147976310524	0.3848
0.147976310524	0.3848
