0.3040359365	0.551416527791
0.871100047416	0.933333333333
0.3040359365	0.551416527791
0.871100047416	0.933333333333
0.871100047416	0.933333333333
0.3040359365	0.551416527791
0.3040359365	0.551416527791
0.3040359365	0.551416527791
0.871100047416	0.933333333333
0.871100047416	0.933333333333
0.871100047416	0.933333333333
0.871100047416	0.933333333333
0.3040359365	0.551416527791
0.871100047416	0.933333333333
0.871100047416	0.933333333333
0.3040359365	0.551416527791
0.871100047416	0.933333333333
0.3040359365	0.551416527791
0.3040359365	0.551416527791
0.3040359365	0.551416527791
0.3040359365	0.551416527791
0.871100047416	0.933333333333
0.871100047416	0.933333333333
0.871100047416	0.933333333333
0.871100047416	0.933333333333
0.871100047416	0.933333333333
0.871100047416	0.933333333333
0.3040359365	0.551416527791
0.871100047416	0.933333333333
0.3040359365	0.551416527791
