0.896168800379	0.946666666667
0.3040359365	0.551416527791
0.3040359365	0.551416527791
0.3040359365	0.551416527791
0.896168800379	0.946666666667
0.3040359365	0.551416527791
0.3040359365	0.551416527791
0.896168800379	0.946666666667
0.3040359365	0.551416527791
0.3040359365	0.551416527791
0.896168800379	0.946666666667
0.3040359365	0.551416527791
0.896168800379	0.946666666667
0.896168800379	0.946666666667
0.896168800379	0.946666666667
0.896168800379	0.946666666667
0.896168800379	0.946666666667
0.896168800379	0.946666666667
0.896168800379	0.946666666667
0.3040359365	0.551416527791
0.3040359365	0.551416527791
0.896168800379	0.946666666667
0.3040359365	0.551416527791
0.3040359365	0.551416527791
0.896168800379	0.946666666667
0.896168800379	0.946666666667
0.3040359365	0.551416527791
0.3040359365	0.551416527791
0.896168800379	0.946666666667
0.896168800379	0.946666666667
