1.0	1.0
0.3040359365	0.551416527791
0.3040359365	0.551416527791
1.0	1.0
1.0	1.0
1.0	1.0
0.3040359365	0.551416527791
0.3040359365	0.551416527791
1.0	1.0
1.0	1.0
0.3040359365	0.551416527791
0.3040359365	0.551416527791
1.0	1.0
1.0	1.0
1.0	1.0
0.3040359365	0.551416527791
1.0	1.0
1.0	1.0
0.3040359365	0.551416527791
1.0	1.0
1.0	1.0
1.0	1.0
0.3040359365	0.551416527791
0.3040359365	0.551416527791
1.0	1.0
0.3040359365	0.551416527791
1.0	1.0
0.3040359365	0.551416527791
1.0	1.0
1.0	1.0
