0.0566009053963	0.295520651542
0.993083495321	0.980392156863
0.0580831707568	0.288794763188
0.137278352283	0.309076682316
0.0549098810804	0.296654418874
0.993083495321	0.980392156863
0.0580862863857	0.290023201856
0.0549179473875	0.29829984544
0.0571816337462	0.291948252558
0.0580825247075	0.288572527895
0.993083495321	0.980392156863
0.0546339837673	0.295695811619
0.0549116945407	0.297156123041
0.993083495321	0.980392156863
0.993083495321	0.980392156863
0.0883447945893	0.300702028081
0.0554676026965	0.297905352987
0.0580793145763	0.287576687117
0.0576320574303	0.292739593417
0.0551920996755	0.298449612403
0.993083495321	0.980392156863
0.0869785651391	0.298293250582
0.0554633191142	0.296554394115
0.0822809907143	0.295924280471
0.140525626605	0.884086444008
0.0573324775593	0.292635658915
0.0546454544806	0.298167791707
0.993083495321	0.980392156863
0.0858921605435	0.497744655815
0.05808080249	0.28801843318
