0.993083495321	0.980392156863
0.0580856433292	0.289743094456
0.0580852391296	0.289575289575
0.140525626605	0.884086444008
0.993083495321	0.980392156863
0.0570340882736	0.292254201275
0.0727591521219	0.296267496112
0.993083495321	0.980392156863
0.140525626605	0.884086444008
0.993083495321	0.980392156863
0.0546469145703	0.298323376373
0.993083495321	0.980392156863
0.993083495321	0.980392156863
0.0551881365375	0.297443841983
0.993083495321	0.980392156863
0.993083495321	0.980392156863
0.0554566490135	0.294219988401
0.993083495321	0.980392156863
0.0554552222881	0.293666026871
0.0580785339114	0.287356321839
0.0799212984742	0.296511627907
0.0580871223803	0.290416263311
0.993083495321	0.980392156863
0.0567400093063	0.292004634994
0.993083495321	0.980392156863
0.0571828791085	0.292239210374
0.0799230138173	0.297202797203
0.0580864104053	0.290079288339
0.993083495321	0.980392156863
0.0576313864979	0.290997095837
