0.0869775018529	0.298062015504
0.0580800707698	0.287797390637
0.0580831707568	0.288794763188
0.993083495321	0.980392156863
0.993083495321	0.980392156863
0.0580709105202	0.28549676437
0.055741602161	0.295851105079
0.993083495321	0.980392156863
0.0580865328944	0.290135396518
0.0580789273027	0.287466462246
0.0893096856255	0.299170044393
0.0554752715446	0.29957314707
0.0573310367115	0.291956689869
0.0897329542642	0.297218439992
0.116097714162	0.298814843598
0.084642299909	0.298855035901
0.0538636769498	0.301912304423
0.0858921605435	0.497744655815
0.993083495321	0.980392156863
0.0580848211564	0.28940767895
0.0775499213447	0.297575169738
0.0738340236531	0.3
0.993083495321	0.980392156863
0.993083495321	0.980392156863
0.0822920938581	0.298721425804
0.0580867732807	0.290247678019
0.0580828507922	0.288683602771
0.0546439207583	0.298374613003
0.0580877792501	0.290754022097
0.0564490918681	0.29251831855
