0.0580804396892	0.287907869482
0.993083495321	0.980392156863
0.057330175328	0.29128839096
0.993083495321	0.980392156863
0.0548945927152	0.291991630207
0.993083495321	0.980392156863
0.058081509735	0.288239815527
0.993083495321	0.980392156863
0.993083495321	0.980392156863
0.0554567373001	0.293070073558
0.0580848211564	0.28940767895
0.0538439706057	0.29830638953
0.0543763748667	0.298743961353
0.0560218361199	0.294265302182
0.0580852391296	0.289575289575
0.0543722815968	0.297552514935
0.0846436333723	0.299127061106
0.0580867732807	0.290247678019
0.0568871640592	0.291876208897
0.0564483078963	0.291939838025
0.993083495321	0.980392156863
0.0791745448498	0.293150154799
0.0580855101265	0.289687137891
0.993083495321	0.980392156863
0.0554691857123	0.298235408183
0.0580855101265	0.289687137891
0.0574802180191	0.291513628455
0.993083495321	0.980392156863
0.0580852391296	0.289575289575
0.993083495321	0.980392156863
