0.0580852391296	0.289575289575
0.0580864104053	0.290079288339
0.0560296860443	0.297129557797
0.0551816946146	0.295239930622
0.0580860337547	0.289911093931
0.0580837923248	0.28901734104
0.054919215725	0.298819431004
0.0580825247075	0.288572527895
0.0541118714745	0.29874879692
0.993083495321	0.980392156863
0.993083495321	0.980392156863
0.0570342517277	0.29209356273
0.0580843894101	0.289240262245
0.0580855101265	0.289687137891
0.993083495321	0.980392156863
0.0580856433292	0.289743094456
0.0551892983145	0.297600619195
0.0580867732807	0.290247678019
0.0558960200945	0.299127061106
0.993083495321	0.980392156863
0.993083495321	0.980392156863
0.0551777833698	0.292343387471
0.0842084189204	0.298086216895
0.0580804396892	0.287907869482
0.0580839438915	0.289073039121
0.0549124187925	0.29714064915
0.993083495321	0.980392156863
0.0633598114767	0.292337536372
0.993083495321	0.980392156863
0.0580852391296	0.289575289575
