0.0712664936605	0.292489353465
0.0727539126105	0.294186046512
0.993083495321	0.980392156863
0.0567381461326	0.291546312344
0.993083495321	0.980392156863
0.993083495321	0.980392156863
0.993083495321	0.980392156863
0.0580837923248	0.28901734104
0.0580839438915	0.289073039121
0.993083495321	0.980392156863
0.0571796894473	0.291217257319
0.0580867732807	0.290247678019
0.993083495321	0.980392156863
0.0580843894101	0.289240262245
0.0557430174024	0.296353762607
0.0580856433292	0.289743094456
0.993083495321	0.980392156863
0.0580818541787	0.288350634371
0.0580843894101	0.289240262245
0.993083495321	0.980392156863
0.0580852391296	0.289575289575
0.993083495321	0.980392156863
0.0580747181394	0.28636884307
0.0580840939279	0.289128758674
0.0580830115395	0.288739172281
0.0799245096328	0.297591297591
0.0716487360603	0.298194525335
0.0554623060474	0.296339337594
0.0551900652609	0.297946532352
0.0580768991751	0.286916602907
