0.033941210834	0.6
0.0128678879667	0.130434782609
0.033941210834	0.6
0.033941210834	0.6
0.0480504060507	0.447447447447
0.033941210834	0.6
0.0128678879667	0.130434782609
0.033941210834	0.6
0.0562317447002	0.429447852761
0.033941210834	0.6
0.033941210834	0.6
0.033941210834	0.6
0.0562317447002	0.429447852761
0.033941210834	0.6
0.033941210834	0.6
0.033941210834	0.6
0.0562317447002	0.429447852761
0.033941210834	0.6
0.0562317447002	0.429447852761
0.033941210834	0.6
0.033941210834	0.6
0.033941210834	0.6
0.033941210834	0.6
0.033941210834	0.6
0.0466535507115	0.656814449918
0.033941210834	0.6
0.033941210834	0.6
0.033941210834	0.6
0.033941210834	0.6
0.0302792219459	0.50135501355
