4.1137054788e-05	0.00646830530401
4.1137054788e-05	0.00646830530401
0.033941210834	0.6
4.1137054788e-05	0.00646830530401
0.033941210834	0.6
4.1137054788e-05	0.00646830530401
4.1137054788e-05	0.00646830530401
4.1137054788e-05	0.00646830530401
4.1137054788e-05	0.00646830530401
0.033941210834	0.6
4.1137054788e-05	0.00646830530401
4.1137054788e-05	0.00646830530401
4.1137054788e-05	0.00646830530401
0.033941210834	0.6
0.033941210834	0.6
4.1137054788e-05	0.00646830530401
0.033941210834	0.6
4.1137054788e-05	0.00646830530401
4.1137054788e-05	0.00646830530401
4.1137054788e-05	0.00646830530401
0.033941210834	0.6
0.033941210834	0.6
0.033941210834	0.6
4.1137054788e-05	0.00646830530401
4.1137054788e-05	0.00646830530401
4.1137054788e-05	0.00646830530401
4.1137054788e-05	0.00646830530401
0.033941210834	0.6
4.1137054788e-05	0.00646830530401
4.1137054788e-05	0.00646830530401
