0.0344067754323	0.486111111111
0.0344067754323	0.486111111111
0.0344067754323	0.486111111111
0.0344067754323	0.486111111111
0.0344067754323	0.486111111111
0.0344067754323	0.486111111111
0.0344067754323	0.486111111111
0.0344067754323	0.486111111111
0.0344067754323	0.486111111111
0.0344067754323	0.486111111111
0.0344067754323	0.486111111111
0.0344067754323	0.486111111111
0.0344067754323	0.486111111111
0.0344067754323	0.486111111111
0.0344067754323	0.486111111111
0.0344067754323	0.486111111111
0.0344067754323	0.486111111111
0.0344067754323	0.486111111111
0.0344067754323	0.486111111111
0.0344067754323	0.486111111111
0.0344067754323	0.486111111111
0.0344067754323	0.486111111111
0.0344067754323	0.486111111111
0.0344067754323	0.486111111111
0.0344067754323	0.486111111111
0.0344067754323	0.486111111111
0.0344067754323	0.486111111111
0.0344067754323	0.486111111111
0.0344067754323	0.486111111111
0.0344067754323	0.486111111111
