0.0178850088233	0.254227173264
0.0343683017273	0.460067715595
0.0176101488849	0.24
0.763201541286	0.7256
0.262998718329	0.369693396226
0.767416940738	0.7456
0.0414804737495	0.507866958773
0.0343683017273	0.460067715595
0.0178023429308	0.242902208202
0.0391783226519	0.491235059761
0.767416940738	0.7456
0.339976089522	0.378261722582
0.884973111828	0.88
0.0414804737495	0.507866958773
0.767416940738	0.7456
0.0213459895109	0.331009759012
0.298117892832	0.351722802942
0.0343683017273	0.460067715595
0.252247769473	0.539269051322
0.167958099304	0.486138227255
0.25709039044	0.354063334605
0.307663071863	0.551400039162
0.167958099304	0.486138227255
0.240604228836	0.455978469819
0.167958099304	0.486138227255
0.0343683017273	0.460067715595
0.322818406937	0.232034462502
0.0343683017273	0.460067715595
0.27458511261	0.383451446083
0.395214261435	0.328960250636
