0.0306315719405	0.4128
0.0185783887432	0.2064
0.0300005797587	0.4072
0.012052850274	0.232251720747
0.133165242294	0.3546692607
0.133165242294	0.3546692607
0.0303367054523	0.392631993696
0.0131265365172	0.20604288499
0.17225212684	0.319169577028
0.0205060863926	0.2748
0.0291925893956	0.3998
0.0303367054523	0.392631993696
0.0180733558365	0.309692671395
0.0266803017322	0.3628
0.012052850274	0.232251720747
0.012052850274	0.232251720747
0.0220443579817	0.3032
0.0120113575056	0.221764705882
0.012052850274	0.232251720747
0.0120113575056	0.221764705882
0.0131265365172	0.20604288499
0.0131265365172	0.20604288499
0.012052850274	0.232251720747
0.012052850274	0.232251720747
0.0250120783061	0.344
0.133165242294	0.3546692607
0.14703792993	0.398367664205
0.012052850274	0.232251720747
0.0131265365172	0.20604288499
0.0131265365172	0.20604288499
