4.79551753385e-06	0.00232018561485
0.0	0.0
9.59414526879e-07	0.0011641443539
1.15099853919e-05	0.00348702053468
0.0	0.0
0.0	0.0
0.0	0.0
1.91863086501e-06	0.0015503875969
0.0	0.0
0.0	0.0
0.000316339814146	0.0174961119751
1.91831249886e-06	0.0015467904099
3.19797376382e-06	0.00194099378882
0.0	0.0
0.0	0.0
0.0	0.0
0.0	0.0
0.0	0.0
0.0	0.0
0.0	0.0
3.19804637743e-07	0.00077579519007
0.0	0.0
8.82574431243e-05	0.00936402653141
8.95460717737e-06	0.00311041990669
0.0	0.0
0.0	0.0
3.19718238711e-07	0.000772797527048
0.0	0.0
0.000112252289419	0.0105592491201
4.79768176017e-06	0.00233553912028
