0.0	0.0
0.0	0.0
0.0	0.0
0.0	0.0
1.91842106273e-06	0.0015479876161
1.15130958267e-05	0.00350058343057
0.0	0.0
0.0	0.0
0.0	0.0
0.0	0.0
0.0	0.0
0.0	0.0
0.0	0.0
8.95059972215e-06	0.00309119010819
8.95367369232e-06	0.00310559006211
8.94711615274e-06	0.00307692307692
0.0	0.0
9.59155329451e-07	0.00115964437572
0.0	0.0
0.0	0.0
0.0	0.0
0.0	0.0
0.0	0.0
0.0	0.0
0.0	0.0
0.0	0.0
0.0	0.0
0.0	0.0
3.19718238711e-07	0.000772797527048
0.0	0.0
