8.95140664962e-06	0.00309477756286
9.59155329451e-07	0.00115964437572
0.0	0.0
8.95505680864e-06	0.00311284046693
0.0	0.0
0.0	0.0
0.0	0.0
9.59155329451e-07	0.00115964437572
0.0	0.0
0.0	0.000387747188833
0.0	0.0
0.0	0.0
0.0	0.0
1.91831249886e-06	0.0015467904099
0.0	0.0
0.0	0.0
1.9192881744e-06	0.00155884645362
0.0	0.0
0.0	0.0
0.0	0.0
0.0	0.0
0.0	0.0
0.0	0.0
0.0	0.0
0.0	0.0
1.43914112058e-05	0.00389105058366
0.0	0.000387747188833
4.88588114471e-05	0.0069018404908
3.19805558221e-06	0.00194174757282
0.0	0.0
