0.0	0.0
0.0	0.0
0.0	0.0
0.0	0.0
0.0	0.0
4.7957950469e-06	0.00232198142415
0.000168617369505	0.0127167630058
0.0	0.0
8.95294364793e-06	0.00310197751066
0.0	0.0
3.19805558221e-06	0.00194174757282
0.0	0.0
0.0	0.0
0.0	0.0
0.0	0.0
4.79619987492e-06	0.00232468035645
0.0	0.0
2.11018422867e-05	0.00465477114042
0.0	0.0
0.0	0.0
0.0	0.0
0.0	0.0
0.0	0.0
0.0	0.0
2.11125751296e-05	0.00469116497263
9.59414526879e-07	0.0011641443539
0.0	0.0
3.19880850781e-07	0.000778816199377
0.0	0.0
8.95505680864e-06	0.00311284046693
