0.233769027611	0.4836
0.233769027611	0.4836
0.233769027611	0.4836
0.233769027611	0.4836
0.233769027611	0.4836
0.233769027611	0.4836
0.233769027611	0.4836
0.233769027611	0.4836
0.233769027611	0.4836
0.233769027611	0.4836
0.233769027611	0.4836
0.233769027611	0.4836
0.233769027611	0.4836
0.233769027611	0.4836
0.233769027611	0.4836
0.233769027611	0.4836
0.233769027611	0.4836
0.233769027611	0.4836
0.233769027611	0.4836
0.233769027611	0.4836
0.233769027611	0.4836
0.233769027611	0.4836
0.233769027611	0.4836
0.233769027611	0.4836
0.233769027611	0.4836
0.233769027611	0.4836
0.233769027611	0.4836
0.233769027611	0.4836
0.233769027611	0.4836
0.233769027611	0.4836
