0.066281232493	0.2576
0.066281232493	0.2576
0.066281232493	0.2576
0.066281232493	0.2576
0.066281232493	0.2576
0.066281232493	0.2576
0.0197762304922	0.1408
0.066281232493	0.2576
0.066281232493	0.2576
0.066281232493	0.2576
0.066281232493	0.2576
0.066281232493	0.2576
0.066281232493	0.2576
0.066281232493	0.2576
0.066281232493	0.2576
0.066281232493	0.2576
0.066281232493	0.2576
0.066281232493	0.2576
0.066281232493	0.2576
0.066281232493	0.2576
0.066281232493	0.2576
0.066281232493	0.2576
0.066281232493	0.2576
0.0671078031212	0.2592
0.066281232493	0.2576
0.066281232493	0.2576
0.066281232493	0.2576
0.0197762304922	0.1408
0.066281232493	0.2576
0.066281232493	0.2576
