0.316195278111	0.5624
0.316195278111	0.5624
0.316195278111	0.5624
0.316195278111	0.5624
0.316195278111	0.5624
0.316195278111	0.5624
0.316195278111	0.5624
0.316195278111	0.5624
0.316195278111	0.5624
0.316195278111	0.5624
0.316195278111	0.5624
0.316195278111	0.5624
0.316195278111	0.5624
0.316195278111	0.5624
0.316195278111	0.5624
0.316195278111	0.5624
0.316195278111	0.5624
0.316195278111	0.5624
0.316195278111	0.5624
0.316195278111	0.5624
0.316195278111	0.5624
0.316195278111	0.5624
0.316195278111	0.5624
0.316195278111	0.5624
0.316195278111	0.5624
0.316195278111	0.5624
0.316195278111	0.5624
0.316195278111	0.5624
0.316195278111	0.5624
0.316195278111	0.5624
