0.0828619447779	0.288
0.0671078031212	0.2592
0.0828619447779	0.288
0.0828619447779	0.288
0.0671078031212	0.2592
0.0828619447779	0.288
0.0828619447779	0.288
0.0828619447779	0.288
0.0828619447779	0.288
0.0828619447779	0.288
0.0828619447779	0.288
0.0828619447779	0.288
0.0671078031212	0.2592
0.0671078031212	0.2592
0.0671078031212	0.2592
0.0828619447779	0.288
0.0828619447779	0.288
0.0828619447779	0.288
0.0828619447779	0.288
0.0828619447779	0.288
0.0828619447779	0.288
0.0828619447779	0.288
0.0828619447779	0.288
0.0828619447779	0.288
0.0828619447779	0.288
0.0828619447779	0.288
0.0828619447779	0.288
0.0828619447779	0.288
0.0671078031212	0.2592
0.0671078031212	0.2592
