0.253110204082	0.5032
0.253110204082	0.5032
0.253110204082	0.5032
0.253110204082	0.5032
0.253110204082	0.5032
0.253110204082	0.5032
0.253110204082	0.5032
0.253110204082	0.5032
0.253110204082	0.5032
0.253110204082	0.5032
0.253110204082	0.5032
0.253110204082	0.5032
0.253110204082	0.5032
0.253110204082	0.5032
0.253110204082	0.5032
0.253110204082	0.5032
0.253110204082	0.5032
0.253110204082	0.5032
0.253110204082	0.5032
0.253110204082	0.5032
0.253110204082	0.5032
0.253110204082	0.5032
0.253110204082	0.5032
0.253110204082	0.5032
0.253110204082	0.5032
0.253110204082	0.5032
0.253110204082	0.5032
0.253110204082	0.5032
0.253110204082	0.5032
0.253110204082	0.5032
