0.0767596638655	0.2772
0.0767596638655	0.2772
0.0767596638655	0.2772
0.0767596638655	0.2772
0.0767596638655	0.2772
0.028843537415	0.17
0.0767596638655	0.2772
0.0767596638655	0.2772
0.0767596638655	0.2772
0.0767596638655	0.2772
0.0767596638655	0.2772
0.028843537415	0.17
0.028843537415	0.17
0.0767596638655	0.2772
0.0767596638655	0.2772
0.0767596638655	0.2772
0.0767596638655	0.2772
0.028843537415	0.17
0.0767596638655	0.2772
0.0767596638655	0.2772
0.0360384153661	0.19
0.0767596638655	0.2772
0.028843537415	0.17
0.0767596638655	0.2772
0.0767596638655	0.2772
0.0767596638655	0.2772
0.028843537415	0.17
0.0767596638655	0.2772
0.0767596638655	0.2772
0.0767596638655	0.2772
