0.31350140056	0.56
0.31350140056	0.56
0.31350140056	0.56
0.31350140056	0.56
0.31350140056	0.56
0.31350140056	0.56
0.31350140056	0.56
0.31350140056	0.56
0.31350140056	0.56
0.31350140056	0.56
0.31350140056	0.56
0.31350140056	0.56
0.31350140056	0.56
0.31350140056	0.56
0.31350140056	0.56
0.31350140056	0.56
0.31350140056	0.56
0.31350140056	0.56
0.31350140056	0.56
0.31350140056	0.56
0.31350140056	0.56
0.31350140056	0.56
0.31350140056	0.56
0.31350140056	0.56
0.31350140056	0.56
0.31350140056	0.56
0.31350140056	0.56
0.31350140056	0.56
0.31350140056	0.56
0.31350140056	0.56
