0.058467080777	0.295217476875
0.0606363810232	0.295342896443
0.0648715263165	0.29487680876
0.0584794212246	0.30297029703
0.0584656133367	0.294579732914
0.0584674484242	0.29539188657
0.0584666991734	0.295043273013
0.996586632899	0.99
0.0683044233919	0.303518773344
0.0584666991734	0.295043273013
0.0584678021145	0.295566502463
0.0584604685703	0.292797189147
0.0584674484242	0.29539188657
0.0584680917721	0.297515772871
0.0584654706297	0.294521892794
0.0584650332062	0.294348508634
0.0584677101615	0.297339901478
0.996586632899	0.99
0.0715526126272	0.302766798419
0.058467080777	0.295217476875
0.0584666991734	0.295043273013
0.0584812250654	0.303221980629
0.0584658940992	0.294695481336
0.996586632899	0.99
0.0629643264874	0.308207045857
0.0584674484242	0.29539188657
0.0584674484242	0.29539188657
0.0584649027867	0.296034550452
0.0584658940992	0.294695481336
0.996586632899	0.99
