0.0589935791702	0.338645418327
0.0584674484242	0.29539188657
0.058467080777	0.295217476875
0.0648853739406	0.301359070317
0.996586632899	0.99
1.0	1.0
0.063399982867	0.299094844549
0.0584654706297	0.294521892794
0.0584650332062	0.294348508634
0.0584658940992	0.294695481336
0.0626154523248	0.302124311566
0.0584673768696	0.297935103245
1.0	1.0
0.0584649008831	0.296368989205
0.0691982087632	0.307966706302
0.0584658940992	0.294695481336
0.0584653140276	0.295619721076
0.058467080777	0.295217476875
0.0584674484242	0.29539188657
0.0584672048768	0.295275590551
0.0584663036139	0.294869274622
1.0	1.0
0.0584692006995	0.297628458498
0.0584672048768	0.295530616263
0.0584770491493	0.301299724301
0.0584658940992	0.294695481336
0.0584668933526	0.296653543307
0.0584678021145	0.295566502463
0.0584650332062	0.294348508634
0.058467080777	0.295217476875
