0.0584683605816	0.295857988166
0.0610257620331	0.300334579807
0.0584658940992	0.294695481336
0.0584674484242	0.29539188657
0.0584663036139	0.294869274622
0.0584658940992	0.294695481336
0.0584663036139	0.294869274622
0.0584654706297	0.294521892794
0.0643823687253	0.300651015979
0.0584678021145	0.295566502463
0.0584654706297	0.294521892794
0.058464512515	0.294879340789
0.0585083979774	0.307570977918
0.0698869280609	0.301775147929
0.0605640535108	0.3006497342
0.0585012768437	0.307616025387
1.0	1.0
1.0	1.0
0.0584681418473	0.295741324921
0.060872318601	0.300805026507
0.0645500306259	0.301380670611
0.0584658940992	0.294695481336
0.0584663036139	0.294869274622
0.0584683605816	0.295857988166
0.058473186381	0.300671671276
1.0	1.0
0.0584654706297	0.294521892794
0.0584654706297	0.294521892794
0.0626102253261	0.296340023613
0.061654181619	0.301321238415
