0.0584666991734	0.295043273013
0.0584678021145	0.295566502463
0.0584663036139	0.294869274622
0.0585665985271	0.314954383181
0.0584672048768	0.295275590551
1.0	1.0
0.0584886806316	0.304536489152
0.0584672048768	0.295275590551
0.0575520146489	0.297536945813
1.0	1.0
0.996586632899	0.99
0.0621241763466	0.296893432953
0.0581585953872	0.295669291339
0.0861739229501	0.496453900709
0.0577004650286	0.295284872299
0.0584645818292	0.294175328496
0.0581572984104	0.295088408644
0.0584659221817	0.295204402516
0.0593862792153	0.296500196618
0.0584666991734	0.295043273013
0.0584683605816	0.295857988166
0.058478110158	0.302371541502
0.0584659221817	0.295204402516
0.0584683605816	0.29611363188
0.0584654706297	0.294521892794
0.0607964070183	0.295342896443
0.0562294105857	0.297047244094
0.058463143984	0.293657008614
0.0584658940992	0.294695481336
0.0584654706297	0.294521892794
