1.0	1.0
1.0	1.0
1.0	1.0
1.0	1.0
1.0	1.0
0.349700112473	0.611221647433
1.0	1.0
1.0	1.0
1.0	1.0
0.888378140502	0.93
1.0	1.0
1.0	1.0
1.0	1.0
1.0	1.0
1.0	1.0
1.0	1.0
1.0	1.0
1.0	1.0
1.0	1.0
1.0	1.0
1.0	1.0
1.0	1.0
1.0	1.0
1.0	1.0
1.0	1.0
1.0	1.0
1.0	1.0
1.0	1.0
1.0	1.0
1.0	1.0
