0.384483142846	0.491428571429
0.384483142846	0.491428571429
0.384483142846	0.491428571429
0.384483142846	0.491428571429
0.384483142846	0.491428571429
0.384483142846	0.491428571429
0.384483142846	0.491428571429
0.384483142846	0.491428571429
0.384483142846	0.491428571429
0.384483142846	0.491428571429
0.384483142846	0.491428571429
0.384483142846	0.491428571429
0.384483142846	0.491428571429
0.384483142846	0.491428571429
0.384483142846	0.491428571429
0.384483142846	0.491428571429
0.384483142846	0.491428571429
0.384483142846	0.491428571429
0.384483142846	0.491428571429
0.384483142846	0.491428571429
0.384483142846	0.491428571429
0.384483142846	0.491428571429
0.384483142846	0.491428571429
0.384483142846	0.491428571429
0.384483142846	0.491428571429
0.384483142846	0.491428571429
0.384483142846	0.491428571429
0.384483142846	0.491428571429
0.384483142846	0.491428571429
0.384483142846	0.491428571429
