0.358882414892	0.485714285714
0.358882414892	0.485714285714
0.358882414892	0.485714285714
0.358882414892	0.485714285714
0.358882414892	0.485714285714
0.358882414892	0.485714285714
0.358882414892	0.485714285714
0.358882414892	0.485714285714
0.358882414892	0.485714285714
0.358882414892	0.485714285714
0.358882414892	0.485714285714
0.358882414892	0.485714285714
0.358882414892	0.485714285714
0.358882414892	0.485714285714
0.358882414892	0.485714285714
0.358882414892	0.485714285714
0.358882414892	0.485714285714
0.358882414892	0.485714285714
0.358882414892	0.485714285714
0.358882414892	0.485714285714
0.358882414892	0.485714285714
0.358882414892	0.485714285714
0.358882414892	0.485714285714
0.358882414892	0.485714285714
0.358882414892	0.485714285714
0.358882414892	0.485714285714
0.358882414892	0.485714285714
0.358882414892	0.485714285714
0.358882414892	0.485714285714
0.358882414892	0.485714285714
