0.00993886511285	0.291781360598
0.357810976816	0.6376
0.357810976816	0.6376
0.00993886511285	0.291781360598
0.357810976816	0.6376
0.357810976816	0.6376
0.011034719404	0.321816386969
0.00993886511285	0.291781360598
0.357810976816	0.6376
0.293632866343	0.544581091468
0.357810976816	0.6376
0.00993886511285	0.291781360598
0.00993886511285	0.291781360598
0.357810976816	0.6376
0.011034719404	0.321816386969
0.357810976816	0.6376
0.00993886511285	0.291781360598
0.357810976816	0.6376
0.00993886511285	0.291781360598
0.357810976816	0.6376
0.00993886511285	0.291781360598
0.357810976816	0.6376
0.357810976816	0.6376
0.357810976816	0.6376
0.00993886511285	0.291781360598
0.00993886511285	0.291781360598
0.357810976816	0.6376
0.00993886511285	0.291781360598
0.011034719404	0.321816386969
0.357810976816	0.6376
