0.320881822395	0.7748
0.369687924397	0.690513833992
0.0536040176974	0.685
0.320881822395	0.7748
0.320881822395	0.7748
0.320881822395	0.7748
0.320881822395	0.7748
0.0489987456017	0.599
0.320881822395	0.7748
0.0553715871988	0.7088
0.0553715871988	0.7088
0.0641237552248	0.8
0.0641237552248	0.8
0.320881822395	0.7748
0.0554663689924	0.71
0.320881822395	0.7748
0.369687924397	0.690513833992
0.369687924397	0.690513833992
0.0641237552248	0.8
0.0641237552248	0.8
0.320881822395	0.7748
0.369687924397	0.690513833992
0.0553715871988	0.7088
0.0493499318459	0.608
0.0553715871988	0.7088
0.320881822395	0.7748
0.040703881993	0.6328
0.320881822395	0.7748
0.320881822395	0.7748
0.369687924397	0.690513833992
