0.0404106030337	0.636417439337
0.0404106030337	0.636417439337
0.0404106030337	0.636417439337
0.0404106030337	0.636417439337
0.0404106030337	0.636417439337
0.0404106030337	0.636417439337
0.0404106030337	0.636417439337
0.0404106030337	0.636417439337
0.0404106030337	0.636417439337
0.0296606997623	0.512132570527
0.0404106030337	0.636417439337
0.0404106030337	0.636417439337
0.0404106030337	0.636417439337
0.0404106030337	0.636417439337
0.0404106030337	0.636417439337
0.0404106030337	0.636417439337
0.0321229643283	0.547642533044
0.0404106030337	0.636417439337
0.0404106030337	0.636417439337
0.0404106030337	0.636417439337
0.0404106030337	0.636417439337
0.0404106030337	0.636417439337
0.0404106030337	0.636417439337
0.0404106030337	0.636417439337
0.0404106030337	0.636417439337
0.0404106030337	0.636417439337
0.046727430099	0.679133858268
0.0404106030337	0.636417439337
0.0404106030337	0.636417439337
0.0404106030337	0.636417439337
