0.0207618349781	0.361569073337
0.0207618349781	0.361569073337
0.253069185193	0.496800465387
0.0214755415206	0.3966
0.271037708934	0.656
0.30091639005	0.7064
0.26900839475	0.642452645968
0.0218680183028	0.401356589147
0.30091639005	0.7064
0.0495346470404	0.70927218345
0.26900839475	0.642452645968
0.30091639005	0.7064
0.0136978244265	0.3376
0.26900839475	0.642452645968
0.242567448421	0.313577377494
0.0167402615068	0.34949334393
0.0207618349781	0.361569073337
0.253069185193	0.496800465387
0.261358947234	0.472380952381
0.26900839475	0.642452645968
0.0211167954524	0.359864202188
0.253069185193	0.496800465387
0.0181396169815	0.25740274821
0.0495346470404	0.70927218345
0.268659697165	0.639296187683
0.253069185193	0.496800465387
0.253069185193	0.496800465387
0.302935721394	0.611343283582
0.253069185193	0.496800465387
0.253069185193	0.496800465387
