0.0282608265026	0.47433872878
0.0282608265026	0.47433872878
0.641227776748	0.797699325664
0.0282608265026	0.47433872878
0.0282608265026	0.47433872878
0.0282608265026	0.47433872878
0.0282608265026	0.47433872878
0.641227776748	0.797699325664
0.0282608265026	0.47433872878
0.0282608265026	0.47433872878
0.0321030396751	0.53750493486
0.0282608265026	0.47433872878
0.0282608265026	0.47433872878
0.0282608265026	0.47433872878
0.0282608265026	0.47433872878
0.0189039096752	0.448432261881
0.0282608265026	0.47433872878
0.0321030396751	0.53750493486
0.0282608265026	0.47433872878
0.641227776748	0.797699325664
0.568098426795	0.653281096964
0.0282608265026	0.47433872878
0.641227776748	0.797699325664
0.0321030396751	0.53750493486
0.0321030396751	0.53750493486
0.0282608265026	0.47433872878
0.0484830449095	0.637450199203
0.0321030396751	0.53750493486
0.0282608265026	0.47433872878
0.641227776748	0.797699325664
