0.04998199928	0.4375
0.04998199928	0.4375
0.04998199928	0.4375
0.04998199928	0.4375
0.04998199928	0.4375
0.04998199928	0.4375
0.04998199928	0.4375
0.04998199928	0.4375
0.04998199928	0.4375
0.04998199928	0.4375
0.04998199928	0.4375
0.04998199928	0.4375
0.04998199928	0.4375
0.04998199928	0.4375
0.04998199928	0.4375
0.04998199928	0.4375
0.04998199928	0.4375
0.04998199928	0.4375
0.04998199928	0.4375
0.04998199928	0.4375
0.04998199928	0.4375
0.04998199928	0.4375
0.04998199928	0.4375
0.04998199928	0.4375
0.04998199928	0.4375
0.04998199928	0.4375
0.04998199928	0.4375
0.04998199928	0.4375
0.04998199928	0.4375
0.04998199928	0.4375
