0.00779885042919	0.0849772382398
0.00477016478751	0.0604026845638
0.0125802879291	0.102857142857
1.0	1.0
0.0	0.0
0.0	0.0
1.0	1.0
0.0176692415303	0.129429892142
0.0	0.0
0.00869052879658	0.0845070422535
0.0132330408135	0.0993464052288
0.0142763742108	0.108603667137
0.0	0.00141242937853
0.0652307692308	0.256
0.0	0.0
0.921538461538	0.96
0.0	0.00142045454545
0.0	0.0
0.0598783221262	0.24213836478
1.0	1.0
3.03720577069e-05	0.00577200577201
0.0	0.00142857142857
1.0	1.0
0.0	0.0
1.0	1.0
1.0	1.0
1.0	1.0
1.0	1.0
1.0	1.0
0.577307692308	0.76
