1.0	1.0
1.0	1.0
1.0	1.0
0.0	0.0
0.00564988730278	0.0700729927007
1.0	1.0
1.0	1.0
1.0	1.0
1.0	1.0
1.0	1.0
1.0	1.0
1.0	1.0
1.0	1.0
0.0	0.0
0.0	0.0
1.0	1.0
1.0	1.0
1.0	1.0
1.0	1.0
0.0	0.0
1.0	1.0
1.0	1.0
0.00640108441901	0.0751104565538
1.0	1.0
0.102051282051	0.32
0.0104273718511	0.0962962962963
1.0	1.0
0.0588512820513	0.2432
0.0	0.0
1.0	1.0
