0.0400040639049	0.197183098592
0.0	0.0
0.921538461538	0.96
0.0	0.0
0.0710483531956	0.262910798122
0.00493037709915	0.06456241033
0.0247318296762	0.155660377358
0.0	0.0
0.0	0.0
1.0	1.0
0.0	0.00142045454545
0.000140526976161	0.0112676056338
0.921538461538	0.96
0.0	0.0
0.0	0.0
0.000775064208751	0.0265095729013
0.0	0.0
0.0	0.0
0.0	0.0
1.0	1.0
1.0	1.0
0.0175480987043	0.127080181543
1.0	1.0
0.0	0.0
0.921538461538	0.96
0.0127833875977	0.10650887574
0.0	0.0
0.921538461538	0.96
1.0	1.0
0.0	0.0
