0.0	0.0
0.0523186682521	0.226059654631
0.846282051282	0.92
1.0	1.0
0.013868065967	0.110946745562
0.774230769231	0.88
0.774230769231	0.88
0.846282051282	0.92
0.0	0.0
1.0	1.0
0.774230769231	0.88
0.774230769231	0.88
0.774230769231	0.88
0.846282051282	0.92
0.774230769231	0.88
0.0	0.0
0.921538461538	0.96
1.0	1.0
1.0	1.0
0.774230769231	0.88
0.921538461538	0.96
0.846282051282	0.92
0.921538461538	0.96
0.846282051282	0.92
0.774230769231	0.88
1.0	1.0
0.0	0.0
0.0	0.0
0.705384615385	0.84
0.705384615385	0.84
