0.921538461538	0.96
1.0	1.0
0.0117833195208	0.102985074627
1.0	1.0
0.0	0.0
1.0	1.0
0.0	0.0
0.0	0.0
0.921538461538	0.96
1.0	1.0
0.0911076923077	0.3024
0.0	0.0
3.02794795967e-05	0.00570613409415
1.0	1.0
0.0	0.0
1.0	1.0
0.921538461538	0.96
0.639743589744	0.8
0.0	0.0
0.0	0.0
0.0	0.0
1.0	1.0
0.0	0.0
0.846282051282	0.92
0.921538461538	0.96
1.0	1.0
0.0	0.0
0.921538461538	0.96
0.0	0.0
0.0	0.0
