1.0	1.0
0.0	0.0
1.0	1.0
1.0	1.0
0.0	0.0014409221902
0.0	0.0
1.0	1.0
0.0	0.0
1.50332987567e-05	0.0041782729805
0.0	0.0
1.0	1.0
0.0	0.0
1.0	1.0
0.0115005199972	0.102874432678
1.0	1.0
0.024093453395	0.142653352354
0.0613375544123	0.244514106583
1.0	1.0
1.0	1.0
0.0204394090178	0.141732283465
1.0	1.0
0.0	0.0
0.0	0.0
0.0	0.00140056022409
1.0	1.0
1.0	1.0
0.0	0.0
0.0	0.0
0.0	0.0
0.0	0.0
