0.262574565777	0.618
0.0236167307497	0.187022900763
0.250235052993	0.6086
0.250235052993	0.6086
0.262574565777	0.618
0.250235052993	0.6086
0.262574565777	0.618
0.262574565777	0.618
0.262574565777	0.618
0.262574565777	0.618
0.262574565777	0.618
0.250235052993	0.6086
0.221123933676	0.5504
0.0301064909955	0.174646354733
0.00855822592114	0.0255691471288
0.262574565777	0.618
0.262574565777	0.618
0.123077973381	0.371029005525
0.262574565777	0.618
0.262574565777	0.618
0.262574565777	0.618
0.250235052993	0.6086
0.250235052993	0.6086
0.123077973381	0.371029005525
0.262574565777	0.618
0.262574565777	0.618
0.262574565777	0.618
0.262574565777	0.618
0.262574565777	0.618
0.250235052993	0.6086
