0.209472654086	0.612
0.301741570959	0.6554
0.630000184645	0.8574
0.209472654086	0.612
0.630000184645	0.8574
0.209472654086	0.612
0.209472654086	0.612
0.630000184645	0.8574
0.209472654086	0.612
0.209472654086	0.612
0.209472654086	0.612
0.209472654086	0.612
0.630000184645	0.8574
0.209472654086	0.612
0.296223457292	0.6468
0.209472654086	0.612
0.301741570959	0.6554
0.301741570959	0.6554
0.209472654086	0.612
0.301741570959	0.6554
0.209472654086	0.612
0.209472654086	0.612
0.301741570959	0.6554
0.209472654086	0.612
0.202859288255	0.592
0.209472654086	0.612
0.209472654086	0.612
0.301741570959	0.6554
0.209472654086	0.612
0.630000184645	0.8574
