0.316010500142	0.5492
0.163352290213	0.448
0.300696357571	0.5178
0.311222964905	0.5434
0.169741743294	0.4296
0.230788618487	0.5292
0.293678003865	0.501
0.17968074892	0.4526
0.0425455486995	0.241766329347
0.172689168729	0.4378
0.284995753167	0.4786
0.316010500142	0.5492
0.49010118542	0.7592
0.1409410121	0.4492
0.300696357571	0.5178
0.228899947068	0.4596
0.288237810357	0.4872
0.140305094969	0.4476
0.169108903578	0.4258
0.059155988035	0.2166
0.240028312222	0.5506
0.283818457107	0.4754
0.228899947068	0.4596
0.478974358974	0.7296
0.169741743294	0.4296
0.260052623804	0.5406
0.276319472654	0.4876
0.1409410121	0.4492
0.49010118542	0.7592
0.311222964905	0.5434
