0.392424572547	0.5888
0.392424572547	0.5888
0.428808116991	0.5724
0.39234037446	0.5886
0.0534357132097	0.267973856209
0.428808116991	0.5724
0.389350234499	0.5814
0.335249639942	0.5438
0.389350234499	0.5814
0.39234037446	0.5886
0.335249639942	0.5438
0.39558317023	0.5962
0.335249639942	0.5438
0.335249639942	0.5438
0.392424572547	0.5888
0.347023523764	0.5708
0.389350234499	0.5814
0.0524242341315	0.252093023256
0.39234037446	0.5886
0.39558317023	0.5962
0.39234037446	0.5886
0.438493666679	0.5958
0.39234037446	0.5886
0.39234037446	0.5886
0.347023523764	0.5708
0.438493666679	0.5958
0.335249639942	0.5438
0.0534357132097	0.267973856209
0.39234037446	0.5886
0.438493666679	0.5958
