0.0486192647755	0.6
0.0486192647755	0.6
0.0254681044788	0.395348837209
0.0486192647755	0.6
0.0254681044788	0.395348837209
0.0254681044788	0.395348837209
0.0486192647755	0.6
0.0486192647755	0.6
0.0254681044788	0.395348837209
0.0486192647755	0.6
0.0486192647755	0.6
0.0254681044788	0.395348837209
0.0486192647755	0.6
0.0254681044788	0.395348837209
0.0254681044788	0.395348837209
0.0486192647755	0.6
0.0486192647755	0.6
0.0486192647755	0.6
0.0254681044788	0.395348837209
0.0254681044788	0.395348837209
0.0254681044788	0.395348837209
0.0486192647755	0.6
0.0486192647755	0.6
0.0486192647755	0.6
0.0254681044788	0.395348837209
0.0486192647755	0.6
0.0254681044788	0.395348837209
0.0254681044788	0.395348837209
0.0486192647755	0.6
0.0486192647755	0.6
