0.0486192647755	0.6
0.0486192647755	0.6
0.00432503339593	0.058064516129
0.0486192647755	0.6
0.0486192647755	0.6
0.0486192647755	0.6
0.00432503339593	0.058064516129
0.0486192647755	0.6
0.00432503339593	0.058064516129
0.0486192647755	0.6
0.00432503339593	0.058064516129
0.0486192647755	0.6
0.00432503339593	0.058064516129
0.0486192647755	0.6
0.00432503339593	0.058064516129
0.00432503339593	0.058064516129
0.0486192647755	0.6
0.00432503339593	0.058064516129
0.0486192647755	0.6
0.0486192647755	0.6
0.0486192647755	0.6
0.0486192647755	0.6
0.0486192647755	0.6
0.0486192647755	0.6
0.0486192647755	0.6
0.0486192647755	0.6
0.0486192647755	0.6
0.0486192647755	0.6
0.0486192647755	0.6
0.0486192647755	0.6
