0.0689445322556	0.385714285714
0.920601334988	0.990099009901
0.0689445322556	0.385714285714
0.0689445322556	0.385714285714
0.0689445322556	0.385714285714
0.0689445322556	0.385714285714
0.920601334988	0.990099009901
0.0689445322556	0.385714285714
0.0689445322556	0.385714285714
0.0689445322556	0.385714285714
0.920601334988	0.990099009901
0.920601334988	0.990099009901
0.0689445322556	0.385714285714
0.0689445322556	0.385714285714
0.0689445322556	0.385714285714
0.0689445322556	0.385714285714
0.0689445322556	0.385714285714
0.0689445322556	0.385714285714
0.0689445322556	0.385714285714
0.0689445322556	0.385714285714
0.920601334988	0.990099009901
0.0689445322556	0.385714285714
0.0689445322556	0.385714285714
0.0689445322556	0.385714285714
0.0689445322556	0.385714285714
0.0689445322556	0.385714285714
0.0689445322556	0.385714285714
0.920601334988	0.990099009901
0.0689445322556	0.385714285714
0.0689445322556	0.385714285714
