0.0689445322556	0.385714285714
0.0689445322556	0.385714285714
0.0689445322556	0.385714285714
0.0689445322556	0.385714285714
0.0689445322556	0.385714285714
0.0689445322556	0.385714285714
0.0689445322556	0.385714285714
0.0689445322556	0.385714285714
0.0689445322556	0.385714285714
0.0689445322556	0.385714285714
0.0689445322556	0.385714285714
0.0689445322556	0.385714285714
0.0689445322556	0.385714285714
0.0689445322556	0.385714285714
0.0689445322556	0.385714285714
0.0689445322556	0.385714285714
0.0689445322556	0.385714285714
0.0689445322556	0.385714285714
0.0689445322556	0.385714285714
0.0689445322556	0.385714285714
0.0689445322556	0.385714285714
0.0689445322556	0.385714285714
0.0689445322556	0.385714285714
0.0689445322556	0.385714285714
0.0689445322556	0.385714285714
0.0689445322556	0.385714285714
0.0689445322556	0.385714285714
0.0689445322556	0.385714285714
0.0689445322556	0.385714285714
0.0689445322556	0.385714285714
