0.000399843198746	0.02
0.000399843198746	0.02
0.000399843198746	0.02
0.000399843198746	0.02
0.000399843198746	0.02
0.000399843198746	0.02
0.000399843198746	0.02
0.960392156863	0.98
0.960392156863	0.98
0.000399843198746	0.02
0.960392156863	0.98
0.960392156863	0.98
0.960392156863	0.98
0.000399843198746	0.02
0.000399843198746	0.02
0.000399843198746	0.02
0.960392156863	0.98
0.000399843198746	0.02
0.960392156863	0.98
0.960392156863	0.98
0.960392156863	0.98
0.960392156863	0.98
0.960392156863	0.98
0.000399843198746	0.02
0.000399843198746	0.02
0.000399843198746	0.02
0.000399843198746	0.02
0.000399843198746	0.02
0.000399843198746	0.02
0.960392156863	0.98
