1.0	1.0
1.0	1.0
0.000399843198746	0.02
1.0	1.0
1.0	1.0
0.000399843198746	0.02
1.0	1.0
0.000399843198746	0.02
0.000399843198746	0.02
1.0	1.0
0.000399843198746	0.02
0.000399843198746	0.02
1.0	1.0
1.0	1.0
0.000399843198746	0.02
0.000399843198746	0.02
1.0	1.0
0.000399843198746	0.02
0.000399843198746	0.02
1.0	1.0
0.000399843198746	0.02
0.000399843198746	0.02
1.0	1.0
1.0	1.0
1.0	1.0
0.000399843198746	0.02
1.0	1.0
1.0	1.0
0.000399843198746	0.02
1.0	1.0
