0.0412451649068	0.460526315789
0.0412451649068	0.460526315789
0.0412451649068	0.460526315789
0.0412451649068	0.460526315789
0.0412451649068	0.460526315789
0.0412451649068	0.460526315789
0.0412451649068	0.460526315789
0.0412451649068	0.460526315789
0.0412451649068	0.460526315789
0.0412451649068	0.460526315789
0.0412451649068	0.460526315789
0.0412451649068	0.460526315789
0.0412451649068	0.460526315789
0.0412451649068	0.460526315789
0.0412451649068	0.460526315789
0.0412451649068	0.460526315789
0.0412451649068	0.460526315789
0.0412451649068	0.460526315789
0.0412451649068	0.460526315789
0.0412451649068	0.460526315789
0.0412451649068	0.460526315789
0.0412451649068	0.460526315789
0.0412451649068	0.460526315789
0.0412451649068	0.460526315789
0.0412451649068	0.460526315789
0.0412451649068	0.460526315789
0.0412451649068	0.460526315789
0.0412451649068	0.460526315789
0.0412451649068	0.460526315789
0.0412451649068	0.460526315789
