0.0308676862971	0.418918918919
1.0	1.0
0.0308676862971	0.418918918919
1.0	1.0
0.0308676862971	0.418918918919
0.0308676862971	0.418918918919
1.0	1.0
1.0	1.0
0.0308676862971	0.418918918919
0.0308676862971	0.418918918919
0.0308676862971	0.418918918919
0.0308676862971	0.418918918919
0.0308676862971	0.418918918919
1.0	1.0
0.0308676862971	0.418918918919
0.0308676862971	0.418918918919
0.0308676862971	0.418918918919
1.0	1.0
0.0308676862971	0.418918918919
0.0308676862971	0.418918918919
0.0308676862971	0.418918918919
0.0308676862971	0.418918918919
0.0308676862971	0.418918918919
1.0	1.0
0.0308676862971	0.418918918919
0.0308676862971	0.418918918919
0.0308676862971	0.418918918919
0.0308676862971	0.418918918919
0.0308676862971	0.418918918919
0.0308676862971	0.418918918919
