0.00179564751829	0.0436046511628
0.00179564751829	0.0436046511628
0.00179564751829	0.0436046511628
1.0	1.0
0.00179564751829	0.0436046511628
0.00179564751829	0.0436046511628
0.00179564751829	0.0436046511628
1.0	1.0
0.00179564751829	0.0436046511628
1.0	1.0
0.00179564751829	0.0436046511628
0.00179564751829	0.0436046511628
0.00179564751829	0.0436046511628
1.0	1.0
0.00179564751829	0.0436046511628
0.00179564751829	0.0436046511628
0.00179564751829	0.0436046511628
1.0	1.0
0.00179564751829	0.0436046511628
0.00179564751829	0.0436046511628
0.00179564751829	0.0436046511628
1.0	1.0
0.00179564751829	0.0436046511628
0.00179564751829	0.0436046511628
0.00179564751829	0.0436046511628
0.00179564751829	0.0436046511628
0.00179564751829	0.0436046511628
0.00179564751829	0.0436046511628
0.00179564751829	0.0436046511628
0.00179564751829	0.0436046511628
