1.0	1.0
1.0	1.0
1.0	1.0
1.0	1.0
1.0	1.0
1.0	1.0
1.0	1.0
1.0	1.0
1.0	1.0
1.0	1.0
1.0	1.0
1.0	1.0
1.0	1.0
1.0	1.0
1.0	1.0
1.0	1.0
1.0	1.0
1.0	1.0
1.0	1.0
1.0	1.0
1.0	1.0
0.000196078431373	0.01
1.0	1.0
1.0	1.0
1.0	1.0
0.501752333924	0.529682190686
1.0	1.0
1.0	1.0
1.0	1.0
1.0	1.0
