0.756954781913	0.87
0.819967987195	0.9
0.775958383353	0.88
1.0	1.0
0.672340936375	0.82
0.92318527411	0.96
0.81156462585	0.9
0.723349339736	0.85
0.705946378551	0.84
0.744957983193	0.85
0.682344937975	0.82
0.504683399686	0.548425667597
0.980196078431	0.99
0.759355742297	0.87
0.836170468187	0.91
0.92318527411	0.96
0.595330132053	0.77
1.0	1.0
0.980196078431	0.99
0.722549019608	0.85
0.723349339736	0.85
0.796962785114	0.89
0.705946378551	0.84
0.672340936375	0.82
0.869775910364	0.93
0.869775910364	0.93
0.836170468187	0.91
0.836170468187	0.91
0.960792316927	0.98
0.92318527411	0.96
