0.689743897559	0.83
0.608731492597	0.78
0.869775910364	0.93
0.597731092437	0.77
1.0	1.0
0.581128451381	0.76
0.788763505402	0.88
0.788763505402	0.88
0.852773109244	0.92
0.852773109244	0.92
0.788763505402	0.88
0.788763505402	0.88
0.624933973589	0.79
0.788763505402	0.88
0.869775910364	0.93
0.869775910364	0.93
0.564925970388	0.75
0.788763505402	0.88
0.641536614646	0.8
0.641536614646	0.8
0.658539415766	0.81
0.819967987195	0.9
0.819967987195	0.9
0.836170468187	0.91
0.691344537815	0.83
0.705946378551	0.84
0.624933973589	0.79
0.624933973589	0.79
0.624933973589	0.79
0.656138455382	0.81
