0.852773109244	0.92
0.903381352541	0.95
0.92318527411	0.96
0.852773109244	0.92
0.92318527411	0.96
0.904981992797	0.95
0.335969289938	0.402988008649
0.836170468187	0.91
0.832969187675	0.91
0.739951980792	0.86
0.92318527411	0.96
0.792160864346	0.89
0.739951980792	0.86
0.904981992797	0.95
0.887178871549	0.94
0.86737494998	0.93
1.0	1.0
0.792160864346	0.89
0.810364145658	0.9
0.723349339736	0.85
0.904981992797	0.95
0.739951980792	0.86
0.774357743097	0.88
0.775958383353	0.88
0.723349339736	0.85
0.810364145658	0.9
0.739951980792	0.86
0.792160864346	0.89
0.446154459209	0.49115913556
0.810364145658	0.9
