1.0	1.0
1.0	1.0
0.904981992797	0.95
0.904981992797	0.95
0.852773109244	0.92
0.869775910364	0.93
0.852773109244	0.92
1.0	1.0
0.852773109244	0.92
0.887178871549	0.94
0.904981992797	0.95
0.904981992797	0.95
0.869775910364	0.93
0.386978181783	0.432985632749
0.887178871549	0.94
0.832969187675	0.91
1.0	1.0
1.0	1.0
0.852773109244	0.92
0.409479125511	0.489141068284
0.960792316927	0.98
0.852773109244	0.92
1.0	1.0
0.852773109244	0.92
0.819967987195	0.9
0.904981992797	0.95
0.960792316927	0.98
1.0	1.0
0.904981992797	0.95
0.941788715486	0.97
