0.66094037615	0.81
0.773761504602	0.87
0.828167266907	0.91
0.632136854742	0.79
0.902581032413	0.95
0.743153261305	0.86
0.727350940376	0.85
0.980196078431	0.99
0.810364145658	0.9
0.792160864346	0.89
0.86737494998	0.93
0.780760304122	0.88
0.810364145658	0.9
1.0	1.0
0.887178871549	0.94
0.828967587035	0.91
0.960792316927	0.98
0.734553821529	0.85
0.887178871549	0.94
0.828967587035	0.91
0.887178871549	0.94
0.810364145658	0.9
0.810364145658	0.9
0.593729491797	0.77
0.92318527411	0.96
0.828967587035	0.91
0.593729491797	0.77
0.832969187675	0.91
1.0	1.0
0.810364145658	0.9
