0.804752869819	0.9
0.863087060383	0.95
0.804752869819	0.9
1.0	1.0
1.0	1.0
0.863087060383	0.95
1.0	1.0
0.905518662872	0.96
0.905518662872	0.96
0.804752869819	0.9
1.0	1.0
0.774708827194	0.83
0.804752869819	0.9
0.863087060383	0.95
0.863087060383	0.95
0.804752869819	0.9
1.0	1.0
0.909946737379	0.97
0.782136257825	0.85
0.804752869819	0.9
1.0	1.0
0.785992844978	0.86
0.804752869819	0.9
1.0	1.0
1.0	1.0
0.820750705787	0.94
0.774708827194	0.83
0.863087060383	0.95
0.778374918563	0.84
0.797325439188	0.88
