0.858849481661	0.94
0.836232869667	0.89
0.888758843767	0.92
0.854707150831	0.93
0.858849481661	0.94
0.888758843767	0.92
0.878569224263	0.9
0.884807008721	0.91
1.0	1.0
0.565507309323	0.74
0.888758843767	0.92
1.0	1.0
0.943617438746	0.96
0.854707150831	0.93
0.808570024345	0.82
0.858849481661	0.94
0.862190396727	0.86
0.854707150831	0.93
0.81985404213	0.85
1.0	1.0
1.0	1.0
0.884807008721	0.91
0.836232869667	0.89
0.858849481661	0.94
1.0	1.0
0.854707150831	0.93
0.858849481661	0.94
0.858333809573	0.85
0.878664472155	0.9
1.0	1.0
