0.850660067893	0.92
0.721183702705	0.79
0.66931722501	0.84
1.0	1.0
0.854707150831	0.93
0.854707150831	0.93
0.752180224252	0.86
0.752180224252	0.86
1.0	1.0
0.896948257535	0.94
0.892805926705	0.93
0.850660067893	0.92
1.0	1.0
0.330904996575	0.506969334926
0.755655819837	0.87
1.0	1.0
0.672602324811	0.85
0.752180224252	0.86
1.0	1.0
0.752180224252	0.86
0.854707150831	0.93
0.752180224252	0.86
0.752180224252	0.86
1.0	1.0
0.896948257535	0.94
1.0	1.0
1.0	1.0
0.854707150831	0.93
0.892805926705	0.93
0.846708232847	0.91
