0.769614017442	0.82
1.0	1.0
0.766654093945	0.9
0.808609456973	0.91
0.759226663314	0.88
0.841327679418	0.9
0.948045513253	0.97
0.762892754683	0.89
1.0	1.0
0.74903704381	0.86
0.773565852488	0.83
0.773565852488	0.83
0.812561292019	0.92
0.723897315152	0.8
1.0	1.0
0.850660067893	0.92
0.850660067893	0.92
0.863087060383	0.95
0.850660067893	0.92
0.808609456973	0.91
0.808609456973	0.91
1.0	1.0
0.808609456973	0.91
1.0	1.0
0.858849481661	0.94
0.808609456973	0.91
0.850660067893	0.92
0.766654093945	0.9
0.948045513253	0.97
0.773565852488	0.83
