0.901185836257	0.95
0.858849481661	0.94
0.853564176125	0.93
0.901185836257	0.95
0.812561292019	0.92
0.901185836257	0.95
0.901185836257	0.95
0.901185836257	0.95
0.901185836257	0.95
0.743656490382	0.85
0.840470448389	0.9
0.943617438746	0.96
1.0	1.0
1.0	1.0
0.858849481661	0.94
1.0	1.0
0.901185836257	0.95
0.901185836257	0.95
0.901185836257	0.95
0.744037481951	0.85
1.0	1.0
0.901185836257	0.95
0.901185836257	0.95
1.0	1.0
0.901185836257	0.95
0.858849481661	0.94
1.0	1.0
0.836232869667	0.89
0.752226895719	0.87
1.0	1.0
