0.896948257535	0.94
0.842851645693	0.9
0.842851645693	0.9
0.896948257535	0.94
0.896948257535	0.94
0.896948257535	0.94
1.0	1.0
0.812236115715	0.83
1.0	1.0
0.888758843767	0.92
0.812236115715	0.83
0.812236115715	0.83
0.842851645693	0.9
0.854707150831	0.93
1.0	1.0
0.888758843767	0.92
0.827852960114	0.87
0.901185836257	0.95
0.696378294148	0.72
0.823805877176	0.86
1.0	1.0
0.854707150831	0.93
1.0	1.0
0.118991568597	0.490580847724
1.0	1.0
0.793754595711	0.87
0.854707150831	0.93
1.0	1.0
0.807808041208	0.82
1.0	1.0
