1.0	1.0
0.0584636372174	0.293829578844
0.0580118873675	0.301556420233
0.0580049562361	0.296223446105
0.0580059437971	0.296493301812
1.0	1.0
0.058015420785	0.303089558076
0.0584658940992	0.294695481336
1.0	1.0
0.0511784096926	0.327805630544
0.0875232488821	0.30169358015
0.0584636372174	0.293829578844
1.0	1.0
0.0580149447237	0.302852676827
0.0554601780034	0.306789278028
1.0	1.0
0.0584645818292	0.294175328496
0.0767312178826	0.312330360605
0.0533541395135	0.307752392111
0.0539773206528	0.317980343033
0.0556375664295	0.31884057971
0.106242365441	0.303066271019
0.0584658940992	0.294695481336
1.0	1.0
1.0	1.0
1.0	1.0
1.0	1.0
1.0	1.0
1.0	1.0
1.0	1.0
