0.968998570924	0.99
0.931584232713	0.96
1.0	1.0
0.0580043025228	0.295539398703
0.0707281780726	0.307840493161
0.0548550133211	0.305141287284
0.0580044983806	0.296383647799
0.965585203823	0.98
0.060637574856	0.297955974843
0.164896250368	0.326
0.0577094591962	0.303302716435
0.0584666991734	0.295043273013
0.0584645818292	0.294175328496
0.931584232713	0.96
0.968998570924	0.99
1.0	1.0
0.0817609737154	0.304100451246
0.0547438380156	0.335892514395
1.0	1.0
0.0598384079321	0.311430793157
0.050907116764	0.366224273899
0.0534114805987	0.344234079174
0.0563722361534	0.296463654224
1.0	1.0
1.0	1.0
0.0584674484242	0.29539188657
0.0584645818292	0.294175328496
0.968998570924	0.99
0.0664267681779	0.296690307329
0.931584232713	0.96
