1.0	1.0
0.0555252162248	0.300648457457
0.0560939918572	0.301396812906
0.0580042189768	0.295284872299
1.0	1.0
1.0	1.0
1.0	1.0
1.0	1.0
0.0584645818292	0.294175328496
1.0	1.0
0.056840805275	0.308623298033
0.0585011267471	0.353579588728
0.0558138103873	0.302839116719
0.968998570924	0.99
0.934790687281	0.97
0.0584666991734	0.295043273013
0.934790687281	0.97
0.0602179401456	0.303326810176
0.934790687281	0.97
1.0	1.0
1.0	1.0
0.934790687281	0.97
1.0	1.0
1.0	1.0
1.0	1.0
0.0571318608877	0.317340385342
0.968998570924	0.99
1.0	1.0
0.938066112693	0.98
1.0	1.0
