0.152320429149	0.8
0.152320429149	0.8
0.152320429149	0.8
0.152320429149	0.8
0.152320429149	0.8
0.152320429149	0.8
0.152320429149	0.8
0.152320429149	0.8
0.152320429149	0.8
0.152320429149	0.8
0.152320429149	0.8
0.152320429149	0.8
0.152320429149	0.8
0.152320429149	0.8
0.152320429149	0.8
0.152320429149	0.8
0.152320429149	0.8
0.152320429149	0.8
0.152320429149	0.8
0.152320429149	0.8
0.152320429149	0.8
0.152320429149	0.8
0.152320429149	0.8
0.152320429149	0.8
0.152320429149	0.8
0.152320429149	0.8
0.152320429149	0.8
0.152320429149	0.8
0.152320429149	0.8
0.152320429149	0.8
