1.0	1.0
1.0	1.0
0.0720022495399	0.493800432986
1.0	1.0
1.0	1.0
1.0	1.0
1.0	1.0
1.0	1.0
1.0	1.0
1.0	1.0
1.0	1.0
1.0	1.0
0.0721586893729	0.497441951987
1.0	1.0
1.0	1.0
0.0675392731285	0.492918961448
1.0	1.0
1.0	1.0
1.0	1.0
1.0	1.0
1.0	1.0
1.0	1.0
1.0	1.0
1.0	1.0
0.0676535404993	0.492918961448
1.0	1.0
1.0	1.0
1.0	1.0
1.0	1.0
1.0	1.0
