1.0	1.0
1.0	1.0
1.0	1.0
1.0	1.0
1.0	1.0
1.0	1.0
1.0	1.0
1.0	1.0
1.0	1.0
1.0	1.0
0.985953793343	0.97
0.990667611526	0.98
0.990667611526	0.98
0.990667611526	0.98
1.0	1.0
0.995286181817	0.99
0.990667611526	0.98
0.990667611526	0.98
1.0	1.0
0.952568835652	0.98
0.947855017468	0.97
1.0	1.0
1.0	1.0
1.0	1.0
1.0	1.0
1.0	1.0
1.0	1.0
0.990667611526	0.98
0.943236447177	0.96
1.0	1.0
