0.774357743097	0.88
0.705546218487	0.84
0.846370548219	0.92
0.883577430972	0.94
0.672340936375	0.82
0.846370548219	0.92
0.739551820728	0.86
0.846370548219	0.92
0.883577430972	0.94
1.0	1.0
0.883577430972	0.94
0.883577430972	0.94
1.0	1.0
1.0	1.0
0.739551820728	0.86
1.0	1.0
0.705546218487	0.84
1.0	1.0
1.0	1.0
1.0	1.0
0.705546218487	0.84
0.705546218487	0.84
0.705546218487	0.84
0.883577430972	0.94
0.883577430972	0.94
1.0	1.0
0.846370548219	0.92
0.921584633854	0.96
0.705546218487	0.84
0.739551820728	0.86
