0.846370548219	0.92
1.0	1.0
0.774357743097	0.88
0.846370548219	0.92
0.846370548219	0.92
0.846370548219	0.92
1.0	1.0
0.846370548219	0.92
0.846370548219	0.92
0.846370548219	0.92
1.0	1.0
1.0	1.0
1.0	1.0
1.0	1.0
0.846370548219	0.92
1.0	1.0
0.883577430972	0.94
0.846370548219	0.92
0.846370548219	0.92
0.027535247637	0.164687252573
1.0	1.0
0.846370548219	0.92
0.883577430972	0.94
1.0	1.0
0.846370548219	0.92
0.846370548219	0.92
0.774357743097	0.88
0.846370548219	0.92
0.809963985594	0.9
0.774357743097	0.88
