0.672340936375	0.82
0.672340936375	0.82
0.672340936375	0.82
0.774357743097	0.88
0.672340936375	0.82
1.0	1.0
0.774357743097	0.88
0.435510204082	0.66
1.0	1.0
0.809963985594	0.9
0.705546218487	0.84
1.0	1.0
0.672340936375	0.82
0.705546218487	0.84
1.0	1.0
1.0	1.0
1.0	1.0
0.63993597439	0.8
0.672340936375	0.82
0.672340936375	0.82
0.705546218487	0.84
0.739551820728	0.86
0.027535247637	0.164687252573
0.21150060024	0.46
0.705546218487	0.84
0.739551820728	0.86
0.809963985594	0.9
0.705546218487	0.84
1.0	1.0
0.774357743097	0.88
