1.0	1.0
0.809963985594	0.9
1.0	1.0
0.672340936375	0.82
0.672340936375	0.82
1.0	1.0
0.739551820728	0.86
1.0	1.0
0.705546218487	0.84
0.809963985594	0.9
0.000120835375227	0.0108907040062
0.672340936375	0.82
1.0	1.0
0.672340936375	0.82
0.63993597439	0.8
0.672340936375	0.82
1.0	1.0
0.0197258699279	0.139571768438
0.672340936375	0.82
0.63993597439	0.8
0.672340936375	0.82
0.672340936375	0.82
1.0	1.0
1.0	1.0
0.672340936375	0.82
0.672340936375	0.82
0.336302521008	0.58
1.0	1.0
1.0	1.0
0.672340936375	0.82
