1.0	1.0
0.672340936375	0.82
0.672340936375	0.82
1.0	1.0
0.705546218487	0.84
0.705546218487	0.84
0.705546218487	0.84
1.0	1.0
0.672340936375	0.82
0.809963985594	0.9
0.705546218487	0.84
0.672340936375	0.82
1.0	1.0
0.774357743097	0.88
1.0	1.0
0.705546218487	0.84
0.705546218487	0.84
1.0	1.0
1.0	1.0
0.705546218487	0.84
0.672340936375	0.82
0.705546218487	0.84
0.705546218487	0.84
0.705546218487	0.84
0.705546218487	0.84
1.0	1.0
0.705546218487	0.84
0.883577430972	0.94
0.960392156863	0.98
0.846370548219	0.92
