0.739551820728	0.86
0.0	0.000387747188833
0.705546218487	0.84
1.0	1.0
0.63993597439	0.8
0.739551820728	0.86
0.774357743097	0.88
0.846370548219	0.92
0.63993597439	0.8
0.883577430972	0.94
0.883577430972	0.94
0.739551820728	0.86
0.809963985594	0.9
0.921584633854	0.96
0.739551820728	0.86
0.63993597439	0.8
0.809963985594	0.9
0.809963985594	0.9
1.0	1.0
0.809963985594	0.9
0.739551820728	0.86
0.883577430972	0.94
0.739551820728	0.86
0.739551820728	0.86
0.739551820728	0.86
1.0	1.0
0.739551820728	0.86
0.846370548219	0.92
0.883577430972	0.94
0.739551820728	0.86
