1.0	1.0
1.0	1.0
1.0	1.0
1.0	1.0
1.0	1.0
1.0	1.0
1.0	1.0
1.0	1.0
1.0	1.0
1.0	1.0
1.0	1.0
1.0	1.0
1.0	1.0
1.0	1.0
1.0	1.0
1.0	1.0
0.666666666667	0.666666666667
0.666666666667	0.666666666667
1.0	1.0
1.0	1.0
1.0	1.0
1.0	1.0
1.0	1.0
0.666666666667	0.666666666667
1.0	1.0
1.0	1.0
1.0	1.0
1.0	1.0
0.666666666667	0.666666666667
1.0	1.0
