0.0177676761005	0.463665086888
0.0177676761005	0.463665086888
0.016064432095	0.410742496051
0.0177676761005	0.463665086888
0.201231883949	0.52151799687
0.0165534395837	0.428515007899
0.0177676761005	0.463665086888
0.0166857373199	0.432859399684
0.0156593343755	0.392969984202
0.016643098726	0.431477093207
0.13866098209	0.410717778212
0.018036943586	0.470379146919
0.0177676761005	0.463665086888
0.0177676761005	0.463665086888
0.018036943586	0.470379146919
0.0177676761005	0.463665086888
0.018036943586	0.470379146919
0.201231883949	0.52151799687
0.0177676761005	0.463665086888
0.210648942027	0.508382066277
0.0167851030615	0.436018957346
0.0177676761005	0.463665086888
0.0159910887411	0.407780410742
0.0162181112835	0.416666666667
0.195477499419	0.530054644809
0.0165771207852	0.429304897314
0.0177676761005	0.463665086888
0.0162984471182	0.419628751975
0.0217176197173	0.543048973144
0.0168871207662	0.439178515008
