0.0969226391636	0.553901131626
0.0150303379589	0.355158730159
0.026735033075	0.485089463221
0.026915054661	0.501195219124
0.0266621088602	0.477689243028
0.0150303379589	0.355158730159
0.0265491879253	0.448207171315
0.0105435418018	0.31775333857
0.0105435418018	0.31775333857
0.0265491879253	0.448207171315
0.0265491879253	0.448207171315
0.0105435418018	0.31775333857
0.0265491879253	0.448207171315
0.0105435418018	0.31775333857
0.0466567426678	0.501889795106
0.0265491879253	0.448207171315
0.0265491879253	0.448207171315
0.0150303379589	0.355158730159
0.0150303379589	0.355158730159
0.0105435418018	0.31775333857
0.0105435418018	0.31775333857
0.0105435418018	0.31775333857
0.0150303379589	0.355158730159
0.0457111330368	0.507955449483
0.0105435418018	0.31775333857
0.0266087912324	0.468600953895
0.0150303379589	0.355158730159
0.0150303379589	0.355158730159
0.0265486771655	0.50813815006
0.0105435418018	0.31775333857
