0.0123029107931	0.356251238359
0.0232000750781	0.425824175824
0.0124886103942	0.339420404923
0.0233550465696	0.436299490396
0.0232000750781	0.425824175824
0.0123029107931	0.356251238359
0.0140974191106	0.432576505429
0.0230132619926	0.402116402116
0.0124886103942	0.339420404923
0.0129075820179	0.357000398883
0.0129075820179	0.357000398883
0.0232000750781	0.425824175824
0.0233550465696	0.436299490396
0.0231405756348	0.421507064364
0.0229992304658	0.407218517066
0.0123029107931	0.356251238359
0.0123029107931	0.356251238359
0.0233550465696	0.436299490396
0.0137210417705	0.408447937132
0.0233550465696	0.436299490396
0.0229992304658	0.407218517066
0.0137210417705	0.408447937132
0.0230019974962	0.397727272727
0.0233550465696	0.436299490396
0.0123029107931	0.356251238359
0.0124886103942	0.339420404923
0.0123029107931	0.356251238359
0.0137210417705	0.408447937132
0.0123029107931	0.356251238359
0.0123029107931	0.356251238359
