0.0132164837564	0.429653248306
0.109901825502	0.568723155018
0.0132164837564	0.429653248306
0.0318143902975	0.549251379039
0.00973537997492	0.383908963865
0.0132164837564	0.429653248306
0.0132164837564	0.429653248306
0.0132164837564	0.429653248306
0.0132164837564	0.429653248306
0.0132164837564	0.429653248306
0.00973537997492	0.383908963865
0.0132164837564	0.429653248306
0.031041398767	0.473010244287
0.0132164837564	0.429653248306
0.00973537997492	0.383908963865
0.0132164837564	0.429653248306
0.0132164837564	0.429653248306
0.122335648593	0.555708120832
0.0132164837564	0.429653248306
0.0132164837564	0.429653248306
0.0132164837564	0.429653248306
0.0132164837564	0.429653248306
0.00973537997492	0.383908963865
0.0132164837564	0.429653248306
0.031041398767	0.473010244287
0.0132164837564	0.429653248306
0.0132164837564	0.429653248306
0.00973537997492	0.383908963865
0.00973537997492	0.383908963865
0.0132164837564	0.429653248306
