0.738036657918	0.8168
0.738036657918	0.8168
0.738036657918	0.8168
0.738036657918	0.8168
0.738036657918	0.8168
0.614748624886	0.7824
0.738036657918	0.8168
0.614748624886	0.7824
0.738036657918	0.8168
0.738036657918	0.8168
0.738036657918	0.8168
0.614748624886	0.7824
0.614748624886	0.7824
0.738036657918	0.8168
0.738036657918	0.8168
0.738036657918	0.8168
0.614748624886	0.7824
0.738036657918	0.8168
0.738036657918	0.8168
0.738036657918	0.8168
0.614748624886	0.7824
0.614748624886	0.7824
0.738036657918	0.8168
0.738036657918	0.8168
0.738036657918	0.8168
0.614748624886	0.7824
0.614748624886	0.7824
0.738036657918	0.8168
0.614748624886	0.7824
0.738036657918	0.8168
