0.015953011851	0.418199233716
0.01886254593	0.476633701765
0.0322831629367	0.395950506187
0.0159732982871	0.365501519757
0.01886254593	0.476633701765
0.0159732982871	0.365501519757
0.0159732982871	0.365501519757
0.0159732982871	0.365501519757
0.0159732982871	0.365501519757
0.01886254593	0.476633701765
0.0324472966881	0.429696287964
0.0159732982871	0.365501519757
0.0322831629367	0.395950506187
0.0159732982871	0.365501519757
0.01886254593	0.476633701765
0.0159732982871	0.365501519757
0.022389236236	0.393989983306
0.01886254593	0.476633701765
0.0324699758768	0.431946006749
0.022389236236	0.393989983306
0.01886254593	0.476633701765
0.0324818656402	0.433070866142
0.0324295180788	0.42782152231
0.01886254593	0.476633701765
0.0159732982871	0.365501519757
0.01886254593	0.476633701765
0.120732810963	0.45115585384
0.01886254593	0.476633701765
0.0322831629367	0.395950506187
0.01886254593	0.476633701765
