0.315296601302	0.9
0.315296601302	0.9
0.315296601302	0.9
0.315296601302	0.9
0.315296601302	0.9
0.315296601302	0.9
0.192563812959	0.519792083167
0.315296601302	0.9
0.315296601302	0.9
0.315296601302	0.9
0.315296601302	0.9
0.315296601302	0.9
0.315296601302	0.9
0.315296601302	0.9
0.315296601302	0.9
0.315296601302	0.9
0.315296601302	0.9
0.315296601302	0.9
0.315296601302	0.9
0.315296601302	0.9
0.315296601302	0.9
0.315296601302	0.9
0.315296601302	0.9
0.315296601302	0.9
0.315296601302	0.9
0.315296601302	0.9
0.315296601302	0.9
0.315296601302	0.9
0.315296601302	0.9
