0.961161239702	0.980392156863
0.489948939153	0.498530852106
0.961161239702	0.980392156863
0.489680585753	0.493380062305
0.961161239702	0.980392156863
0.409467297238	0.48698017878
0.961161239702	0.980392156863
0.489915114668	0.49892388965
0.961161239702	0.980392156863
0.961161239702	0.980392156863
0.961161239702	0.980392156863
0.961161239702	0.980392156863
0.961161239702	0.980392156863
0.961161239702	0.980392156863
0.961161239702	0.980392156863
0.511531972243	0.598193244305
0.961161239702	0.980392156863
0.961161239702	0.980392156863
0.961161239702	0.980392156863
0.961161239702	0.980392156863
0.961161239702	0.980392156863
0.430715981986	0.486665368892
0.489629034002	0.484402247626
0.961161239702	0.980392156863
0.961161239702	0.980392156863
0.961161239702	0.980392156863
0.961161239702	0.980392156863
0.961161239702	0.980392156863
0.961161239702	0.980392156863
0.961161239702	0.980392156863
