0.961161239702	0.980392156863
0.961161239702	0.980392156863
0.961161239702	0.980392156863
0.961161239702	0.980392156863
0.489635055026	0.494552529183
0.489590578859	0.485946888932
0.961161239702	0.980392156863
0.961161239702	0.980392156863
0.961161239702	0.980392156863
0.961161239702	0.980392156863
0.961161239702	0.980392156863
0.961161239702	0.980392156863
0.961161239702	0.980392156863
0.961161239702	0.980392156863
0.961161239702	0.980392156863
0.402847550236	0.484966052376
0.961161239702	0.980392156863
0.961161239702	0.980392156863
0.961161239702	0.980392156863
0.492256834972	0.527969954536
0.961161239702	0.980392156863
0.489762148453	0.48600311042
0.409447941619	0.484966052376
0.43819031275	0.48784755979
0.409413328231	0.484402247626
0.961161239702	0.980392156863
0.489903363351	0.497455968689
0.961161239702	0.980392156863
0.961161239702	0.980392156863
0.961161239702	0.980392156863
