0.0376454856587	0.7
0.0376454856587	0.7
0.0376454856587	0.7
0.0376454856587	0.7
0.0376454856587	0.7
0.0376454856587	0.7
0.0376454856587	0.7
0.0376454856587	0.7
0.0376454856587	0.7
0.0376454856587	0.7
0.0376454856587	0.7
0.0376454856587	0.7
0.0376454856587	0.7
0.0376454856587	0.7
0.0376454856587	0.7
0.0376454856587	0.7
0.0376454856587	0.7
0.0376454856587	0.7
0.0376454856587	0.7
0.0376454856587	0.7
0.0376454856587	0.7
0.0376454856587	0.7
0.0376454856587	0.7
0.0376454856587	0.7
0.0376454856587	0.7
0.0376454856587	0.7
0.0376454856587	0.7
0.0376454856587	0.7
0.0376454856587	0.7
