0.0376454856587	0.7
0.0376454856587	0.7
0.0376454856587	0.7
0.0376454856587	0.7
0.0376454856587	0.7
0.0376454856587	0.7
0.0376454856587	0.7
0.0376454856587	0.7
0.0376454856587	0.7
0.0376454856587	0.7
0.0376454856587	0.7
0.0376454856587	0.7
0.0376454856587	0.7
0.0376454856587	0.7
0.0376454856587	0.7
0.0376454856587	0.7
0.0376454856587	0.7
0.0376454856587	0.7
0.0376454856587	0.7
0.0376454856587	0.7
0.0376454856587	0.7
0.0376454856587	0.7
0.0376454856587	0.7
0.0174376800189	0.499900019996
0.0376454856587	0.7
0.0376454856587	0.7
0.0376454856587	0.7
