0.0376454856587	0.7
0.0376454856587	0.7
0.0376454856587	0.7
0.0376454856587	0.7
0.0376454856587	0.7
0.0376454856587	0.7
0.0376454856587	0.7
0.0376454856587	0.7
0.0376454856587	0.7
0.0376454856587	0.7
0.0376454856587	0.7
0.0376454856587	0.7
1.27277223299e-05	0.01
0.0376454856587	0.7
0.0376454856587	0.7
0.0376454856587	0.7
0.0376454856587	0.7
0.0376454856587	0.7
0.0376454856587	0.7
0.0376454856587	0.7
0.0376454856587	0.7
0.0376454856587	0.7
0.0376454856587	0.7
0.0376454856587	0.7
0.0376454856587	0.7
0.0376454856587	0.7
