0.495282051282	0.704
0.0052776502983	0.0713178294574
0.0389085523508	0.190839694656
0.0547360367253	0.232594936709
0.446938461538	0.6688
0.00649578920018	0.0789473684211
0.0783970351667	0.27804107425
0.401076923077	0.6336
0.102051282051	0.32
0.0177071163712	0.13023255814
0.0119127414539	0.106317411402
0.253615384615	0.504
0.596938461538	0.7728
0.147076923077	0.384
0.266682051282	0.5168
0.00996174445295	0.0984375
