0.0361354319551	0.186046511628
0.0515431403469	0.219847328244
0.0129552193416	0.110429447853
1.0	1.0
0.00482163517653	0.0680061823802
0.0119453142901	0.107309486781
0.0057487080696	0.0743034055728
1.0	1.0
1.0	1.0
