0.278384615385	0.528
0.495282051282	0.704
0.495282051282	0.704
0.278384615385	0.528
0.495282051282	0.704
0.446938461538	0.6688
0.546107692308	0.7392
0.495282051282	0.704
0.599415384615	0.7744
0.401076923077	0.6336
0.495282051282	0.704
0.495282051282	0.704
0.495282051282	0.704
0.401076923077	0.6336
0.495282051282	0.704
0.655205128205	0.8096
0.278384615385	0.528
0.446938461538	0.6688
0.495282051282	0.704
0.495282051282	0.704
0.495282051282	0.704
0.401076923077	0.6336
0.446938461538	0.6688
0.495282051282	0.704
0.546107692308	0.7392
0.278384615385	0.528
0.495282051282	0.704
0.446938461538	0.6688
0.401076923077	0.6336
0.401076923077	0.6336
