0.530180419885	0.641224970554
0.201253132287	0.215861848417
0.094445010004	0.19344
0.466407747099	0.51008
0.0605682272909	0.11008
0.475478511405	0.52288
0.129967186875	0.212
0.315593473491	0.417499001199
0.425901560624	0.472
0.610193837535	0.74768
0.00399935937526	0.0272628135224
0.369280530166	0.46985495884
0.0605682272909	0.11008
0.0378601360544	0.08704
0.294643963235	0.370622101391
0.0769603841537	0.12408
0.321666266507	0.356
0.40861112445	0.4888
0.0836517647059	0.12936
0.314066618647	0.37824
0.00120591826108	0.0149195131527
0.14926162465	0.24328
0.6	0.6
0.117326290516	0.21256
