0.147910364146	0.172
0.11526498615	0.303825482137
0.18539697479	0.27216
0.416981512605	0.4912
0.468073616397	0.581446256039
0.866218487395	0.92
0.499557647059	0.54112
0.0769603841537	0.12408
0.722120528211	0.82088
0.0126087932475	0.0376964910974
0.216520446984	0.385157927016
0.2	0.2
0.175946602641	0.25376
0.349061416567	0.45304
0.19516177189	0.223943976756
0.510918637244	0.582033686837
0.494875454182	0.61032
2.08068499479e-05	0.00207535121328
0.152174981993	0.24624
0.0859228291945	0.201892274454
0.192078431373	0.196
0.0955344057623	0.13824
0.141109243697	0.168
