0.342110952904	0.501375515818
0.00722767212792	0.027293404094
0.0259486194478	0.0624
0.293642128852	0.39264
0.345850084034	0.52128
0.0592648811299	0.199426639224
0.103663865546	0.144
0.536461368547	0.63168
0.683564817927	0.79784
0.00646303299163	0.0255493878792
0.0827324492965	0.374804870434
0.545809235694	0.69704
0.103663865546	0.144
0.406039279712	0.52944
0.122656206817	0.264068634579
0.700195278111	0.812
0.153238522766	0.343107569721
0.0136599338172	0.0512820512821
0.2	0.2
0.273622152861	0.32136
0.302185130052	0.3744
0.283136330844	0.376428286057
0.757033757503	0.84752
0.170425354142	0.25776
0.426351660664	0.50088
