0.194315224804	0.9
0.194315224804	0.9
0.194315224804	0.9
0.194315224804	0.9
0.0236609647728	0.0816966765792
0.194315224804	0.9
0.194315224804	0.9
0.194315224804	0.9
0.194315224804	0.9
0.194315224804	0.9
0.194315224804	0.9
0.194315224804	0.9
0.194315224804	0.9
0.194315224804	0.9
0.194315224804	0.9
0.194315224804	0.9
0.194315224804	0.9
0.194315224804	0.9
0.194315224804	0.9
0.194315224804	0.9
0.194315224804	0.9
0.194315224804	0.9
0.194315224804	0.9
0.194315224804	0.9
0.194315224804	0.9
0.0236609647728	0.0816966765792
0.194315224804	0.9
0.194315224804	0.9
0.194315224804	0.9
0.194315224804	0.9
