0.173932442575	0.8548
0.108585086682	0.418994413408
0.173932442575	0.8548
0.108564132994	0.418482999128
0.108605847694	0.419507079182
0.108605847694	0.419507079182
0.108478396057	0.416449765747
0.173932442575	0.8548
0.108585086682	0.418994413408
0.173932442575	0.8548
0.0238439422936	0.0816966765792
0.108585086682	0.418994413408
0.108605847694	0.419507079182
0.173932442575	0.8548
0.173932442575	0.8548
0.108585086682	0.418994413408
0.173932442575	0.8548
0.173932442575	0.8548
0.108585086682	0.418994413408
0.173932442575	0.8548
0.108564132994	0.418482999128
0.173932442575	0.8548
0.173932442575	0.8548
0.0238439422936	0.0816966765792
0.173932442575	0.8548
0.108626415803	0.42002100105
0.108585086682	0.418994413408
0.173932442575	0.8548
0.173932442575	0.8548
0.108542986857	0.417972831766
