0.177750282886	0.864
0.177750282886	0.864
0.177750282886	0.864
0.177750282886	0.864
0.177750282886	0.864
0.177750282886	0.864
0.177750282886	0.864
0.177750282886	0.864
0.177750282886	0.864
0.177750282886	0.864
0.177750282886	0.864
0.177750282886	0.864
0.177750282886	0.864
0.177750282886	0.864
0.177750282886	0.864
0.177750282886	0.864
0.177750282886	0.864
0.177750282886	0.864
0.177750282886	0.864
0.0245654528931	0.0816966765792
0.177750282886	0.864
0.177750282886	0.864
0.177750282886	0.864
0.177750282886	0.864
0.177750282886	0.864
0.177750282886	0.864
0.177750282886	0.864
0.177750282886	0.864
0.177750282886	0.864
0.177750282886	0.864
