0.0239018215294	0.0816966765792
0.106359312088	0.35100286533
0.106626247126	0.352822580645
0.106758371343	0.353739532198
0.185155044519	0.882
0.106626247126	0.352822580645
0.185155044519	0.882
0.106758371343	0.353739532198
0.185155044519	0.882
0.185155044519	0.882
0.185155044519	0.882
0.185155044519	0.882
0.106088847963	0.349201824401
0.185155044519	0.882
0.106626247126	0.352822580645
0.106359312088	0.35100286533
0.185155044519	0.882
0.185155044519	0.882
0.185155044519	0.882
0.185155044519	0.882
0.107019893584	0.355587808418
0.185155044519	0.882
0.106626247126	0.352822580645
0.185155044519	0.882
0.185155044519	0.882
0.107019893584	0.355587808418
0.185155044519	0.882
0.105952312462	0.348308217231
0.106224517172	0.35010002858
0.185155044519	0.882
