0.181414088306	0.873
0.181414088306	0.873
0.181414088306	0.873
0.181414088306	0.873
0.181414088306	0.873
0.181414088306	0.873
0.12860221089	0.264970853206
0.127793284984	0.260796995619
0.128088297584	0.262274443978
0.128513649138	0.264494286923
0.128864006137	0.266410912191
0.128424443901	0.26401943183
0.128513649138	0.264494286923
0.128424443901	0.26401943183
0.0323526096753	0.131596262666
0.128424443901	0.26401943183
0.181414088306	0.873
0.181414088306	0.873
0.12860221089	0.264970853206
0.181414088306	0.873
0.128088297584	0.262274443978
0.181414088306	0.873
0.181414088306	0.873
0.128777392285	0.265929156473
0.181414088306	0.873
0.127793284984	0.260796995619
0.181414088306	0.873
0.0237844892758	0.0816966765792
0.128864006137	0.266410912191
0.12869012624	0.265449139945
