0.0239018215294	0.0816966765792
0.181568389892	0.873
0.0999747353322	0.353383458647
0.100064006595	0.35418236624
0.181568389892	0.873
0.100064006595	0.35418236624
0.0998848098875	0.352588147037
0.0239018215294	0.0816966765792
0.181568389892	0.873
0.181568389892	0.873
0.181568389892	0.873
0.0997030123038	0.351008215086
0.0997030123038	0.351008215086
0.181568389892	0.873
0.100240570833	0.355791067373
0.100064006595	0.35418236624
0.181568389892	0.873
0.0997942342194	0.351796407186
0.0999747353322	0.353383458647
0.181568389892	0.873
0.181568389892	0.873
0.181568389892	0.873
0.181568389892	0.873
0.181568389892	0.873
0.0998848098875	0.352588147037
0.100064006595	0.35418236624
0.0998848098875	0.352588147037
0.181568389892	0.873
0.181568389892	0.873
0.0998848098875	0.352588147037
