0.112806722689	0.336
0.112806722689	0.336
0.112806722689	0.336
0.112806722689	0.336
0.112806722689	0.336
0.0445387755102	0.2112
0.112806722689	0.336
0.112806722689	0.336
0.112806722689	0.336
0.112806722689	0.336
0.112806722689	0.336
0.112806722689	0.336
0.112806722689	0.336
0.057143817527	0.2392
0.112806722689	0.336
0.0173781512605	0.132
0.0197762304922	0.1408
0.112806722689	0.336
0.112806722689	0.336
0.112806722689	0.336
0.112806722689	0.336
0.112806722689	0.336
0.112806722689	0.336
0.112806722689	0.336
0.112806722689	0.336
0.112806722689	0.336
0.112806722689	0.336
0.112806722689	0.336
0.0197762304922	0.1408
0.112806722689	0.336
