0.597149579832	0.7728
0.597149579832	0.7728
0.597149579832	0.7728
0.597149579832	0.7728
0.597149579832	0.7728
0.597149579832	0.7728
0.597149579832	0.7728
0.597149579832	0.7728
0.597149579832	0.7728
0.597149579832	0.7728
0.043531332533	0.2088
0.597149579832	0.7728
0.597149579832	0.7728
0.597149579832	0.7728
0.597149579832	0.7728
0.597149579832	0.7728
0.597149579832	0.7728
0.597149579832	0.7728
0.597149579832	0.7728
0.597149579832	0.7728
0.597149579832	0.7728
0.597149579832	0.7728
0.597149579832	0.7728
0.597149579832	0.7728
0.597149579832	0.7728
0.597149579832	0.7728
0.597149579832	0.7728
0.597149579832	0.7728
0.597149579832	0.7728
0.597149579832	0.7728
