0.316195278111	0.5624
0.316195278111	0.5624
0.316195278111	0.5624
0.316195278111	0.5624
0.316195278111	0.5624
0.316195278111	0.5624
0.181037535014	0.4256
0.316195278111	0.5624
0.316195278111	0.5624
0.316195278111	0.5624
0.316195278111	0.5624
0.316195278111	0.5624
0.181037535014	0.4256
0.316195278111	0.5624
0.316195278111	0.5624
0.316195278111	0.5624
0.316195278111	0.5624
0.062424969988	0.25
0.316195278111	0.5624
0.316195278111	0.5624
0.181037535014	0.4256
0.316195278111	0.5624
0.316195278111	0.5624
0.181037535014	0.4256
0.316195278111	0.5624
0.316195278111	0.5624
0.181037535014	0.4256
0.181037535014	0.4256
0.181037535014	0.4256
0.316195278111	0.5624
