0.23843457383	0.4884
0.368110764306	0.6068
0.23843457383	0.4884
0.681557743097	0.8256
0.681557743097	0.8256
0.23843457383	0.4884
0.681557743097	0.8256
0.0409011604642	0.2024
0.23843457383	0.4884
0.23843457383	0.4884
0.681557743097	0.8256
0.0167510204082	0.1296
0.0977578231293	0.3128
0.681557743097	0.8256
0.681557743097	0.8256
0.681557743097	0.8256
0.23843457383	0.4884
0.681557743097	0.8256
0.0767596638655	0.2772
0.681557743097	0.8256
0.0125042016807	0.112
0.681557743097	0.8256
0.681557743097	0.8256
0.23843457383	0.4884
0.368110764306	0.6068
0.681557743097	0.8256
0.23843457383	0.4884
0.386292436975	0.6216
0.23843457383	0.4884
0.681557743097	0.8256
