0.627198079232	0.792
0.627198079232	0.792
0.627198079232	0.792
0.197037214886	0.444
0.627198079232	0.792
0.627198079232	0.792
0.197037214886	0.444
0.197037214886	0.444
0.197037214886	0.444
0.627198079232	0.792
0.0865882352941	0.2944
0.627198079232	0.792
0.627198079232	0.792
0.627198079232	0.792
0.00806722689076	0.09
0.627198079232	0.792
0.197037214886	0.444
0.0792176070428	0.2816
0.627198079232	0.792
0.627198079232	0.792
0.627198079232	0.792
0.627198079232	0.792
0.156720288115	0.396
0.156720288115	0.396
0.197037214886	0.444
0.156720288115	0.396
0.627198079232	0.792
0.156720288115	0.396
0.627198079232	0.792
0.627198079232	0.792
