0.0884821128451	0.2976
0.0884821128451	0.2976
0.0884821128451	0.2976
0.0884821128451	0.2976
0.0884821128451	0.2976
0.0884821128451	0.2976
0.0884821128451	0.2976
0.0884821128451	0.2976
0.0884821128451	0.2976
0.0884821128451	0.2976
0.0884821128451	0.2976
0.0884821128451	0.2976
0.0884821128451	0.2976
0.0884821128451	0.2976
0.0884821128451	0.2976
0.0884821128451	0.2976
0.0884821128451	0.2976
0.0884821128451	0.2976
0.0884821128451	0.2976
0.0884821128451	0.2976
0.0884821128451	0.2976
0.0884821128451	0.2976
0.0884821128451	0.2976
0.08424969988	0.2904
0.0884821128451	0.2976
0.0884821128451	0.2976
0.0884821128451	0.2976
0.0884821128451	0.2976
0.0884821128451	0.2976
0.0884821128451	0.2976
