0.0558033300767	0.298918387414
0.0726598450329	0.301998812587
0.0584678021145	0.295566502463
0.0584625759581	0.295752593463
0.0584658940992	0.294695481336
0.0757872407841	0.316561014263
0.0584654706297	0.294521892794
0.0664696620252	0.307100591716
0.058466044164	0.296638490269
0.0584626367998	0.29348464097
0.058515874837	0.309076527586
0.0584666991734	0.295043273013
0.0584721789105	0.300236406619
0.0584654706297	0.294521892794
0.0584672891265	0.296040969076
0.058463143984	0.293657008614
0.0584678021145	0.295566502463
0.0584897508078	0.304305091409
0.0592343442453	0.296850393701
0.0584683605816	0.295857988166
0.0592327633008	0.295954438335
0.058463143984	0.293657008614
0.067850091064	0.313131313131
0.0584672048768	0.295275590551
0.0584639004427	0.296020388159
0.0572196768158	0.31641554322
0.0584650332062	0.294348508634
0.0584678021145	0.295566502463
0.0763171951153	0.312066574202
0.0584672048768	0.295530616263
