0.062446237349	0.296819787986
0.0584644282695	0.294117647059
0.0640735448823	0.3061103421
0.0584780451904	0.302169625247
0.0584678671064	0.297260003942
0.0584666991734	0.295043273013
0.0584663036139	0.294869274622
0.0587282964623	0.326632165605
0.0637274730873	0.300944138474
0.0584654706297	0.294521892794
0.0584678021145	0.295566502463
0.0584658940992	0.294695481336
0.0566656657839	0.299293008641
0.0575497779529	0.295874263261
0.058464512515	0.294879340789
0.0584672048768	0.295275590551
0.0585138233873	0.309401031337
0.0584658940992	0.294695481336
0.0608641510267	0.296841279184
0.058467080777	0.295217476875
0.0584674484242	0.29539188657
0.0584672048768	0.295530616263
0.0584672048768	0.295275590551
0.0690208540768	0.307661849139
0.0584683918691	0.297355958958
0.05846723296	0.295785742418
0.0584674857092	0.296551724138
0.0584671578163	0.297244094488
0.0584646481497	0.296114599686
0.058468038175	0.297180043384
