0.0585723621006	0.315726767276
0.0584666991734	0.295043273013
0.058463143984	0.293657008614
0.0584674857092	0.296551724138
0.0604783396935	0.297700923561
0.0584674484242	0.29539188657
0.0585014196429	0.307677048205
0.0584783570389	0.30228887135
0.0584654706297	0.294521892794
0.0584615805821	0.293140512019
0.0631068613678	0.299111549852
0.0608731647259	0.301143082381
0.0672974580797	0.299566417028
0.0584681418473	0.295741324921
0.0584663036139	0.294869274622
0.0584666531196	0.295749704841
0.0584681418473	0.295741324921
0.0668032811797	0.306413301663
0.0584674484242	0.29539188657
0.0584663036139	0.294869274622
0.0774142621425	0.322823716042
0.0630878040793	0.301849665486
0.058530000195	0.311742499503
0.0584666991734	0.295043273013
0.0638961555263	0.303281929616
0.0574011392914	0.296456692913
0.0635679723617	0.301834681397
0.0584751968956	0.301321238415
0.0584979819348	0.30720381028
0.0584658940992	0.294695481336
