0.062937582956	0.29616519174
0.058464512515	0.294879340789
0.0614926031983	0.299606299213
0.0606363810232	0.295342896443
0.0610307392073	0.30146627566
0.0592362507951	0.298442736054
0.0584650332062	0.294348508634
0.0584636372174	0.293829578844
0.0584847734706	0.304459861249
0.0577017417094	0.295866141732
0.0584658940992	0.294695481336
0.0584666991734	0.295043273013
0.0580042189768	0.295088408644
0.0586103434013	0.318768619662
0.0681285782094	0.303149606299
0.0584775657879	0.301990932387
0.0715386174767	0.29868343486
0.0584673172097	0.296157635468
0.0661048427006	0.301181102362
0.0584678021145	0.295566502463
0.0584678021145	0.295566502463
0.0584682158742	0.297574442911
0.0584624646384	0.293427230047
0.0584624646384	0.293427230047
0.0584663036139	0.294869274622
0.056230479515	0.297633136095
0.0686431643527	0.301159819147
0.0584650332062	0.294348508634
0.0584663036139	0.294869274622
0.0584654706297	0.294521892794
