0.0584688427772	0.298522167488
0.0584673733762	0.296296296296
0.058467080777	0.295217476875
0.0584658940992	0.294695481336
1.0	1.0
0.0566624991399	0.296638490269
0.0637586840927	0.308255790932
0.0584678021145	0.295566502463
0.0584681418473	0.295741324921
0.0519257292835	0.304058027838
0.0584675020247	0.296748768473
0.0584683918691	0.297334649556
0.0640434987772	0.296180215475
0.0581597389237	0.296252465483
1.0	1.0
0.0584683605816	0.295857988166
1.0	1.0
0.0642182568781	0.301104972376
0.0614930828375	0.299881936246
0.0591290142577	0.34370015949
0.0584756483591	0.301499605367
0.0584839146649	0.304261645193
0.0568096381393	0.297738446411
1.0	1.0
0.0662766330448	0.30252764613
0.0584641164994	0.294002352019
0.0558191040926	0.304047384008
0.058467080777	0.295217476875
0.0584672048768	0.295275590551
0.0639179670838	0.307783719548
