0.0999594451433	0.7
0.0717259440871	0.5
0.0999594451433	0.7
0.0717259440871	0.5
0.0717259440871	0.5
0.0717259440871	0.5
0.0717259440871	0.5
0.0999594451433	0.7
0.0717259440871	0.5
0.0717259440871	0.5
0.0717259440871	0.5
0.0717259440871	0.5
0.0717259440871	0.5
0.0717259440871	0.5
0.0717259440871	0.5
0.0717259440871	0.5
3.37957138758e-05	0.01
0.0999594451433	0.7
0.0999594451433	0.7
0.0717259440871	0.5
0.0717259440871	0.5
0.0717259440871	0.5
0.0999594451433	0.7
0.0717259440871	0.5
0.0999594451433	0.7
0.0717259440871	0.5
0.0999594451433	0.7
0.0717259440871	0.5
0.0717259440871	0.5
0.0717259440871	0.5
