0.334446578631	0.5772
0.118496098235	0.22092811647
0.155025915105	0.375937100018
0.350504201681	0.59
0.353393837535	0.5936
0.353393837535	0.5936
0.350504201681	0.59
0.0993841639688	0.497679400214
0.11733659524	0.224759833243
0.0993841639688	0.497679400214
0.353393837535	0.5936
0.350504201681	0.59
0.350504201681	0.59
0.350504201681	0.59
0.353393837535	0.5936
0.0984294194108	0.364312942458
0.117242169363	0.226623259179
0.0993841639688	0.497679400214
0.318240896359	0.5642
0.353393837535	0.5936
0.350504201681	0.59
0.353393837535	0.5936
0.350504201681	0.59
0.353393837535	0.5936
0.353393837535	0.5936
0.334446578631	0.5772
0.350504201681	0.59
0.334446578631	0.5772
0.353393837535	0.5936
0.515526210484	0.7
