0.960792316927	0.98
0.518547418968	0.65
0.960792316927	0.98
0.556658823529	0.7448
0.260299173769	0.438159729138
0.475596638655	0.689
0.960792316927	0.98
0.556658823529	0.7448
0.836170468187	0.91
0.960792316927	0.98
0.836170468187	0.91
0.960792316927	0.98
0.960792316927	0.98
0.960792316927	0.98
0.556658823529	0.7448
0.556658823529	0.7448
0.811700840336	0.8948
0.960792316927	0.98
0.960792316927	0.98
0.628943577431	0.77
0.836170468187	0.91
0.960792316927	0.98
0.960792316927	0.98
0.960792316927	0.98
0.836170468187	0.91
0.960792316927	0.98
0.811700840336	0.8948
0.836170468187	0.91
0.960792316927	0.98
0.836170468187	0.91
