0.203301320528	0.45
0.395025210084	0.6032
0.589952941176	0.7644
0.206009603842	0.4532
0.440924369748	0.63
0.453950060024	0.6516
0.708575910364	0.8416
0.341889565496	0.41518641421
0.399672669068	0.6172
0.166473052462	0.250747458641
0.203301320528	0.45
0.440924369748	0.63
0.440924369748	0.63
0.589952941176	0.7644
0.307302921168	0.55
0.399672669068	0.6172
0.440924369748	0.63
0.708575910364	0.8416
0.529931972789	0.7
0.559456582633	0.738
0.708575910364	0.8416
0.304830732293	0.548
0.203301320528	0.45
0.529931972789	0.7
0.203301320528	0.45
0.440924369748	0.63
0.708575910364	0.8416
0.371855622249	0.5968
0.274834093637	0.5144
0.630088995598	0.7908
