0.635150060024	0.76
0.148076830732	0.27
0.941788715486	0.97
0.430026410564	0.644
0.430026410564	0.644
0.296304121649	0.541
0.64575030012	0.77
0.509775910364	0.57
1.0	1.0
0.410026410564	0.624
0.826724289716	0.9042
0.44187434974	0.6442
0.46187434974	0.6642
0.635150060024	0.76
0.410026410564	0.624
0.509775910364	0.57
0.0373994397759	0.1876
0.509775910364	0.57
0.648571908764	0.7726
0.681154061625	0.801
0.103038815526	0.286
0.0898907374157	0.246918489066
0.46187434974	0.6642
0.430026410564	0.644
0.509775910364	0.57
0.337903161265	0.58
0.635150060024	0.76
0.0373994397759	0.1876
0.60575030012	0.73
0.011960772387	0.0725388601036
