0.119841489669	0.303082486654
0.184540066037	0.411445128577
0.170358703481	0.4128
0.170358703481	0.4128
0.582207442977	0.7028
0.170358703481	0.4128
0.578043697479	0.6976
0.582207442977	0.7028
0.599944457783	0.7236
0.170358703481	0.4128
0.582207442977	0.7028
0.582207442977	0.7028
0.171339415766	0.4126
0.599944457783	0.7236
0.268095718287	0.5136
0.124073503909	0.313941480207
0.170358703481	0.4128
0.599944457783	0.7236
0.0867003237035	0.385770468359
0.578043697479	0.6976
0.0867003237035	0.385770468359
0.582207442977	0.7028
0.171339415766	0.4126
0.268095718287	0.5136
0.124073503909	0.313941480207
0.268095718287	0.5136
0.0981823454047	0.187715165791
0.268095718287	0.5136
0.599944457783	0.7236
0.582207442977	0.7028
