0.594128851541	0.717
0.564753901561	0.68
0.564753901561	0.68
0.642314685874	0.7668
0.564753901561	0.68
0.560506602641	0.674
0.564753901561	0.68
0.642314685874	0.7668
0.564753901561	0.68
0.564753901561	0.68
0.642314685874	0.7668
0.642314685874	0.7668
0.564753901561	0.68
0.564753901561	0.68
0.564753901561	0.68
0.642314685874	0.7668
0.500408201147	0.514741035857
0.564753901561	0.68
0.136532163228	0.265368461245
0.564753901561	0.68
0.564753901561	0.68
0.642314685874	0.7668
0.642314685874	0.7668
0.642314685874	0.7668
0.642314685874	0.7668
0.564753901561	0.68
0.564753901561	0.68
0.564753901561	0.68
0.564753901561	0.68
0.564753901561	0.68
