0.000316706761529	0.0177514792899
0.00128172509637	0.0358565737052
0.0	0.0
0.000887680151088	0.0296794618124
0.000817620685419	0.0284810126582
0.00128082740491	0.0355731225296
0.0	0.0
0.0	0.0
0.0	0.0
0.000817722699867	0.0285261489699
0.0	0.0
0.00128077825267	0.0355590675622
0.00101031738673	0.0314960629921
0.0	0.0
0.00114155251142	0.0335305719921
0.0	0.0
0.000103944618307	0.0101761252446
0.0	0.0
0.000817347464448	0.0283687943262
0.000887765345864	0.0297147385103
0.0045960719822	0.0677290836653
8.82499930455e-05	0.00935307872175
0.0	0.0
0.0	0.0
0.0	0.0
0.000103944618307	0.0101761252446
8.95570985675e-06	0.00311647837943
0.00289288181562	0.0535714285714
0.00128052640666	0.0354889589905
0.00311310588783	0.0557324840764
