7.38840155291e-05	0.00860719874804
0.000275077323565	0.0162916989915
0.0	0.0
0.00174640755011	0.0416171224732
0.0	0.0
0.000817620685419	0.0284810126582
0.00128129658897	0.0357142857143
0.00367232705087	0.0606060606061
0.0	0.0
0.000249509777265	0.0157480314961
0.000249103705705	0.0154499806875
0.000887502146796	0.0296091590999
6.71576852857e-06	0.0027195027195
0.0	0.0
0.000772578733451	0.027711797308
0.000457402586194	0.0211102423769
8.95505680864e-06	0.00311284046693
0.00010396007933	0.0102000784621
0.0	0.0
0.0045412304764	0.0672502984481
0.00131035177905	0.0361972951472
0.00122516308303	0.0350877192982
1.75891088238e-05	0.00428015564202
0.0	0.0
0.00122451408095	0.0348652931854
0.00228340730422	0.0475435816165
0.00174747624104	0.0418827283606
0.00103658074244	0.0321301071004
0.000302518450108	0.0172616712436
0.0	0.0
