0.0	0.0
0.00191661647337	0.0434267666798
0.0	0.0
0.0	0.0
8.95460717737e-06	0.00311041990669
0.000275427544482	0.016548463357
0.000492608473825	0.0220994475138
0.000360869695967	0.0189573459716
0.000644772544971	0.0252365930599
0.0	0.0
4.7957950469e-06	0.00232198142415
0.0	0.0
0.000249366991483	0.015625
0.0	0.0
1.43849705827e-05	0.00386697602475
0.000510731603822	0.0226370135028
0.0	0.0
0.000139134328597	0.0117647058824
0.0	0.0
0.0	0.0
3.19804637743e-07	0.00077579519007
0.0	0.0
0.0	0.0
8.82422903095e-05	0.00934215648112
0.0	0.0
0.000158498913036	0.0124079100427
0.000817722699867	0.0285261489699
0.000302341806681	0.0171406310869
0.0	0.0
0.000750346627518	0.0272404263719
