0.000139119822464	0.0117462803446
0.00662324103147	0.0812101910828
2.11000005755e-05	0.0046493607129
0.000817568118682	0.0284584980237
0.0	0.0
0.00133937341897	0.0365659777424
0.0	0.0
0.000179328333877	0.0132398753894
0.00152040681518	0.0388580491673
8.82574431243e-05	0.00936402653141
0.000961036267838	0.031050955414
0.00191839079172	0.0438072481083
0.00111529872473	0.0333333333333
0.000566138217688	0.0236686390533
0.000911865773358	0.0301587301587
0.0	0.0
0.000139054715633	0.011673151751
0.0	0.0
0.0	0.0
0.000644557121157	0.025137470542
0.0	0.0
0.000685876977652	0.0259638080252
0.00155065670359	0.0389917290272
0.00131003486708	0.0360967869893
1.75816869149e-05	0.00425531914894
0.000750418631877	0.0272727272727
0.00101127248801	0.031847133758
0.0	0.0
0.0	0.0
6.71469270688e-06	0.00271317829457
