3.35259639433e-05	0.00573833205815
0.0	0.0
0.00103630091748	0.0320284697509
0.0	0.0
1.43910430148e-05	0.00388953714508
0.000644967478091	0.0253365003959
0.000249509777265	0.0157480314961
0.0	0.0
0.0	0.0
0.00164829890177	0.0406050955414
0.000391933778869	0.0197784810127
0.0	0.0
1.15079433579e-05	0.00347893312717
0.0	0.0
0.000103919192436	0.0101404056162
0.000179362218644	0.0132708821233
0.00103592153854	0.0319023237495
0.0010358013218	0.0318646734854
0.000887502146796	0.0296091590999
0.0	0.0
0.000510731603822	0.0226370135028
0.000817672212613	0.0285035629454
3.35259639433e-05	0.00573833205815
0.0	0.0
0.00128052640666	0.0354889589905
0.000818170294657	0.0287539936102
0.000566315551025	0.0237717908082
0.000817646578984	0.0284922833399
0.00062474508769	0.0249011857708
0.00145901044536	0.0381558028617
