1.0	1.0
1.0	1.0
1.0	1.0
1.0	1.0
1.0	1.0
1.0	1.0
1.0	1.0
1.0	1.0
0.0035769122557	0.0599280862964
1.0	1.0
1.0	1.0
1.0	1.0
1.0	1.0
1.0	1.0
0.00158453189567	0.0399680255795
1.0	1.0
1.0	1.0
1.0	1.0
1.0	1.0
1.0	1.0
0.00158453189567	0.0399680255795
1.0	1.0
0.00158453189567	0.0399680255795
1.0	1.0
1.0	1.0
1.0	1.0
1.0	1.0
1.0	1.0
