1.0	1.0
1.0	1.0
1.0	1.0
1.0	1.0
1.0	1.0
0.00138635008252	0.02
0.00138635008252	0.02
1.0	1.0
1.0	1.0
1.0	1.0
1.0	1.0
0.494092949738	0.464080193057
1.0	1.0
1.0	1.0
1.0	1.0
1.0	1.0
1.0	1.0
1.0	1.0
1.0	1.0
1.0	1.0
1.0	1.0
0.00139385065886	0.02
0.00139010958447	0.02
1.0	1.0
1.0	1.0
1.0	1.0
1.0	1.0
1.0	1.0
1.0	1.0
0.00138257261411	0.02
