0.210729428406	0.273463137169
1.0	1.0
1.0	1.0
1.0	1.0
1.0	1.0
0.00135955606333	0.02
1.0	1.0
1.0	1.0
1.0	1.0
0.00135955606333	0.02
1.0	1.0
1.0	1.0
1.0	1.0
1.0	1.0
0.0650770261419	0.17897868121
1.0	1.0
1.0	1.0
1.0	1.0
1.0	1.0
1.0	1.0
1.0	1.0
1.0	1.0
1.0	1.0
1.0	1.0
0.00136223328417	0.0200400801603
1.0	1.0
0.0650770261419	0.17897868121
1.0	1.0
1.0	1.0
1.0	1.0
