1.0	1.0
0.0179806888475	0.0788051547004
0.0177902555551	0.0784882001538
1.0	1.0
0.0786824917445	0.14203738424
1.0	1.0
0.0712986245866	0.17899018904
1.0	1.0
1.0	1.0
0.0759678366224	0.139082058414
0.0784992969931	0.141835924203
0.136702577597	0.232277246121
1.0	1.0
0.0757812841152	0.138881173268
1.0	1.0
0.0759678366224	0.139082058414
0.13611816909	0.231910946197
0.0784992969931	0.141835924203
0.0718916946335	0.180067404911
0.0784992969931	0.141835924203
0.0779511481184	0.141234958477
0.076529243542	0.139688215902
1.0	1.0
1.0	1.0
1.0	1.0
0.0763418188166	0.139485577191
1.0	1.0
0.0761546823434	0.139283525545
0.136702577597	0.232277246121
1.0	1.0
