1.0	1.0
0.0927049093448	0.159662792183
1.0	1.0
0.00135955606333	0.02
1.0	1.0
1.0	1.0
0.0924247095519	0.159276248726
1.0	1.0
0.0924247095519	0.159276248726
0.0929848147872	0.160051216389
0.0929848147872	0.160051216389
0.0924247095519	0.159276248726
0.092564844952	0.159469286215
0.0910309423608	0.158267915928
1.0	1.0
1.0	1.0
1.0	1.0
1.0	1.0
1.0	1.0
0.0928449001534	0.159856768336
1.0	1.0
1.0	1.0
0.00135955606333	0.02
1.0	1.0
1.0	1.0
1.0	1.0
1.0	1.0
1.0	1.0
0.0921442359721	0.158891572391
1.0	1.0
