0.980196078431	0.99
0.980196078431	0.99
0.0011630057704	0.0232
0.980196078431	0.99
0.980196078431	0.99
0.980196078431	0.99
0.980196078431	0.99
0.244161535926	0.289051439358
0.00149843579317	0.0388
0.980196078431	0.99
0.980196078431	0.99
0.980196078431	0.99
0.980196078431	0.99
0.980196078431	0.99
0.980196078431	0.99
0.980196078431	0.99
0.980196078431	0.99
0.980196078431	0.99
0.245685572096	0.289803643246
0.980196078431	0.99
0.203062701517	0.26834611172
0.980196078431	0.99
0.980196078431	0.99
0.980196078431	0.99
0.199912305866	0.266710211191
0.980196078431	0.99
0.980196078431	0.99
0.980196078431	0.99
0.980196078431	0.99
0.980196078431	0.99
