0.980196078431	0.99
0.980196078431	0.99
0.165982768034	0.248377939984
0.980196078431	0.99
0.980196078431	0.99
0.0013672922252	0.02
0.980196078431	0.99
0.165982768034	0.248377939984
0.980196078431	0.99
0.980196078431	0.99
0.980196078431	0.99
0.980196078431	0.99
0.980196078431	0.99
0.980196078431	0.99
0.162456849113	0.246379726468
0.980196078431	0.99
0.162456849113	0.246379726468
0.980196078431	0.99
0.980196078431	0.99
0.151029222854	0.239749486251
0.00136343176703	0.02
0.980196078431	0.99
0.190792967761	0.26192003421
0.980196078431	0.99
0.980196078431	0.99
0.980196078431	0.99
0.149687818676	0.238954452355
0.149687818676	0.238954452355
0.980196078431	0.99
0.163154540651	0.246776792909
