0.0815255311273	0.508298755187
0.0815255311273	0.508298755187
0.0815255311273	0.508298755187
0.0815255311273	0.508298755187
0.0815255311273	0.508298755187
0.0815255311273	0.508298755187
0.0815255311273	0.508298755187
0.0815255311273	0.508298755187
0.0815255311273	0.508298755187
0.0815255311273	0.508298755187
0.0815255311273	0.508298755187
0.0815255311273	0.508298755187
0.0815255311273	0.508298755187
0.0815255311273	0.508298755187
0.0815255311273	0.508298755187
0.0815255311273	0.508298755187
0.0815255311273	0.508298755187
0.0815255311273	0.508298755187
0.0815255311273	0.508298755187
0.0815255311273	0.508298755187
0.0815255311273	0.508298755187
0.0815255311273	0.508298755187
0.0815255311273	0.508298755187
0.0815255311273	0.508298755187
0.0815255311273	0.508298755187
0.0815255311273	0.508298755187
0.0815255311273	0.508298755187
0.0815255311273	0.508298755187
0.0815255311273	0.508298755187
0.0815255311273	0.508298755187
