0.0878650628288	0.511892450879
0.0878650628288	0.511892450879
0.0878650628288	0.511892450879
0.0878650628288	0.511892450879
0.0878650628288	0.511892450879
0.0878650628288	0.511892450879
0.0878650628288	0.511892450879
0.0878650628288	0.511892450879
0.0878650628288	0.511892450879
0.0878650628288	0.511892450879
0.0878650628288	0.511892450879
0.0878650628288	0.511892450879
0.0878650628288	0.511892450879
0.0878650628288	0.511892450879
0.0878650628288	0.511892450879
0.0878650628288	0.511892450879
0.0878650628288	0.511892450879
0.0878650628288	0.511892450879
0.0878650628288	0.511892450879
0.0878650628288	0.511892450879
0.0878650628288	0.511892450879
0.0878650628288	0.511892450879
0.0878650628288	0.511892450879
0.0878650628288	0.511892450879
0.0878650628288	0.511892450879
0.0878650628288	0.511892450879
0.0878650628288	0.511892450879
0.0878650628288	0.511892450879
0.0878650628288	0.511892450879
0.0878650628288	0.511892450879
