0.924499229584	0.961538461538
0.924499229584	0.961538461538
0.924499229584	0.961538461538
0.924499229584	0.961538461538
0.924499229584	0.961538461538
0.924499229584	0.961538461538
0.924499229584	0.961538461538
0.924499229584	0.961538461538
0.924499229584	0.961538461538
0.924499229584	0.961538461538
0.924499229584	0.961538461538
0.924499229584	0.961538461538
0.924499229584	0.961538461538
0.924499229584	0.961538461538
0.924499229584	0.961538461538
0.924499229584	0.961538461538
0.924499229584	0.961538461538
0.924499229584	0.961538461538
0.924499229584	0.961538461538
0.924499229584	0.961538461538
0.924499229584	0.961538461538
0.924499229584	0.961538461538
0.924499229584	0.961538461538
0.924499229584	0.961538461538
0.924499229584	0.961538461538
0.924499229584	0.961538461538
0.924499229584	0.961538461538
0.924499229584	0.961538461538
0.924499229584	0.961538461538
0.924499229584	0.961538461538
