0.000624756247562	0.025
0.000624756247562	0.025
0.000624756247562	0.025
1.0	1.0
0.000624756247562	0.025
0.000624756247562	0.025
0.000624756247562	0.025
0.000624756247562	0.025
0.0595567929944	0.205721003135
0.000624756247562	0.025
1.0	1.0
0.000624756247562	0.025
0.0580981898177	0.203212695955
0.0610636365753	0.208292005554
0.000624756247562	0.025
0.0566861564732	0.200764818356
1.0	1.0
1.0	1.0
1.0	1.0
0.000624756247562	0.025
0.000624756247562	0.025
0.000624756247562	0.025
1.0	1.0
1.0	1.0
1.0	1.0
0.000624756247562	0.025
1.0	1.0
1.0	1.0
1.0	1.0
1.0	1.0
