0.0319767410042	0.439393939394
0.0319767410042	0.439393939394
0.0319767410042	0.439393939394
0.0319767410042	0.439393939394
0.0319767410042	0.439393939394
0.0319767410042	0.439393939394
0.0319767410042	0.439393939394
0.0319767410042	0.439393939394
0.0319767410042	0.439393939394
0.0319767410042	0.439393939394
0.0319767410042	0.439393939394
0.0319767410042	0.439393939394
0.0319767410042	0.439393939394
0.0319767410042	0.439393939394
0.0319767410042	0.439393939394
0.0319767410042	0.439393939394
0.0319767410042	0.439393939394
0.0319767410042	0.439393939394
0.0319767410042	0.439393939394
0.0319767410042	0.439393939394
0.0319767410042	0.439393939394
0.0319767410042	0.439393939394
0.0319767410042	0.439393939394
0.0319767410042	0.439393939394
0.0319767410042	0.439393939394
0.0319767410042	0.439393939394
0.0319767410042	0.439393939394
0.0319767410042	0.439393939394
0.0319767410042	0.439393939394
0.0319767410042	0.439393939394
