0.833277759253	0.9
0.793264421474	0.86
0.791663887963	0.852
1.0	1.0
0.833277759253	0.9
0.683109459846	0.768
1.0	1.0
0.833277759253	0.9
1.0	1.0
0.794864954985	0.864
0.833277759253	0.9
0.833277759253	0.9
0.516406909449	0.6176
0.813204401467	0.886
0.682137753644	0.766
0.833277759253	0.9
0.645827208984	0.730536
0.526114808571	0.64128
0.833277759253	0.9
0.793997999333	0.862
0.434297351325	0.552752
0.833277759253	0.9
1.0	1.0
1.0	1.0
0.538027408498	0.653896
0.641409301848	0.71856
0.833277759253	0.9
0.830010003334	0.898
0.528493093772	0.632928
0.638690511646	0.702592
