1.0	1.0
0.793997999333	0.862
0.523422507876	0.63208
0.521528299494	0.618
0.793264421474	0.86
0.714204058302	0.8
1.0	1.0
0.792197399133	0.856
0.791863954652	0.854
0.524380883104	0.638888
0.395624693338	0.560656
0.714204058302	0.8
0.833277759253	0.9
0.826875625208	0.896
0.833277759253	0.9
0.830010003334	0.898
0.795865288429	0.866
1.0	1.0
0.542402128542	0.6464
0.668019434124	0.744
0.642755072878	0.7
1.0	1.0
0.492219918231	0.625776
0.54002817093	0.66336
0.833277759253	0.9
0.537478757716	0.659224
0.802867622541	0.876
0.443074501276	0.590624
0.792197399133	0.856
1.0	1.0
