1.0	1.0
0.439301855464	0.57704
0.65921691912	0.748
0.682137753644	0.766
0.519355700928	0.633648
0.833277759253	0.9
0.833277759253	0.9
1.0	1.0
0.833277759253	0.9
1.0	1.0
0.521122732652	0.646272
1.0	1.0
0.791597199066	0.85
0.526666803471	0.650864
0.638577227429	0.6986
0.711403258074	0.798
0.833277759253	0.9
0.52011053716	0.6188
0.524736649802	0.637192
0.796998999667	0.868
0.833277759253	0.9
0.793997999333	0.862
0.709359718217	0.7984
1.0	1.0
1.0	1.0
0.49649448853	0.6096
1.0	1.0
0.67131206623	0.766464
0.533748519384	0.665552
0.793997999333	0.862
