0.808669556519	0.882
0.521804843848	0.635312
0.714204058302	0.8
1.0	1.0
0.833277759253	0.9
0.833277759253	0.9
0.833277759253	0.9
0.529313838617	0.65
0.833277759253	0.9
1.0	1.0
0.679794226922	0.772
0.642755072878	0.7
1.0	1.0
0.795865288429	0.866
1.0	1.0
0.833277759253	0.9
0.524736649802	0.637192
0.826875625208	0.896
1.0	1.0
1.0	1.0
0.557552164906	0.684608
0.826875625208	0.896
0.826875625208	0.896
0.551893625495	0.668976
1.0	1.0
0.679394112604	0.758
0.544138843103	0.672568
0.67847956559	0.75
0.662189196913	0.744
0.532463965903	0.655808
