1.0	1.0
1.0	1.0
0.044640087226	0.423728813559
0.044640087226	0.423728813559
1.0	1.0
1.0	1.0
1.0	1.0
1.0	1.0
1.0	1.0
0.044640087226	0.423728813559
1.0	1.0
1.0	1.0
1.0	1.0
1.0	1.0
1.0	1.0
1.0	1.0
1.0	1.0
1.0	1.0
1.0	1.0
1.0	1.0
0.019722316986	0.2
0.0423161137637	0.425894378194
1.0	1.0
1.0	1.0
1.0	1.0
0.044640087226	0.423728813559
0.0438441782475	0.5
1.0	1.0
1.0	1.0
0.0438441782475	0.5
