1.0	1.0
0.800306627507	0.807870740681
1.0	1.0
1.0	1.0
1.0	1.0
1.0	1.0
1.0	1.0
1.0	1.0
1.0	1.0
1.0	1.0
1.0	1.0
1.0	1.0
1.0	1.0
1.0	1.0
1.0	1.0
0.800692263235	0.81180516676
1.0	1.0
1.0	1.0
1.0	1.0
1.0	1.0
0.800306627507	0.807870740681
0.800306627507	0.807870740681
0.8	0.8
1.0	1.0
1.0	1.0
1.0	1.0
1.0	1.0
1.0	1.0
1.0	1.0
1.0	1.0
