1.0	1.0
1.0	1.0
1.0	1.0
1.0	1.0
1.0	1.0
0.800306627507	0.807870740681
1.0	1.0
1.0	1.0
1.0	1.0
1.0	1.0
0.800306627507	0.807870740681
1.0	1.0
1.0	1.0
1.0	1.0
1.0	1.0
0.800692263235	0.81180516676
1.0	1.0
1.0	1.0
1.0	1.0
1.0	1.0
1.0	1.0
1.0	1.0
1.0	1.0
1.0	1.0
1.0	1.0
1.0	1.0
1.0	1.0
1.0	1.0
1.0	1.0
0.801232762314	0.815738963532
