0.0626314259663	0.180504
0.0602696943531	0.184672
0.0596508711005	0.175104
0.0577679423515	0.172368
0.0612468216943	0.19352
0.0647104263039	0.199368
0.0615474150898	0.189072
0.0633366734507	0.171448
0.0644793388415	0.186216
0.0657035752765	0.203112
0.0616557746313	0.197664
0.0640846543829	0.196992
0.0586414633202	0.185136
0.0615390638699	0.190744
0.0633303574289	0.190792
0.0592093024856	0.175968
0.0626296319223	0.18236
0.0598261296541	0.176904
0.0644577006445	0.179632
0.0641301031069	0.194192
0.0585925304321	0.168896
0.0580496647327	0.185328
0.0638750899902	0.1896
0.0573610845061	0.16928
0.0598642750173	0.177248
0.0618956926623	0.19228
0.0632056572915	0.193368
0.0634947309074	0.198312
0.060509340627	0.174552
0.0621732887805	0.183264
