0.0776497325391	0.243136
0.0792058668765	0.248712
0.0760919654566	0.234256
0.0761317408198	0.23808
0.079390942395	0.252
0.0783336059952	0.252
0.079115527219	0.256968
0.0797580729399	0.261096
0.0803706460016	0.247968
0.0800155976322	0.26312
0.0813538733795	0.259
0.0783958053934	0.25376
0.0781915615041	0.251808
0.0762365970866	0.241072
0.0767391867058	0.241808
0.0770577927698	0.241072
0.0789889394969	0.25688
0.077260594572	0.210304
0.0778186514817	0.24384
0.0784553813999	0.252984
0.0760648436458	0.229152
0.0776656129197	0.248992
0.0779088878852	0.242048
0.0756977564734	0.225544
0.0789565906691	0.24
0.0803139413453	0.256
0.0816777689207	0.259032
0.0741189445019	0.22752
0.0783144599825	0.253952
0.0779275462439	0.250952
