0.0937697205899	0.240672
0.0962276287422	0.263808
0.0939664485348	0.25392
0.0936962722153	0.24384
0.0883724964162	0.239728
0.0931510038838	0.251312
0.0946979519123	0.254592
0.0938457987541	0.256128
0.0934851362237	0.241304
0.0943714129013	0.256128
0.0942304879624	0.246864
0.0974275982743	0.267168
0.095979377365	0.257872
0.0895567409976	0.22928
0.0980742199604	0.261504
0.0943483416101	0.248032
0.0915017997768	0.246864
0.0944919065447	0.244168
0.0922626643334	0.25536
0.0949112575511	0.261648
0.0928997604433	0.241776
0.0982616566613	0.27028
0.0904495442429	0.232408
0.0946224812212	0.232176
0.0900115742475	0.249984
0.0932858276514	0.246864
0.0978831156263	0.261104
0.0966422641601	0.264264
0.0930632499256	0.249504
0.0885914194649	0.238272
