0.0986411462516	0.269632
0.0798693746588	0.232624
0.0768216828036	0.207152
0.076493534361	0.215912
0.0822943012012	0.228528
0.0903996698768	0.277104
0.0815105516641	0.228848
0.0750769780247	0.219776
0.0742383136271	0.208888
0.0796173290022	0.225776
0.0758515823094	0.208688
0.0740451929235	0.20476
0.0823050807084	0.236736
0.0720423702713	0.192448
0.0737474967868	0.20976
0.0748440223996	0.21492
0.0707483577605	0.195784
0.0813032791536	0.21384
0.0827342635746	0.238464
0.0804222634453	0.227424
0.0684475260842	0.189888
0.0736038702598	0.205544
0.0847677489431	0.24464
0.0745714367015	0.207144
0.0811312541087	0.22632
0.0774929960243	0.21728
0.077931369049	0.219896
0.0740188911206	0.211296
0.0805695387584	0.22288
0.0764838715837	0.227424
