0.160088978897	0.3906
0.154252536945	0.3892
0.143869796751	0.3584
0.124766559752	0.321056
0.140823496697	0.361888
0.139577147886	0.36448
0.139370672222	0.35404
0.139824203023	0.359784
0.134181673685	0.357712
0.144603848462	0.368736
0.152177371782	0.370912
0.124700991855	0.317392
0.148779021609	0.368768
0.143576779518	0.3654
0.124634832442	0.315288
0.138514682226	0.364
0.125427266965	0.329072
0.138073818712	0.330624
0.142417615098	0.372896
0.142531893386	0.374272
0.146592847881	0.3682
0.131436655357	0.335984
0.140081870163	0.36176
0.144366807402	0.3556
0.139561171533	0.363872
0.139583513266	0.361152
0.146090134614	0.38216
0.140640017872	0.3542
0.134446311518	0.329
0.142616270216	0.3556
