0.161845218365	0.8
0.161845218365	0.8
0.161845218365	0.8
0.161845218365	0.8
0.161845218365	0.8
0.119435938002	0.529682190686
0.161845218365	0.8
0.161845218365	0.8
0.161845218365	0.8
0.161845218365	0.8
0.161845218365	0.8
0.161845218365	0.8
0.161845218365	0.8
0.161845218365	0.8
0.161845218365	0.8
0.161845218365	0.8
0.161845218365	0.8
0.161845218365	0.8
0.161845218365	0.8
0.161845218365	0.8
0.161845218365	0.8
0.161845218365	0.8
0.161845218365	0.8
0.161845218365	0.8
0.161845218365	0.8
0.161845218365	0.8
0.161845218365	0.8
0.161845218365	0.8
0.161845218365	0.8
0.161845218365	0.8
