0.161845218365	0.8
0.161845218365	0.8
0.161845218365	0.8
0.161845218365	0.8
0.161845218365	0.8
0.161845218365	0.8
0.161845218365	0.8
0.161845218365	0.8
0.161845218365	0.8
0.161845218365	0.8
0.161845218365	0.8
0.161845218365	0.8
0.161845218365	0.8
0.161845218365	0.8
0.161845218365	0.8
0.161845218365	0.8
0.161845218365	0.8
0.161845218365	0.8
0.161845218365	0.8
0.161845218365	0.8
0.161845218365	0.8
0.161845218365	0.8
0.161845218365	0.8
0.161845218365	0.8
0.161845218365	0.8
0.161845218365	0.8
0.161845218365	0.8
0.161845218365	0.8
0.161845218365	0.8
0.161845218365	0.8
