1.0	1.0
1.0	1.0
1.0	1.0
0.574747107701	0.709716113555
1.0	1.0
0.000196078431373	0.01
1.0	1.0
1.0	1.0
1.0	1.0
1.0	1.0
1.0	1.0
1.0	1.0
1.0	1.0
1.0	1.0
1.0	1.0
1.0	1.0
1.0	1.0
1.0	1.0
1.0	1.0
1.0	1.0
1.0	1.0
1.0	1.0
1.0	1.0
0.583500544229	0.719568259045
1.0	1.0
0.500776205519	0.519792083167
0.545212797661	0.689724110356
