1.0	1.0
0.0627875836513	0.3508
0.679139739281	0.77
0.823919747063	0.795228628231
0.677877137265	0.7868
0.0666914780483	0.209101608474
0.0587509294587	0.34
1.0	1.0
1.0	1.0
0.0595213858212	0.18213592233
0.0595213858212	0.18213592233
0.0627875836513	0.3508
1.0	1.0
0.0627875836513	0.3508
0.0627875836513	0.3508
0.0310778063557	0.2458
0.0627875836513	0.3508
0.700260718638	0.8168
0.0627875836513	0.3508
0.421182466118	0.74
0.679139739281	0.77
1.0	1.0
1.0	1.0
0.421182466118	0.74
0.679139739281	0.77
1.0	1.0
0.09169379207	0.394
1.0	1.0
0.0578780306447	0.3376
0.677877137265	0.7868
