0.192269763903	0.460500198491
1.0	1.0
0.00351757404449	0.054
1.0	1.0
0.299193717149	0.54
0.305810468136	0.558
0.0442726173908	0.281893819334
0.106457206648	0.170192670948
0.223485060012	0.380847145488
0.335027758287	0.66
0.0442726173908	0.281893819334
0.19990452836	0.463191404696
0.167320774945	0.462704427603
0.0773552469099	0.368066561014
0.244648620702	0.4508
0.573887206568	0.81
0.789910693403	0.87
0.199659176083	0.459212097095
0.530743380479	0.7
0.224727033248	0.5
0.554723278802	0.7668
0.573887206568	0.81
0.530743380479	0.7
0.0773595821218	0.273090763695
0.0517927983286	0.2948
0.286511574455	0.248485960727
0.160495607065	0.419952681388
0.0442726173908	0.281893819334
0.021870851566	0.206
0.0773552469099	0.368066561014
