0.0682927671736	0.339373645854
0.0367831196109	0.251136139103
0.0678458828788	0.323500491642
0.537202875537	0.72
0.143398741857	0.460768928992
0.0678419658632	0.328872269238
0.1573525609	0.340082563397
0.172690282193	0.430394659336
0.172690282193	0.430394659336
0.0168225855805	0.185141276428
0.172690282193	0.430394659336
0.109507216888	0.299032194351
0.172690282193	0.430394659336
0.196320007669	0.185329619313
0.0272172275043	0.229796482909
0.143398741857	0.460768928992
0.115070853761	0.374113475177
0.172690282193	0.430394659336
0.1573525609	0.340082563397
0.143398741857	0.460768928992
0.42844085823	0.56
0.172690282193	0.430394659336
0.0386594167224	0.254473161034
0.352559794182	0.72
0.117395696452	0.327684729064
0.172690282193	0.430394659336
0.022419389326	0.210827899625
0.42844085823	0.56
0.0386594167224	0.254473161034
0.143398741857	0.460768928992
