0.758744783781	0.92
0.614529401627	0.67
0.614529401627	0.67
0.758744783781	0.92
0.301896303409	0.789
0.758744783781	0.92
0.301896303409	0.789
0.758744783781	0.92
0.758744783781	0.92
0.758744783781	0.92
0.758744783781	0.92
0.614529401627	0.67
0.758744783781	0.92
0.244979504413	0.689
0.301896303409	0.789
0.694055725839	0.8038
0.703510469367	0.8234
0.758744783781	0.92
0.758744783781	0.92
0.758744783781	0.92
0.549840343686	0.5538
0.718800915839	0.8528
0.758744783781	0.92
0.758744783781	0.92
0.694055725839	0.8038
0.758744783781	0.92
0.758744783781	0.92
0.758744783781	0.92
0.301896303409	0.789
0.758744783781	0.92
