0.6750637025	0.76
0.576991730099	0.471123417722
0.668630102269	0.579491255962
0.227496688475	0.318119490695
0.6750637025	0.76
0.359634772333	0.74
1.0	1.0
0.227496688475	0.318119490695
0.6750637025	0.76
0.6750637025	0.76
0.0525352979554	0.3338
0.6750637025	0.76
0.668630102269	0.579491255962
0.359634772333	0.74
0.6750637025	0.76
0.6750637025	0.76
0.6750637025	0.76
0.6750637025	0.76
0.359634772333	0.74
0.6750637025	0.76
1.0	1.0
0.359634772333	0.74
0.601389077187	0.566455696203
0.6750637025	0.76
1.0	1.0
0.0391555900449	0.223101265823
1.0	1.0
0.6750637025	0.76
0.29818495555	0.501860920666
0.359634772333	0.74
