0.344301806747	0.836626883193
0.762973390987	0.895378564405
0.427397121348	0.790513833992
0.762973390987	0.895378564405
0.360533545486	0.594959317325
0.427397121348	0.790513833992
0.127894008359	0.617602427921
0.762973390987	0.895378564405
0.0906520482494	0.412425004838
0.308605656257	0.627925426418
0.27597891716	0.598023715415
0.762973390987	0.895378564405
0.27597891716	0.598023715415
0.344301806747	0.836626883193
0.286640365029	0.583796664019
0.127894008359	0.617602427921
0.427397121348	0.790513833992
0.762973390987	0.895378564405
0.344301806747	0.836626883193
0.427397121348	0.790513833992
0.617347180943	0.798033431662
0.427397121348	0.790513833992
0.427397121348	0.790513833992
0.617347180943	0.798033431662
0.286640365029	0.583796664019
0.127894008359	0.617602427921
0.27597891716	0.598023715415
0.0948722948392	0.422101799884
0.213022016246	0.465407554672
0.304662680062	0.624752082507
