0.094187879564	0.423636020389
0.11480643313	0.326941700562
0.203812529728	0.305791505792
0.237759153066	0.349514563107
0.11480643313	0.326941700562
0.0742639972528	0.486103124401
0.0988505125945	0.309403043309
0.11480643313	0.326941700562
0.0988505125945	0.309403043309
0.0734014630501	0.553846153846
0.094187879564	0.423636020389
0.11480643313	0.326941700562
0.110177359636	0.325798908807
0.0814437430085	0.521107927412
0.11480643313	0.326941700562
0.0734014630501	0.553846153846
0.0734014630501	0.553846153846
0.11480643313	0.326941700562
0.0988505125945	0.309403043309
0.0988505125945	0.309403043309
0.222309591934	0.295869356388
0.0988505125945	0.309403043309
0.0814437430085	0.521107927412
0.11480643313	0.326941700562
0.205792537913	0.340540540541
0.11480643313	0.326941700562
0.0814437430085	0.521107927412
0.11480643313	0.326941700562
0.11480643313	0.326941700562
0.11480643313	0.326941700562
