0.116323255901	0.261726448561
0.888103027753	0.958498023715
0.110315884413	0.255226824458
0.888103027753	0.958498023715
0.888103027753	0.958498023715
0.888103027753	0.958498023715
0.561632931956	0.709881422925
0.888103027753	0.958498023715
0.116323255901	0.261726448561
0.116323255901	0.261726448561
0.888103027753	0.958498023715
0.116323255901	0.261726448561
0.0767295917556	0.283412887828
0.116323255901	0.261726448561
0.116323255901	0.261726448561
0.888103027753	0.958498023715
0.888103027753	0.958498023715
0.888103027753	0.958498023715
0.110315884413	0.255226824458
0.888103027753	0.958498023715
0.116323255901	0.261726448561
0.888103027753	0.958498023715
0.888103027753	0.958498023715
0.888103027753	0.958498023715
0.116323255901	0.261726448561
0.888103027753	0.958498023715
0.116323255901	0.261726448561
0.888103027753	0.958498023715
0.888103027753	0.958498023715
0.888103027753	0.958498023715
