0.0443103961871	0.3
0.847266269445	0.990099009901
0.0443103961871	0.3
0.0443103961871	0.3
0.0443103961871	0.3
0.847266269445	0.990099009901
0.0443103961871	0.3
0.0443103961871	0.3
0.847266269445	0.990099009901
0.0443103961871	0.3
0.0443103961871	0.3
0.0443103961871	0.3
0.0443103961871	0.3
0.0443103961871	0.3
0.0443103961871	0.3
0.0443103961871	0.3
0.0443103961871	0.3
0.0443103961871	0.3
0.0443103961871	0.3
0.0443103961871	0.3
0.847266269445	0.990099009901
0.0443103961871	0.3
0.0443103961871	0.3
0.0443103961871	0.3
0.847266269445	0.990099009901
0.0443103961871	0.3
0.0443103961871	0.3
0.0443103961871	0.3
0.0443103961871	0.3
0.0443103961871	0.3
