0.0443072395547	0.2997002997
0.0443072395547	0.2997002997
0.0443072395547	0.2997002997
0.0443072395547	0.2997002997
0.0443072395547	0.2997002997
0.0443072395547	0.2997002997
0.0443072395547	0.2997002997
0.0443072395547	0.2997002997
0.0443072395547	0.2997002997
0.0443072395547	0.2997002997
0.0443072395547	0.2997002997
0.0443072395547	0.2997002997
0.0443072395547	0.2997002997
0.0443072395547	0.2997002997
0.0443072395547	0.2997002997
0.0443072395547	0.2997002997
0.0443072395547	0.2997002997
0.0443072395547	0.2997002997
0.0443072395547	0.2997002997
0.0443072395547	0.2997002997
0.0443072395547	0.2997002997
0.0443072395547	0.2997002997
0.0443072395547	0.2997002997
0.0443072395547	0.2997002997
0.0443072395547	0.2997002997
0.0443072395547	0.2997002997
0.0443072395547	0.2997002997
0.0443072395547	0.2997002997
0.0443072395547	0.2997002997
0.0443072395547	0.2997002997
