0.0443103961871	0.3
0.0443103961871	0.3
0.0443103961871	0.3
0.0443103961871	0.3
0.0443103961871	0.3
0.0443103961871	0.3
0.0443103961871	0.3
0.0443103961871	0.3
0.0443103961871	0.3
0.0443103961871	0.3
0.0443103961871	0.3
0.0443103961871	0.3
0.0443103961871	0.3
0.0443103961871	0.3
0.0443103961871	0.3
0.0443103961871	0.3
0.0443103961871	0.3
0.0443103961871	0.3
0.0443103961871	0.3
0.0443103961871	0.3
0.0443103961871	0.3
0.0443103961871	0.3
0.0443103961871	0.3
0.0443103961871	0.3
0.0443103961871	0.3
0.0443103961871	0.3
0.0443103961871	0.3
0.0443103961871	0.3
0.0443103961871	0.3
0.0443103961871	0.3
