0.185674069688	0.632419298855
0.185674069688	0.632419298855
0.185674069688	0.632419298855
0.185674069688	0.632419298855
0.185674069688	0.632419298855
0.185674069688	0.632419298855
0.185674069688	0.632419298855
0.185674069688	0.632419298855
0.185674069688	0.632419298855
0.185674069688	0.632419298855
0.185674069688	0.632419298855
0.185674069688	0.632419298855
0.185674069688	0.632419298855
0.185674069688	0.632419298855
0.185674069688	0.632419298855
0.185674069688	0.632419298855
0.185674069688	0.632419298855
0.185674069688	0.632419298855
0.185674069688	0.632419298855
0.185674069688	0.632419298855
0.185674069688	0.632419298855
0.185674069688	0.632419298855
0.185674069688	0.632419298855
0.185674069688	0.632419298855
0.185674069688	0.632419298855
0.185674069688	0.632419298855
0.185674069688	0.632419298855
0.185674069688	0.632419298855
0.185674069688	0.632419298855
0.185674069688	0.632419298855
