0.211778085397	0.666379458901
0.211778085397	0.666379458901
0.211778085397	0.666379458901
0.211778085397	0.666379458901
0.211778085397	0.666379458901
0.211778085397	0.666379458901
0.211778085397	0.666379458901
0.211778085397	0.666379458901
0.211778085397	0.666379458901
0.211778085397	0.666379458901
0.211778085397	0.666379458901
0.211778085397	0.666379458901
0.211778085397	0.666379458901
0.211778085397	0.666379458901
0.211778085397	0.666379458901
0.211778085397	0.666379458901
0.211778085397	0.666379458901
0.211778085397	0.666379458901
0.211778085397	0.666379458901
0.211778085397	0.666379458901
0.211778085397	0.666379458901
0.211778085397	0.666379458901
0.211778085397	0.666379458901
0.211778085397	0.666379458901
0.211778085397	0.666379458901
0.211778085397	0.666379458901
0.211778085397	0.666379458901
0.211778085397	0.666379458901
0.211778085397	0.666379458901
0.211778085397	0.666379458901
