0.19770910751	0.647975077882
0.19770910751	0.647975077882
0.19770910751	0.647975077882
0.19770910751	0.647975077882
0.19770910751	0.647975077882
0.19770910751	0.647975077882
0.19770910751	0.647975077882
0.19770910751	0.647975077882
0.19770910751	0.647975077882
0.19770910751	0.647975077882
0.19770910751	0.647975077882
0.19770910751	0.647975077882
0.19770910751	0.647975077882
0.19770910751	0.647975077882
0.19770910751	0.647975077882
0.19770910751	0.647975077882
0.19770910751	0.647975077882
0.19770910751	0.647975077882
0.19770910751	0.647975077882
0.19770910751	0.647975077882
0.19770910751	0.647975077882
0.19770910751	0.647975077882
0.19770910751	0.647975077882
0.19770910751	0.647975077882
0.19770910751	0.647975077882
0.19770910751	0.647975077882
0.19770910751	0.647975077882
0.19770910751	0.647975077882
0.19770910751	0.647975077882
0.19770910751	0.647975077882
