0.222763189051	0.684653720571
0.222763189051	0.684653720571
0.222763189051	0.684653720571
0.222763189051	0.684653720571
0.222763189051	0.684653720571
0.222763189051	0.684653720571
0.222763189051	0.684653720571
0.222763189051	0.684653720571
0.222763189051	0.684653720571
0.222763189051	0.684653720571
0.222763189051	0.684653720571
0.222763189051	0.684653720571
0.222763189051	0.684653720571
0.222763189051	0.684653720571
0.222763189051	0.684653720571
0.222763189051	0.684653720571
0.222763189051	0.684653720571
0.222763189051	0.684653720571
0.222763189051	0.684653720571
0.222763189051	0.684653720571
0.222763189051	0.684653720571
0.222763189051	0.684653720571
0.222763189051	0.684653720571
0.222763189051	0.684653720571
0.222763189051	0.684653720571
0.222763189051	0.684653720571
0.222763189051	0.684653720571
0.222763189051	0.684653720571
0.222763189051	0.684653720571
0.222763189051	0.684653720571
