0.18716299953	0.632854422711
0.18716299953	0.632854422711
0.18716299953	0.632854422711
0.18716299953	0.632854422711
0.18716299953	0.632854422711
0.18716299953	0.632854422711
0.18716299953	0.632854422711
0.18716299953	0.632854422711
0.18716299953	0.632854422711
0.18716299953	0.632854422711
0.18716299953	0.632854422711
0.18716299953	0.632854422711
0.18716299953	0.632854422711
0.18716299953	0.632854422711
0.18716299953	0.632854422711
0.18716299953	0.632854422711
0.18716299953	0.632854422711
0.18716299953	0.632854422711
0.18716299953	0.632854422711
0.18716299953	0.632854422711
0.18716299953	0.632854422711
0.18716299953	0.632854422711
0.18716299953	0.632854422711
0.18716299953	0.632854422711
0.18716299953	0.632854422711
0.18716299953	0.632854422711
0.18716299953	0.632854422711
0.18716299953	0.632854422711
0.18716299953	0.632854422711
0.18716299953	0.632854422711
