0.227852822449	0.690208120096
0.227852822449	0.690208120096
0.227852822449	0.690208120096
0.227852822449	0.690208120096
0.227852822449	0.690208120096
0.227852822449	0.690208120096
0.227852822449	0.690208120096
0.227852822449	0.690208120096
0.227852822449	0.690208120096
0.227852822449	0.690208120096
0.227852822449	0.690208120096
0.227852822449	0.690208120096
0.227852822449	0.690208120096
0.227852822449	0.690208120096
0.227852822449	0.690208120096
0.227852822449	0.690208120096
0.227852822449	0.690208120096
0.227852822449	0.690208120096
0.227852822449	0.690208120096
0.227852822449	0.690208120096
0.227852822449	0.690208120096
0.227852822449	0.690208120096
0.227852822449	0.690208120096
0.227852822449	0.690208120096
0.227852822449	0.690208120096
0.227852822449	0.690208120096
0.227852822449	0.690208120096
0.227852822449	0.690208120096
0.227852822449	0.690208120096
0.227852822449	0.690208120096
