0.206010203858	0.662068965517
0.206010203858	0.662068965517
0.206010203858	0.662068965517
0.206010203858	0.662068965517
0.206010203858	0.662068965517
0.206010203858	0.662068965517
0.206010203858	0.662068965517
0.206010203858	0.662068965517
0.206010203858	0.662068965517
0.206010203858	0.662068965517
0.206010203858	0.662068965517
0.206010203858	0.662068965517
0.206010203858	0.662068965517
0.206010203858	0.662068965517
0.206010203858	0.662068965517
0.206010203858	0.662068965517
0.206010203858	0.662068965517
0.206010203858	0.662068965517
0.206010203858	0.662068965517
0.206010203858	0.662068965517
0.206010203858	0.662068965517
0.206010203858	0.662068965517
0.206010203858	0.662068965517
0.206010203858	0.662068965517
0.206010203858	0.662068965517
0.206010203858	0.662068965517
0.206010203858	0.662068965517
0.206010203858	0.662068965517
0.206010203858	0.662068965517
0.206010203858	0.662068965517
