0.206485349004	0.659902878946
0.206485349004	0.659902878946
0.206485349004	0.659902878946
0.206485349004	0.659902878946
0.206485349004	0.659902878946
0.206485349004	0.659902878946
0.206485349004	0.659902878946
0.206485349004	0.659902878946
0.206485349004	0.659902878946
0.206485349004	0.659902878946
0.206485349004	0.659902878946
0.206485349004	0.659902878946
0.206485349004	0.659902878946
0.206485349004	0.659902878946
0.206485349004	0.659902878946
0.206485349004	0.659902878946
0.206485349004	0.659902878946
0.206485349004	0.659902878946
0.206485349004	0.659902878946
0.206485349004	0.659902878946
0.206485349004	0.659902878946
0.206485349004	0.659902878946
0.206485349004	0.659902878946
0.206485349004	0.659902878946
0.206485349004	0.659902878946
0.206485349004	0.659902878946
0.206485349004	0.659902878946
0.206485349004	0.659902878946
0.206485349004	0.659902878946
0.206485349004	0.659902878946
