0.202227939665	0.658790826963
0.202227939665	0.658790826963
0.202227939665	0.658790826963
0.202227939665	0.658790826963
0.202227939665	0.658790826963
0.202227939665	0.658790826963
0.202227939665	0.658790826963
0.202227939665	0.658790826963
0.202227939665	0.658790826963
0.202227939665	0.658790826963
0.202227939665	0.658790826963
0.202227939665	0.658790826963
0.202227939665	0.658790826963
0.202227939665	0.658790826963
0.202227939665	0.658790826963
0.202227939665	0.658790826963
0.202227939665	0.658790826963
0.202227939665	0.658790826963
0.202227939665	0.658790826963
0.202227939665	0.658790826963
0.202227939665	0.658790826963
0.202227939665	0.658790826963
0.202227939665	0.658790826963
0.202227939665	0.658790826963
0.202227939665	0.658790826963
0.202227939665	0.658790826963
0.202227939665	0.658790826963
0.202227939665	0.658790826963
0.202227939665	0.658790826963
0.202227939665	0.658790826963
