0.199466713357	0.644777662875
0.199466713357	0.644777662875
0.199466713357	0.644777662875
0.199466713357	0.644777662875
0.199466713357	0.644777662875
0.199466713357	0.644777662875
0.199466713357	0.644777662875
0.199466713357	0.644777662875
0.199466713357	0.644777662875
0.199466713357	0.644777662875
0.199466713357	0.644777662875
0.199466713357	0.644777662875
0.199466713357	0.644777662875
0.199466713357	0.644777662875
0.199466713357	0.644777662875
0.199466713357	0.644777662875
0.199466713357	0.644777662875
0.199466713357	0.644777662875
0.199466713357	0.644777662875
0.199466713357	0.644777662875
0.199466713357	0.644777662875
0.199466713357	0.644777662875
0.199466713357	0.644777662875
0.199466713357	0.644777662875
0.199466713357	0.644777662875
0.199466713357	0.644777662875
0.199466713357	0.644777662875
0.199466713357	0.644777662875
0.199466713357	0.644777662875
0.199466713357	0.644777662875
