0.214084785465	0.67351519337
0.214084785465	0.67351519337
0.214084785465	0.67351519337
0.214084785465	0.67351519337
0.214084785465	0.67351519337
0.214084785465	0.67351519337
0.214084785465	0.67351519337
0.214084785465	0.67351519337
0.214084785465	0.67351519337
0.214084785465	0.67351519337
0.214084785465	0.67351519337
0.214084785465	0.67351519337
0.214084785465	0.67351519337
0.214084785465	0.67351519337
0.214084785465	0.67351519337
0.214084785465	0.67351519337
0.214084785465	0.67351519337
0.214084785465	0.67351519337
0.214084785465	0.67351519337
0.214084785465	0.67351519337
0.214084785465	0.67351519337
0.214084785465	0.67351519337
0.214084785465	0.67351519337
0.214084785465	0.67351519337
0.214084785465	0.67351519337
0.214084785465	0.67351519337
0.214084785465	0.67351519337
0.214084785465	0.67351519337
0.214084785465	0.67351519337
0.214084785465	0.67351519337
