1.0	1.0
1.0	1.0
1.0	1.0
0.178324129652	0.4224
0.29150060024	0.54
0.29150060024	0.54
0.167675390156	0.4096
0.29150060024	0.54
0.29150060024	0.54
1.0	1.0
1.0	1.0
1.0	1.0
0.29150060024	0.54
1.0	1.0
1.0	1.0
0.29150060024	0.54
0.270300120048	0.52
0.167675390156	0.4096
1.0	1.0
1.0	1.0
0.283776230492	0.5328
0.29150060024	0.54
1.0	1.0
0.167675390156	0.4096
1.0	1.0
0.29150060024	0.54
0.29150060024	0.54
0.29150060024	0.54
0.29150060024	0.54
0.29150060024	0.54
