0.547523009204	0.74
1.0	1.0
1.0	1.0
1.0	1.0
1.0	1.0
1.0	1.0
0.336302521008	0.58
0.547523009204	0.74
0.336302521008	0.58
1.0	1.0
0.489915966387	0.7
1.0	1.0
0.547523009204	0.74
0.547523009204	0.74
0.336302521008	0.58
1.0	1.0
0.336302521008	0.58
1.0	1.0
1.0	1.0
1.0	1.0
0.336302521008	0.58
0.547523009204	0.74
0.336302521008	0.58
0.547523009204	0.74
0.489915966387	0.7
0.336302521008	0.58
1.0	1.0
1.0	1.0
0.547523009204	0.74
0.336302521008	0.58
