0.960392156863	0.98
0.960392156863	0.98
0.336302521008	0.58
0.336302521008	0.58
0.960392156863	0.98
0.960392156863	0.98
0.960392156863	0.98
0.960392156863	0.98
0.960392156863	0.98
0.960392156863	0.98
0.336302521008	0.58
0.960392156863	0.98
0.336302521008	0.58
0.336302521008	0.58
0.336302521008	0.58
0.960392156863	0.98
0.960392156863	0.98
0.336302521008	0.58
0.960392156863	0.98
0.336302521008	0.58
0.960392156863	0.98
0.336302521008	0.58
0.960392156863	0.98
0.960392156863	0.98
0.336302521008	0.58
0.960392156863	0.98
0.960392156863	0.98
0.960392156863	0.98
0.336302521008	0.58
0.336302521008	0.58
