1.0	1.0
0.809963985594	0.9
1.0	1.0
1.0	1.0
0.809963985594	0.9
0.809963985594	0.9
0.809963985594	0.9
1.0	1.0
1.0	1.0
0.809963985594	0.9
0.809963985594	0.9
0.809963985594	0.9
0.809963985594	0.9
0.809963985594	0.9
1.0	1.0
1.0	1.0
1.0	1.0
1.0	1.0
1.0	1.0
1.0	1.0
0.809963985594	0.9
1.0	1.0
0.809963985594	0.9
0.809963985594	0.9
0.809963985594	0.9
0.809963985594	0.9
1.0	1.0
0.409507803121	0.64
1.0	1.0
1.0	1.0
